sent    2175748 | retrans          0 | timeout          0 | loss rate 0.0000%
sent    2171364 | retrans          0 | timeout          0 | loss rate 0.0000%
sent    2176146 | retrans          0 | timeout          0 | loss rate 0.0000%
sent    2172933 | retrans          0 | timeout          0 | loss rate 0.0000%
sent    2173890 | retrans          0 | timeout          0 | loss rate 0.0000%
sent    2174194 | retrans          0 | timeout          0 | loss rate 0.0000%
sent    2172505 | retrans          0 | timeout          0 | loss rate 0.0000%
