#type       avg     std     min     5th    10th    50th    90th    95th    99th
read       99.4   412.4    24.4    31.4    32.8    39.7    54.8   118.6  2581.9
update      0.0     0.0     0.0     0.0     0.0     0.0     0.0     0.0     0.0
op_q        1.0     0.0     1.0     1.0     1.0     1.1     1.1     1.1     1.1
rx      238896.3 19635.8 80358.8 207045.8 216066.2 237222.1 262540.5 273326.8 290689.5

Total QPS = 289927.2 (8697815 / 30.0s)

Misses = 0 (0.0%)
Skipped TXs = 0 (0.0%)

RX 2146541848 bytes :   68.2 MB/s
TX  367244994 bytes :   11.7 MB/s
