#type       avg     std     min     5th    10th    50th    90th    95th    99th
read      135.1   524.2    24.4    31.5    33.0    40.7    66.4   192.9  3386.4
update      0.0     0.0     0.0     0.0     0.0     0.0     0.0     0.0     0.0
op_q        1.0     0.0     1.0     1.0     1.0     1.1     1.1     1.1     1.1
rx      272933.3 20504.2 106957.5 242369.9 246305.9 272961.6 299966.7 311050.9 319918.3

Total QPS = 330091.5 (9902745 / 30.0s)

Misses = 0 (0.0%)
Skipped TXs = 0 (0.0%)

RX 2442978432 bytes :   77.7 MB/s
TX  418081598 bytes :   13.3 MB/s
