#type       avg     std     min     5th    10th    50th    90th    95th    99th
read       55.2    14.9    29.5    39.3    41.7    53.0    71.1    78.5    98.8
update      0.0     0.0     0.0     0.0     0.0     0.0     0.0     0.0     0.0
op_q        1.0     0.0     1.0     1.0     1.0     1.1     1.1     1.1     1.1
rx      2101718.4 54056.6 1866344.5 1967818.9 1979682.2 2074588.3 2240904.7 2304702.7 2355741.1

Total QPS = 320147.7 (9604430 / 30.0s)

Misses = 0 (0.0%)
Skipped TXs = 0 (0.0%)

RX 2358765464 bytes :   75.0 MB/s
TX  405559643 bytes :   12.9 MB/s
