#type       avg     std     min     5th    10th    50th    90th    95th    99th
read       57.1    22.7    29.5    40.3    42.5    54.2    73.4    81.9   111.2
update      0.0     0.0     0.0     0.0     0.0     0.0     0.0     0.0     0.0
op_q        1.0     0.0     1.0     1.0     1.0     1.1     1.1     1.1     1.1
rx      2105350.2 52453.3 2052978.9 1969577.7 1981716.9 2078830.1 2257368.7 2312934.7 2357387.5

Total QPS = 319856.3 (9595691 / 30.0s)

Misses = 0 (0.0%)
Skipped TXs = 0 (0.0%)

RX 2354164008 bytes :   74.8 MB/s
TX  405165696 bytes :   12.9 MB/s
