#type       avg     std     min     5th    10th    50th    90th    95th    99th
read       66.0    23.5    26.8    41.5    44.6    60.7    92.9   106.5   141.9
update      0.0     0.0     0.0     0.0     0.0     0.0     0.0     0.0     0.0
op_q        1.0     0.0     1.0     1.0     1.0     1.1     1.1     1.1     1.1
rx      3151191.7 64654.2 3005766.4 2894190.9 2922495.9 3148936.3 3403874.3 3435798.1 3461337.1

Total QPS = 479972.8 (14399183 / 30.0s)

Misses = 0 (0.0%)
Skipped TXs = 0 (0.0%)

RX 3531024265 bytes :  112.2 MB/s
TX  607947941 bytes :   19.3 MB/s
