#type       avg     std     min     5th    10th    50th    90th    95th    99th
read       70.7    27.4    29.5    42.5    46.2    64.4   102.3   117.6   159.4
update      0.0     0.0     0.0     0.0     0.0     0.0     0.0     0.0     0.0
op_q        1.0     0.0     1.0     1.0     1.0     1.1     1.1     1.1     1.1
rx      3411644.8 63413.1 3306343.1 3171580.3 3190686.2 3343533.5 3616338.5 3715416.3 3794678.5

Total QPS = 520053.8 (15601618 / 30.0s)

Misses = 0 (0.0%)
Skipped TXs = 0 (0.0%)

RX 3822906797 bytes :  121.5 MB/s
TX  658783184 bytes :   20.9 MB/s
