#type       avg     std     min     5th    10th    50th    90th    95th    99th
read       78.3    35.9    29.5    43.5    47.8    70.0   117.8   139.4   194.4
update      0.0     0.0     0.0     0.0     0.0     0.0     0.0     0.0     0.0
op_q        1.0     0.0     1.0     1.0     1.0     1.1     1.1     1.1     1.1
rx      3685240.6 61673.3 3636977.4 3485505.0 3503288.2 3645553.7 3787819.3 3805602.4 4043363.7

Total QPS = 560298.8 (16808965 / 30.0s)

Misses = 0 (0.0%)
Skipped TXs = 0 (0.0%)

RX 4122849985 bytes :  131.1 MB/s
TX  709776282 bytes :   22.6 MB/s
