#type       avg     std     min     5th    10th    50th    90th    95th    99th
read       92.8    60.4    26.8    46.0    51.0    79.0   147.6   178.9   264.8
update      0.0     0.0     0.0     0.0     0.0     0.0     0.0     0.0     0.0
op_q        1.0     0.0     1.0     1.0     1.0     1.1     1.1     1.1     1.1
rx      3918501.8 67996.2 3636977.4 3745139.6 3829752.0 3992503.8 4155255.5 4175599.5 4191874.6

Total QPS = 600373.1 (18011194 / 30.0s)

Misses = 0 (0.0%)
Skipped TXs = 0 (0.0%)

RX 4391886431 bytes :  139.6 MB/s
TX  760404599 bytes :   24.2 MB/s
