#type       avg     std     min     5th    10th    50th    90th    95th    99th
read       95.2    60.6    29.5    46.2    51.4    80.9   152.4   184.8   271.3
update      0.0     0.0     0.0     0.0     0.0     0.0     0.0     0.0     0.0
op_q        1.0     0.0     1.0     1.0     1.0     1.1     1.1     1.1     1.1
rx      3936509.5 72044.7 3636977.4 3819447.9 3839263.5 3997787.9 4156312.3 4176127.9 4191980.3

Total QPS = 600109.7 (18003404 / 30.0s)

Misses = 0 (0.0%)
Skipped TXs = 0 (0.0%)

RX 4403427174 bytes :  140.0 MB/s
TX  760209302 bytes :   24.2 MB/s
