#type       avg     std     min     5th    10th    50th    90th    95th    99th
read       95.5    63.3    26.8    46.0    51.2    80.8   153.4   186.2   272.4
update      0.0     0.0     0.0     0.0     0.0     0.0     0.0     0.0     0.0
op_q        1.0     0.0     1.0     1.0     1.0     1.1     1.1     1.1     1.1
rx      3943546.6 77979.7 3636977.4 3745139.6 3829752.0 3992503.8 4155255.5 4175599.5 4191874.6

Total QPS = 600024.1 (18000725 / 30.0s)

Misses = 0 (0.0%)
Skipped TXs = 0 (0.0%)

RX 4410667108 bytes :  140.2 MB/s
TX  760125283 bytes :   24.2 MB/s
