#type       avg     std     min     5th    10th    50th    90th    95th    99th
read      140.2   123.6    29.5    52.9    59.4   109.8   241.8   304.1   578.7
update      0.0     0.0     0.0     0.0     0.0     0.0     0.0     0.0     0.0
op_q        1.0     0.0     1.0     1.0     1.0     1.1     1.1     1.1     1.1
rx      4188245.8 71554.1 4000675.1 3848781.6 3883069.2 4157369.9 4520981.3 4568259.5 4606082.1

Total QPS = 639753.6 (19192613 / 30.0s)

Misses = 0 (0.0%)
Skipped TXs = 0 (0.0%)

RX 4696019428 bytes :  149.3 MB/s
TX  810331791 bytes :   25.8 MB/s
