#type       avg     std     min     5th    10th    50th    90th    95th    99th
read      384.9   367.3    29.5    65.9    81.3   246.4   916.6  1193.2  1621.5
update      0.0     0.0     0.0     0.0     0.0     0.0     0.0     0.0     0.0
op_q        1.0     0.0     1.0     1.0     1.0     1.1     1.1     1.1     1.1
rx      4468418.6 85192.3 4400742.6 4217740.5 4239537.7 4413914.5 4588291.4 4610088.5 4954010.6

Total QPS = 679589.6 (20387689 / 30.0s)

Misses = 0 (0.0%)
Skipped TXs = 0 (0.0%)

RX 5004732858 bytes :  159.1 MB/s
TX  860867787 bytes :   27.4 MB/s
