#type       avg     std     min     5th    10th    50th    90th    95th    99th
read      326.4   317.1    29.5    63.6    78.5   222.0   696.6   999.9  1524.7
update      0.0     0.0     0.0     0.0     0.0     0.0     0.0     0.0     0.0
op_q        1.0     0.0     1.0     1.0     1.0     1.1     1.1     1.1     1.1
rx      4463993.6 77043.3 4400742.6 4217324.0 4238704.6 4409749.5 4580794.3 4602174.9 4830929.5

Total QPS = 679911.6 (20397348 / 30.0s)

Misses = 0 (0.0%)
Skipped TXs = 0 (0.0%)

RX 4998215656 bytes :  158.9 MB/s
TX  861236405 bytes :   27.4 MB/s
