#type       avg     std     min     5th    10th    50th    90th    95th    99th
read      269.7   197.9    32.4    68.1    82.7   214.0   531.8   661.2   959.0
update      0.0     0.0     0.0     0.0     0.0     0.0     0.0     0.0     0.0
op_q        1.0     0.0     1.0     1.0     1.0     1.1     1.1     1.1     1.1
rx      4466175.9 71185.5 4400742.6 4217324.0 4238704.6 4409749.5 4580794.3 4602174.9 4830929.5

Total QPS = 680296.9 (20408932 / 30.0s)

Misses = 0 (0.0%)
Skipped TXs = 0 (0.0%)

RX 5000817345 bytes :  159.0 MB/s
TX  861688134 bytes :   27.4 MB/s
