#type       avg     std     min     5th    10th    50th    90th    95th    99th
read     1541.7   162.1   111.9  1409.3  1420.6  1510.6  1656.1  1677.5  2767.0
update      0.0     0.0     0.0     0.0     0.0     0.0     0.0     0.0     0.0
op_q        1.0     0.0     1.0     1.0     1.0     1.1     1.1     1.1     1.1
rx      4777109.9 103210.6 4400742.6 4615537.8 4639830.1 4834168.5 5028507.0 5052799.3 5072233.1

Total QPS = 722715.3 (21681468 / 30.0s)

Misses = 0 (0.0%)
Skipped TXs = 0 (0.0%)

RX 5325125418 bytes :  169.3 MB/s
TX  915563326 bytes :   29.1 MB/s
