#type       avg     std     min     5th    10th    50th    90th    95th    99th
read     1567.3   212.8   180.3  1411.8  1425.8  1537.8  1667.9  1684.2  3097.5
update      0.0     0.0     0.0     0.0     0.0     0.0     0.0     0.0     0.0
op_q        1.0     0.0     1.0     1.0     1.0     1.1     1.1     1.1     1.1
rx      4653283.7 114422.5 4400742.6 4248392.7 4300842.0 4692463.4 5000165.9 5038628.7 5069399.0

Total QPS = 716689.6 (21500689 / 30.0s)

Misses = 0 (0.0%)
Skipped TXs = 0 (0.0%)

RX 5245413197 bytes :  166.7 MB/s
TX  907937813 bytes :   28.9 MB/s
