#type       avg     std     min     5th    10th    50th    90th    95th    99th
read     1542.4   197.5   111.9  1406.4  1417.7  1507.7  1657.4  1680.0  2945.1
update      0.0     0.0     0.0     0.0     0.0     0.0     0.0     0.0     0.0
op_q        1.0     0.0     1.0     1.0     1.0     1.1     1.1     1.1     1.1
rx      4754110.5 147160.6 4400742.6 4320267.7 4444591.9 4799465.2 5021566.3 5049328.9 5071539.0

Total QPS = 725212.1 (21756372 / 30.0s)

Misses = 0 (0.0%)
Skipped TXs = 0 (0.0%)

RX 5330395509 bytes :  169.4 MB/s
TX  918652500 bytes :   29.2 MB/s
