#type       avg     std     min     5th    10th    50th    90th    95th    99th
read       49.6    13.3    29.5    39.2    41.3    48.6    58.6    62.0    71.8
update      0.0     0.0     0.0     0.0     0.0     0.0     0.0     0.0     0.0
op_q        1.0     0.0     1.0     1.0     1.0     1.1     1.1     1.1     1.1
rx      525502.2 30389.1 369246.3 473707.2 480523.1 528627.5 565282.0 590625.2 620865.3

Total QPS = 80086.1 (2402583 / 30.0s)

Misses = 0 (0.0%)
Skipped TXs = 0 (0.0%)

RX  589142762 bytes :   18.7 MB/s
TX  101427449 bytes :    3.2 MB/s
