#type       avg     std     min     5th    10th    50th    90th    95th    99th
read       48.3    10.6    29.5    38.3    39.8    47.1    57.3    60.1    76.0
update      0.0     0.0     0.0     0.0     0.0     0.0     0.0     0.0     0.0
op_q        1.0     0.0     1.0     1.0     1.0     1.1     1.1     1.1     1.1
rx      524267.9 28772.9 335678.5 474843.2 483173.8 531810.5 563530.8 573300.2 613620.3

Total QPS = 80080.7 (2402421 / 30.0s)

Misses = 0 (0.0%)
Skipped TXs = 0 (0.0%)

RX  587727101 bytes :   18.7 MB/s
TX  101472076 bytes :    3.2 MB/s
