#type       avg     std     min     5th    10th    50th    90th    95th    99th
read       48.9    17.5    29.5    38.6    40.3    47.7    58.0    61.2    74.4
update      0.0     0.0     0.0     0.0     0.0     0.0     0.0     0.0     0.0
op_q        1.0     0.0     1.0     1.0     1.0     1.1     1.1     1.1     1.1
rx      520376.6 28133.5 369246.3 471524.0 477381.4 522818.4 562091.1 567000.2 612360.3

Total QPS = 80010.5 (2400314 / 30.0s)

Misses = 0 (0.0%)
Skipped TXs = 0 (0.0%)

RX  585838489 bytes :   18.6 MB/s
TX  101326133 bytes :    3.2 MB/s
