#type       avg     std     min     5th    10th    50th    90th    95th    99th
read       50.0    16.3    32.4    39.6    41.5    48.9    59.1    63.0    75.7
update      0.0     0.0     0.0     0.0     0.0     0.0     0.0     0.0     0.0
op_q        1.0     0.0     1.0     1.0     1.0     1.1     1.1     1.1     1.1
rx      524819.1 28841.1 335678.5 474559.2 481375.1 528476.8 563202.1 573300.2 613620.3

Total QPS = 80130.4 (2403912 / 30.0s)

Misses = 0 (0.0%)
Skipped TXs = 0 (0.0%)

RX  587108347 bytes :   18.7 MB/s
TX  101531607 bytes :    3.2 MB/s
