  num          irqs       pkts  cpus name
  104 RX    2615756    2704029     0 mlx4-33@0000:07:00.0
  105 RX    2622653    2722428     1 mlx4-34@0000:07:00.0
  106 RX    2643704    2780976     2 mlx4-35@0000:07:00.0
  107 RX    2653869    2786079     3 mlx4-36@0000:07:00.0
  108 RX    2569099    2644568     4 mlx4-37@0000:07:00.0
  109 RX    2642142    2765587     5 mlx4-38@0000:07:00.0
  110 RX    2623297    2724151     6 mlx4-39@0000:07:00.0
  111 RX    2681154    2821703     7 mlx4-40@0000:07:00.0
total      21051674   21949521
