  num          irqs       pkts  cpus name
  104 RX    2650209    2766589     0 mlx4-33@0000:07:00.0
  105 RX    2646091    2784614     1 mlx4-34@0000:07:00.0
  106 RX    2648729    2775303     2 mlx4-35@0000:07:00.0
  107 RX    2603484    2718140     3 mlx4-36@0000:07:00.0
  108 RX    2737975    2896668     4 mlx4-37@0000:07:00.0
  109 RX    2630121    2756377     5 mlx4-38@0000:07:00.0
  110 RX    2654494    2776405     6 mlx4-39@0000:07:00.0
  111 RX    2757305    2924631     7 mlx4-40@0000:07:00.0
total      21328408   22398727
