  num          irqs       pkts  cpus name
  104 RX    2155867    1947546     0 mlx4-33@0000:07:00.0
  105 RX    2086426    1861370     1 mlx4-34@0000:07:00.0
  106 RX    2147736    1943215     2 mlx4-35@0000:07:00.0
  107 RX    2087668    1858059     3 mlx4-36@0000:07:00.0
  108 RX    2087978    1847478     4 mlx4-37@0000:07:00.0
  109 RX    2122812    1908463     5 mlx4-38@0000:07:00.0
  110 RX    2103506    1876714     6 mlx4-39@0000:07:00.0
  111 RX    2105327    1879618     7 mlx4-40@0000:07:00.0
total      16897320   15122463
