  num          irqs       pkts  cpus name
  104 RX    2156702    1956087     0 mlx4-33@0000:07:00.0
  105 RX    2017626    1768614     1 mlx4-34@0000:07:00.0
  106 RX    2137825    1937199     2 mlx4-35@0000:07:00.0
  107 RX    2058559    1825081     3 mlx4-36@0000:07:00.0
  108 RX    2080004    1840538     4 mlx4-37@0000:07:00.0
  109 RX    2202281    2017166     5 mlx4-38@0000:07:00.0
  110 RX    2081412    1848207     6 mlx4-39@0000:07:00.0
  111 RX    2162453    1962854     7 mlx4-40@0000:07:00.0
total      16896862   15155746
