  num          irqs       pkts  cpus name
  104 RX    2572351    2666571     0 mlx4-33@0000:07:00.0
  105 RX    2765985    2930687     1 mlx4-34@0000:07:00.0
  106 RX    2628375    2745443     2 mlx4-35@0000:07:00.0
  107 RX    2648255    2770601     3 mlx4-36@0000:07:00.0
  108 RX    2786029    2952544     4 mlx4-37@0000:07:00.0
  109 RX    2454452    2505684     5 mlx4-38@0000:07:00.0
  110 RX    2737775    2891019     6 mlx4-39@0000:07:00.0
  111 RX    2584365    2675623     7 mlx4-40@0000:07:00.0
total      21177587   22138172
