  num          irqs       pkts  cpus name
  104 RX    2625002    2744378     0 mlx4-33@0000:07:00.0
  105 RX    2701678    2840841     1 mlx4-34@0000:07:00.0
  106 RX    2563303    2654464     2 mlx4-35@0000:07:00.0
  107 RX    2680963    2824323     3 mlx4-36@0000:07:00.0
  108 RX    2643697    2760237     4 mlx4-37@0000:07:00.0
  109 RX    2633009    2735570     5 mlx4-38@0000:07:00.0
  110 RX    2719307    2862302     6 mlx4-39@0000:07:00.0
  111 RX    2691400    2822297     7 mlx4-40@0000:07:00.0
total      21258359   22244412
