  num          irqs       pkts  cpus name
  104 RX    2240864    2075028     0 mlx4-33@0000:07:00.0
  105 RX    2235229    2066370     1 mlx4-34@0000:07:00.0
  106 RX    2216947    2041023     2 mlx4-35@0000:07:00.0
  107 RX    2263866    2109591     3 mlx4-36@0000:07:00.0
  108 RX    2156240    1957648     4 mlx4-37@0000:07:00.0
  109 RX    2231986    2061935     5 mlx4-38@0000:07:00.0
  110 RX    2115609    1900147     6 mlx4-39@0000:07:00.0
  111 RX    2199109    2012219     7 mlx4-40@0000:07:00.0
total      17659850   16223961
