  num          irqs       pkts  cpus name
  104 RX    2107849    1885812     0 mlx4-33@0000:07:00.0
  105 RX    2092508    1853006     1 mlx4-34@0000:07:00.0
  106 RX    2117362    1903489     2 mlx4-35@0000:07:00.0
  107 RX    2116998    1891735     3 mlx4-36@0000:07:00.0
  108 RX    2094508    1866396     4 mlx4-37@0000:07:00.0
  109 RX    2083436    1852819     5 mlx4-38@0000:07:00.0
  110 RX    2137437    1924399     6 mlx4-39@0000:07:00.0
  111 RX    2168202    1964246     7 mlx4-40@0000:07:00.0
total      16918300   15141902
