  num          irqs       pkts  cpus name
  104 RX    2103673    1895247     0 mlx4-33@0000:07:00.0
  105 RX    2243146    2080802     1 mlx4-34@0000:07:00.0
  106 RX    2271924    2132941     2 mlx4-35@0000:07:00.0
  107 RX    2176920    1985615     3 mlx4-36@0000:07:00.0
  108 RX    2112684    1896108     4 mlx4-37@0000:07:00.0
  109 RX    2251971    2104641     5 mlx4-38@0000:07:00.0
  110 RX    2293251    2144045     6 mlx4-39@0000:07:00.0
  111 RX    2165418    1984390     7 mlx4-40@0000:07:00.0
total      17618987   16223789
