  num          irqs       pkts  cpus name
  104 RX    2265436    2137115     0 mlx4-33@0000:07:00.0
  105 RX    2292941    2177152     1 mlx4-34@0000:07:00.0
  106 RX    2326361    2221741     2 mlx4-35@0000:07:00.0
  107 RX    2275112    2149176     3 mlx4-36@0000:07:00.0
  108 RX    2267333    2134503     4 mlx4-37@0000:07:00.0
  109 RX    2344946    2245033     5 mlx4-38@0000:07:00.0
  110 RX    2320577    2207282     6 mlx4-39@0000:07:00.0
  111 RX    2200470    2040213     7 mlx4-40@0000:07:00.0
total      18293176   17312215
