  num          irqs       pkts  cpus name
  104 RX    2401657    2334939     0 mlx4-33@0000:07:00.0
  105 RX    2380050    2304054     1 mlx4-34@0000:07:00.0
  106 RX    2380702    2305185     2 mlx4-35@0000:07:00.0
  107 RX    2359260    2271653     3 mlx4-36@0000:07:00.0
  108 RX    2384439    2302023     4 mlx4-37@0000:07:00.0
  109 RX    2408151    2335296     5 mlx4-38@0000:07:00.0
  110 RX    2325136    2220498     6 mlx4-39@0000:07:00.0
  111 RX    2425067    2351619     7 mlx4-40@0000:07:00.0
total      19064462   18425267
