  num          irqs       pkts  cpus name
  104 RX    2613807    2705163     0 mlx4-33@0000:07:00.0
  105 RX    2533569    2618216     1 mlx4-34@0000:07:00.0
  106 RX    2693853    2840242     2 mlx4-35@0000:07:00.0
  107 RX    2652756    2775602     3 mlx4-36@0000:07:00.0
  108 RX    2668369    2777157     4 mlx4-37@0000:07:00.0
  109 RX    2641163    2762563     5 mlx4-38@0000:07:00.0
  110 RX    2627686    2726983     6 mlx4-39@0000:07:00.0
  111 RX    2617933    2719365     7 mlx4-40@0000:07:00.0
total      21049136   21925291
