  num          irqs       pkts  cpus name
  104 RX     792947     592229     0 mlx4-33@0000:07:00.0
  105 RX     802499     602299     1 mlx4-34@0000:07:00.0
  106 RX     767480     562918     2 mlx4-35@0000:07:00.0
  107 RX     783069     580921     3 mlx4-36@0000:07:00.0
  108 RX     778799     575719     4 mlx4-37@0000:07:00.0
  109 RX     805824     605506     5 mlx4-38@0000:07:00.0
  110 RX     798090     595687     6 mlx4-39@0000:07:00.0
  111 RX     803147     600758     7 mlx4-40@0000:07:00.0
total       6331855    4716037
