  num          irqs       pkts  cpus name
  104 RX    2638626    2758380     0 mlx4-33@0000:07:00.0
  105 RX    2639107    2764119     1 mlx4-34@0000:07:00.0
  106 RX    2563276    2634931     2 mlx4-35@0000:07:00.0
  107 RX    2602607    2705835     3 mlx4-36@0000:07:00.0
  108 RX    2609491    2703407     4 mlx4-37@0000:07:00.0
  109 RX    2678864    2823135     5 mlx4-38@0000:07:00.0
  110 RX    2583900    2660297     6 mlx4-39@0000:07:00.0
  111 RX    2740109    2883754     7 mlx4-40@0000:07:00.0
total      21055980   21933858
