  num          irqs       pkts  cpus name
  104 RX    1721092    1388544     0 mlx4-33@0000:07:00.0
  105 RX    1779056    1457323     1 mlx4-34@0000:07:00.0
  106 RX    1701816    1361840     2 mlx4-35@0000:07:00.0
  107 RX    1715542    1382000     3 mlx4-36@0000:07:00.0
  108 RX    1763681    1447391     4 mlx4-37@0000:07:00.0
  109 RX    1712342    1371724     5 mlx4-38@0000:07:00.0
  110 RX    1743976    1414764     6 mlx4-39@0000:07:00.0
  111 RX    1781054    1469576     7 mlx4-40@0000:07:00.0
total      13918559   11293162
