  num          irqs       pkts  cpus name
  104 RX    2102547    1877423     0 mlx4-33@0000:07:00.0
  105 RX    2140934    1934016     1 mlx4-34@0000:07:00.0
  106 RX    2072481    1837824     2 mlx4-35@0000:07:00.0
  107 RX    2129711    1902612     3 mlx4-36@0000:07:00.0
  108 RX    2128293    1915706     4 mlx4-37@0000:07:00.0
  109 RX    2092772    1863092     5 mlx4-38@0000:07:00.0
  110 RX    2133217    1919313     6 mlx4-39@0000:07:00.0
  111 RX    2113604    1886614     7 mlx4-40@0000:07:00.0
total      16913559   15136600
