sent    1619761 | retrans          0 | timeout          0 | loss rate 0.0000%
sent    1614957 | retrans          0 | timeout          0 | loss rate 0.0000%
sent    1639781 | retrans          0 | timeout          0 | loss rate 0.0000%
sent    1614616 | retrans          0 | timeout          0 | loss rate 0.0000%
sent    1620639 | retrans          0 | timeout          0 | loss rate 0.0000%
sent    1607552 | retrans          0 | timeout          0 | loss rate 0.0000%
sent    1619101 | retrans          0 | timeout          0 | loss rate 0.0000%
