sent    2634489 | retrans          0 | timeout          0 | loss rate 0.0000%
sent    2628969 | retrans          0 | timeout          0 | loss rate 0.0000%
sent    2633756 | retrans          0 | timeout          0 | loss rate 0.0000%
sent    2632667 | retrans          0 | timeout          0 | loss rate 0.0000%
sent    2630042 | retrans          0 | timeout          0 | loss rate 0.0000%
sent    2630522 | retrans          0 | timeout          0 | loss rate 0.0000%
sent    2635278 | retrans          0 | timeout          0 | loss rate 0.0000%
