sent     673996 | retrans          0 | timeout          0 | loss rate 0.0000%
sent     675376 | retrans          0 | timeout          0 | loss rate 0.0000%
sent     674602 | retrans          0 | timeout          0 | loss rate 0.0000%
sent     671006 | retrans          0 | timeout          0 | loss rate 0.0000%
sent     673875 | retrans          0 | timeout          0 | loss rate 0.0000%
sent     674282 | retrans          0 | timeout          0 | loss rate 0.0000%
sent     675438 | retrans          0 | timeout          0 | loss rate 0.0000%
