sent    2977120 | retrans          0 | timeout          0 | loss rate 0.0000%
sent    2976495 | retrans          0 | timeout          0 | loss rate 0.0000%
sent    2975769 | retrans          0 | timeout          0 | loss rate 0.0000%
sent    2973635 | retrans          0 | timeout          0 | loss rate 0.0000%
sent    2974746 | retrans          0 | timeout          0 | loss rate 0.0000%
sent    2972631 | retrans          0 | timeout          0 | loss rate 0.0000%
sent    2973541 | retrans          0 | timeout          0 | loss rate 0.0000%
