sent    3129464 | retrans          0 | timeout          0 | loss rate 0.0000%
sent    3116860 | retrans          0 | timeout          0 | loss rate 0.0000%
sent    3120683 | retrans          0 | timeout          0 | loss rate 0.0000%
sent    3127035 | retrans          0 | timeout          0 | loss rate 0.0000%
sent    3122399 | retrans          0 | timeout          0 | loss rate 0.0000%
sent    3125702 | retrans          0 | timeout          0 | loss rate 0.0000%
sent    3123543 | retrans          0 | timeout          0 | loss rate 0.0000%
