sent    3156986 | retrans          0 | timeout          0 | loss rate 0.0000%
sent    3166086 | retrans          0 | timeout          0 | loss rate 0.0000%
sent    3167910 | retrans          0 | timeout          0 | loss rate 0.0000%
sent    3168453 | retrans          0 | timeout          0 | loss rate 0.0000%
sent    3158633 | retrans          0 | timeout          0 | loss rate 0.0000%
sent    3178130 | retrans          0 | timeout          0 | loss rate 0.0000%
sent    3151842 | retrans          0 | timeout          0 | loss rate 0.0000%
