sent    2476828 | retrans          0 | timeout          0 | loss rate 0.0000%
sent    2479667 | retrans          0 | timeout          0 | loss rate 0.0000%
sent    2479031 | retrans          0 | timeout          0 | loss rate 0.0000%
sent    2482308 | retrans          0 | timeout          0 | loss rate 0.0000%
sent    2481392 | retrans          0 | timeout          0 | loss rate 0.0000%
sent    2476976 | retrans          0 | timeout          0 | loss rate 0.0000%
sent    2482089 | retrans          0 | timeout          0 | loss rate 0.0000%
