sent     673738 | retrans          0 | timeout          0 | loss rate 0.0000%
sent     673158 | retrans          0 | timeout          0 | loss rate 0.0000%
sent     672776 | retrans          0 | timeout          0 | loss rate 0.0000%
sent     672799 | retrans          0 | timeout          0 | loss rate 0.0000%
sent     676287 | retrans          0 | timeout          0 | loss rate 0.0000%
sent     669100 | retrans          0 | timeout          0 | loss rate 0.0000%
sent     673879 | retrans          0 | timeout          0 | loss rate 0.0000%
