sent    2473911 | retrans          0 | timeout          0 | loss rate 0.0000%
sent    2477754 | retrans          0 | timeout          0 | loss rate 0.0000%
sent    2480017 | retrans          0 | timeout          0 | loss rate 0.0000%
sent    2475762 | retrans          0 | timeout          0 | loss rate 0.0000%
sent    2474762 | retrans          0 | timeout          0 | loss rate 0.0000%
sent    2475739 | retrans          0 | timeout          0 | loss rate 0.0000%
sent    2468954 | retrans          0 | timeout          0 | loss rate 0.0000%
