sent    2165749 | retrans          0 | timeout          0 | loss rate 0.0000%
sent    2151616 | retrans          0 | timeout          0 | loss rate 0.0000%
sent    2175095 | retrans          0 | timeout          0 | loss rate 0.0000%
sent    2170405 | retrans          0 | timeout          0 | loss rate 0.0000%
sent    2161704 | retrans          0 | timeout          0 | loss rate 0.0000%
sent    2165638 | retrans          0 | timeout          0 | loss rate 0.0000%
sent    2161837 | retrans          0 | timeout          0 | loss rate 0.0000%
