sent    2481202 | retrans          0 | timeout          0 | loss rate 0.0000%
sent    2474961 | retrans          0 | timeout          0 | loss rate 0.0000%
sent    2476066 | retrans          0 | timeout          0 | loss rate 0.0000%
sent    2474077 | retrans          0 | timeout          0 | loss rate 0.0000%
sent    2473076 | retrans          0 | timeout          0 | loss rate 0.0000%
sent    2474678 | retrans          0 | timeout          0 | loss rate 0.0000%
sent    2480194 | retrans          0 | timeout          0 | loss rate 0.0000%
