sent    2634265 | retrans          0 | timeout          0 | loss rate 0.0000%
sent    2631593 | retrans          0 | timeout          0 | loss rate 0.0000%
sent    2630496 | retrans          0 | timeout          0 | loss rate 0.0000%
sent    2637132 | retrans          0 | timeout          0 | loss rate 0.0000%
sent    2631438 | retrans          0 | timeout          0 | loss rate 0.0000%
sent    2630313 | retrans          0 | timeout          0 | loss rate 0.0000%
sent    2632763 | retrans          0 | timeout          0 | loss rate 0.0000%
