sent    2480993 | retrans          0 | timeout          0 | loss rate 0.0000%
sent    2478325 | retrans          0 | timeout          0 | loss rate 0.0000%
sent    2477726 | retrans          0 | timeout          0 | loss rate 0.0000%
sent    2474860 | retrans          0 | timeout          0 | loss rate 0.0000%
sent    2476052 | retrans          0 | timeout          0 | loss rate 0.0000%
sent    2481954 | retrans          0 | timeout          0 | loss rate 0.0000%
sent    2474197 | retrans          0 | timeout          0 | loss rate 0.0000%
