sent    2803754 | retrans          0 | timeout          0 | loss rate 0.0000%
sent    2804346 | retrans          0 | timeout          0 | loss rate 0.0000%
sent    2807917 | retrans          0 | timeout          0 | loss rate 0.0000%
sent    2803163 | retrans          0 | timeout          0 | loss rate 0.0000%
sent    2798791 | retrans          0 | timeout          0 | loss rate 0.0000%
sent    2801609 | retrans          0 | timeout          0 | loss rate 0.0000%
sent    2801824 | retrans          0 | timeout          0 | loss rate 0.0000%
