sent    2471318 | retrans          0 | timeout          0 | loss rate 0.0000%
sent    2472668 | retrans          0 | timeout          0 | loss rate 0.0000%
sent    2468628 | retrans          0 | timeout          0 | loss rate 0.0000%
sent    2467242 | retrans          0 | timeout          0 | loss rate 0.0000%
sent    2474833 | retrans          0 | timeout          0 | loss rate 0.0000%
sent    2473076 | retrans          0 | timeout          0 | loss rate 0.0000%
sent    2471066 | retrans          0 | timeout          0 | loss rate 0.0000%
