sent    3131615 | retrans          0 | timeout          0 | loss rate 0.0000%
sent    3125116 | retrans          0 | timeout          0 | loss rate 0.0000%
sent    3129409 | retrans          0 | timeout          0 | loss rate 0.0000%
sent    3138714 | retrans          0 | timeout          0 | loss rate 0.0000%
sent    3127063 | retrans          0 | timeout          0 | loss rate 0.0000%
sent    3126433 | retrans          0 | timeout          0 | loss rate 0.0000%
sent    3129442 | retrans          0 | timeout          0 | loss rate 0.0000%
