sent    2978803 | retrans          0 | timeout          0 | loss rate 0.0000%
sent    2971586 | retrans          0 | timeout          0 | loss rate 0.0000%
sent    2972394 | retrans          0 | timeout          0 | loss rate 0.0000%
sent    2974839 | retrans          0 | timeout          0 | loss rate 0.0000%
sent    2969694 | retrans          0 | timeout          0 | loss rate 0.0000%
sent    2973964 | retrans          0 | timeout          0 | loss rate 0.0000%
sent    2970107 | retrans          0 | timeout          0 | loss rate 0.0000%
