sent    2169105 | retrans          0 | timeout          0 | loss rate 0.0000%
sent    2167303 | retrans          0 | timeout          0 | loss rate 0.0000%
sent    2171602 | retrans          0 | timeout          0 | loss rate 0.0000%
sent    2161964 | retrans          0 | timeout          0 | loss rate 0.0000%
sent    2158589 | retrans          0 | timeout          0 | loss rate 0.0000%
sent    2160318 | retrans          0 | timeout          0 | loss rate 0.0000%
sent    2166732 | retrans          0 | timeout          0 | loss rate 0.0000%
