sent    2312307 | retrans          0 | timeout          0 | loss rate 0.0000%
sent    2319045 | retrans          0 | timeout          0 | loss rate 0.0000%
sent    2326234 | retrans          0 | timeout          0 | loss rate 0.0000%
sent    2324825 | retrans          0 | timeout          0 | loss rate 0.0000%
sent    2323469 | retrans          0 | timeout          0 | loss rate 0.0000%
sent    2324424 | retrans          0 | timeout          0 | loss rate 0.0000%
sent    2322837 | retrans          0 | timeout          0 | loss rate 0.0000%
