sent    2804700 | retrans          0 | timeout          0 | loss rate 0.0000%
sent    2806686 | retrans          0 | timeout          0 | loss rate 0.0000%
sent    2805428 | retrans          0 | timeout          0 | loss rate 0.0000%
sent    2805264 | retrans          0 | timeout          0 | loss rate 0.0000%
sent    2803948 | retrans          0 | timeout          0 | loss rate 0.0000%
sent    2800118 | retrans          0 | timeout          0 | loss rate 0.0000%
sent    2799052 | retrans          0 | timeout          0 | loss rate 0.0000%
