#type       avg     std     min     5th    10th    50th    90th    95th    99th
read     3247.5   227.5  2363.2  3015.7  3032.8  3169.9  3364.6  3504.4  3616.1
update      0.0     0.0     0.0     0.0     0.0     0.0     0.0     0.0     0.0
op_q        1.0     0.0     1.0     1.0     1.0     1.1     1.1     1.1     1.1
rx      2245917.2 52094.2 2052978.9 2155997.1 2167255.5 2257323.3 2347391.1 2358649.5 2367656.3

Total QPS = 691315.7 (20739480 / 30.0s)

Misses = 0 (0.0%)
Skipped TXs = 0 (0.0%)

RX 5054990947 bytes :  160.7 MB/s
TX  875681035 bytes :   27.8 MB/s
