#type       avg     std     min     5th    10th    50th    90th    95th    99th
read     5211.3    81.8  3145.4  4855.7  4881.5  5088.5  5295.4  5442.1  5766.4
update      0.0     0.0     0.0     0.0     0.0     0.0     0.0     0.0     0.0
op_q        1.0     0.0     1.0     1.0     1.0     1.1     1.1     1.1     1.1
rx      1402473.6 36188.9 1274738.4 1340768.4 1347805.0 1404097.9 1460390.8 1467427.5 1563416.8

Total QPS = 644177.8 (19325336 / 30.0s)

Misses = 0 (0.0%)
Skipped TXs = 0 (0.0%)

RX 4711163680 bytes :  149.8 MB/s
TX  816070565 bytes :   25.9 MB/s
