# started on Fri Mar 31 08:43:17 2023

#           time             counts unit events
     5.003753419          3,018,535      LLC-load-misses           #   17.17% of all LL-cache accesses  (49.93%)
     5.003753419          5,968,988      LLC-load-misses           #    5.29% of all LL-cache accesses  (50.02%)
     5.003753419         17,578,554      LLC-loads                 #  439.103 K/sec                    (50.10%)
     5.003753419        112,813,784      LLC-loads                 #    2.818 M/sec                    (41.81%)
     5.003753419             10,573      LLC-store-misses          #  264.108 /sec                     (25.04%)
     5.003753419          2,466,480      LLC-store-misses          #   61.611 K/sec                    (33.36%)
     5.003753419          6,872,265      LLC-stores                #  171.666 K/sec                    (24.94%)
     5.003753419         59,423,051      LLC-stores                #    1.484 M/sec                    (33.26%)
     5.003753419          40,032.85 msec task-clock                #    8.007 CPUs utilized          
     5.003753419      3,522,355,553      cycles:u                  #    0.088 GHz                      (41.57%)
     5.003753419     17,744,672,400      cycles:k                  #    0.443 GHz                      (41.56%)
     5.003753419      3,017,003,781      instructions:u            #    0.86  insn per cycle           (49.87%)
     5.003753419     11,253,413,755      instructions:k            #    0.63  insn per cycle           (49.87%)
    10.007748468         15,825,647      LLC-load-misses           #   17.01% of all LL-cache accesses  (49.88%)
    10.007748468         26,648,966      LLC-load-misses           #    4.57% of all LL-cache accesses  (49.88%)
    10.007748468         93,051,155      LLC-loads                 #    2.324 M/sec                    (49.88%)
    10.007748468        583,322,252      LLC-loads                 #   14.572 M/sec                    (41.63%)
    10.007748468             17,167      LLC-store-misses          #  428.844 /sec                     (25.08%)
    10.007748468          4,774,368      LLC-store-misses          #  119.267 K/sec                    (33.48%)
    10.007748468         37,080,781      LLC-stores                #  926.305 K/sec                    (25.12%)
    10.007748468        313,511,501      LLC-stores                #    7.832 M/sec                    (33.43%)
    10.007748468          40,030.86 msec task-clock                #    8.006 CPUs utilized          
    10.007748468     16,540,227,389      cycles:u                  #    0.413 GHz                      (41.75%)
    10.007748468     90,979,593,852      cycles:k                  #    2.273 GHz                      (41.66%)
    10.007748468     10,363,191,948      instructions:u            #    0.63  insn per cycle           (49.98%)
    10.007748468     60,299,034,554      instructions:k            #    0.66  insn per cycle           (49.90%)
    15.011750795         15,831,328      LLC-load-misses           #   17.01% of all LL-cache accesses  (50.06%)
    15.011750795         26,606,473      LLC-load-misses           #    4.56% of all LL-cache accesses  (49.98%)
    15.011750795         93,047,817      LLC-loads                 #    2.324 M/sec                    (49.90%)
    15.011750795        583,828,347      LLC-loads                 #   14.585 M/sec                    (41.57%)
    15.011750795             15,808      LLC-store-misses          #  394.897 /sec                     (24.94%)
    15.011750795          4,657,633      LLC-store-misses          #  116.351 K/sec                    (33.26%)
    15.011750795         37,055,265      LLC-stores                #  925.671 K/sec                    (25.00%)
    15.011750795        314,324,828      LLC-stores                #    7.852 M/sec                    (33.39%)
    15.011750795          40,030.72 msec task-clock                #    8.006 CPUs utilized          
    15.011750795     16,543,673,818      cycles:u                  #    0.413 GHz                      (41.78%)
    15.011750795     90,999,520,928      cycles:k                  #    2.273 GHz                      (41.80%)
    15.011750795     10,364,772,422      instructions:u            #    0.63  insn per cycle           (50.12%)
    15.011750795     60,353,192,172      instructions:k            #    0.66  insn per cycle           (50.12%)
    20.015750696         15,829,932      LLC-load-misses           #   17.02% of all LL-cache accesses  (50.12%)
    20.015750696         26,711,836      LLC-load-misses           #    4.58% of all LL-cache accesses  (50.12%)
    20.015750696         93,002,262      LLC-loads                 #    2.323 M/sec                    (50.12%)
    20.015750696        583,286,455      LLC-loads                 #   14.571 M/sec                    (41.67%)
    20.015750696             16,068      LLC-store-misses          #  401.395 /sec                     (24.94%)
    20.015750696          4,695,899      LLC-store-misses          #  117.308 K/sec                    (33.26%)
    20.015750696         37,079,919      LLC-stores                #  926.293 K/sec                    (24.94%)
    20.015750696        314,372,256      LLC-stores                #    7.853 M/sec                    (33.25%)
    20.015750696          40,030.43 msec task-clock                #    8.006 CPUs utilized          
    20.015750696     16,545,661,408      cycles:u                  #    0.413 GHz                      (41.57%)
    20.015750696     90,978,278,046      cycles:k                  #    2.273 GHz                      (41.62%)
    20.015750696     10,361,670,057      instructions:u            #    0.63  insn per cycle           (50.02%)
    20.015750696     60,350,316,136      instructions:k            #    0.66  insn per cycle           (50.10%)
    25.019750141         15,819,230      LLC-load-misses           #   17.00% of all LL-cache accesses  (49.94%)
    25.019750141         26,540,805      LLC-load-misses           #    4.55% of all LL-cache accesses  (50.02%)
    25.019750141         93,033,556      LLC-loads                 #    2.324 M/sec                    (50.10%)
    25.019750141        583,317,749      LLC-loads                 #   14.572 M/sec                    (41.81%)
    25.019750141             15,094      LLC-store-misses          #  377.064 /sec                     (25.04%)
    25.019750141          4,625,012      LLC-store-misses          #  115.538 K/sec                    (33.36%)
    25.019750141         37,165,581      LLC-stores                #  928.435 K/sec                    (24.94%)
    25.019750141        314,004,802      LLC-stores                #    7.844 M/sec                    (33.25%)
    25.019750141          40,030.37 msec task-clock                #    8.006 CPUs utilized          
    25.019750141     16,543,383,822      cycles:u                  #    0.413 GHz                      (41.57%)
    25.019750141     90,993,462,453      cycles:k                  #    2.273 GHz                      (41.56%)
    25.019750141     10,364,968,173      instructions:u            #    0.63  insn per cycle           (49.88%)
    25.019750141     60,357,286,029      instructions:k            #    0.66  insn per cycle           (49.88%)
    30.023750225         15,813,854      LLC-load-misses           #   16.99% of all LL-cache accesses  (49.88%)
    30.023750225         26,606,457      LLC-load-misses           #    4.57% of all LL-cache accesses  (49.88%)
    30.023750225         93,072,619      LLC-loads                 #    2.325 M/sec                    (49.88%)
    30.023750225        582,035,182      LLC-loads                 #   14.540 M/sec                    (41.63%)
    30.023750225             15,576      LLC-store-misses          #  389.102 /sec                     (25.08%)
    30.023750225          4,634,131      LLC-store-misses          #  115.765 K/sec                    (33.48%)
    30.023750225         37,159,201      LLC-stores                #  928.270 K/sec                    (25.12%)
    30.023750225        313,821,411      LLC-stores                #    7.840 M/sec                    (33.43%)
    30.023750225          40,030.59 msec task-clock                #    8.006 CPUs utilized          
    30.023750225     16,553,735,586      cycles:u                  #    0.414 GHz                      (41.75%)
    30.023750225     90,969,114,103      cycles:k                  #    2.272 GHz                      (41.66%)
    30.023750225     10,358,218,617      instructions:u            #    0.63  insn per cycle           (49.98%)
    30.023750225     60,316,661,636      instructions:k            #    0.66  insn per cycle           (49.90%)
    35.027818695         12,928,505      LLC-load-misses           #   16.99% of all LL-cache accesses  (50.06%)
    35.027818695         21,874,541      LLC-load-misses           #    4.59% of all LL-cache accesses  (49.98%)
    35.027818695         76,091,026      LLC-loads                 #    1.901 M/sec                    (49.90%)
    35.027818695        477,007,395      LLC-loads                 #   11.916 M/sec                    (41.57%)
    35.027818695             13,342      LLC-store-misses          #  333.287 /sec                     (24.94%)
    35.027818695          3,958,846      LLC-store-misses          #   98.893 K/sec                    (33.26%)
    35.027818695         30,001,865      LLC-stores                #  749.455 K/sec                    (25.00%)
    35.027818695        254,230,027      LLC-stores                #    6.351 M/sec                    (33.39%)
    35.027818695          40,031.58 msec task-clock                #    8.006 CPUs utilized          
    35.027818695     13,560,244,668      cycles:u                  #    0.339 GHz                      (41.79%)
    35.027818695     73,943,954,098      cycles:k                  #    1.847 GHz                      (41.80%)
    35.027818695      8,720,727,067      instructions:u            #    0.64  insn per cycle           (50.12%)
    35.027818695     49,125,909,531      instructions:k            #    0.66  insn per cycle           (50.12%)
    36.486614589             48,710      LLC-load-misses           #   37.04% of all LL-cache accesses  (50.37%)
    36.486614589            377,218      LLC-load-misses           #   25.38% of all LL-cache accesses  (50.64%)
    36.486614589            131,522      LLC-loads                 #   11.270 K/sec                    (50.64%)
    36.486614589          1,486,570      LLC-loads                 #  127.385 K/sec                    (41.95%)
    36.486614589              2,920      LLC-store-misses          #  250.216 /sec                     (24.69%)
    36.486614589            450,078      LLC-store-misses          #   38.567 K/sec                    (32.91%)
    36.486614589              9,100      LLC-stores                #  779.782 /sec                     (24.68%)
    36.486614589            608,306      LLC-stores                #   52.126 K/sec                    (32.90%)
    36.486614589          11,669.93 msec task-clock                #    2.334 CPUs utilized          
    36.486614589        305,865,151      cycles:u                  #    0.026 GHz                      (41.13%)
    36.486614589        309,032,848      cycles:k                  #    0.026 GHz                      (41.32%)
    36.486614589        732,110,824      instructions:u            #    2.39  insn per cycle           (49.82%)
    36.486614589         39,061,345      instructions:k            #    0.13  insn per cycle           (50.10%)
