# started on Fri Mar 31 08:39:41 2023

#           time             counts unit events
     5.003282141          5,481,897      LLC-load-misses           #   33.52% of all LL-cache accesses  (49.93%)
     5.003282141         21,202,887      LLC-load-misses           #   21.06% of all LL-cache accesses  (50.02%)
     5.003282141         16,354,565      LLC-loads                 #  408.563 K/sec                    (50.10%)
     5.003282141        100,702,080      LLC-loads                 #    2.516 M/sec                    (41.81%)
     5.003282141            433,876      LLC-store-misses          #   10.839 K/sec                    (25.05%)
     5.003282141          9,426,500      LLC-store-misses          #  235.489 K/sec                    (33.36%)
     5.003282141          5,705,151      LLC-stores                #  142.524 K/sec                    (24.94%)
     5.003282141         51,414,050      LLC-stores                #    1.284 M/sec                    (33.25%)
     5.003282141          40,029.45 msec task-clock                #    8.006 CPUs utilized          
     5.003282141      3,283,451,218      cycles:u                  #    0.082 GHz                      (41.56%)
     5.003282141     17,132,151,730      cycles:k                  #    0.428 GHz                      (41.56%)
     5.003282141      2,597,852,426      instructions:u            #    0.79  insn per cycle           (49.87%)
     5.003282141     10,154,289,239      instructions:k            #    0.59  insn per cycle           (49.87%)
    10.007292971         31,240,805      LLC-load-misses           #   35.43% of all LL-cache accesses  (49.88%)
    10.007292971        118,157,572      LLC-load-misses           #   21.79% of all LL-cache accesses  (49.88%)
    10.007292971         88,172,568      LLC-loads                 #    2.203 M/sec                    (49.88%)
    10.007292971        542,314,758      LLC-loads                 #   13.547 M/sec                    (41.63%)
    10.007292971          2,568,267      LLC-store-misses          #   64.157 K/sec                    (25.08%)
    10.007292971         46,414,091      LLC-store-misses          #    1.159 M/sec                    (33.48%)
    10.007292971         33,127,051      LLC-stores                #  827.541 K/sec                    (25.12%)
    10.007292971        275,231,109      LLC-stores                #    6.875 M/sec                    (33.43%)
    10.007292971          40,030.73 msec task-clock                #    8.006 CPUs utilized          
    10.007292971     16,262,312,241      cycles:u                  #    0.406 GHz                      (41.75%)
    10.007292971     91,107,061,693      cycles:k                  #    2.276 GHz                      (41.66%)
    10.007292971      9,121,381,145      instructions:u            #    0.56  insn per cycle           (49.98%)
    10.007292971     54,893,343,496      instructions:k            #    0.60  insn per cycle           (49.90%)
    15.011285003         31,385,613      LLC-load-misses           #   35.65% of all LL-cache accesses  (50.06%)
    15.011285003        118,034,843      LLC-load-misses           #   21.82% of all LL-cache accesses  (49.98%)
    15.011285003         88,028,020      LLC-loads                 #    2.199 M/sec                    (49.90%)
    15.011285003        540,963,307      LLC-loads                 #   13.514 M/sec                    (41.57%)
    15.011285003          2,579,856      LLC-store-misses          #   64.447 K/sec                    (24.94%)
    15.011285003         46,862,167      LLC-store-misses          #    1.171 M/sec                    (33.26%)
    15.011285003         33,135,857      LLC-stores                #  827.757 K/sec                    (25.00%)
    15.011285003        276,126,745      LLC-stores                #    6.898 M/sec                    (33.39%)
    15.011285003          40,030.91 msec task-clock                #    8.006 CPUs utilized          
    15.011285003     16,291,838,792      cycles:u                  #    0.407 GHz                      (41.78%)
    15.011285003     91,061,718,681      cycles:k                  #    2.275 GHz                      (41.80%)
    15.011285003      9,126,952,852      instructions:u            #    0.56  insn per cycle           (50.12%)
    15.011285003     54,933,658,511      instructions:k            #    0.60  insn per cycle           (50.12%)
    20.015280303         31,294,889      LLC-load-misses           #   35.63% of all LL-cache accesses  (50.12%)
    20.015280303        117,414,488      LLC-load-misses           #   21.74% of all LL-cache accesses  (50.12%)
    20.015280303         87,844,589      LLC-loads                 #    2.194 M/sec                    (50.12%)
    20.015280303        540,059,543      LLC-loads                 #   13.491 M/sec                    (41.67%)
    20.015280303          2,570,333      LLC-store-misses          #   64.209 K/sec                    (24.94%)
    20.015280303         46,855,223      LLC-store-misses          #    1.170 M/sec                    (33.26%)
    20.015280303         33,162,665      LLC-stores                #  828.434 K/sec                    (24.94%)
    20.015280303        276,347,705      LLC-stores                #    6.903 M/sec                    (33.25%)
    20.015280303          40,030.54 msec task-clock                #    8.006 CPUs utilized          
    20.015280303     16,276,108,421      cycles:u                  #    0.407 GHz                      (41.57%)
    20.015280303     91,098,163,163      cycles:k                  #    2.276 GHz                      (41.62%)
    20.015280303      9,112,379,384      instructions:u            #    0.56  insn per cycle           (50.01%)
    20.015280303     54,971,866,950      instructions:k            #    0.60  insn per cycle           (50.09%)
    25.019284703         31,138,858      LLC-load-misses           #   35.50% of all LL-cache accesses  (49.94%)
    25.019284703        117,013,141      LLC-load-misses           #   21.69% of all LL-cache accesses  (50.02%)
    25.019284703         87,722,545      LLC-loads                 #    2.191 M/sec                    (50.10%)
    25.019284703        539,589,473      LLC-loads                 #   13.479 M/sec                    (41.81%)
    25.019284703          2,550,710      LLC-store-misses          #   63.718 K/sec                    (25.04%)
    25.019284703         46,446,177      LLC-store-misses          #    1.160 M/sec                    (33.36%)
    25.019284703         33,171,200      LLC-stores                #  828.633 K/sec                    (24.94%)
    25.019284703        275,696,379      LLC-stores                #    6.887 M/sec                    (33.25%)
    25.019284703          40,031.25 msec task-clock                #    8.006 CPUs utilized          
    25.019284703     16,254,330,389      cycles:u                  #    0.406 GHz                      (41.56%)
    25.019284703     91,104,656,069      cycles:k                  #    2.276 GHz                      (41.56%)
    25.019284703      9,103,264,910      instructions:u            #    0.56  insn per cycle           (49.87%)
    25.019284703     54,997,023,849      instructions:k            #    0.60  insn per cycle           (49.87%)
    30.023285466         31,087,563      LLC-load-misses           #   35.40% of all LL-cache accesses  (49.88%)
    30.023285466        116,808,865      LLC-load-misses           #   21.65% of all LL-cache accesses  (49.88%)
    30.023285466         87,825,869      LLC-loads                 #    2.194 M/sec                    (49.88%)
    30.023285466        539,412,590      LLC-loads                 #   13.475 M/sec                    (41.63%)
    30.023285466          2,544,322      LLC-store-misses          #   63.559 K/sec                    (25.08%)
    30.023285466         46,094,037      LLC-store-misses          #    1.151 M/sec                    (33.48%)
    30.023285466         33,170,634      LLC-stores                #  828.630 K/sec                    (25.12%)
    30.023285466        275,288,256      LLC-stores                #    6.877 M/sec                    (33.43%)
    30.023285466          40,030.68 msec task-clock                #    8.006 CPUs utilized          
    30.023285466     16,237,950,441      cycles:u                  #    0.406 GHz                      (41.75%)
    30.023285466     91,136,479,640      cycles:k                  #    2.277 GHz                      (41.66%)
    30.023285466      9,098,974,641      instructions:u            #    0.56  insn per cycle           (49.98%)
    30.023285466     55,035,519,895      instructions:k            #    0.60  insn per cycle           (49.90%)
    35.027268451         25,878,108      LLC-load-misses           #   35.09% of all LL-cache accesses  (50.06%)
    35.027268451         96,970,187      LLC-load-misses           #   21.72% of all LL-cache accesses  (49.98%)
    35.027268451         73,738,413      LLC-loads                 #    1.842 M/sec                    (49.90%)
    35.027268451        446,533,139      LLC-loads                 #   11.155 M/sec                    (41.57%)
    35.027268451          2,345,299      LLC-store-misses          #   58.588 K/sec                    (24.94%)
    35.027268451         38,498,166      LLC-store-misses          #  961.722 K/sec                    (33.25%)
    35.027268451         28,200,590      LLC-stores                #  704.478 K/sec                    (25.00%)
    35.027268451        228,191,563      LLC-stores                #    5.700 M/sec                    (33.39%)
    35.027268451          40,030.46 msec task-clock                #    8.006 CPUs utilized          
    35.027268451     13,588,749,249      cycles:u                  #    0.339 GHz                      (41.79%)
    35.027268451     75,567,554,245      cycles:k                  #    1.888 GHz                      (41.80%)
    35.027268451      7,655,323,421      instructions:u            #    0.56  insn per cycle           (50.11%)
    35.027268451     45,532,355,583      instructions:k            #    0.60  insn per cycle           (50.12%)
    36.309285297             31,444      LLC-load-misses           #   22.91% of all LL-cache accesses  (49.84%)
    36.309285297            308,299      LLC-load-misses           #   22.27% of all LL-cache accesses  (50.16%)
    36.309285297            137,270      LLC-loads                 #   13.385 K/sec                    (50.47%)
    36.309285297          1,384,063      LLC-loads                 #  134.958 K/sec                    (42.12%)
    36.309285297                981      LLC-store-misses          #   95.656 /sec                     (25.28%)
    36.309285297            439,869      LLC-store-misses          #   42.891 K/sec                    (33.62%)
    36.309285297             13,816      LLC-stores                #    1.347 K/sec                    (24.88%)
    36.309285297            587,711      LLC-stores                #   57.307 K/sec                    (32.99%)
    36.309285297          10,255.50 msec task-clock                #    2.051 CPUs utilized          
    36.309285297         46,516,221      cycles:u                  #    0.005 GHz                      (41.10%)
    36.309285297        274,853,353      cycles:k                  #    0.027 GHz                      (41.02%)
    36.309285297         98,796,081      instructions:u            #    2.12  insn per cycle           (49.45%)
    36.309285297         30,382,861      instructions:k            #    0.11  insn per cycle           (49.53%)
