sent    3191270 | retrans          0 | timeout          0 | loss rate 0.0000%
sent    3248511 | retrans          0 | timeout          0 | loss rate 0.0000%
sent    3238340 | retrans          0 | timeout          0 | loss rate 0.0000%
sent    3297803 | retrans          0 | timeout          0 | loss rate 0.0000%
sent    3233756 | retrans          0 | timeout          0 | loss rate 0.0000%
sent    3238938 | retrans          0 | timeout          0 | loss rate 0.0000%
sent    3214301 | retrans          0 | timeout          0 | loss rate 0.0000%
