#type       avg     std     min     5th    10th    50th    90th    95th    99th
read       52.8    18.8    26.8    36.3    38.6    50.9    68.4    75.5    92.1
update      0.0     0.0     0.0     0.0     0.0     0.0     0.0     0.0     0.0
op_q        1.0     0.0     1.0     1.0     1.0     1.1     1.1     1.1     1.1
rx      429325.1 23592.5 252200.2 389818.4 394228.6 429411.7 463705.7 467992.4 504549.3

Total QPS = 520031.5 (15600961 / 30.0s)

Misses = 0 (0.0%)
Skipped TXs = 0 (0.0%)

RX 3840035300 bytes :  122.1 MB/s
TX  658677308 bytes :   20.9 MB/s
