#type       avg     std     min     5th    10th    50th    90th    95th    99th
read       58.2   451.4    26.8    37.9    40.2    53.8    78.0    87.5   114.2
update      0.0     0.0     0.0     0.0     0.0     0.0     0.0     0.0     0.0
op_q        1.0     0.0     1.0     1.0     1.0     1.1     1.1     1.1     1.1
rx      690942.1 29171.8 540613.5 629431.6 636623.8 693218.9 744053.6 750408.0 784145.7

Total QPS = 839944.3 (25198331 / 30.0s)

Misses = 0 (0.0%)
Skipped TXs = 0 (0.0%)

RX 6199955814 bytes :  197.1 MB/s
TX 1063858999 bytes :   33.8 MB/s
