#type       avg     std     min     5th    10th    50th    90th    95th    99th
read     1160.1   425.9   218.1  1059.1  1069.8  1155.5  1251.7  1263.7  1336.6
update      0.0     0.0     0.0     0.0     0.0     0.0     0.0     0.0     0.0
op_q        1.0     0.0     1.0     1.0     1.0     1.1     1.1     1.1     1.1
rx      6282564.9 166245.6 5857388.4 5712453.3 5840105.9 6364438.9 6678974.9 6718291.9 6749745.5

Total QPS = 964933.6 (28948011 / 30.0s)

Misses = 0 (0.0%)
Skipped TXs = 0 (0.0%)

RX 7042338630 bytes :  223.9 MB/s
TX 1222328307 bytes :   38.9 MB/s
