#type       avg     std     min     5th    10th    50th    90th    95th    99th
read     1162.6   439.3   198.3  1060.7  1072.2  1163.4  1251.8  1262.8  1271.6
update      0.0     0.0     0.0     0.0     0.0     0.0     0.0     0.0     0.0
op_q        1.0     0.0     1.0     1.0     1.0     1.1     1.1     1.1     1.1
rx      6265985.7 117198.5 5857388.4 5756640.7 5928480.8 6390845.8 6684256.3 6720932.6 6750273.6

Total QPS = 961496.4 (28844904 / 30.0s)

Misses = 0 (0.0%)
Skipped TXs = 0 (0.0%)

RX 7014403777 bytes :  223.0 MB/s
TX 1217886769 bytes :   38.7 MB/s
