#type       avg     std     min     5th    10th    50th    90th    95th    99th
read     1110.7   487.6    63.2   795.8   937.6  1138.3  1247.2  1260.7  1271.5
update      0.0     0.0     0.0     0.0     0.0     0.0     0.0     0.0     0.0
op_q        1.0     0.0     1.0     1.0     1.0     1.1     1.1     1.1     1.1
rx      6300670.3 154521.1 5857388.4 5779054.7 5973308.6 6398877.1 6685862.5 6721735.7 6750434.2

Total QPS = 968223.7 (29046713 / 30.0s)

Misses = 0 (0.0%)
Skipped TXs = 0 (0.0%)

RX 7073676187 bytes :  224.9 MB/s
TX 1226485956 bytes :   39.0 MB/s
