#type       avg     std     min     5th    10th    50th    90th    95th    99th
read     1084.7   580.3    32.4   379.2   567.9  1150.5  1309.9  1356.2  1393.3
update      0.0     0.0     0.0     0.0     0.0     0.0     0.0     0.0     0.0
op_q        1.0     0.0     1.0     1.0     1.0     1.1     1.1     1.1     1.1
rx      6283537.4 431069.3 5857388.4 5641355.7 5697910.6 6153351.7 6892761.0 7163065.4 7379308.9

Total QPS = 954592.0 (28637762 / 30.0s)

Misses = 0 (0.0%)
Skipped TXs = 0 (0.0%)

RX 7005926457 bytes :  222.7 MB/s
TX 1209194829 bytes :   38.4 MB/s
