#type       avg     std     min     5th    10th    50th    90th    95th    99th
read       57.7   909.3    26.8    32.2    34.0    41.2    56.0    62.6   100.7
update      0.0     0.0     0.0     0.0     0.0     0.0     0.0     0.0     0.0
op_q        1.0     0.0     1.0     1.0     1.0     1.1     1.1     1.1     1.1
rx      2095837.8 52864.4 2052978.9 1968868.9 1980299.2 2071741.6 2218714.1 2293607.4 2353522.0

Total QPS = 319894.7 (9596843 / 30.0s)

Misses = 0 (0.0%)
Skipped TXs = 0 (0.0%)

RX 2341073634 bytes :   74.4 MB/s
TX  405241386 bytes :   12.9 MB/s
