#type       avg     std     min     5th    10th    50th    90th    95th    99th
read       53.9   775.4    26.8    32.1    33.9    41.1    55.7    62.1    98.0
update      0.0     0.0     0.0     0.0     0.0     0.0     0.0     0.0     0.0
op_q        1.0     0.0     1.0     1.0     1.0     1.1     1.1     1.1     1.1
rx      2071973.2 47517.2 1866344.5 1963835.4 1974070.4 2055950.2 2137830.0 2148065.0 2282373.4

Total QPS = 320033.7 (9601011 / 30.0s)

Misses = 0 (0.0%)
Skipped TXs = 0 (0.0%)

RX 2323578591 bytes :   73.9 MB/s
TX  405360300 bytes :   12.9 MB/s
