#type       avg     std     min     5th    10th    50th    90th    95th    99th
read       55.5   847.6    26.8    32.5    34.2    41.4    55.9    61.9    93.8
update      0.0     0.0     0.0     0.0     0.0     0.0     0.0     0.0     0.0
op_q        1.0     0.0     1.0     1.0     1.0     1.1     1.1     1.1     1.1
rx      2078342.9 53470.3 1866344.5 1966888.3 1977687.9 2064085.2 2150482.5 2245461.7 2343892.9

Total QPS = 319948.9 (9598467 / 30.0s)

Misses = 0 (0.0%)
Skipped TXs = 0 (0.0%)

RX 2333026218 bytes :   74.2 MB/s
TX  405289514 bytes :   12.9 MB/s
