#type       avg     std     min     5th    10th    50th    90th    95th    99th
read       61.9   789.8    26.8    33.8    35.4    45.4    65.8    76.8   119.1
update      0.0     0.0     0.0     0.0     0.0     0.0     0.0     0.0     0.0
op_q        1.0     0.0     1.0     1.0     1.0     1.1     1.1     1.1     1.1
rx      3121961.1 54671.8 3005766.4 2885650.6 2905415.3 3063533.1 3353086.4 3410404.1 3456258.3

Total QPS = 479989.7 (14399697 / 30.0s)

Misses = 0 (0.0%)
Skipped TXs = 0 (0.0%)

RX 3495218992 bytes :  111.1 MB/s
TX  607977925 bytes :   19.3 MB/s
