#type       avg     std     min     5th    10th    50th    90th    95th    99th
read       57.8   550.9    26.8    33.9    35.7    47.2    70.5    81.3   118.6
update      0.0     0.0     0.0     0.0     0.0     0.0     0.0     0.0     0.0
op_q        1.0     0.0     1.0     1.0     1.0     1.1     1.1     1.1     1.1
rx      3410090.1 77158.1 3306343.1 3172177.4 3191880.3 3349504.1 3641107.9 3727801.0 3797155.4

Total QPS = 520085.8 (15602575 / 30.0s)

Misses = 0 (0.0%)
Skipped TXs = 0 (0.0%)

RX 3815895902 bytes :  121.3 MB/s
TX  658883347 bytes :   20.9 MB/s
