#type       avg     std     min     5th    10th    50th    90th    95th    99th
read       59.8   583.4    26.8    34.1    36.0    47.9    71.6    83.1   122.7
update      0.0     0.0     0.0     0.0     0.0     0.0     0.0     0.0     0.0
op_q        1.0     0.0     1.0     1.0     1.0     1.1     1.1     1.1     1.1
rx      3388633.8 66766.0 3306343.1 3170234.8 3187995.2 3330078.6 3506252.1 3660373.1 3783669.8

Total QPS = 520371.2 (15611135 / 30.0s)

Misses = 0 (0.0%)
Skipped TXs = 0 (0.0%)

RX 3794572936 bytes :  120.6 MB/s
TX  659188814 bytes :   21.0 MB/s
