#type       avg     std     min     5th    10th    50th    90th    95th    99th
read       65.0   694.3    26.8    34.2    36.3    49.1    75.1    87.9   137.4
update      0.0     0.0     0.0     0.0     0.0     0.0     0.0     0.0     0.0
op_q        1.0     0.0     1.0     1.0     1.0     1.1     1.1     1.1     1.1
rx      3654605.8 70835.9 3306343.1 3481232.5 3499246.6 3643359.7 3787472.8 3805487.0 4043363.7

Total QPS = 560280.6 (16808428 / 30.0s)

Misses = 0 (0.0%)
Skipped TXs = 0 (0.0%)

RX 4097060304 bytes :  130.2 MB/s
TX  709711822 bytes :   22.6 MB/s
