#type       avg     std     min     5th    10th    50th    90th    95th    99th
read       66.4   718.0    26.8    34.6    36.8    49.9    76.3    89.5   139.2
update      0.0     0.0     0.0     0.0     0.0     0.0     0.0     0.0     0.0
op_q        1.0     0.0     1.0     1.0     1.0     1.1     1.1     1.1     1.1
rx      3667752.5 72873.0 3636977.4 3485505.0 3503288.2 3645553.7 3787819.3 3805602.4 4043363.7

Total QPS = 560069.1 (16802074 / 30.0s)

Misses = 0 (0.0%)
Skipped TXs = 0 (0.0%)

RX 4104869412 bytes :  130.5 MB/s
TX  709493906 bytes :   22.6 MB/s
