#type       avg     std     min     5th    10th    50th    90th    95th    99th
read       69.0   651.3    26.8    34.6    37.0    51.5    80.4    96.9   161.0
update      0.0     0.0     0.0     0.0     0.0     0.0     0.0     0.0     0.0
op_q        1.0     0.0     1.0     1.0     1.0     1.1     1.1     1.1     1.1
rx      3905624.5 70657.2 3636977.4 3652667.0 3817124.7 3985488.6 4153852.5 4174898.0 4191734.3

Total QPS = 599749.0 (17992470 / 30.0s)

Misses = 0 (0.0%)
Skipped TXs = 0 (0.0%)

RX 4376145909 bytes :  139.1 MB/s
TX  759662375 bytes :   24.1 MB/s
