#type       avg     std     min     5th    10th    50th    90th    95th    99th
read       65.4   516.7    26.8    35.0    37.5    52.3    82.9    99.7   152.1
update      0.0     0.0     0.0     0.0     0.0     0.0     0.0     0.0     0.0
op_q        1.0     0.0     1.0     1.0     1.0     1.1     1.1     1.1     1.1
rx      3919219.7 74147.2 3636977.4 3719919.8 3827294.4 3991138.4 4154982.4 4175462.9 4191847.3

Total QPS = 599914.9 (17997447 / 30.0s)

Misses = 0 (0.0%)
Skipped TXs = 0 (0.0%)

RX 4378063531 bytes :  139.2 MB/s
TX  759826136 bytes :   24.2 MB/s
