#type       avg     std     min     5th    10th    50th    90th    95th    99th
read       66.5   575.8    26.8    35.1    37.6    52.2    81.5    97.4   146.7
update      0.0     0.0     0.0     0.0     0.0     0.0     0.0     0.0     0.0
op_q        1.0     0.0     1.0     1.0     1.0     1.1     1.1     1.1     1.1
rx      3924726.6 74492.0 3636977.4 3814494.0 3834570.3 3995180.6 4155790.9 4175867.2 4191928.2

Total QPS = 599770.4 (17993114 / 30.0s)

Misses = 0 (0.0%)
Skipped TXs = 0 (0.0%)

RX 4391541577 bytes :  139.6 MB/s
TX  759660759 bytes :   24.1 MB/s
