#type       avg     std     min     5th    10th    50th    90th    95th    99th
read       67.8   600.7    26.8    34.9    37.4    52.0    81.1    97.0   149.2
update      0.0     0.0     0.0     0.0     0.0     0.0     0.0     0.0     0.0
op_q        1.0     0.0     1.0     1.0     1.0     1.1     1.1     1.1     1.1
rx      3916517.7 69346.1 3636977.4 3745139.6 3829752.0 3992503.8 4155255.5 4175599.5 4191874.6

Total QPS = 599769.8 (17993095 / 30.0s)

Misses = 0 (0.0%)
Skipped TXs = 0 (0.0%)

RX 4385936719 bytes :  139.4 MB/s
TX  759656370 bytes :   24.1 MB/s
