#type       avg     std     min     5th    10th    50th    90th    95th    99th
read       64.2   511.9    26.8    34.9    37.5    51.9    81.2    97.6   148.5
update      0.0     0.0     0.0     0.0     0.0     0.0     0.0     0.0     0.0
op_q        1.0     0.0     1.0     1.0     1.0     1.1     1.1     1.1     1.1
rx      3900857.8 71228.7 3636977.4 3630908.8 3794095.7 3982545.2 4153263.8 4174603.6 4191675.5

Total QPS = 599884.7 (17996547 / 30.0s)

Misses = 0 (0.0%)
Skipped TXs = 0 (0.0%)

RX 4366058159 bytes :  138.8 MB/s
TX  759925212 bytes :   24.2 MB/s
