#type       avg     std     min     5th    10th    50th    90th    95th    99th
read       76.2   669.1    26.8    36.8    39.5    56.9    93.2   111.7   401.7
update      0.0     0.0     0.0     0.0     0.0     0.0     0.0     0.0     0.0
op_q        1.0     0.0     1.0     1.0     1.0     1.1     1.1     1.1     1.1
rx      4183909.2 75875.2 4000675.1 3849171.3 3883848.5 4161266.2 4522294.6 4568916.2 4606213.5

Total QPS = 639918.4 (19197571 / 30.0s)

Misses = 0 (0.0%)
Skipped TXs = 0 (0.0%)

RX 4682931322 bytes :  148.9 MB/s
TX  810622958 bytes :   25.8 MB/s
