#type       avg     std     min     5th    10th    50th    90th    95th    99th
read       79.4   641.5    26.8    36.9    39.8    58.9    99.6   118.3   590.4
update      0.0     0.0     0.0     0.0     0.0     0.0     0.0     0.0     0.0
op_q        1.0     0.0     1.0     1.0     1.0     1.1     1.1     1.1     1.1
rx      4431215.9 76792.6 4400742.6 4217188.7 4238434.0 4408396.3 4578358.5 4599603.8 4707848.5

Total QPS = 679640.5 (20389223 / 30.0s)

Misses = 0 (0.0%)
Skipped TXs = 0 (0.0%)

RX 4961066926 bytes :  157.7 MB/s
TX  860906375 bytes :   27.4 MB/s
