#type       avg     std     min     5th    10th    50th    90th    95th    99th
read       79.4   613.8    26.8    37.6    40.5    59.6   100.1   118.5   432.5
update      0.0     0.0     0.0     0.0     0.0     0.0     0.0     0.0     0.0
op_q        1.0     0.0     1.0     1.0     1.0     1.1     1.1     1.1     1.1
rx      4442437.3 78443.5 4400742.6 4217055.1 4238166.8 4407060.1 4575953.4 4597065.1 4613954.4

Total QPS = 679908.7 (20397261 / 30.0s)

Misses = 0 (0.0%)
Skipped TXs = 0 (0.0%)

RX 4980937344 bytes :  158.3 MB/s
TX  861310371 bytes :   27.4 MB/s
