#type       avg     std     min     5th    10th    50th    90th    95th    99th
read       77.2   557.0    26.8    36.9    39.8    58.8   100.0   118.7   239.5
update      0.0     0.0     0.0     0.0     0.0     0.0     0.0     0.0     0.0
op_q        1.0     0.0     1.0     1.0     1.0     1.1     1.1     1.1     1.1
rx      4452300.5 79253.0 4400742.6 4217324.0 4238704.6 4409749.5 4580794.3 4602174.9 4830929.5

Total QPS = 679794.4 (20393835 / 30.0s)

Misses = 0 (0.0%)
Skipped TXs = 0 (0.0%)

RX 4978325066 bytes :  158.3 MB/s
TX  861128765 bytes :   27.4 MB/s
