#type       avg     std     min     5th    10th    50th    90th    95th    99th
read       85.3   440.2    29.5    41.8    45.9    70.0   119.5   140.7   207.1
update      0.0     0.0     0.0     0.0     0.0     0.0     0.0     0.0     0.0
op_q        1.0     0.0     1.0     1.0     1.0     1.1     1.1     1.1     1.1
rx      4681623.5 82058.4 4400742.6 4297663.3 4399383.1 4786349.0 5018943.1 5048017.3 5071276.7

Total QPS = 719850.7 (21595521 / 30.0s)

Misses = 0 (0.0%)
Skipped TXs = 0 (0.0%)

RX 5246770295 bytes :  166.8 MB/s
TX  911679119 bytes :   29.0 MB/s
