#type       avg     std     min     5th    10th    50th    90th    95th    99th
read       96.6   451.6    29.5    43.2    48.1    75.6   134.7   159.5   592.4
update      0.0     0.0     0.0     0.0     0.0     0.0     0.0     0.0     0.0
op_q        1.0     0.0     1.0     1.0     1.0     1.1     1.1     1.1     1.1
rx      4970425.9 75757.8 4840816.9 4640486.6 4665435.5 4865026.3 5064617.1 5246327.9 5517106.2

Total QPS = 760130.7 (22803925 / 30.0s)

Misses = 0 (0.0%)
Skipped TXs = 0 (0.0%)

RX 5560691365 bytes :  176.8 MB/s
TX  962862116 bytes :   30.6 MB/s
