#type       avg     std     min     5th    10th    50th    90th    95th    99th
read      107.8   586.0    29.5    43.4    48.5    76.9   137.6   166.0  1160.2
update      0.0     0.0     0.0     0.0     0.0     0.0     0.0     0.0     0.0
op_q        1.0     0.0     1.0     1.0     1.0     1.1     1.1     1.1     1.1
rx      4945713.4 84184.7 4840816.9 4639991.0 4664444.1 4860069.6 5055695.0 5133503.7 5494541.3

Total QPS = 759589.2 (22787676 / 30.0s)

Misses = 0 (0.0%)
Skipped TXs = 0 (0.0%)

RX 5532134166 bytes :  175.9 MB/s
TX  962173043 bytes :   30.6 MB/s
