#type       avg     std     min     5th    10th    50th    90th    95th    99th
read      112.8   578.1    29.5    46.2    51.6    81.2   147.2   178.3  1175.5
update      0.0     0.0     0.0     0.0     0.0     0.0     0.0     0.0     0.0
op_q        1.0     0.0     1.0     1.0     1.0     1.1     1.1     1.1     1.1
rx      4955721.5 81053.6 4840816.9 4639830.1 4664122.4 4858460.8 5052799.3 5077091.6 5483258.9

Total QPS = 760021.8 (22800655 / 30.0s)

Misses = 0 (0.0%)
Skipped TXs = 0 (0.0%)

RX 5553347975 bytes :  176.5 MB/s
TX  962694660 bytes :   30.6 MB/s
