#type       avg     std     min     5th    10th    50th    90th    95th    99th
read      109.2   407.3    29.5    46.4    52.5    87.6   161.3   193.4   461.6
update      0.0     0.0     0.0     0.0     0.0     0.0     0.0     0.0     0.0
op_q        1.0     0.0     1.0     1.0     1.0     1.1     1.1     1.1     1.1
rx      5209484.7 84997.4 4840816.9 5077091.6 5103813.1 5317585.4 5531357.6 5558079.2 5579456.4

Total QPS = 799945.9 (23998379 / 30.0s)

Misses = 0 (0.0%)
Skipped TXs = 0 (0.0%)

RX 5841140972 bytes :  185.7 MB/s
TX 1013270137 bytes :   32.2 MB/s
