#type       avg     std     min     5th    10th    50th    90th    95th    99th
read       85.3  2653.7    26.8    31.8    33.0    39.0    48.2    52.3    68.4
update      0.0     0.0     0.0     0.0     0.0     0.0     0.0     0.0     0.0
op_q        1.0     0.0     1.0     1.0     1.0     1.1     1.1     1.1     1.1
rx      520604.6 29439.1 305162.2 472634.8 479098.2 526100.0 561957.7 566440.0 610740.3

Total QPS = 79953.1 (2398593 / 30.0s)

Misses = 0 (0.0%)
Skipped TXs = 0 (0.0%)

RX  583772271 bytes :   18.6 MB/s
TX  101245512 bytes :    3.2 MB/s
