#type       avg     std     min     5th    10th    50th    90th    95th    99th
read      121.1  3613.7    26.8    31.9    33.3    39.1    48.0    51.9    66.1
update      0.0     0.0     0.0     0.0     0.0     0.0     0.0     0.0     0.0
op_q        1.0     0.0     1.0     1.0     1.0     1.1     1.1     1.1     1.1
rx      525235.1 32290.0 369246.3 473615.9 480310.1 527391.6 562117.0 566457.6 618030.3

Total QPS = 79966.4 (2398992 / 30.0s)

Misses = 0 (0.0%)
Skipped TXs = 0 (0.0%)

RX  587742347 bytes :   18.7 MB/s
TX  101301510 bytes :    3.2 MB/s
