#type       avg     std     min     5th    10th    50th    90th    95th    99th
read      117.8   445.5    29.5    45.3    51.2    87.0   176.9   222.7  1057.4
update      0.0     0.0     0.0     0.0     0.0     0.0     0.0     0.0     0.0
op_q        1.0     0.0     1.0     1.0     1.0     1.1     1.1     1.1     1.1
rx      5241408.3 83594.2 4840816.9 5090109.7 5116146.1 5324437.0 5532728.0 5558764.4 5579593.4

Total QPS = 800059.7 (24001794 / 30.0s)

Misses = 0 (0.0%)
Skipped TXs = 0 (0.0%)

RX 5853641913 bytes :  186.1 MB/s
TX 1013425373 bytes :   32.2 MB/s
