#type       avg     std     min     5th    10th    50th    90th    95th    99th
read      109.5   412.0    29.5    46.8    52.9    87.8   161.3   193.5   462.8
update      0.0     0.0     0.0     0.0     0.0     0.0     0.0     0.0     0.0
op_q        1.0     0.0     1.0     1.0     1.0     1.1     1.1     1.1     1.1
rx      5212892.5 77932.8 4840816.9 5083685.2 5110059.7 5321055.7 5532051.7 5558426.2 5579525.8

Total QPS = 800193.4 (24005804 / 30.0s)

Misses = 0 (0.0%)
Skipped TXs = 0 (0.0%)

RX 5841022207 bytes :  185.7 MB/s
TX 1013664553 bytes :   32.2 MB/s
