#type       avg     std     min     5th    10th    50th    90th    95th    99th
read      115.0  3506.9    26.8    31.8    32.9    38.8    47.6    51.2    64.6
update      0.0     0.0     0.0     0.0     0.0     0.0     0.0     0.0     0.0
op_q        1.0     0.0     1.0     1.0     1.0     1.1     1.1     1.1     1.1
rx      523130.8 25432.3 406170.9 474250.7 480714.1 526970.2 562065.0 566451.9 610740.3

Total QPS = 79801.9 (2394058 / 30.0s)

Misses = 0 (0.0%)
Skipped TXs = 0 (0.0%)

RX  585894413 bytes :   18.6 MB/s
TX  101051614 bytes :    3.2 MB/s
