#type       avg     std     min     5th    10th    50th    90th    95th    99th
read      132.6   499.6    29.5    49.1    55.8   100.4   200.0   250.4  1093.1
update      0.0     0.0     0.0     0.0     0.0     0.0     0.0     0.0     0.0
op_q        1.0     0.0     1.0     1.0     1.0     1.1     1.1     1.1     1.1
rx      5209053.4 76543.0 4840816.9 5025807.8 5100627.7 5315815.7 5531003.7 5557902.2 5579421.0

Total QPS = 799457.2 (23983725 / 30.0s)

Misses = 0 (0.0%)
Skipped TXs = 0 (0.0%)

RX 5836479034 bytes :  185.5 MB/s
TX 1012580792 bytes :   32.2 MB/s
