#type       avg     std     min     5th    10th    50th    90th    95th    99th
read      252.5   460.8    32.4    61.8    75.4   170.7   519.2   762.5  1218.0
update      0.0     0.0     0.0     0.0     0.0     0.0     0.0     0.0     0.0
op_q        1.0     0.0     1.0     1.0     1.0     1.1     1.1     1.1     1.1
rx      5733838.6 79765.4 5324898.6 5595610.0 5624434.8 5855033.0 6085631.2 6114456.0 6137515.8

Total QPS = 880191.1 (26405754 / 30.0s)

Misses = 0 (0.0%)
Skipped TXs = 0 (0.0%)

RX 6426397654 bytes :  204.3 MB/s
TX 1114998923 bytes :   35.4 MB/s
