#type       avg     std     min     5th    10th    50th    90th    95th    99th
read      419.3   506.6    29.5    73.5    92.8   278.9   983.2  1144.0  1252.3
update      0.0     0.0     0.0     0.0     0.0     0.0     0.0     0.0     0.0
op_q        1.0     0.0     1.0     1.0     1.0     1.1     1.1     1.1     1.1
rx      6012817.6 82558.8 5857388.4 5614988.8 5645176.9 5886681.8 6128186.7 6348056.8 6675698.5

Total QPS = 920400.1 (27612029 / 30.0s)

Misses = 0 (0.0%)
Skipped TXs = 0 (0.0%)

RX 6732970804 bytes :  214.0 MB/s
TX 1165794275 bytes :   37.1 MB/s
