#type       avg     std     min     5th    10th    50th    90th    95th    99th
read      952.2   528.8    32.4   162.0   249.8  1139.0  1254.3  1267.6  1371.9
update      0.0     0.0     0.0     0.0     0.0     0.0     0.0     0.0     0.0
op_q        1.0     0.0     1.0     1.0     1.0     1.1     1.1     1.1     1.1
rx      6140014.9 141842.7 5857388.4 5646004.0 5707207.3 6192709.5 6644629.0 6701118.9 6746310.9

Total QPS = 945576.8 (28367306 / 30.0s)

Misses = 0 (0.0%)
Skipped TXs = 0 (0.0%)

RX 6896772182 bytes :  219.2 MB/s
TX 1197866608 bytes :   38.1 MB/s
