#type       avg     std     min     5th    10th    50th    90th    95th    99th
read      995.2   626.0    32.4   151.0   235.1  1183.1  1273.0  1338.5  1390.9
update      0.0     0.0     0.0     0.0     0.0     0.0     0.0     0.0     0.0
op_q        1.0     0.0     1.0     1.0     1.0     1.1     1.1     1.1     1.1
rx      6051563.1 186509.7 5857388.4 5629036.8 5673272.8 6027161.2 6591011.4 6674310.1 6740949.1

Total QPS = 928314.7 (27849442 / 30.0s)

Misses = 0 (0.0%)
Skipped TXs = 0 (0.0%)

RX 6793311803 bytes :  216.0 MB/s
TX 1175984083 bytes :   37.4 MB/s
