#type       avg     std     min     5th    10th    50th    90th    95th    99th
read      765.9   542.0    29.5   104.9   148.0   825.8  1263.2  1327.3  1387.3
update      0.0     0.0     0.0     0.0     0.0     0.0     0.0     0.0     0.0
op_q        1.0     0.0     1.0     1.0     1.0     1.1     1.1     1.1     1.1
rx      6159002.4 221295.8 5324898.6 5664583.6 5755764.0 6310824.8 6668252.1 6712930.5 6748673.2

Total QPS = 941836.2 (28255088 / 30.0s)

Misses = 0 (0.0%)
Skipped TXs = 0 (0.0%)

RX 6902354024 bytes :  219.4 MB/s
TX 1193008066 bytes :   37.9 MB/s
