  num          irqs       pkts  cpus name
  104 RX      13950    3643781     0 mlx4-33@0000:07:00.0
  105 RX      13910    3633549     1 mlx4-34@0000:07:00.0
  106 RX      14447    3791381     2 mlx4-35@0000:07:00.0
  107 RX      13915    3671443     3 mlx4-36@0000:07:00.0
  108 RX      13890    3650032     4 mlx4-37@0000:07:00.0
  109 RX      13852    3649230     5 mlx4-38@0000:07:00.0
  110 RX      14523    3810881     6 mlx4-39@0000:07:00.0
  111 RX      13994    3659010     7 mlx4-40@0000:07:00.0
total        112481   29509307
