  num          irqs       pkts  cpus name
  104 RX       1201     590781     0 mlx4-33@0000:07:00.0
  105 RX       1206     579895     1 mlx4-34@0000:07:00.0
  106 RX       1172     583698     2 mlx4-35@0000:07:00.0
  107 RX       1203     599649     3 mlx4-36@0000:07:00.0
  108 RX       1175     583943     4 mlx4-37@0000:07:00.0
  109 RX       1167     599347     5 mlx4-38@0000:07:00.0
  110 RX       1189     593120     6 mlx4-39@0000:07:00.0
  111 RX       1192     590119     7 mlx4-40@0000:07:00.0
total          9505    4720552
