  num          irqs       pkts  cpus name
  104 RX      12822    3437393     0 mlx4-33@0000:07:00.0
  105 RX      13923    3615480     1 mlx4-34@0000:07:00.0
  106 RX      13973    3669115     2 mlx4-35@0000:07:00.0
  107 RX      13089    3392023     3 mlx4-36@0000:07:00.0
  108 RX      12356    3655213     4 mlx4-37@0000:07:00.0
  109 RX      13764    3242110     5 mlx4-38@0000:07:00.0
  110 RX      13923    3366346     6 mlx4-39@0000:07:00.0
  111 RX      12919    3655382     7 mlx4-40@0000:07:00.0
total        106769   28033062
