  num          irqs       pkts  cpus name
  104 RX       8824    2555803     0 mlx4-33@0000:07:00.0
  105 RX       9697    2324456     1 mlx4-34@0000:07:00.0
  106 RX       9663    2302347     2 mlx4-35@0000:07:00.0
  107 RX      10021    2650624     3 mlx4-36@0000:07:00.0
  108 RX       9023    2421447     4 mlx4-37@0000:07:00.0
  109 RX       8764    2548365     5 mlx4-38@0000:07:00.0
  110 RX       9624    2568203     6 mlx4-39@0000:07:00.0
  111 RX       8684    2369777     7 mlx4-40@0000:07:00.0
total         74300   19741022
