  num          irqs       pkts  cpus name
  104 RX      10679    2735516     0 mlx4-33@0000:07:00.0
  105 RX      10013    2670577     1 mlx4-34@0000:07:00.0
  106 RX      10449    2771254     2 mlx4-35@0000:07:00.0
  107 RX      10370    2757245     3 mlx4-36@0000:07:00.0
  108 RX      10745    2755448     4 mlx4-37@0000:07:00.0
  109 RX      10370    2818387     5 mlx4-38@0000:07:00.0
  110 RX      10444    2833464     6 mlx4-39@0000:07:00.0
  111 RX      10519    2796641     7 mlx4-40@0000:07:00.0
total         83589   22138532
