  num          irqs       pkts  cpus name
  104 RX      13503    3442587     0 mlx4-33@0000:07:00.0
  105 RX      13872    3544876     1 mlx4-34@0000:07:00.0
  106 RX      13600    3630123     2 mlx4-35@0000:07:00.0
  107 RX      13113    3563869     3 mlx4-36@0000:07:00.0
  108 RX      13831    3641097     4 mlx4-37@0000:07:00.0
  109 RX      13574    3388956     5 mlx4-38@0000:07:00.0
  110 RX      12912    3312775     6 mlx4-39@0000:07:00.0
  111 RX      12623    3570128     7 mlx4-40@0000:07:00.0
total        107028   28094411
