  num          irqs       pkts  cpus name
  104 RX      10000    2609466     0 mlx4-33@0000:07:00.0
  105 RX      10291    2641603     1 mlx4-34@0000:07:00.0
  106 RX       9872    2663309     2 mlx4-35@0000:07:00.0
  107 RX       9723    2571749     3 mlx4-36@0000:07:00.0
  108 RX      10004    2724028     4 mlx4-37@0000:07:00.0
  109 RX       9580    2535073     5 mlx4-38@0000:07:00.0
  110 RX       9378    2476914     6 mlx4-39@0000:07:00.0
  111 RX      10085    2643402     7 mlx4-40@0000:07:00.0
total         78933   20865544
