  num          irqs       pkts  cpus name
  104 RX      13543    3178071     0 mlx4-33@0000:07:00.0
  105 RX      13720    3578491     1 mlx4-34@0000:07:00.0
  106 RX      13619    3605844     2 mlx4-35@0000:07:00.0
  107 RX      12088    3076272     3 mlx4-36@0000:07:00.0
  108 RX      13272    3487883     4 mlx4-37@0000:07:00.0
  109 RX      12355    3194668     5 mlx4-38@0000:07:00.0
  110 RX      11705    3247197     6 mlx4-39@0000:07:00.0
  111 RX      12163    3559913     7 mlx4-40@0000:07:00.0
total        102465   26928339
