  num          irqs       pkts  cpus name
  104 RX      13995    3652101     0 mlx4-33@0000:07:00.0
  105 RX      13944    3662296     1 mlx4-34@0000:07:00.0
  106 RX      13928    3665873     2 mlx4-35@0000:07:00.0
  107 RX      13960    3658983     3 mlx4-36@0000:07:00.0
  108 RX      13920    3654408     4 mlx4-37@0000:07:00.0
  109 RX      13946    3669066     5 mlx4-38@0000:07:00.0
  110 RX      13972    3672267     6 mlx4-39@0000:07:00.0
  111 RX      13984    3659482     7 mlx4-40@0000:07:00.0
total        111649   29294476
