  num          irqs       pkts  cpus name
  104 RX      13998    3661020     0 mlx4-33@0000:07:00.0
  105 RX      14547    3817170     1 mlx4-34@0000:07:00.0
  106 RX      14590    3828641     2 mlx4-35@0000:07:00.0
  107 RX      13920    3644701     3 mlx4-36@0000:07:00.0
  108 RX      13909    3664407     4 mlx4-37@0000:07:00.0
  109 RX      13896    3650431     5 mlx4-38@0000:07:00.0
  110 RX      13958    3670967     6 mlx4-39@0000:07:00.0
  111 RX      13972    3648105     7 mlx4-40@0000:07:00.0
total        112790   29585442
