  num          irqs       pkts  cpus name
  104 RX      10875    3066084     0 mlx4-33@0000:07:00.0
  105 RX      11646    2954287     1 mlx4-34@0000:07:00.0
  106 RX      11214    2878560     2 mlx4-35@0000:07:00.0
  107 RX      12359    3280171     3 mlx4-36@0000:07:00.0
  108 RX      11129    2931264     4 mlx4-37@0000:07:00.0
  109 RX      12448    3253488     5 mlx4-38@0000:07:00.0
  110 RX      12457    3277263     6 mlx4-39@0000:07:00.0
  111 RX      10875    2864864     7 mlx4-40@0000:07:00.0
total         93003   24505981
