  num          irqs       pkts  cpus name
  104 RX       1192     613092     0 mlx4-33@0000:07:00.0
  105 RX       1187     592226     1 mlx4-34@0000:07:00.0
  106 RX       1185     571014     2 mlx4-35@0000:07:00.0
  107 RX       1171     605938     3 mlx4-36@0000:07:00.0
  108 RX       1219     583176     4 mlx4-37@0000:07:00.0
  109 RX       1220     577705     5 mlx4-38@0000:07:00.0
  110 RX       1169     589178     6 mlx4-39@0000:07:00.0
  111 RX       1142     595412     7 mlx4-40@0000:07:00.0
total          9485    4727741
