  num          irqs       pkts  cpus name
  104 RX       9361    2442931     0 mlx4-33@0000:07:00.0
  105 RX       8564    2555218     1 mlx4-34@0000:07:00.0
  106 RX       9496    2540351     2 mlx4-35@0000:07:00.0
  107 RX       9218    2263769     3 mlx4-36@0000:07:00.0
  108 RX       9622    2572262     4 mlx4-37@0000:07:00.0
  109 RX       9366    2473781     5 mlx4-38@0000:07:00.0
  110 RX       9567    2420403     6 mlx4-39@0000:07:00.0
  111 RX       9145    2501684     7 mlx4-40@0000:07:00.0
total         74339   19770399
