  num          irqs       pkts  cpus name
  104 RX       6782    1832277     0 mlx4-33@0000:07:00.0
  105 RX       7136    1911380     1 mlx4-34@0000:07:00.0
  106 RX       7182    2008764     2 mlx4-35@0000:07:00.0
  107 RX       6818    1836240     3 mlx4-36@0000:07:00.0
  108 RX       7267    1941919     4 mlx4-37@0000:07:00.0
  109 RX       6775    1844527     5 mlx4-38@0000:07:00.0
  110 RX       7072    1827515     6 mlx4-39@0000:07:00.0
  111 RX       6782    1929108     7 mlx4-40@0000:07:00.0
total         55814   15131730
