  num          irqs       pkts  cpus name
  104 RX       5064    1559344     0 mlx4-33@0000:07:00.0
  105 RX       4620    1474928     1 mlx4-34@0000:07:00.0
  106 RX       4557    1436555     2 mlx4-35@0000:07:00.0
  107 RX       4743    1579938     3 mlx4-36@0000:07:00.0
  108 RX       4372    1371221     4 mlx4-37@0000:07:00.0
  109 RX       4964    1466956     5 mlx4-38@0000:07:00.0
  110 RX       4401    1414197     6 mlx4-39@0000:07:00.0
  111 RX       4598    1405892     7 mlx4-40@0000:07:00.0
total         37319   11709031
