  num          irqs       pkts  cpus name
  104 RX      11365    2825430     0 mlx4-33@0000:07:00.0
  105 RX      11594    2979765     1 mlx4-34@0000:07:00.0
  106 RX      11278    2998119     2 mlx4-35@0000:07:00.0
  107 RX      10493    2705744     3 mlx4-36@0000:07:00.0
  108 RX      10278    3058221     4 mlx4-37@0000:07:00.0
  109 RX      10727    2764369     5 mlx4-38@0000:07:00.0
  110 RX      11600    2907198     6 mlx4-39@0000:07:00.0
  111 RX      11039    3057320     7 mlx4-40@0000:07:00.0
total         88374   23296166
