  num          irqs       pkts  cpus name
  104 RX      10751    2661439     0 mlx4-33@0000:07:00.0
  105 RX       9768    2837209     1 mlx4-34@0000:07:00.0
  106 RX      10823    2822121     2 mlx4-35@0000:07:00.0
  107 RX      10076    2579724     3 mlx4-36@0000:07:00.0
  108 RX      10695    2854624     4 mlx4-37@0000:07:00.0
  109 RX      10453    2642893     5 mlx4-38@0000:07:00.0
  110 RX      10006    2760757     6 mlx4-39@0000:07:00.0
  111 RX      11057    2916625     7 mlx4-40@0000:07:00.0
total         83629   22075392
