  num          irqs       pkts  cpus name
  104 RX       6870    1858833     0 mlx4-33@0000:07:00.0
  105 RX       7127    1863915     1 mlx4-34@0000:07:00.0
  106 RX       6819    1839773     2 mlx4-35@0000:07:00.0
  107 RX       6873    1952659     3 mlx4-36@0000:07:00.0
  108 RX       6969    1850674     4 mlx4-37@0000:07:00.0
  109 RX       7217    1914623     5 mlx4-38@0000:07:00.0
  110 RX       7073    1884834     6 mlx4-39@0000:07:00.0
  111 RX       6816    1923809     7 mlx4-40@0000:07:00.0
total         55764   15089120
