  num          irqs       pkts  cpus name
  104 RX       4617    1454066     0 mlx4-33@0000:07:00.0
  105 RX       4532    1444035     1 mlx4-34@0000:07:00.0
  106 RX       4680    1509151     2 mlx4-35@0000:07:00.0
  107 RX       4506    1424311     3 mlx4-36@0000:07:00.0
  108 RX       4699    1448637     4 mlx4-37@0000:07:00.0
  109 RX       4692    1502572     5 mlx4-38@0000:07:00.0
  110 RX       4837    1453723     6 mlx4-39@0000:07:00.0
  111 RX       4770    1442292     7 mlx4-40@0000:07:00.0
total         37333   11678787
