  num          irqs       pkts  cpus name
  104 RX       9613    2544734     0 mlx4-33@0000:07:00.0
  105 RX       9617    2369518     1 mlx4-34@0000:07:00.0
  106 RX       9349    2406832     2 mlx4-35@0000:07:00.0
  107 RX       9422    2492465     3 mlx4-36@0000:07:00.0
  108 RX       9103    2407431     4 mlx4-37@0000:07:00.0
  109 RX       8963    2474837     5 mlx4-38@0000:07:00.0
  110 RX       9091    2541186     6 mlx4-39@0000:07:00.0
  111 RX       9169    2422622     7 mlx4-40@0000:07:00.0
total         74327   19659625
