  num          irqs       pkts  cpus name
  104 RX      11465    3151696     0 mlx4-33@0000:07:00.0
  105 RX      12136    3018806     1 mlx4-34@0000:07:00.0
  106 RX      11038    2994503     2 mlx4-35@0000:07:00.0
  107 RX      11952    3173206     3 mlx4-36@0000:07:00.0
  108 RX      11697    2904932     4 mlx4-37@0000:07:00.0
  109 RX      11376    3201326     5 mlx4-38@0000:07:00.0
  110 RX      11294    3085406     6 mlx4-39@0000:07:00.0
  111 RX      12042    2974431     7 mlx4-40@0000:07:00.0
total         93000   24504306
