  num          irqs       pkts  cpus name
  104 RX      13306    3518197     0 mlx4-33@0000:07:00.0
  105 RX      13196    3617469     1 mlx4-34@0000:07:00.0
  106 RX      13774    3465060     2 mlx4-35@0000:07:00.0
  107 RX      13396    3389866     3 mlx4-36@0000:07:00.0
  108 RX      13398    3494149     4 mlx4-37@0000:07:00.0
  109 RX      12909    3592091     5 mlx4-38@0000:07:00.0
  110 RX      13486    3517285     6 mlx4-39@0000:07:00.0
  111 RX      13678    3542027     7 mlx4-40@0000:07:00.0
total        107143   28136144
