  num          irqs       pkts  cpus name
  104 RX      13699    3579136     0 mlx4-33@0000:07:00.0
  105 RX      13186    3460162     1 mlx4-34@0000:07:00.0
  106 RX      13652    3541751     2 mlx4-35@0000:07:00.0
  107 RX      13285    3578279     3 mlx4-36@0000:07:00.0
  108 RX      13634    3486570     4 mlx4-37@0000:07:00.0
  109 RX      13614    3582905     5 mlx4-38@0000:07:00.0
  110 RX      13496    3593327     6 mlx4-39@0000:07:00.0
  111 RX      13637    3574072     7 mlx4-40@0000:07:00.0
total        108203   28396202
