  num          irqs       pkts  cpus name
  104 RX      10304    2679660     0 mlx4-33@0000:07:00.0
  105 RX      10534    2777737     1 mlx4-34@0000:07:00.0
  106 RX      10525    2776031     2 mlx4-35@0000:07:00.0
  107 RX      10763    2801315     3 mlx4-36@0000:07:00.0
  108 RX      10162    2718448     4 mlx4-37@0000:07:00.0
  109 RX       9997    2851645     5 mlx4-38@0000:07:00.0
  110 RX      10524    2853730     6 mlx4-39@0000:07:00.0
  111 RX      10812    2636449     7 mlx4-40@0000:07:00.0
total         83621   22095015
