  num          irqs       pkts  cpus name
  104 RX       4602    1467151     0 mlx4-33@0000:07:00.0
  105 RX       4566    1425418     1 mlx4-34@0000:07:00.0
  106 RX       4696    1374389     2 mlx4-35@0000:07:00.0
  107 RX       4731    1465323     3 mlx4-36@0000:07:00.0
  108 RX       4758    1460607     4 mlx4-37@0000:07:00.0
  109 RX       4735    1500850     5 mlx4-38@0000:07:00.0
  110 RX       4799    1448727     6 mlx4-39@0000:07:00.0
  111 RX       4426    1418684     7 mlx4-40@0000:07:00.0
total         37313   11561149
