  num          irqs       pkts  cpus name
  104 RX       9790    2585638     0 mlx4-33@0000:07:00.0
  105 RX       9308    2773311     1 mlx4-34@0000:07:00.0
  106 RX       9939    2722079     2 mlx4-35@0000:07:00.0
  107 RX      10487    2518725     3 mlx4-36@0000:07:00.0
  108 RX      10295    2623564     4 mlx4-37@0000:07:00.0
  109 RX       9518    2462095     5 mlx4-38@0000:07:00.0
  110 RX      10075    2518789     6 mlx4-39@0000:07:00.0
  111 RX       9515    2685032     7 mlx4-40@0000:07:00.0
total         78927   20889233
