  num          irqs       pkts  cpus name
  104 RX      12635    3319362     0 mlx4-33@0000:07:00.0
  105 RX      12908    3366361     1 mlx4-34@0000:07:00.0
  106 RX      13086    3221574     2 mlx4-35@0000:07:00.0
  107 RX      12803    3319334     3 mlx4-36@0000:07:00.0
  108 RX      12252    3393000     4 mlx4-37@0000:07:00.0
  109 RX      12909    3480109     5 mlx4-38@0000:07:00.0
  110 RX      13245    3391703     6 mlx4-39@0000:07:00.0
  111 RX      12627    3441152     7 mlx4-40@0000:07:00.0
total        102465   26932595
