  num          irqs       pkts  cpus name
  104 RX       7760    1897183     0 mlx4-33@0000:07:00.0
  105 RX       7707    2125134     1 mlx4-34@0000:07:00.0
  106 RX       7968    2105684     2 mlx4-35@0000:07:00.0
  107 RX       7053    1997427     3 mlx4-36@0000:07:00.0
  108 RX       7447    2172589     4 mlx4-37@0000:07:00.0
  109 RX       7436    1964839     5 mlx4-38@0000:07:00.0
  110 RX       7323    1991495     6 mlx4-39@0000:07:00.0
  111 RX       7664    2107956     7 mlx4-40@0000:07:00.0
total         60358   16362307
