  num          irqs       pkts  cpus name
  104 RX       1243     536989     0 mlx4-33@0000:07:00.0
  105 RX       1242     607472     1 mlx4-34@0000:07:00.0
  106 RX       1150     627903     2 mlx4-35@0000:07:00.0
  107 RX       1112     552877     3 mlx4-36@0000:07:00.0
  108 RX       1260     625531     4 mlx4-37@0000:07:00.0
  109 RX       1160     568612     5 mlx4-38@0000:07:00.0
  110 RX       1222     576249     6 mlx4-39@0000:07:00.0
  111 RX       1120     619001     7 mlx4-40@0000:07:00.0
total          9509    4714634
