  num          irqs       pkts  cpus name
  104 RX      14019    3678665     0 mlx4-33@0000:07:00.0
  105 RX      13767    3656766     1 mlx4-34@0000:07:00.0
  106 RX      13977    3668364     2 mlx4-35@0000:07:00.0
  107 RX      13961    3659237     3 mlx4-36@0000:07:00.0
  108 RX      13931    3603371     4 mlx4-37@0000:07:00.0
  109 RX      13941    3679211     5 mlx4-38@0000:07:00.0
  110 RX      13937    3664805     6 mlx4-39@0000:07:00.0
  111 RX      14014    3669232     7 mlx4-40@0000:07:00.0
total        111547   29279651
