  num          irqs       pkts  cpus name
  104 RX      11291    2934796     0 mlx4-33@0000:07:00.0
  105 RX      11149    3237886     1 mlx4-34@0000:07:00.0
  106 RX      12297    3138812     2 mlx4-35@0000:07:00.0
  107 RX      10968    2973005     3 mlx4-36@0000:07:00.0
  108 RX      11118    3195394     4 mlx4-37@0000:07:00.0
  109 RX      11885    2888502     5 mlx4-38@0000:07:00.0
  110 RX      12204    2926877     6 mlx4-39@0000:07:00.0
  111 RX      12127    3213563     7 mlx4-40@0000:07:00.0
total         93039   24508835
