  num          irqs       pkts  cpus name
  104 RX      10153    2681953     0 mlx4-33@0000:07:00.0
  105 RX       9941    2589628     1 mlx4-34@0000:07:00.0
  106 RX       9721    2567474     2 mlx4-35@0000:07:00.0
  107 RX       9454    2702058     3 mlx4-36@0000:07:00.0
  108 RX       9513    2513419     4 mlx4-37@0000:07:00.0
  109 RX       9795    2626115     5 mlx4-38@0000:07:00.0
  110 RX      10218    2500789     6 mlx4-39@0000:07:00.0
  111 RX      10149    2681044     7 mlx4-40@0000:07:00.0
total         78944   20862480
