  num          irqs       pkts  cpus name
  104 RX       1204     594621     0 mlx4-33@0000:07:00.0
  105 RX       1164     563748     1 mlx4-34@0000:07:00.0
  106 RX       1200     578776     2 mlx4-35@0000:07:00.0
  107 RX       1196     598516     3 mlx4-36@0000:07:00.0
  108 RX       1146     598872     4 mlx4-37@0000:07:00.0
  109 RX       1224     599647     5 mlx4-38@0000:07:00.0
  110 RX       1137     613199     6 mlx4-39@0000:07:00.0
  111 RX       1211     569803     7 mlx4-40@0000:07:00.0
total          9482    4717182
