  num          irqs       pkts  cpus name
  104 RX       8946    2514617     0 mlx4-33@0000:07:00.0
  105 RX       9147    2369411     1 mlx4-34@0000:07:00.0
  106 RX       9426    2457321     2 mlx4-35@0000:07:00.0
  107 RX       9489    2456337     3 mlx4-36@0000:07:00.0
  108 RX       9274    2421501     4 mlx4-37@0000:07:00.0
  109 RX       9280    2523139     5 mlx4-38@0000:07:00.0
  110 RX       9499    2512286     6 mlx4-39@0000:07:00.0
  111 RX       9228    2442044     7 mlx4-40@0000:07:00.0
total         74289   19696656
