  num          irqs       pkts  cpus name
  104 RX       9218    2200010     0 mlx4-33@0000:07:00.0
  105 RX       9165    2442256     1 mlx4-34@0000:07:00.0
  106 RX       8342    2409925     2 mlx4-35@0000:07:00.0
  107 RX       8019    2287355     3 mlx4-36@0000:07:00.0
  108 RX       8522    2425193     4 mlx4-37@0000:07:00.0
  109 RX       9084    2212169     5 mlx4-38@0000:07:00.0
  110 RX       8271    2130022     6 mlx4-39@0000:07:00.0
  111 RX       9090    2410371     7 mlx4-40@0000:07:00.0
total         69711   18517301
