  num          irqs       pkts  cpus name
  104 RX       1080     555426     0 mlx4-33@0000:07:00.0
  105 RX       1255     637031     1 mlx4-34@0000:07:00.0
  106 RX       1269     625195     2 mlx4-35@0000:07:00.0
  107 RX       1113     543295     3 mlx4-36@0000:07:00.0
  108 RX       1270     640241     4 mlx4-37@0000:07:00.0
  109 RX       1275     532832     5 mlx4-38@0000:07:00.0
  110 RX       1099     552804     6 mlx4-39@0000:07:00.0
  111 RX       1133     639219     7 mlx4-40@0000:07:00.0
total          9494    4726043
