  num          irqs       pkts  cpus name
  104 RX       8779    2373886     0 mlx4-33@0000:07:00.0
  105 RX       8955    2330222     1 mlx4-34@0000:07:00.0
  106 RX       8461    2331238     2 mlx4-35@0000:07:00.0
  107 RX       8776    2293346     3 mlx4-36@0000:07:00.0
  108 RX       8830    2241901     4 mlx4-37@0000:07:00.0
  109 RX       8771    2324607     5 mlx4-38@0000:07:00.0
  110 RX       8639    2413000     6 mlx4-39@0000:07:00.0
  111 RX       8453    2242454     7 mlx4-40@0000:07:00.0
total         69664   18550654
