sent    4198492 | retrans          0 | timeout          0 | loss rate 0.0000%
sent    4165934 | retrans          0 | timeout          0 | loss rate 0.0000%
sent    4187260 | retrans          0 | timeout          0 | loss rate 0.0000%
sent    4185317 | retrans          0 | timeout          0 | loss rate 0.0000%
sent    4171148 | retrans          0 | timeout          0 | loss rate 0.0000%
sent    4167027 | retrans          0 | timeout          0 | loss rate 0.0000%
sent    4173127 | retrans          0 | timeout          0 | loss rate 0.0000%
