sent     672679 | retrans          0 | timeout          0 | loss rate 0.0000%
sent     671193 | retrans          0 | timeout          0 | loss rate 0.0000%
sent     674826 | retrans          0 | timeout          0 | loss rate 0.0000%
sent     673677 | retrans          0 | timeout          0 | loss rate 0.0000%
sent     672259 | retrans          0 | timeout          0 | loss rate 0.0000%
sent     674854 | retrans          0 | timeout          0 | loss rate 0.0000%
sent     672882 | retrans          0 | timeout          0 | loss rate 0.0000%
