sent    4136341 | retrans          0 | timeout          0 | loss rate 0.0000%
sent    4136507 | retrans          0 | timeout          0 | loss rate 0.0000%
sent    4136726 | retrans          0 | timeout          0 | loss rate 0.0000%
sent    4145675 | retrans          0 | timeout          0 | loss rate 0.0000%
sent    4133623 | retrans          0 | timeout          0 | loss rate 0.0000%
sent    4131462 | retrans          0 | timeout          0 | loss rate 0.0000%
sent    4145195 | retrans          0 | timeout          0 | loss rate 0.0000%
