sent    2175270 | retrans          0 | timeout          0 | loss rate 0.0000%
sent    2170723 | retrans          0 | timeout          0 | loss rate 0.0000%
sent    2168640 | retrans          0 | timeout          0 | loss rate 0.0000%
sent    2183477 | retrans          0 | timeout          0 | loss rate 0.0000%
sent    2162969 | retrans          0 | timeout          0 | loss rate 0.0000%
sent    2167839 | retrans          0 | timeout          0 | loss rate 0.0000%
sent    2185796 | retrans          0 | timeout          0 | loss rate 0.0000%
