sent    2663258 | retrans          0 | timeout          0 | loss rate 0.0000%
sent    2656442 | retrans          0 | timeout          0 | loss rate 0.0000%
sent    2658670 | retrans          0 | timeout          0 | loss rate 0.0000%
sent    2665272 | retrans          0 | timeout          0 | loss rate 0.0000%
sent    2654451 | retrans          0 | timeout          0 | loss rate 0.0000%
sent    2656330 | retrans          0 | timeout          0 | loss rate 0.0000%
sent    2666446 | retrans          0 | timeout          0 | loss rate 0.0000%
