sent    4140190 | retrans          0 | timeout          0 | loss rate 0.0000%
sent    4159101 | retrans          0 | timeout          0 | loss rate 0.0000%
sent    4157182 | retrans          0 | timeout          0 | loss rate 0.0000%
sent    4166358 | retrans          0 | timeout          0 | loss rate 0.0000%
sent    4154153 | retrans          0 | timeout          0 | loss rate 0.0000%
sent    4177098 | retrans          0 | timeout          0 | loss rate 0.0000%
sent    4154691 | retrans          0 | timeout          0 | loss rate 0.0000%
