sent    2323982 | retrans          0 | timeout          0 | loss rate 0.0000%
sent    2322676 | retrans          0 | timeout          0 | loss rate 0.0000%
sent    2326337 | retrans          0 | timeout          0 | loss rate 0.0000%
sent    2327940 | retrans          0 | timeout          0 | loss rate 0.0000%
sent    2322304 | retrans          0 | timeout          0 | loss rate 0.0000%
sent    2321364 | retrans          0 | timeout          0 | loss rate 0.0000%
sent    2324858 | retrans          0 | timeout          0 | loss rate 0.0000%
