sent    4020942 | retrans          0 | timeout          0 | loss rate 0.0000%
sent    4018777 | retrans          0 | timeout          0 | loss rate 0.0000%
sent    4017955 | retrans          0 | timeout          0 | loss rate 0.0000%
sent    4019862 | retrans          0 | timeout          0 | loss rate 0.0000%
sent    4021712 | retrans          0 | timeout          0 | loss rate 0.0000%
sent    4018019 | retrans          0 | timeout          0 | loss rate 0.0000%
sent    4019303 | retrans          0 | timeout          0 | loss rate 0.0000%
