sent    3671056 | retrans          0 | timeout          0 | loss rate 0.0000%
sent    3668578 | retrans          0 | timeout          0 | loss rate 0.0000%
sent    3673531 | retrans          0 | timeout          0 | loss rate 0.0000%
sent    3668989 | retrans          0 | timeout          0 | loss rate 0.0000%
sent    3674417 | retrans          0 | timeout          0 | loss rate 0.0000%
sent    3672562 | retrans          0 | timeout          0 | loss rate 0.0000%
sent    3671751 | retrans          0 | timeout          0 | loss rate 0.0000%
