sent    3155421 | retrans          0 | timeout          0 | loss rate 0.0000%
sent    3158090 | retrans          0 | timeout          0 | loss rate 0.0000%
sent    3152777 | retrans          0 | timeout          0 | loss rate 0.0000%
sent    3158516 | retrans          0 | timeout          0 | loss rate 0.0000%
sent    3155971 | retrans          0 | timeout          0 | loss rate 0.0000%
sent    3159923 | retrans          0 | timeout          0 | loss rate 0.0000%
sent    3154946 | retrans          0 | timeout          0 | loss rate 0.0000%
