sent    3323110 | retrans          0 | timeout          0 | loss rate 0.0000%
sent    3323275 | retrans          0 | timeout          0 | loss rate 0.0000%
sent    3318982 | retrans          0 | timeout          0 | loss rate 0.0000%
sent    3322704 | retrans          0 | timeout          0 | loss rate 0.0000%
sent    3323148 | retrans          0 | timeout          0 | loss rate 0.0000%
sent    3327630 | retrans          0 | timeout          0 | loss rate 0.0000%
sent    3324434 | retrans          0 | timeout          0 | loss rate 0.0000%
