sent    3950292 | retrans          0 | timeout          0 | loss rate 0.0000%
sent    3962120 | retrans          0 | timeout          0 | loss rate 0.0000%
sent    3945420 | retrans          0 | timeout          0 | loss rate 0.0000%
sent    3956266 | retrans          0 | timeout          0 | loss rate 0.0000%
sent    3987853 | retrans          0 | timeout          0 | loss rate 0.0000%
sent    3941686 | retrans          0 | timeout          0 | loss rate 0.0000%
sent    3994653 | retrans          0 | timeout          0 | loss rate 0.0000%
