sent     672662 | retrans          0 | timeout          0 | loss rate 0.0000%
sent     672296 | retrans          0 | timeout          0 | loss rate 0.0000%
sent     675514 | retrans          0 | timeout          0 | loss rate 0.0000%
sent     674196 | retrans          0 | timeout          0 | loss rate 0.0000%
sent     674643 | retrans          0 | timeout          0 | loss rate 0.0000%
sent     672283 | retrans          0 | timeout          0 | loss rate 0.0000%
sent     676492 | retrans          0 | timeout          0 | loss rate 0.0000%
