sent    2313206 | retrans          0 | timeout          0 | loss rate 0.0000%
sent    2316097 | retrans          0 | timeout          0 | loss rate 0.0000%
sent    2313789 | retrans          0 | timeout          0 | loss rate 0.0000%
sent    2310950 | retrans          0 | timeout          0 | loss rate 0.0000%
sent    2313806 | retrans          0 | timeout          0 | loss rate 0.0000%
sent    2312300 | retrans          0 | timeout          0 | loss rate 0.0000%
sent    2316491 | retrans          0 | timeout          0 | loss rate 0.0000%
