sent    3491661 | retrans          0 | timeout          0 | loss rate 0.0000%
sent    3496702 | retrans          0 | timeout          0 | loss rate 0.0000%
sent    3494548 | retrans          0 | timeout          0 | loss rate 0.0000%
sent    3493113 | retrans          0 | timeout          0 | loss rate 0.0000%
sent    3495903 | retrans          0 | timeout          0 | loss rate 0.0000%
sent    3496936 | retrans          0 | timeout          0 | loss rate 0.0000%
sent    3495555 | retrans          0 | timeout          0 | loss rate 0.0000%
