sent    3498192 | retrans          0 | timeout          0 | loss rate 0.0000%
sent    3498228 | retrans          0 | timeout          0 | loss rate 0.0000%
sent    3500824 | retrans          0 | timeout          0 | loss rate 0.0000%
sent    3504170 | retrans          0 | timeout          0 | loss rate 0.0000%
sent    3500392 | retrans          0 | timeout          0 | loss rate 0.0000%
sent    3497319 | retrans          0 | timeout          0 | loss rate 0.0000%
sent    3505614 | retrans          0 | timeout          0 | loss rate 0.0000%
