sent    4180490 | retrans          0 | timeout          0 | loss rate 0.0000%
sent    4176711 | retrans          0 | timeout          0 | loss rate 0.0000%
sent    4189263 | retrans          0 | timeout          0 | loss rate 0.0000%
sent    4184628 | retrans          0 | timeout          0 | loss rate 0.0000%
sent    4181007 | retrans          0 | timeout          0 | loss rate 0.0000%
sent    4176894 | retrans          0 | timeout          0 | loss rate 0.0000%
sent    4168894 | retrans          0 | timeout          0 | loss rate 0.0000%
