sent    3499788 | retrans          0 | timeout          0 | loss rate 0.0000%
sent    3495758 | retrans          0 | timeout          0 | loss rate 0.0000%
sent    3497309 | retrans          0 | timeout          0 | loss rate 0.0000%
sent    3500396 | retrans          0 | timeout          0 | loss rate 0.0000%
sent    3500907 | retrans          0 | timeout          0 | loss rate 0.0000%
sent    3496997 | retrans          0 | timeout          0 | loss rate 0.0000%
sent    3498083 | retrans          0 | timeout          0 | loss rate 0.0000%
