sent    2500580 | retrans          0 | timeout          0 | loss rate 0.0000%
sent    2496003 | retrans          0 | timeout          0 | loss rate 0.0000%
sent    2500768 | retrans          0 | timeout          0 | loss rate 0.0000%
sent    2495279 | retrans          0 | timeout          0 | loss rate 0.0000%
sent    2494052 | retrans          0 | timeout          0 | loss rate 0.0000%
sent    2500498 | retrans          0 | timeout          0 | loss rate 0.0000%
sent    2504102 | retrans          0 | timeout          0 | loss rate 0.0000%
