sent    2323594 | retrans          0 | timeout          0 | loss rate 0.0000%
sent    2322886 | retrans          0 | timeout          0 | loss rate 0.0000%
sent    2323549 | retrans          0 | timeout          0 | loss rate 0.0000%
sent    2322850 | retrans          0 | timeout          0 | loss rate 0.0000%
sent    2322996 | retrans          0 | timeout          0 | loss rate 0.0000%
sent    2321288 | retrans          0 | timeout          0 | loss rate 0.0000%
sent    2320659 | retrans          0 | timeout          0 | loss rate 0.0000%
