sent    3501741 | retrans          0 | timeout          0 | loss rate 0.0000%
sent    3502287 | retrans          0 | timeout          0 | loss rate 0.0000%
sent    3500733 | retrans          0 | timeout          0 | loss rate 0.0000%
sent    3503301 | retrans          0 | timeout          0 | loss rate 0.0000%
sent    3497551 | retrans          0 | timeout          0 | loss rate 0.0000%
sent    3499947 | retrans          0 | timeout          0 | loss rate 0.0000%
sent    3503711 | retrans          0 | timeout          0 | loss rate 0.0000%
