sent    3671049 | retrans          0 | timeout          0 | loss rate 0.0000%
sent    3673351 | retrans          0 | timeout          0 | loss rate 0.0000%
sent    3674941 | retrans          0 | timeout          0 | loss rate 0.0000%
sent    3671456 | retrans          0 | timeout          0 | loss rate 0.0000%
sent    3671596 | retrans          0 | timeout          0 | loss rate 0.0000%
sent    3674845 | retrans          0 | timeout          0 | loss rate 0.0000%
sent    3670023 | retrans          0 | timeout          0 | loss rate 0.0000%
