sent    4146834 | retrans          0 | timeout          0 | loss rate 0.0000%
sent    4147143 | retrans          0 | timeout          0 | loss rate 0.0000%
sent    4145954 | retrans          0 | timeout          0 | loss rate 0.0000%
sent    4149877 | retrans          0 | timeout          0 | loss rate 0.0000%
sent    4151125 | retrans          0 | timeout          0 | loss rate 0.0000%
sent    4152056 | retrans          0 | timeout          0 | loss rate 0.0000%
sent    4138855 | retrans          0 | timeout          0 | loss rate 0.0000%
