sent    3846179 | retrans          0 | timeout          0 | loss rate 0.0000%
sent    3852688 | retrans          0 | timeout          0 | loss rate 0.0000%
sent    3848446 | retrans          0 | timeout          0 | loss rate 0.0000%
sent    3847483 | retrans          0 | timeout          0 | loss rate 0.0000%
sent    3842496 | retrans          0 | timeout          0 | loss rate 0.0000%
sent    3847449 | retrans          0 | timeout          0 | loss rate 0.0000%
sent    3842513 | retrans          0 | timeout          0 | loss rate 0.0000%
