sent    3323220 | retrans          0 | timeout          0 | loss rate 0.0000%
sent    3327290 | retrans          0 | timeout          0 | loss rate 0.0000%
sent    3324101 | retrans          0 | timeout          0 | loss rate 0.0000%
sent    3329136 | retrans          0 | timeout          0 | loss rate 0.0000%
sent    3329518 | retrans          0 | timeout          0 | loss rate 0.0000%
sent    3327256 | retrans          0 | timeout          0 | loss rate 0.0000%
sent    3322207 | retrans          0 | timeout          0 | loss rate 0.0000%
