sent    3675290 | retrans          0 | timeout          0 | loss rate 0.0000%
sent    3669615 | retrans          0 | timeout          0 | loss rate 0.0000%
sent    3671936 | retrans          0 | timeout          0 | loss rate 0.0000%
sent    3672174 | retrans          0 | timeout          0 | loss rate 0.0000%
sent    3675453 | retrans          0 | timeout          0 | loss rate 0.0000%
sent    3671821 | retrans          0 | timeout          0 | loss rate 0.0000%
sent    3674657 | retrans          0 | timeout          0 | loss rate 0.0000%
