sent    1672304 | retrans          0 | timeout          0 | loss rate 0.0000%
sent    1631922 | retrans          0 | timeout          0 | loss rate 0.0000%
sent    1674069 | retrans          0 | timeout          0 | loss rate 0.0000%
sent    1656847 | retrans          0 | timeout          0 | loss rate 0.0000%
sent    1646670 | retrans          0 | timeout          0 | loss rate 0.0000%
sent    1637837 | retrans          0 | timeout          0 | loss rate 0.0000%
sent    1659665 | retrans          0 | timeout          0 | loss rate 0.0000%
