sent    3325491 | retrans          0 | timeout          0 | loss rate 0.0000%
sent    3333915 | retrans          0 | timeout          0 | loss rate 0.0000%
sent    3327114 | retrans          0 | timeout          0 | loss rate 0.0000%
sent    3326896 | retrans          0 | timeout          0 | loss rate 0.0000%
sent    3325229 | retrans          0 | timeout          0 | loss rate 0.0000%
sent    3326141 | retrans          0 | timeout          0 | loss rate 0.0000%
sent    3331234 | retrans          0 | timeout          0 | loss rate 0.0000%
