#type       avg     std     min     5th    10th    50th    90th    95th    99th
read       75.5    40.4    32.4    48.0    51.5    68.5   107.2   124.8   168.3
update      0.0     0.0     0.0     0.0     0.0     0.0     0.0     0.0     0.0
op_q        1.0     0.0     1.0     1.0     1.0     1.1     1.1     1.1     1.1
rx      294911.3 20490.5 117653.3 263074.2 267716.0 294764.5 320056.8 337270.0 351040.5

Total QPS = 359889.4 (10796682 / 30.0s)

Misses = 0 (0.0%)
Skipped TXs = 0 (0.0%)

RX 2644622368 bytes :   84.1 MB/s
TX  455915885 bytes :   14.5 MB/s
