#type       avg     std     min     5th    10th    50th    90th    95th    99th
read       83.0    53.6    32.4    49.7    53.2    73.8   122.6   144.7   201.6
update      0.0     0.0     0.0     0.0     0.0     0.0     0.0     0.0     0.0
op_q        1.0     0.0     1.0     1.0     1.0     1.1     1.1     1.1     1.1
rx      326582.6 19716.9 189481.7 292540.6 296753.7 327559.7 351872.6 369236.3 383891.3

Total QPS = 400036.3 (12001090 / 30.0s)

Misses = 0 (0.0%)
Skipped TXs = 0 (0.0%)

RX 2938065518 bytes :   93.4 MB/s
TX  506684891 bytes :   16.1 MB/s
