#type       avg     std     min     5th    10th    50th    90th    95th    99th
read      104.2    85.5    32.4    51.7    56.3    86.6   167.2   203.1   304.1
update      0.0     0.0     0.0     0.0     0.0     0.0     0.0     0.0     0.0
op_q        1.0     0.0     1.0     1.0     1.0     1.1     1.1     1.1     1.1
rx      360303.4 21499.5 252200.2 322457.3 327112.6 360812.3 387588.8 408072.5 424459.4

Total QPS = 440165.6 (13204969 / 30.0s)

Misses = 0 (0.0%)
Skipped TXs = 0 (0.0%)

RX 3233659618 bytes :  102.8 MB/s
TX  557601121 bytes :   17.7 MB/s
