#type       avg     std     min     5th    10th    50th    90th    95th    99th
read       98.3    70.9    32.4    51.9    56.4    84.1   154.6   186.4   269.1
update      0.0     0.0     0.0     0.0     0.0     0.0     0.0     0.0     0.0
op_q        1.0     0.0     1.0     1.0     1.0     1.1     1.1     1.1     1.1
rx      362419.7 22473.2 172256.1 323761.9 328807.2 363102.6 396513.3 412503.7 425296.1

Total QPS = 439916.9 (13197508 / 30.0s)

Misses = 0 (0.0%)
Skipped TXs = 0 (0.0%)

RX 3241771483 bytes :  103.1 MB/s
TX  557309342 bytes :   17.7 MB/s
