#type       avg     std     min     5th    10th    50th    90th    95th    99th
read    15968.1  1549.5   163.9 13654.8 14959.3 15854.8 16565.2 16654.0 20067.2
update      0.0     0.0     0.0     0.0     0.0     0.0     0.0     0.0     0.0
op_q        1.0     0.0     1.0     1.0     1.0     1.1     1.1     1.1     1.1
rx      441676.3 21215.3 305162.2 395272.3 403534.1 443096.2 471372.1 493587.0 511358.9

Total QPS = 543311.6 (16299349 / 30.0s)

Misses = 0 (0.0%)
Skipped TXs = 0 (0.0%)

RX 3957770697 bytes :  125.8 MB/s
TX  688619341 bytes :   21.9 MB/s
