#type       avg     std     min     5th    10th    50th    90th    95th    99th
read    15125.0   607.3   180.3 13892.7 14033.4 15158.9 16379.0 16531.5 16653.5
update      0.0     0.0     0.0     0.0     0.0     0.0     0.0     0.0     0.0
op_q        1.0     0.0     1.0     1.0     1.0     1.1     1.1     1.1     1.1
rx      484083.1 22986.7 406170.9 434253.4 442642.3 486008.1 514401.1 537974.6 563597.2

Total QPS = 590039.7 (17701191 / 30.0s)

Misses = 0 (0.0%)
Skipped TXs = 0 (0.0%)

RX 4350491440 bytes :  138.3 MB/s
TX  747764946 bytes :   23.8 MB/s
