#type       avg     std     min     5th    10th    50th    90th    95th    99th
read    16234.7   458.3   123.1 15233.7 15311.6 15934.7 16557.9 16635.7 17720.0
update      0.0     0.0     0.0     0.0     0.0     0.0     0.0     0.0     0.0
op_q        1.0     0.0     1.0     1.0     1.0     1.1     1.1     1.1     1.1
rx      453142.4 20978.8 369246.3 411425.2 427220.9 451348.1 494608.5 506011.6 515134.0

Total QPS = 551046.5 (16531396 / 30.0s)

Misses = 0 (0.0%)
Skipped TXs = 0 (0.0%)

RX 4050221573 bytes :  128.8 MB/s
TX  698348604 bytes :   22.2 MB/s
