# started on Mon Mar 27 09:42:59 2023

#           time             counts unit events
     5.003058322          3,372,887      LLC-load-misses           #   19.41% of all LL-cache accesses  (49.94%)
     5.003058322         35,176,014      LLC-load-misses           #   29.33% of all LL-cache accesses  (50.03%)
     5.003058322         17,374,690      LLC-loads                 #  434.068 K/sec                    (50.11%)
     5.003058322        119,937,502      LLC-loads                 #    2.996 M/sec                    (41.81%)
     5.003058322            215,330      LLC-store-misses          #    5.380 K/sec                    (25.03%)
     5.003058322         20,609,590      LLC-store-misses          #  514.884 K/sec                    (33.35%)
     5.003058322          7,046,727      LLC-stores                #  176.047 K/sec                    (24.94%)
     5.003058322         54,566,957      LLC-stores                #    1.363 M/sec                    (33.25%)
     5.003058322          40,027.60 msec task-clock                #    8.006 CPUs utilized          
     5.003058322      3,405,108,143      cycles:u                  #    0.085 GHz                      (41.57%)
     5.003058322     20,642,388,420      cycles:k                  #    0.516 GHz                      (41.57%)
     5.003058322      3,066,673,953      instructions:u            #    0.90  insn per cycle           (49.88%)
     5.003058322     10,944,243,750      instructions:k            #    0.53  insn per cycle           (49.88%)
    10.007057151         15,541,323      LLC-load-misses           #   19.77% of all LL-cache accesses  (49.88%)
    10.007057151        162,458,681      LLC-load-misses           #   30.08% of all LL-cache accesses  (49.88%)
    10.007057151         78,609,308      LLC-loads                 #    1.964 M/sec                    (49.88%)
    10.007057151        540,055,597      LLC-loads                 #   13.491 M/sec                    (41.64%)
    10.007057151            974,330      LLC-store-misses          #   24.340 K/sec                    (25.10%)
    10.007057151         94,162,253      LLC-store-misses          #    2.352 M/sec                    (33.49%)
    10.007057151         33,218,268      LLC-stores                #  829.829 K/sec                    (25.11%)
    10.007057151        252,411,601      LLC-stores                #    6.306 M/sec                    (33.42%)
    10.007057151          40,030.25 msec task-clock                #    8.006 CPUs utilized          
    10.007057151     13,712,010,858      cycles:u                  #    0.343 GHz                      (41.73%)
    10.007057151     93,828,040,422      cycles:k                  #    2.344 GHz                      (41.65%)
    10.007057151      8,548,524,823      instructions:u            #    0.62  insn per cycle           (49.96%)
    10.007057151     50,562,436,631      instructions:k            #    0.54  insn per cycle           (49.88%)
    15.011059050         15,523,208      LLC-load-misses           #   19.75% of all LL-cache accesses  (50.04%)
    15.011059050        162,481,854      LLC-load-misses           #   30.14% of all LL-cache accesses  (49.96%)
    15.011059050         78,589,715      LLC-loads                 #    1.963 M/sec                    (49.89%)
    15.011059050        539,096,984      LLC-loads                 #   13.467 M/sec                    (41.57%)
    15.011059050            973,864      LLC-store-misses          #   24.328 K/sec                    (24.94%)
    15.011059050         94,257,031      LLC-store-misses          #    2.355 M/sec                    (33.26%)
    15.011059050         33,255,564      LLC-stores                #  830.749 K/sec                    (25.01%)
    15.011059050        252,769,250      LLC-stores                #    6.314 M/sec                    (33.41%)
    15.011059050          40,030.83 msec task-clock                #    8.006 CPUs utilized          
    15.011059050     13,706,352,668      cycles:u                  #    0.342 GHz                      (41.80%)
    15.011059050     93,811,820,429      cycles:k                  #    2.343 GHz                      (41.80%)
    15.011059050      8,546,125,552      instructions:u            #    0.62  insn per cycle           (50.12%)
    15.011059050     50,647,053,270      instructions:k            #    0.54  insn per cycle           (50.12%)
    20.015056050         15,850,864      LLC-load-misses           #   19.88% of all LL-cache accesses  (50.12%)
    20.015056050        162,083,273      LLC-load-misses           #   30.10% of all LL-cache accesses  (50.12%)
    20.015056050         79,723,572      LLC-loads                 #    1.992 M/sec                    (50.12%)
    20.015056050        538,421,745      LLC-loads                 #   13.450 M/sec                    (41.65%)
    20.015056050          1,309,951      LLC-store-misses          #   32.723 K/sec                    (24.94%)
    20.015056050         93,922,384      LLC-store-misses          #    2.346 M/sec                    (33.26%)
    20.015056050         33,824,776      LLC-stores                #  844.966 K/sec                    (24.94%)
    20.015056050        252,269,463      LLC-stores                #    6.302 M/sec                    (33.25%)
    20.015056050          40,030.93 msec task-clock                #    8.006 CPUs utilized          
    20.015056050     13,841,124,140      cycles:u                  #    0.346 GHz                      (41.57%)
    20.015056050     93,690,398,008      cycles:k                  #    2.340 GHz                      (41.64%)
    20.015056050      8,566,785,751      instructions:u            #    0.62  insn per cycle           (50.03%)
    20.015056050     50,619,963,466      instructions:k            #    0.54  insn per cycle           (50.11%)
    25.019058748         16,509,074      LLC-load-misses           #   20.07% of all LL-cache accesses  (49.95%)
    25.019058748        161,241,508      LLC-load-misses           #   29.86% of all LL-cache accesses  (50.03%)
    25.019058748         82,238,410      LLC-loads                 #    2.054 M/sec                    (50.11%)
    25.019058748        539,941,497      LLC-loads                 #   13.488 M/sec                    (41.81%)
    25.019058748          2,030,086      LLC-store-misses          #   50.713 K/sec                    (25.03%)
    25.019058748         93,016,360      LLC-store-misses          #    2.324 M/sec                    (33.34%)
    25.019058748         34,684,946      LLC-stores                #  866.453 K/sec                    (24.94%)
    25.019058748        249,764,896      LLC-stores                #    6.239 M/sec                    (33.25%)
    25.019058748          40,030.97 msec task-clock                #    8.006 CPUs utilized          
    25.019058748     14,122,543,531      cycles:u                  #    0.353 GHz                      (41.57%)
    25.019058748     93,425,690,551      cycles:k                  #    2.334 GHz                      (41.56%)
    25.019058748      8,454,278,253      instructions:u            #    0.60  insn per cycle           (49.88%)
    25.019058748     50,007,851,823      instructions:k            #    0.54  insn per cycle           (49.88%)
    30.023061252         16,681,880      LLC-load-misses           #   20.12% of all LL-cache accesses  (49.88%)
    30.023061252        161,484,681      LLC-load-misses           #   30.04% of all LL-cache accesses  (49.88%)
    30.023061252         82,902,689      LLC-loads                 #    2.071 M/sec                    (49.88%)
    30.023061252        537,607,037      LLC-loads                 #   13.430 M/sec                    (41.64%)
    30.023061252          2,163,126      LLC-store-misses          #   54.037 K/sec                    (25.10%)
    30.023061252         93,553,379      LLC-store-misses          #    2.337 M/sec                    (33.49%)
    30.023061252         35,232,528      LLC-stores                #  880.144 K/sec                    (25.11%)
    30.023061252        251,153,487      LLC-stores                #    6.274 M/sec                    (33.42%)
    30.023061252          40,030.41 msec task-clock                #    8.006 CPUs utilized          
    30.023061252     14,142,037,990      cycles:u                  #    0.353 GHz                      (41.73%)
    30.023061252     93,411,528,909      cycles:k                  #    2.334 GHz                      (41.65%)
    30.023061252      8,585,165,932      instructions:u            #    0.61  insn per cycle           (49.96%)
    30.023061252     50,378,904,470      instructions:k            #    0.54  insn per cycle           (49.88%)
    35.027099387         12,418,231      LLC-load-misses           #   19.74% of all LL-cache accesses  (50.04%)
    35.027099387        127,796,820      LLC-load-misses           #   30.20% of all LL-cache accesses  (49.97%)
    35.027099387         62,905,183      LLC-loads                 #    1.571 M/sec                    (49.89%)
    35.027099387        423,169,301      LLC-loads                 #   10.571 M/sec                    (41.57%)
    35.027099387            957,941      LLC-store-misses          #   23.930 K/sec                    (24.94%)
    35.027099387         73,519,365      LLC-store-misses          #    1.837 M/sec                    (33.26%)
    35.027099387         26,272,856      LLC-stores                #  656.310 K/sec                    (25.01%)
    35.027099387        197,205,213      LLC-stores                #    4.926 M/sec                    (33.41%)
    35.027099387          40,031.17 msec task-clock                #    8.006 CPUs utilized          
    35.027099387     10,883,541,498      cycles:u                  #    0.272 GHz                      (41.80%)
    35.027099387     73,503,719,540      cycles:k                  #    1.836 GHz                      (41.80%)
    35.027099387      6,847,101,210      instructions:u            #    0.63  insn per cycle           (50.12%)
    35.027099387     39,830,188,255      instructions:k            #    0.54  insn per cycle           (50.12%)
    36.103487028             12,732      LLC-load-misses           #   71.19% of all LL-cache accesses  (50.50%)
    36.103487028            140,259      LLC-load-misses           #   23.13% of all LL-cache accesses  (50.87%)
    36.103487028             17,884      LLC-loads                 #    2.077 K/sec                    (50.95%)
    36.103487028            606,401      LLC-loads                 #   70.424 K/sec                    (42.07%)
    36.103487028                142      LLC-store-misses          #   16.491 /sec                     (24.61%)
    36.103487028            173,980      LLC-store-misses          #   20.205 K/sec                    (32.78%)
    36.103487028                 32      LLC-stores                #    3.716 /sec                     (24.53%)
    36.103487028            218,012      LLC-stores                #   25.319 K/sec                    (32.70%)
    36.103487028           8,610.77 msec task-clock                #    1.722 CPUs utilized          
    36.103487028             44,377      cycles:u                  #    0.000 GHz                      (40.88%)
    36.103487028        125,526,526      cycles:k                  #    0.015 GHz                      (41.21%)
    36.103487028            364,161      instructions:u            #    8.21  insn per cycle           (49.75%)
    36.103487028         13,470,907      instructions:k            #    0.11  insn per cycle           (50.13%)
