#type       avg     std     min     5th    10th    50th    90th    95th    99th
read    118403.4 105921.2  3145.4 41805.7 50011.7 94560.4 151715.9 384965.9 467253.7
update      0.0     0.0     0.0     0.0     0.0     0.0     0.0     0.0     0.0
op_q        1.0     0.0     1.0     1.0     1.0     1.1     1.1     1.1     1.1
rx      60208.8  8491.0     1.0 47744.3 49919.2 59762.4 71073.8 75401.8 84468.3

Total QPS = 74907.1 (2247212 / 30.0s)

Misses = 0 (0.0%)
Skipped TXs = 0 (0.0%)

RX  545892522 bytes :   17.4 MB/s
TX   95249605 bytes :    3.0 MB/s
