#type       avg     std     min     5th    10th    50th    90th    95th    99th
read       64.7   366.7    26.8    37.0    38.5    48.9    71.9    85.0   129.9
update      0.0     0.0     0.0     0.0     0.0     0.0     0.0     0.0     0.0
op_q        1.0     0.0     1.0     1.0     1.0     1.1     1.1     1.1     1.1
rx      36998.8  6835.6     1.0 27275.8 28960.8 36493.0 45778.5 48763.8 56387.6

Total QPS = 45069.1 (1352073 / 30.0s)

Misses = 0 (0.0%)
Skipped TXs = 0 (0.0%)

RX  329120179 bytes :   10.5 MB/s
TX   57077775 bytes :    1.8 MB/s
