#type       avg     std     min     5th    10th    50th    90th    95th    99th
read     3839.1   213.9  2599.5  3425.9  3553.2  3843.8  4233.0  4316.2  4382.7
update      0.0     0.0     0.0     0.0     0.0     0.0     0.0     0.0     0.0
op_q        1.0     0.0     1.0     1.0     1.0     1.1     1.1     1.1     1.1
rx      1915817.2 90083.5 1696676.8 1781343.3 1796172.3 1914805.0 2098236.8 2125709.6 2147687.9

Total QPS = 583125.7 (17493778 / 30.0s)

Misses = 0 (0.0%)
Skipped TXs = 0 (0.0%)

RX 4287991916 bytes :  136.3 MB/s
TX  738762474 bytes :   23.5 MB/s
