#type       avg     std     min     5th    10th    50th    90th    95th    99th
read     3371.4   211.1  2599.5  3092.9  3187.3  3435.0  3594.7  3614.7  3776.7
update      0.0     0.0     0.0     0.0     0.0     0.0     0.0     0.0     0.0
op_q        1.0     0.0     1.0     1.0     1.0     1.1     1.1     1.1     1.1
rx      2177734.9 50656.6 2052978.9 1990756.7 2024074.8 2216624.4 2339663.4 2355043.3 2367347.2

Total QPS = 665114.8 (19953448 / 30.0s)

Misses = 0 (0.0%)
Skipped TXs = 0 (0.0%)

RX 4885299784 bytes :  155.3 MB/s
TX  842672654 bytes :   26.8 MB/s
