  num          irqs       pkts  cpus name
  104 RX    2557713    2611340     0 mlx4-33@0000:07:00.0
  105 RX    2522430    2577957     1 mlx4-34@0000:07:00.0
  106 RX    2443432    2462410     2 mlx4-35@0000:07:00.0
  107 RX    2480349    2519056     3 mlx4-36@0000:07:00.0
  108 RX    2517148    2562743     4 mlx4-37@0000:07:00.0
  109 RX    2520396    2541756     5 mlx4-38@0000:07:00.0
  110 RX    2498590    2523622     6 mlx4-39@0000:07:00.0
  111 RX    2527385    2555774     7 mlx4-40@0000:07:00.0
total      20067443   20354658
