  num          irqs       pkts  cpus name
  104 RX      10753    2796187     0 mlx4-33@0000:07:00.0
  105 RX      12050    2725886     1 mlx4-34@0000:07:00.0
  106 RX      10745    2805530     2 mlx4-35@0000:07:00.0
  107 RX      10733    2794957     3 mlx4-36@0000:07:00.0
  108 RX      10717    2798522     4 mlx4-37@0000:07:00.0
  109 RX      10730    2808754     5 mlx4-38@0000:07:00.0
  110 RX      10751    2802699     6 mlx4-39@0000:07:00.0
  111 RX      10714    2800185     7 mlx4-40@0000:07:00.0
total         87193   22332720
