#type       avg     std     min     5th    10th    50th    90th    95th    99th
read     1177.1   512.6   239.9  1011.6  1062.2  1187.4  1264.7  1299.3  1386.2
update      0.0     0.0     0.0     0.0     0.0     0.0     0.0     0.0     0.0
op_q        1.0     0.0     1.0     1.0     1.0     1.1     1.1     1.1     1.1
rx      6139194.9 244302.2 5857388.4 5632842.0 5680883.3 6065213.7 6610903.7 6684256.3 6742938.3

Total QPS = 942183.4 (28265530 / 30.0s)

Misses = 0 (0.0%)
Skipped TXs = 0 (0.0%)

RX 6878377361 bytes :  218.7 MB/s
TX 1193466236 bytes :   37.9 MB/s
