#type       avg     std     min     5th    10th    50th    90th    95th    99th
read     1170.3   525.9   239.9  1057.3  1069.2  1164.5  1264.7  1311.8  1387.5
update      0.0     0.0     0.0     0.0     0.0     0.0     0.0     0.0     0.0
op_q        1.0     0.0     1.0     1.0     1.0     1.1     1.1     1.1     1.1
rx      6212879.8 267069.6 5857388.4 5666034.2 5747267.6 6289549.4 6663997.0 6710802.9 6748247.7

Total QPS = 954046.2 (28621390 / 30.0s)

Misses = 0 (0.0%)
Skipped TXs = 0 (0.0%)

RX 6958495755 bytes :  221.2 MB/s
TX 1208609060 bytes :   38.4 MB/s
