#type       avg     std     min     5th    10th    50th    90th    95th    99th
read     1210.8   504.2   218.1  1094.6  1139.5  1209.8  1265.9  1290.2  1386.4
update      0.0     0.0     0.0     0.0     0.0     0.0     0.0     0.0     0.0
op_q        1.0     0.0     1.0     1.0     1.0     1.1     1.1     1.1     1.1
rx      6025431.5 113845.9 5857388.4 5619168.7 5653536.7 5928480.8 6429967.2 6593788.0 6724844.7

Total QPS = 924908.9 (27747270 / 30.0s)

Misses = 0 (0.0%)
Skipped TXs = 0 (0.0%)

RX 6761680599 bytes :  214.9 MB/s
TX 1171744117 bytes :   37.2 MB/s
