#type       avg     std     min     5th    10th    50th    90th    95th    99th
read       59.7   702.1    26.8    33.2    35.1    44.9    65.2    76.4   117.1
update      0.0     0.0     0.0     0.0     0.0     0.0     0.0     0.0     0.0
op_q        1.0     0.0     1.0     1.0     1.0     1.1     1.1     1.1     1.1
rx      3154320.0 73118.4 3005766.4 2894907.5 2923929.1 3156366.4 3405450.8 3436586.3 3461494.7

Total QPS = 479825.0 (14394752 / 30.0s)

Misses = 0 (0.0%)
Skipped TXs = 0 (0.0%)

RX 3534594060 bytes :  112.4 MB/s
TX  607836220 bytes :   19.3 MB/s
