#type       avg     std     min     5th    10th    50th    90th    95th    99th
read       61.6   739.6    26.8    34.0    35.7    46.3    67.9    79.1   124.4
update      0.0     0.0     0.0     0.0     0.0     0.0     0.0     0.0     0.0
op_q        1.0     0.0     1.0     1.0     1.0     1.1     1.1     1.1     1.1
rx      3122503.8 59355.8 3005766.4 2885481.6 2905077.4 3061843.8 3350420.5 3409071.2 3455991.7

Total QPS = 480071.0 (14402129 / 30.0s)

Misses = 0 (0.0%)
Skipped TXs = 0 (0.0%)

RX 3504836992 bytes :  111.4 MB/s
TX  608041158 bytes :   19.3 MB/s
