#type       avg     std     min     5th    10th    50th    90th    95th    99th
read       62.8   726.0    26.8    33.5    35.4    46.5    69.9    81.8   128.4
update      0.0     0.0     0.0     0.0     0.0     0.0     0.0     0.0     0.0
op_q        1.0     0.0     1.0     1.0     1.0     1.1     1.1     1.1     1.1
rx      3388632.4 64970.0 3306343.1 3169988.2 3187501.9 3327611.9 3467721.9 3641107.9 3779816.8

Total QPS = 519954.0 (15598620 / 30.0s)

Misses = 0 (0.0%)
Skipped TXs = 0 (0.0%)

RX 3797892806 bytes :  120.7 MB/s
TX  658638319 bytes :   20.9 MB/s
