#type       avg     std     min     5th    10th    50th    90th    95th    99th
read       63.0   703.5    26.8    34.0    35.7    47.0    70.3    82.2   128.9
update      0.0     0.0     0.0     0.0     0.0     0.0     0.0     0.0     0.0
op_q        1.0     0.0     1.0     1.0     1.0     1.1     1.1     1.1     1.1
rx      3422967.1 72491.8 3306343.1 3174029.8 3195585.2 3368028.2 3685462.5 3749978.3 3801590.9

Total QPS = 520172.0 (15605161 / 30.0s)

Misses = 0 (0.0%)
Skipped TXs = 0 (0.0%)

RX 3827833771 bytes :  121.7 MB/s
TX  658865671 bytes :   20.9 MB/s
