#type       avg     std     min     5th    10th    50th    90th    95th    99th
read       59.3   495.2    26.8    34.1    36.0    48.5    74.7    87.8   129.4
update      0.0     0.0     0.0     0.0     0.0     0.0     0.0     0.0     0.0
op_q        1.0     0.0     1.0     1.0     1.0     1.1     1.1     1.1     1.1
rx      3655730.7 92376.7 3306343.1 3483382.5 3501280.4 3644463.8 3787647.2 3805545.1 4119653.6

Total QPS = 560211.6 (16806348 / 30.0s)

Misses = 0 (0.0%)
Skipped TXs = 0 (0.0%)

RX 4095133755 bytes :  130.2 MB/s
TX  709617777 bytes :   22.6 MB/s
