#type       avg     std     min     5th    10th    50th    90th    95th    99th
read       66.1   703.2    26.8    34.4    36.5    49.0    75.1    88.6   141.6
update      0.0     0.0     0.0     0.0     0.0     0.0     0.0     0.0     0.0
op_q        1.0     0.0     1.0     1.0     1.0     1.1     1.1     1.1     1.1
rx      3656903.5 75780.1 3636977.4 3485505.0 3503288.2 3645553.7 3787819.3 3805602.4 4043363.7

Total QPS = 560171.6 (16805149 / 30.0s)

Misses = 0 (0.0%)
Skipped TXs = 0 (0.0%)

RX 4089949738 bytes :  130.0 MB/s
TX  709623199 bytes :   22.6 MB/s
