#type       avg     std     min     5th    10th    50th    90th    95th    99th
read       71.9   670.3    26.8    34.8    37.3    52.1    83.5   101.8   211.6
update      0.0     0.0     0.0     0.0     0.0     0.0     0.0     0.0     0.0
op_q        1.0     0.0     1.0     1.0     1.0     1.1     1.1     1.1     1.1
rx      3905058.3 69127.8 3636977.4 3599825.5 3731929.2 3976404.2 4152035.6 4173989.5 4191552.7

Total QPS = 600236.9 (18007107 / 30.0s)

Misses = 0 (0.0%)
Skipped TXs = 0 (0.0%)

RX 4383547903 bytes :  139.3 MB/s
TX  760369720 bytes :   24.2 MB/s
