#type       avg     std     min     5th    10th    50th    90th    95th    99th
read       69.9   580.2    26.8    35.5    38.1    53.9    88.4   107.0   164.5
update      0.0     0.0     0.0     0.0     0.0     0.0     0.0     0.0     0.0
op_q        1.0     0.0     1.0     1.0     1.0     1.1     1.1     1.1     1.1
rx      4146060.4 74462.6 4000675.1 3839924.0 3865354.0 4068793.6 4447700.0 4531618.9 4598754.0

Total QPS = 640053.3 (19201600 / 30.0s)

Misses = 0 (0.0%)
Skipped TXs = 0 (0.0%)

RX 4655168195 bytes :  148.0 MB/s
TX  810761483 bytes :   25.8 MB/s
