#type       avg     std     min     5th    10th    50th    90th    95th    99th
read       82.4   650.7    26.8    37.3    40.1    59.2   102.3   122.9   834.7
update      0.0     0.0     0.0     0.0     0.0     0.0     0.0     0.0     0.0
op_q        1.0     0.0     1.0     1.0     1.0     1.1     1.1     1.1     1.1
rx      4429736.8 78710.0 4400742.6 4217055.1 4238166.8 4407060.1 4575953.4 4597065.1 4613954.4

Total QPS = 679665.3 (20389960 / 30.0s)

Misses = 0 (0.0%)
Skipped TXs = 0 (0.0%)

RX 4964303917 bytes :  157.8 MB/s
TX  860940345 bytes :   27.4 MB/s
