#type       avg     std     min     5th    10th    50th    90th    95th    99th
read       79.7   575.9    26.8    37.5    40.3    59.0   100.7   120.4   467.6
update      0.0     0.0     0.0     0.0     0.0     0.0     0.0     0.0     0.0
op_q        1.0     0.0     1.0     1.0     1.0     1.1     1.1     1.1     1.1
rx      4398469.4 69376.2 4400742.6 4216923.2 4237902.9 4405740.6 4573578.3 4594558.1 4611341.8

Total QPS = 680115.5 (20403465 / 30.0s)

Misses = 0 (0.0%)
Skipped TXs = 0 (0.0%)

RX 4941365819 bytes :  157.1 MB/s
TX  861513219 bytes :   27.4 MB/s
