#type       avg     std     min     5th    10th    50th    90th    95th    99th
read       79.2   613.8    26.8    36.7    39.5    58.4   100.4   120.4   532.4
update      0.0     0.0     0.0     0.0     0.0     0.0     0.0     0.0     0.0
op_q        1.0     0.0     1.0     1.0     1.0     1.1     1.1     1.1     1.1
rx      4441734.2 87295.2 4400742.6 4217740.5 4239537.7 4413914.5 4588291.4 4610088.5 4954010.6

Total QPS = 679973.3 (20399210 / 30.0s)

Misses = 0 (0.0%)
Skipped TXs = 0 (0.0%)

RX 4963081297 bytes :  157.8 MB/s
TX  861364492 bytes :   27.4 MB/s
