#type       avg     std     min     5th    10th    50th    90th    95th    99th
read       86.9   601.8    26.8    37.7    41.0    62.9   112.9   135.5   991.1
update      0.0     0.0     0.0     0.0     0.0     0.0     0.0     0.0     0.0
op_q        1.0     0.0     1.0     1.0     1.0     1.1     1.1     1.1     1.1
rx      4712702.7 80022.2 4400742.6 4393399.6 4590855.8 4818879.7 5025449.2 5051270.4 5071927.3

Total QPS = 720070.8 (21602127 / 30.0s)

Misses = 0 (0.0%)
Skipped TXs = 0 (0.0%)

RX 5289795768 bytes :  168.2 MB/s
TX  912144552 bytes :   29.0 MB/s
