#type       avg     std     min     5th    10th    50th    90th    95th    99th
read       92.4   541.8    29.5    41.9    46.0    69.7   121.3   144.6   958.7
update      0.0     0.0     0.0     0.0     0.0     0.0     0.0     0.0     0.0
op_q        1.0     0.0     1.0     1.0     1.0     1.1     1.1     1.1     1.1
rx      4701391.2 86324.3 4400742.6 4330213.6 4464483.8 4803578.2 5022388.9 5049740.2 5071621.3

Total QPS = 719996.3 (21599889 / 30.0s)

Misses = 0 (0.0%)
Skipped TXs = 0 (0.0%)

RX 5260297390 bytes :  167.2 MB/s
TX  911881750 bytes :   29.0 MB/s
