#type       avg     std     min     5th    10th    50th    90th    95th    99th
read      120.6   486.8    29.5    42.4    46.9    76.3   173.0   230.5  1313.4
update      0.0     0.0     0.0     0.0     0.0     0.0     0.0     0.0     0.0
op_q        1.0     0.0     1.0     1.0     1.0     1.1     1.1     1.1     1.1
rx      4978584.8 80322.4 4840816.9 4642294.5 4669051.3 4883105.2 5215557.7 5400179.2 5547876.4

Total QPS = 760171.1 (22805134 / 30.0s)

Misses = 0 (0.0%)
Skipped TXs = 0 (0.0%)

RX 5573664718 bytes :  177.2 MB/s
TX  962978508 bytes :   30.6 MB/s
