#type       avg     std     min     5th    10th    50th    90th    95th    99th
read      120.7  3498.3    26.8    31.8    32.9    38.7    47.6    51.5    68.2
update      0.0     0.0     0.0     0.0     0.0     0.0     0.0     0.0     0.0
op_q        1.0     0.0     1.0     1.0     1.0     1.1     1.1     1.1     1.1
rx      526400.5 31580.0 335678.5 473281.2 480778.7 530419.6 565891.7 591300.2 617220.3

Total QPS = 80068.4 (2402053 / 30.0s)

Misses = 0 (0.0%)
Skipped TXs = 0 (0.0%)

RX  589689940 bytes :   18.7 MB/s
TX  101425899 bytes :    3.2 MB/s
