#type       avg     std     min     5th    10th    50th    90th    95th    99th
read      120.2  3475.5    26.8    31.9    33.1    39.1    48.0    51.9    68.5
update      0.0     0.0     0.0     0.0     0.0     0.0     0.0     0.0     0.0
op_q        1.0     0.0     1.0     1.0     1.0     1.1     1.1     1.1     1.1
rx      519758.9 29705.8 369246.3 470632.6 476065.6 519634.1 564214.0 585900.2 616140.3

Total QPS = 80077.7 (2402331 / 30.0s)

Misses = 0 (0.0%)
Skipped TXs = 0 (0.0%)

RX  584733623 bytes :   18.6 MB/s
TX  101435589 bytes :    3.2 MB/s
