#type       avg     std     min     5th    10th    50th    90th    95th    99th
read      121.3   563.5    29.5    45.9    51.9    86.8   164.5   201.7  1142.3
update      0.0     0.0     0.0     0.0     0.0     0.0     0.0     0.0     0.0
op_q        1.0     0.0     1.0     1.0     1.0     1.1     1.1     1.1     1.1
rx      5210787.9 74110.9 4840816.9 5083685.2 5110059.7 5321055.7 5532051.7 5558426.2 5579525.8

Total QPS = 799975.4 (23999262 / 30.0s)

Misses = 0 (0.0%)
Skipped TXs = 0 (0.0%)

RX 5836386150 bytes :  185.5 MB/s
TX 1013298684 bytes :   32.2 MB/s
