#type       avg     std     min     5th    10th    50th    90th    95th    99th
read      122.1   629.3    29.5    45.6    51.7    87.1   165.1   202.9  1128.2
update      0.0     0.0     0.0     0.0     0.0     0.0     0.0     0.0     0.0
op_q        1.0     0.0     1.0     1.0     1.0     1.1     1.1     1.1     1.1
rx      5247360.7 90370.9 4840816.9 5090109.7 5116146.1 5324437.0 5532728.0 5558764.4 5579593.4

Total QPS = 800012.8 (24000385 / 30.0s)

Misses = 0 (0.0%)
Skipped TXs = 0 (0.0%)

RX 5861985630 bytes :  186.3 MB/s
TX 1013400731 bytes :   32.2 MB/s
