#type       avg     std     min     5th    10th    50th    90th    95th    99th
read      117.6   442.7    29.5    47.2    53.6    91.8   170.8   205.2  1048.1
update      0.0     0.0     0.0     0.0     0.0     0.0     0.0     0.0     0.0
op_q        1.0     0.0     1.0     1.0     1.0     1.1     1.1     1.1     1.1
rx      5215811.4 83441.7 4840816.9 5077091.6 5103813.1 5317585.4 5531357.6 5558079.2 5579456.4

Total QPS = 799757.4 (23992723 / 30.0s)

Misses = 0 (0.0%)
Skipped TXs = 0 (0.0%)

RX 5843087641 bytes :  185.7 MB/s
TX 1013129646 bytes :   32.2 MB/s
