#type       avg     std     min     5th    10th    50th    90th    95th    99th
read      112.6  3199.0    26.8    31.6    32.7    38.6    47.1    50.8    65.2
update      0.0     0.0     0.0     0.0     0.0     0.0     0.0     0.0     0.0
op_q        1.0     0.0     1.0     1.0     1.0     1.1     1.1     1.1     1.1
rx      521300.3 27313.7 335678.5 472705.7 479282.5 526306.4 561031.8 565372.5 605556.2

Total QPS = 79840.1 (2395202 / 30.0s)

Misses = 0 (0.0%)
Skipped TXs = 0 (0.0%)

RX  587346998 bytes :   18.7 MB/s
TX  101173973 bytes :    3.2 MB/s
