#type       avg     std     min     5th    10th    50th    90th    95th    99th
read      134.8   430.9    29.5    48.7    55.7   102.0   199.5   246.7  1111.4
update      0.0     0.0     0.0     0.0     0.0     0.0     0.0     0.0     0.0
op_q        1.0     0.0     1.0     1.0     1.0     1.1     1.1     1.1     1.1
rx      5487978.6 91174.9 5324898.6 5107178.0 5137264.5 5377956.2 5785853.5 5964567.2 6107538.1

Total QPS = 840255.5 (25207668 / 30.0s)

Misses = 0 (0.0%)
Skipped TXs = 0 (0.0%)

RX 6147208690 bytes :  195.4 MB/s
TX 1064266722 bytes :   33.8 MB/s
