#type       avg     std     min     5th    10th    50th    90th    95th    99th
read      147.2   553.3    29.5    49.4    56.3   103.3   208.1   271.6  1164.1
update      0.0     0.0     0.0     0.0     0.0     0.0     0.0     0.0     0.0
op_q        1.0     0.0     1.0     1.0     1.0     1.1     1.1     1.1     1.1
rx      5471711.1 75517.4 5324898.6 5104169.4 5131247.2 5347869.8 5564492.4 5696496.7 6053924.0

Total QPS = 839738.0 (25192141 / 30.0s)

Misses = 0 (0.0%)
Skipped TXs = 0 (0.0%)

RX 6134830607 bytes :  195.0 MB/s
TX 1063752983 bytes :   33.8 MB/s
