#type       avg     std     min     5th    10th    50th    90th    95th    99th
read      189.9   568.6    29.5    54.6    63.5   128.9   295.9   475.0  1218.7
update      0.0     0.0     0.0     0.0     0.0     0.0     0.0     0.0     0.0
op_q        1.0     0.0     1.0     1.0     1.0     1.1     1.1     1.1     1.1
rx      5759911.1 80770.7 5324898.6 5606008.8 5634286.3 5860506.1 6086725.8 6115003.3 6137625.3

Total QPS = 879713.2 (26391398 / 30.0s)

Misses = 0 (0.0%)
Skipped TXs = 0 (0.0%)

RX 6455141482 bytes :  205.2 MB/s
TX 1114396797 bytes :   35.4 MB/s
