#type       avg     std     min     5th    10th    50th    90th    95th    99th
read      191.3   526.0    29.5    55.8    65.7   136.1   299.2   430.7  1192.0
update      0.0     0.0     0.0     0.0     0.0     0.0     0.0     0.0     0.0
op_q        1.0     0.0     1.0     1.0     1.0     1.1     1.1     1.1     1.1
rx      5786835.2 86458.7 5324898.6 5606008.8 5634286.3 5860506.1 6086725.8 6115003.3 6137625.3

Total QPS = 879839.1 (26395175 / 30.0s)

Misses = 0 (0.0%)
Skipped TXs = 0 (0.0%)

RX 6466209552 bytes :  205.6 MB/s
TX 1114573240 bytes :   35.4 MB/s
