#type       avg     std     min     5th    10th    50th    90th    95th    99th
read      195.8   482.1    29.5    54.6    63.8   134.4   329.0   492.4  1209.7
update      0.0     0.0     0.0     0.0     0.0     0.0     0.0     0.0     0.0
op_q        1.0     0.0     1.0     1.0     1.0     1.1     1.1     1.1     1.1
rx      5725733.8 79015.7 5324898.6 5599120.7 5627760.7 5856880.8 6086000.8 6114640.8 6137552.8

Total QPS = 879954.4 (26398633 / 30.0s)

Misses = 0 (0.0%)
Skipped TXs = 0 (0.0%)

RX 6409999275 bytes :  203.8 MB/s
TX 1114646314 bytes :   35.4 MB/s
