#type       avg     std     min     5th    10th    50th    90th    95th    99th
read      210.3   582.3    29.5    55.8    65.6   137.6   357.2   705.5  1229.2
update      0.0     0.0     0.0     0.0     0.0     0.0     0.0     0.0     0.0
op_q        1.0     0.0     1.0     1.0     1.0     1.1     1.1     1.1     1.1
rx      5760989.6 87861.5 5324898.6 5599120.7 5627760.7 5856880.8 6086000.8 6114640.8 6137552.8

Total QPS = 879702.7 (26391089 / 30.0s)

Misses = 0 (0.0%)
Skipped TXs = 0 (0.0%)

RX 6453722356 bytes :  205.2 MB/s
TX 1114292481 bytes :   35.4 MB/s
