#type       avg     std     min     5th    10th    50th    90th    95th    99th
read      217.3   599.1    29.5    57.4    68.5   145.6   354.6   840.1  1237.3
update      0.0     0.0     0.0     0.0     0.0     0.0     0.0     0.0     0.0
op_q        1.0     0.0     1.0     1.0     1.0     1.1     1.1     1.1     1.1
rx      5712539.8 87338.4 5324898.6 5446334.6 5603541.7 5843425.7 6083309.8 6113295.3 6137283.7

Total QPS = 879760.9 (26392841 / 30.0s)

Misses = 0 (0.0%)
Skipped TXs = 0 (0.0%)

RX 6401219218 bytes :  203.5 MB/s
TX 1114435472 bytes :   35.4 MB/s
