#type       avg     std     min     5th    10th    50th    90th    95th    99th
read      658.8   677.2    29.5    60.2    74.8   420.7  1266.3  1326.8  1389.9
update      0.0     0.0     0.0     0.0     0.0     0.0     0.0     0.0     0.0
op_q        1.0     0.0     1.0     1.0     1.0     1.1     1.1     1.1     1.1
rx      5961617.3 104508.5 5857388.4 5614002.3 5643203.9 5876816.4 6110429.0 6139630.6 6617191.0

Total QPS = 913203.2 (27396101 / 30.0s)

Misses = 0 (0.0%)
Skipped TXs = 0 (0.0%)

RX 6673606999 bytes :  212.1 MB/s
TX 1156772963 bytes :   36.8 MB/s
