#type       avg     std     min     5th    10th    50th    90th    95th    99th
read      694.1   729.3    29.5    76.7   100.0   487.5  1266.8  1325.5  1387.5
update      0.0     0.0     0.0     0.0     0.0     0.0     0.0     0.0     0.0
op_q        1.0     0.0     1.0     1.0     1.0     1.1     1.1     1.1     1.1
rx      5939285.7 115460.0 5857388.4 5613625.5 5642450.3 5873048.5 6103646.7 6132471.5 6561023.9

Total QPS = 912708.5 (27381265 / 30.0s)

Misses = 0 (0.0%)
Skipped TXs = 0 (0.0%)

RX 6662934725 bytes :  211.8 MB/s
TX 1156145124 bytes :   36.8 MB/s
