#type       avg     std     min     5th    10th    50th    90th    95th    99th
read      634.7   668.3    32.4    83.4   111.7   489.1  1228.7  1253.7  1311.5
update      0.0     0.0     0.0     0.0     0.0     0.0     0.0     0.0     0.0
op_q        1.0     0.0     1.0     1.0     1.0     1.1     1.1     1.1     1.1
rx      6008777.1 93941.4 5857388.4 5615827.4 5646854.1 5895067.4 6143280.8 6450444.8 6696176.1

Total QPS = 919383.8 (27581524 / 30.0s)

Misses = 0 (0.0%)
Skipped TXs = 0 (0.0%)

RX 6731388136 bytes :  214.0 MB/s
TX 1164651582 bytes :   37.0 MB/s
