#type       avg     std     min     5th    10th    50th    90th    95th    99th
read     1090.7   565.3    35.7   596.6   731.2  1170.7  1255.8  1266.4  1360.4
update      0.0     0.0     0.0     0.0     0.0     0.0     0.0     0.0     0.0
op_q        1.0     0.0     1.0     1.0     1.0     1.1     1.1     1.1     1.1
rx      6175859.5 120365.7 5857388.4 5661832.5 5738864.2 6275782.9 6661243.7 6709426.3 6747972.3

Total QPS = 943351.4 (28300563 / 30.0s)

Misses = 0 (0.0%)
Skipped TXs = 0 (0.0%)

RX 6924680381 bytes :  220.1 MB/s
TX 1194946056 bytes :   38.0 MB/s
