  num          irqs       pkts  cpus name
  104 RX      11352    2867875     0 mlx4-33@0000:07:00.0
  105 RX      10885    2991499     1 mlx4-34@0000:07:00.0
  106 RX      10807    2906454     2 mlx4-35@0000:07:00.0
  107 RX      11024    2868621     3 mlx4-36@0000:07:00.0
  108 RX      10884    2931230     4 mlx4-37@0000:07:00.0
  109 RX      11284    2972267     5 mlx4-38@0000:07:00.0
  110 RX      10957    2889033     6 mlx4-39@0000:07:00.0
  111 RX      11118    2846929     7 mlx4-40@0000:07:00.0
total         88311   23273908
