  num          irqs       pkts  cpus name
  104 RX       8249    2104031     0 mlx4-33@0000:07:00.0
  105 RX       7074    2078000     1 mlx4-34@0000:07:00.0
  106 RX       8181    1964133     2 mlx4-35@0000:07:00.0
  107 RX       7344    1940039     3 mlx4-36@0000:07:00.0
  108 RX       7228    1961662     4 mlx4-37@0000:07:00.0
  109 RX       7117    1949692     5 mlx4-38@0000:07:00.0
  110 RX       7553    2254787     6 mlx4-39@0000:07:00.0
  111 RX       7661    2228966     7 mlx4-40@0000:07:00.0
total         60407   16481310
