  num          irqs       pkts  cpus name
  104 RX      13497    3539536     0 mlx4-33@0000:07:00.0
  105 RX      13524    3535310     1 mlx4-34@0000:07:00.0
  106 RX      13520    3546289     2 mlx4-35@0000:07:00.0
  107 RX      13482    3539187     3 mlx4-36@0000:07:00.0
  108 RX      13497    3538917     4 mlx4-37@0000:07:00.0
  109 RX      14148    3711054     5 mlx4-38@0000:07:00.0
  110 RX      13498    3546019     6 mlx4-39@0000:07:00.0
  111 RX      13523    3545348     7 mlx4-40@0000:07:00.0
total        108689   28501660
