  num          irqs       pkts  cpus name
  104 RX      13872    3688293     0 mlx4-33@0000:07:00.0
  105 RX      13308    3617029     1 mlx4-34@0000:07:00.0
  106 RX      14019    3638741     2 mlx4-35@0000:07:00.0
  107 RX      13785    3489319     3 mlx4-36@0000:07:00.0
  108 RX      14058    3686085     4 mlx4-37@0000:07:00.0
  109 RX      14047    3643130     5 mlx4-38@0000:07:00.0
  110 RX      13881    3678682     6 mlx4-39@0000:07:00.0
  111 RX      14389    3777279     7 mlx4-40@0000:07:00.0
total        111359   29218558
