  num          irqs       pkts  cpus name
  104 RX      12717    3245390     0 mlx4-33@0000:07:00.0
  105 RX      12805    3434711     1 mlx4-34@0000:07:00.0
  106 RX      12615    3410886     2 mlx4-35@0000:07:00.0
  107 RX      13079    3390066     3 mlx4-36@0000:07:00.0
  108 RX      12907    3339972     4 mlx4-37@0000:07:00.0
  109 RX      12360    3410460     5 mlx4-38@0000:07:00.0
  110 RX      12985    3363106     6 mlx4-39@0000:07:00.0
  111 RX      12982    3312898     7 mlx4-40@0000:07:00.0
total        102450   26907489
