  num          irqs       pkts  cpus name
  104 RX       1195     579661     0 mlx4-33@0000:07:00.0
  105 RX       1142     570334     1 mlx4-34@0000:07:00.0
  106 RX       1252     584231     2 mlx4-35@0000:07:00.0
  107 RX       1183     612979     3 mlx4-36@0000:07:00.0
  108 RX       1234     572263     4 mlx4-37@0000:07:00.0
  109 RX       1162     594571     5 mlx4-38@0000:07:00.0
  110 RX       1175     622072     6 mlx4-39@0000:07:00.0
  111 RX       1196     584350     7 mlx4-40@0000:07:00.0
total          9539    4720461
