  num          irqs       pkts  cpus name
  104 RX      13738    3597535     0 mlx4-33@0000:07:00.0
  105 RX      13742    3602424     1 mlx4-34@0000:07:00.0
  106 RX      13641    3595744     2 mlx4-35@0000:07:00.0
  107 RX      14306    3752602     3 mlx4-36@0000:07:00.0
  108 RX      13709    3601321     4 mlx4-37@0000:07:00.0
  109 RX      13731    3602521     5 mlx4-38@0000:07:00.0
  110 RX      13735    3576592     6 mlx4-39@0000:07:00.0
  111 RX      13716    3603797     7 mlx4-40@0000:07:00.0
total        110318   28932536
