  num          irqs       pkts  cpus name
  104 RX      12311    3213560     0 mlx4-33@0000:07:00.0
  105 RX      12482    3280846     1 mlx4-34@0000:07:00.0
  106 RX      12312    3187403     2 mlx4-35@0000:07:00.0
  107 RX      12035    3168673     3 mlx4-36@0000:07:00.0
  108 RX      12034    3236162     4 mlx4-37@0000:07:00.0
  109 RX      12127    3162440     5 mlx4-38@0000:07:00.0
  110 RX      12229    3212238     6 mlx4-39@0000:07:00.0
  111 RX      12243    3235868     7 mlx4-40@0000:07:00.0
total         97773   25697190
