  num          irqs       pkts  cpus name
  104 RX       8089    2154402     0 mlx4-33@0000:07:00.0
  105 RX       8074    2227262     1 mlx4-34@0000:07:00.0
  106 RX       7963    2114497     2 mlx4-35@0000:07:00.0
  107 RX       7902    2224914     3 mlx4-36@0000:07:00.0
  108 RX       8137    2150863     4 mlx4-37@0000:07:00.0
  109 RX       8197    2176817     5 mlx4-38@0000:07:00.0
  110 RX       8373    2167279     6 mlx4-39@0000:07:00.0
  111 RX       8359    2100899     7 mlx4-40@0000:07:00.0
total         65094   17316933
