  num          irqs       pkts  cpus name
  104 RX      10887    2973036     0 mlx4-33@0000:07:00.0
  105 RX      11469    3103804     1 mlx4-34@0000:07:00.0
  106 RX      11781    3102198     2 mlx4-35@0000:07:00.0
  107 RX      12047    3099985     3 mlx4-36@0000:07:00.0
  108 RX      11299    3170029     4 mlx4-37@0000:07:00.0
  109 RX      11798    3017668     5 mlx4-38@0000:07:00.0
  110 RX      11791    3145022     6 mlx4-39@0000:07:00.0
  111 RX      11947    2864116     7 mlx4-40@0000:07:00.0
total         93019   24475858
