  num          irqs       pkts  cpus name
  104 RX       9869    2647054     0 mlx4-33@0000:07:00.0
  105 RX       9724    2660143     1 mlx4-34@0000:07:00.0
  106 RX      10153    2494532     2 mlx4-35@0000:07:00.0
  107 RX       9444    2684549     3 mlx4-36@0000:07:00.0
  108 RX       9802    2609825     4 mlx4-37@0000:07:00.0
  109 RX       9889    2605969     5 mlx4-38@0000:07:00.0
  110 RX      10016    2570426     6 mlx4-39@0000:07:00.0
  111 RX      10074    2588454     7 mlx4-40@0000:07:00.0
total         78971   20860952
