  num          irqs       pkts  cpus name
  104 RX      12921    3565870     0 mlx4-33@0000:07:00.0
  105 RX      13606    3516368     1 mlx4-34@0000:07:00.0
  106 RX      13589    3590798     2 mlx4-35@0000:07:00.0
  107 RX      13481    3389692     3 mlx4-36@0000:07:00.0
  108 RX      12926    3567455     4 mlx4-37@0000:07:00.0
  109 RX      13684    3538050     5 mlx4-38@0000:07:00.0
  110 RX      13399    3391848     6 mlx4-39@0000:07:00.0
  111 RX      13594    3570588     7 mlx4-40@0000:07:00.0
total        107200   28130669
