  num          irqs       pkts  cpus name
  104 RX       7662    2098008     0 mlx4-33@0000:07:00.0
  105 RX       7218    2075664     1 mlx4-34@0000:07:00.0
  106 RX       8045    1940835     2 mlx4-35@0000:07:00.0
  107 RX       7563    2089931     3 mlx4-36@0000:07:00.0
  108 RX       7608    2018042     4 mlx4-37@0000:07:00.0
  109 RX       7663    2037119     5 mlx4-38@0000:07:00.0
  110 RX       7382    2160416     6 mlx4-39@0000:07:00.0
  111 RX       7271    1930652     7 mlx4-40@0000:07:00.0
total         60412   16350667
