  num          irqs       pkts  cpus name
  104 RX      13396    3515223     0 mlx4-33@0000:07:00.0
  105 RX      13399    3465716     1 mlx4-34@0000:07:00.0
  106 RX      13498    3538829     2 mlx4-35@0000:07:00.0
  107 RX      13214    3568613     3 mlx4-36@0000:07:00.0
  108 RX      13604    3466641     4 mlx4-37@0000:07:00.0
  109 RX      13490    3512567     5 mlx4-38@0000:07:00.0
  110 RX      13217    3540209     6 mlx4-39@0000:07:00.0
  111 RX      13392    3513265     7 mlx4-40@0000:07:00.0
total        107210   28121063
