  num          irqs       pkts  cpus name
  104 RX      12986    3140434     0 mlx4-33@0000:07:00.0
  105 RX      11798    3278836     1 mlx4-34@0000:07:00.0
  106 RX      11947    3211637     2 mlx4-35@0000:07:00.0
  107 RX      11958    3255863     3 mlx4-36@0000:07:00.0
  108 RX      12215    3142226     4 mlx4-37@0000:07:00.0
  109 RX      11945    3143023     5 mlx4-38@0000:07:00.0
  110 RX      12471    3414333     6 mlx4-39@0000:07:00.0
  111 RX      12377    3101514     7 mlx4-40@0000:07:00.0
total         97697   25687866
