  num          irqs       pkts  cpus name
  104 RX      11943    3061110     0 mlx4-33@0000:07:00.0
  105 RX      11630    3015261     1 mlx4-34@0000:07:00.0
  106 RX      11455    3103009     2 mlx4-35@0000:07:00.0
  107 RX      11788    3122918     3 mlx4-36@0000:07:00.0
  108 RX      11859    2955222     4 mlx4-37@0000:07:00.0
  109 RX      11702    3145558     5 mlx4-38@0000:07:00.0
  110 RX      11378    2996985     6 mlx4-39@0000:07:00.0
  111 RX      11225    3080275     7 mlx4-40@0000:07:00.0
total         92980   24480338
