  num          irqs       pkts  cpus name
  104 RX       1253     618904     0 mlx4-33@0000:07:00.0
  105 RX       1186     590558     1 mlx4-34@0000:07:00.0
  106 RX       1168     596232     2 mlx4-35@0000:07:00.0
  107 RX       1207     608404     3 mlx4-36@0000:07:00.0
  108 RX       1229     576760     4 mlx4-37@0000:07:00.0
  109 RX       1170     560275     5 mlx4-38@0000:07:00.0
  110 RX       1136     585278     6 mlx4-39@0000:07:00.0
  111 RX       1191     576516     7 mlx4-40@0000:07:00.0
total          9540    4712927
