  num          irqs       pkts  cpus name
  104 RX       9794    2516808     0 mlx4-33@0000:07:00.0
  105 RX       9958    2629807     1 mlx4-34@0000:07:00.0
  106 RX       9725    2568129     2 mlx4-35@0000:07:00.0
  107 RX       9740    2757967     3 mlx4-36@0000:07:00.0
  108 RX       9868    2625192     4 mlx4-37@0000:07:00.0
  109 RX       9521    2572839     5 mlx4-38@0000:07:00.0
  110 RX      10440    2604745     6 mlx4-39@0000:07:00.0
  111 RX       9933    2586535     7 mlx4-40@0000:07:00.0
total         78979   20862022
