  num          irqs       pkts  cpus name
  104 RX      11191    2823351     0 mlx4-33@0000:07:00.0
  105 RX      10968    2990957     1 mlx4-34@0000:07:00.0
  106 RX      11360    2950964     2 mlx4-35@0000:07:00.0
  107 RX      10808    2951269     3 mlx4-36@0000:07:00.0
  108 RX      10886    2867652     4 mlx4-37@0000:07:00.0
  109 RX      11205    2888049     5 mlx4-38@0000:07:00.0
  110 RX      10719    2949709     6 mlx4-39@0000:07:00.0
  111 RX      11209    2846462     7 mlx4-40@0000:07:00.0
total         88346   23268413
