  num          irqs       pkts  cpus name
  104 RX      14120    3701451     0 mlx4-33@0000:07:00.0
  105 RX      14145    3714049     1 mlx4-34@0000:07:00.0
  106 RX      14287    3748876     2 mlx4-35@0000:07:00.0
  107 RX      14045    3711580     3 mlx4-36@0000:07:00.0
  108 RX      14014    3695811     4 mlx4-37@0000:07:00.0
  109 RX      14085    3674072     5 mlx4-38@0000:07:00.0
  110 RX      14097    3703677     6 mlx4-39@0000:07:00.0
  111 RX      14155    3684055     7 mlx4-40@0000:07:00.0
total        112948   29633571
