  num          irqs       pkts  cpus name
  104 RX       7142    1918145     0 mlx4-33@0000:07:00.0
  105 RX       6965    1878702     1 mlx4-34@0000:07:00.0
  106 RX       7089    1836763     2 mlx4-35@0000:07:00.0
  107 RX       7079    1920081     3 mlx4-36@0000:07:00.0
  108 RX       6932    1852724     4 mlx4-37@0000:07:00.0
  109 RX       6820    1917258     5 mlx4-38@0000:07:00.0
  110 RX       6939    1871243     6 mlx4-39@0000:07:00.0
  111 RX       6869    1881055     7 mlx4-40@0000:07:00.0
total         55835   15075971
