  num          irqs       pkts  cpus name
  104 RX       4499    1526417     0 mlx4-33@0000:07:00.0
  105 RX       4699    1511210     1 mlx4-34@0000:07:00.0
  106 RX       4631    1526459     2 mlx4-35@0000:07:00.0
  107 RX       4679    1402102     3 mlx4-36@0000:07:00.0
  108 RX       4507    1435255     4 mlx4-37@0000:07:00.0
  109 RX       4791    1436879     5 mlx4-38@0000:07:00.0
  110 RX       4766    1483198     6 mlx4-39@0000:07:00.0
  111 RX       4770    1513533     7 mlx4-40@0000:07:00.0
total         37342   11835053
