  num          irqs       pkts  cpus name
  104 RX      13313    3491709     0 mlx4-33@0000:07:00.0
  105 RX      13300    3413551     1 mlx4-34@0000:07:00.0
  106 RX      13401    3609420     2 mlx4-35@0000:07:00.0
  107 RX      13412    3516182     3 mlx4-36@0000:07:00.0
  108 RX      13012    3490597     4 mlx4-37@0000:07:00.0
  109 RX      13591    3514223     5 mlx4-38@0000:07:00.0
  110 RX      13392    3519595     6 mlx4-39@0000:07:00.0
  111 RX      13755    3566336     7 mlx4-40@0000:07:00.0
total        107176   28121613
