  num          irqs       pkts  cpus name
  104 RX       7398    1994131     0 mlx4-33@0000:07:00.0
  105 RX       7564    1972210     1 mlx4-34@0000:07:00.0
  106 RX       7774    2054824     2 mlx4-35@0000:07:00.0
  107 RX       7669    1979600     3 mlx4-36@0000:07:00.0
  108 RX       7345    2021962     4 mlx4-37@0000:07:00.0
  109 RX       7450    2023532     5 mlx4-38@0000:07:00.0
  110 RX       7558    2071467     6 mlx4-39@0000:07:00.0
  111 RX       7722    2071096     7 mlx4-40@0000:07:00.0
total         60480   16188822
