sent    4200035 | retrans          0 | timeout          0 | loss rate 0.0000%
sent    4156706 | retrans          0 | timeout          0 | loss rate 0.0000%
sent    4154387 | retrans          0 | timeout          0 | loss rate 0.0000%
sent    4178562 | retrans          0 | timeout          0 | loss rate 0.0000%
sent    4158288 | retrans          0 | timeout          0 | loss rate 0.0000%
sent    4168116 | retrans          0 | timeout          0 | loss rate 0.0000%
sent    4167874 | retrans          0 | timeout          0 | loss rate 0.0000%
