sent    2317026 | retrans          0 | timeout          0 | loss rate 0.0000%
sent    2310779 | retrans          0 | timeout          0 | loss rate 0.0000%
sent    2312115 | retrans          0 | timeout          0 | loss rate 0.0000%
sent    2315391 | retrans          0 | timeout          0 | loss rate 0.0000%
sent    2312931 | retrans          0 | timeout          0 | loss rate 0.0000%
sent    2315584 | retrans          0 | timeout          0 | loss rate 0.0000%
sent    2320026 | retrans          0 | timeout          0 | loss rate 0.0000%
