sent    3163536 | retrans          0 | timeout          0 | loss rate 0.0000%
sent    3164889 | retrans          0 | timeout          0 | loss rate 0.0000%
sent    3164760 | retrans          0 | timeout          0 | loss rate 0.0000%
sent    3162226 | retrans          0 | timeout          0 | loss rate 0.0000%
sent    3165726 | retrans          0 | timeout          0 | loss rate 0.0000%
sent    3168039 | retrans          0 | timeout          0 | loss rate 0.0000%
sent    3161839 | retrans          0 | timeout          0 | loss rate 0.0000%
