sent    4133668 | retrans          0 | timeout          0 | loss rate 0.0000%
sent    4131946 | retrans          0 | timeout          0 | loss rate 0.0000%
sent    4136830 | retrans          0 | timeout          0 | loss rate 0.0000%
sent    4138899 | retrans          0 | timeout          0 | loss rate 0.0000%
sent    4137081 | retrans          0 | timeout          0 | loss rate 0.0000%
sent    4136178 | retrans          0 | timeout          0 | loss rate 0.0000%
sent    4136355 | retrans          0 | timeout          0 | loss rate 0.0000%
