sent    2309202 | retrans          0 | timeout          0 | loss rate 0.0000%
sent    2307566 | retrans          0 | timeout          0 | loss rate 0.0000%
sent    2305449 | retrans          0 | timeout          0 | loss rate 0.0000%
sent    2310725 | retrans          0 | timeout          0 | loss rate 0.0000%
sent    2313783 | retrans          0 | timeout          0 | loss rate 0.0000%
sent    2312495 | retrans          0 | timeout          0 | loss rate 0.0000%
sent    2311038 | retrans          0 | timeout          0 | loss rate 0.0000%
