sent    2159177 | retrans          0 | timeout          0 | loss rate 0.0000%
sent    2158010 | retrans          0 | timeout          0 | loss rate 0.0000%
sent    2162783 | retrans          0 | timeout          0 | loss rate 0.0000%
sent    2177230 | retrans          0 | timeout          0 | loss rate 0.0000%
sent    2157852 | retrans          0 | timeout          0 | loss rate 0.0000%
sent    2156357 | retrans          0 | timeout          0 | loss rate 0.0000%
sent    2163842 | retrans          0 | timeout          0 | loss rate 0.0000%
