sent    3668775 | retrans          0 | timeout          0 | loss rate 0.0000%
sent    3666605 | retrans          0 | timeout          0 | loss rate 0.0000%
sent    3671902 | retrans          0 | timeout          0 | loss rate 0.0000%
sent    3673764 | retrans          0 | timeout          0 | loss rate 0.0000%
sent    3672117 | retrans          0 | timeout          0 | loss rate 0.0000%
sent    3669827 | retrans          0 | timeout          0 | loss rate 0.0000%
sent    3675095 | retrans          0 | timeout          0 | loss rate 0.0000%
