sent    3334296 | retrans          0 | timeout          0 | loss rate 0.0000%
sent    3332369 | retrans          0 | timeout          0 | loss rate 0.0000%
sent    3335509 | retrans          0 | timeout          0 | loss rate 0.0000%
sent    3331263 | retrans          0 | timeout          0 | loss rate 0.0000%
sent    3331756 | retrans          0 | timeout          0 | loss rate 0.0000%
sent    3336605 | retrans          0 | timeout          0 | loss rate 0.0000%
sent    3331333 | retrans          0 | timeout          0 | loss rate 0.0000%
