sent    1635573 | retrans          0 | timeout          0 | loss rate 0.0000%
sent    1656057 | retrans          0 | timeout          0 | loss rate 0.0000%
sent    1645822 | retrans          0 | timeout          0 | loss rate 0.0000%
sent    1650699 | retrans          0 | timeout          0 | loss rate 0.0000%
sent    1639889 | retrans          0 | timeout          0 | loss rate 0.0000%
sent    1651438 | retrans          0 | timeout          0 | loss rate 0.0000%
sent    1653547 | retrans          0 | timeout          0 | loss rate 0.0000%
