sent    3841697 | retrans          0 | timeout          0 | loss rate 0.0000%
sent    3848400 | retrans          0 | timeout          0 | loss rate 0.0000%
sent    3845316 | retrans          0 | timeout          0 | loss rate 0.0000%
sent    3849481 | retrans          0 | timeout          0 | loss rate 0.0000%
sent    3844911 | retrans          0 | timeout          0 | loss rate 0.0000%
sent    3845909 | retrans          0 | timeout          0 | loss rate 0.0000%
sent    3845604 | retrans          0 | timeout          0 | loss rate 0.0000%
