sent    3668665 | retrans          0 | timeout          0 | loss rate 0.0000%
sent    3672785 | retrans          0 | timeout          0 | loss rate 0.0000%
sent    3666401 | retrans          0 | timeout          0 | loss rate 0.0000%
sent    3671931 | retrans          0 | timeout          0 | loss rate 0.0000%
sent    3669906 | retrans          0 | timeout          0 | loss rate 0.0000%
sent    3666390 | retrans          0 | timeout          0 | loss rate 0.0000%
sent    3670068 | retrans          0 | timeout          0 | loss rate 0.0000%
