sent    1662954 | retrans          0 | timeout          0 | loss rate 0.0000%
sent    1659445 | retrans          0 | timeout          0 | loss rate 0.0000%
sent    1671468 | retrans          0 | timeout          0 | loss rate 0.0000%
sent    1666831 | retrans          0 | timeout          0 | loss rate 0.0000%
sent    1634050 | retrans          0 | timeout          0 | loss rate 0.0000%
sent    1643062 | retrans          0 | timeout          0 | loss rate 0.0000%
sent    1646707 | retrans          0 | timeout          0 | loss rate 0.0000%
