sent    4121902 | retrans          0 | timeout          0 | loss rate 0.0000%
sent    4104871 | retrans          0 | timeout          0 | loss rate 0.0000%
sent    4123126 | retrans          0 | timeout          0 | loss rate 0.0000%
sent    4110788 | retrans          0 | timeout          0 | loss rate 0.0000%
sent    4131480 | retrans          0 | timeout          0 | loss rate 0.0000%
sent    4105227 | retrans          0 | timeout          0 | loss rate 0.0000%
sent    4119486 | retrans          0 | timeout          0 | loss rate 0.0000%
