sent    2326322 | retrans          0 | timeout          0 | loss rate 0.0000%
sent    2308626 | retrans          0 | timeout          0 | loss rate 0.0000%
sent    2310628 | retrans          0 | timeout          0 | loss rate 0.0000%
sent    2313432 | retrans          0 | timeout          0 | loss rate 0.0000%
sent    2308622 | retrans          0 | timeout          0 | loss rate 0.0000%
sent    2316323 | retrans          0 | timeout          0 | loss rate 0.0000%
sent    2317589 | retrans          0 | timeout          0 | loss rate 0.0000%
