sent    3845682 | retrans          0 | timeout          0 | loss rate 0.0000%
sent    3848547 | retrans          0 | timeout          0 | loss rate 0.0000%
sent    3841951 | retrans          0 | timeout          0 | loss rate 0.0000%
sent    3840785 | retrans          0 | timeout          0 | loss rate 0.0000%
sent    3847839 | retrans          0 | timeout          0 | loss rate 0.0000%
sent    3845048 | retrans          0 | timeout          0 | loss rate 0.0000%
sent    3847873 | retrans          0 | timeout          0 | loss rate 0.0000%
