sent    3498718 | retrans          0 | timeout          0 | loss rate 0.0000%
sent    3501611 | retrans          0 | timeout          0 | loss rate 0.0000%
sent    3498597 | retrans          0 | timeout          0 | loss rate 0.0000%
sent    3501900 | retrans          0 | timeout          0 | loss rate 0.0000%
sent    3495492 | retrans          0 | timeout          0 | loss rate 0.0000%
sent    3499744 | retrans          0 | timeout          0 | loss rate 0.0000%
sent    3499760 | retrans          0 | timeout          0 | loss rate 0.0000%
