sent    2169670 | retrans          0 | timeout          0 | loss rate 0.0000%
sent    2161010 | retrans          0 | timeout          0 | loss rate 0.0000%
sent    2165333 | retrans          0 | timeout          0 | loss rate 0.0000%
sent    2168083 | retrans          0 | timeout          0 | loss rate 0.0000%
sent    2174353 | retrans          0 | timeout          0 | loss rate 0.0000%
sent    2174802 | retrans          0 | timeout          0 | loss rate 0.0000%
sent    2171452 | retrans          0 | timeout          0 | loss rate 0.0000%
