sent    2471060 | retrans          0 | timeout          0 | loss rate 0.0000%
sent    2472753 | retrans          0 | timeout          0 | loss rate 0.0000%
sent    2479683 | retrans          0 | timeout          0 | loss rate 0.0000%
sent    2478521 | retrans          0 | timeout          0 | loss rate 0.0000%
sent    2473302 | retrans          0 | timeout          0 | loss rate 0.0000%
sent    2474964 | retrans          0 | timeout          0 | loss rate 0.0000%
sent    2470757 | retrans          0 | timeout          0 | loss rate 0.0000%
