sent    3147153 | retrans          0 | timeout          0 | loss rate 0.0000%
sent    3152426 | retrans          0 | timeout          0 | loss rate 0.0000%
sent    3150999 | retrans          0 | timeout          0 | loss rate 0.0000%
sent    3153700 | retrans          0 | timeout          0 | loss rate 0.0000%
sent    3149619 | retrans          0 | timeout          0 | loss rate 0.0000%
sent    3149195 | retrans          0 | timeout          0 | loss rate 0.0000%
sent    3149329 | retrans          0 | timeout          0 | loss rate 0.0000%
