sent    2192440 | retrans          0 | timeout          0 | loss rate 0.0000%
sent    2186883 | retrans          0 | timeout          0 | loss rate 0.0000%
sent    2186174 | retrans          0 | timeout          0 | loss rate 0.0000%
sent    2193931 | retrans          0 | timeout          0 | loss rate 0.0000%
sent    2185458 | retrans          0 | timeout          0 | loss rate 0.0000%
sent    2189121 | retrans          0 | timeout          0 | loss rate 0.0000%
sent    2184164 | retrans          0 | timeout          0 | loss rate 0.0000%
