sent    4214739 | retrans          0 | timeout          0 | loss rate 0.0000%
sent    4217165 | retrans          0 | timeout          0 | loss rate 0.0000%
sent    4223184 | retrans          0 | timeout          0 | loss rate 0.0000%
sent    4217146 | retrans          0 | timeout          0 | loss rate 0.0000%
sent    4221096 | retrans          0 | timeout          0 | loss rate 0.0000%
sent    4213656 | retrans          0 | timeout          0 | loss rate 0.0000%
sent    4213168 | retrans          0 | timeout          0 | loss rate 0.0000%
