sent    1705129 | retrans          0 | timeout          0 | loss rate 0.0000%
sent    1657614 | retrans          0 | timeout          0 | loss rate 0.0000%
sent    1681485 | retrans          0 | timeout          0 | loss rate 0.0000%
sent    1685573 | retrans          0 | timeout          0 | loss rate 0.0000%
sent    1696047 | retrans          0 | timeout          0 | loss rate 0.0000%
sent    1683089 | retrans          0 | timeout          0 | loss rate 0.0000%
sent    1683780 | retrans          0 | timeout          0 | loss rate 0.0000%
