sent    2310137 | retrans          0 | timeout          0 | loss rate 0.0000%
sent    2310022 | retrans          0 | timeout          0 | loss rate 0.0000%
sent    2313020 | retrans          0 | timeout          0 | loss rate 0.0000%
sent    2306110 | retrans          0 | timeout          0 | loss rate 0.0000%
sent    2310805 | retrans          0 | timeout          0 | loss rate 0.0000%
sent    2309427 | retrans          0 | timeout          0 | loss rate 0.0000%
sent    2313883 | retrans          0 | timeout          0 | loss rate 0.0000%
