sent    2808742 | retrans          0 | timeout          0 | loss rate 0.0000%
sent    2811347 | retrans          0 | timeout          0 | loss rate 0.0000%
sent    2811972 | retrans          0 | timeout          0 | loss rate 0.0000%
sent    2811001 | retrans          0 | timeout          0 | loss rate 0.0000%
sent    2809351 | retrans          0 | timeout          0 | loss rate 0.0000%
sent    2806976 | retrans          0 | timeout          0 | loss rate 0.0000%
sent    2815106 | retrans          0 | timeout          0 | loss rate 0.0000%
