sent    2308474 | retrans          0 | timeout          0 | loss rate 0.0000%
sent    2305845 | retrans          0 | timeout          0 | loss rate 0.0000%
sent    2303410 | retrans          0 | timeout          0 | loss rate 0.0000%
sent    2312053 | retrans          0 | timeout          0 | loss rate 0.0000%
sent    2312707 | retrans          0 | timeout          0 | loss rate 0.0000%
sent    2314267 | retrans          0 | timeout          0 | loss rate 0.0000%
sent    2315720 | retrans          0 | timeout          0 | loss rate 0.0000%
