#type       avg     std     min     5th    10th    50th    90th    95th    99th
read    22326.5 409870.6  1102.5  4494.8  4710.3  5040.3  5266.3  5294.5 216113.4
update      0.0     0.0     0.0     0.0     0.0     0.0     0.0     0.0     0.0
op_q        1.0     0.0     1.0     1.0     1.0     1.1     1.1     1.1     1.1
rx      163708.1 199243.3     1.0     1.0     1.0 53901.8 472500.2 559636.6 679505.0

Total QPS = 107466.7 (3224002 / 30.0s)

Misses = 0 (0.0%)
Skipped TXs = 0 (0.0%)

RX  796597844 bytes :   25.3 MB/s
TX  136377795 bytes :    4.3 MB/s
