#type       avg     std     min     5th    10th    50th    90th    95th    99th
read    24946.7 389539.2  1102.5  4468.4  4641.1  5031.8  5265.6  5294.9 224839.5
update      0.0     0.0     0.0     0.0     0.0     0.0     0.0     0.0     0.0
op_q        1.0     0.0     1.0     1.0     1.0     1.1     1.1     1.1     1.1
rx      142784.8 155596.5     1.0     1.0     1.0 83642.5 383206.5 441209.8 567000.2

Total QPS = 108647.7 (3259430 / 30.0s)

Misses = 0 (0.0%)
Skipped TXs = 0 (0.0%)

RX  799458703 bytes :   25.4 MB/s
TX  137853409 bytes :    4.4 MB/s
