#type       avg     std     min     5th    10th    50th    90th    95th    99th
read     5138.3 17021.5  1334.0  4406.5  4435.0  4663.0  5082.0  5199.9  5294.2
update      0.0     0.0     0.0     0.0     0.0     0.0     0.0     0.0     0.0
op_q        1.0     0.0     1.0     1.0     1.0     1.1     1.1     1.1     1.1
rx      1418406.3 163933.1 88394.6 1339432.7 1349336.1 1428563.2 1566564.7 1592141.3 1612602.5

Total QPS = 110440.4 (3313213 / 30.0s)

Misses = 0 (0.0%)
Skipped TXs = 0 (0.0%)

RX  815735781 bytes :   25.9 MB/s
TX  139945328 bytes :    4.4 MB/s
