#type       avg     std     min     5th    10th    50th    90th    95th    99th
read     9109.9 87120.0  1614.1  4410.2  4434.2  4626.5  4818.7  5024.4 200180.7
update      0.0     0.0     0.0     0.0     0.0     0.0     0.0     0.0     0.0
op_q        1.0     0.0     1.0     1.0     1.0     1.1     1.1     1.1     1.1
rx      771189.7 184930.6   180.3 447295.5 546382.0 801119.0 974036.8 1004475.5 1096313.3

Total QPS = 111668.4 (3350052 / 30.0s)

Misses = 0 (0.0%)
Skipped TXs = 0 (0.0%)

RX  822988699 bytes :   26.2 MB/s
TX  141505356 bytes :    4.5 MB/s
