#type       avg     std     min     5th    10th    50th    90th    95th    99th
read    17814.0 314023.8  2148.4  4405.9  4438.2  4696.8  5165.8  5252.4 212453.1
update      0.0     0.0     0.0     0.0     0.0     0.0     0.0     0.0     0.0
op_q        1.0     0.0     1.0     1.0     1.0     1.1     1.1     1.1     1.1
rx      235858.6 235301.3     1.0     1.0     1.0 218603.1 572400.2 647688.7 769770.9

Total QPS = 110692.2 (3320767 / 30.0s)

Misses = 0 (0.0%)
Skipped TXs = 0 (0.0%)

RX  816623246 bytes :   26.0 MB/s
TX  140361076 bytes :    4.5 MB/s
