#type       avg     std     min     5th    10th    50th    90th    95th    99th
read    17949.9 310019.5  1775.5  4532.3  4725.5  5040.5  5266.2  5294.4 214783.4
update      0.0     0.0     0.0     0.0     0.0     0.0     0.0     0.0     0.0
op_q        1.0     0.0     1.0     1.0     1.0     1.1     1.1     1.1     1.1
rx      264797.5 230427.5     1.0     1.0     1.1 251779.4 592200.2 653244.0 749188.7

Total QPS = 107714.5 (3231436 / 30.0s)

Misses = 0 (0.0%)
Skipped TXs = 0 (0.0%)

RX  794522119 bytes :   25.3 MB/s
TX  136578512 bytes :    4.3 MB/s
