#type       avg     std     min     5th    10th    50th    90th    95th    99th
read    18306.5 303418.4  2148.4  4422.4  4464.0  4797.0  5222.2  5276.6 215009.5
update      0.0     0.0     0.0     0.0     0.0     0.0     0.0     0.0     0.0
op_q        1.0     0.0     1.0     1.0     1.0     1.1     1.1     1.1     1.1
rx      252898.8 241090.7     1.0     1.0     1.0 206182.5 599048.1 672210.3 751247.0

Total QPS = 110260.0 (3307801 / 30.0s)

Misses = 0 (0.0%)
Skipped TXs = 0 (0.0%)

RX  815213302 bytes :   25.9 MB/s
TX  139779071 bytes :    4.4 MB/s
