#type       avg     std     min     5th    10th    50th    90th    95th    99th
read    22823.9 454601.9  2148.4  4427.5  4480.9  4893.8  5240.5  5283.9 215469.4
update      0.0     0.0     0.0     0.0     0.0     0.0     0.0     0.0     0.0
op_q        1.0     0.0     1.0     1.0     1.0     1.1     1.1     1.1     1.1
rx      138483.6 205313.2     1.0     1.0     1.0   955.6 507185.4 573300.2 692931.0

Total QPS = 109987.0 (3299610 / 30.0s)

Misses = 0 (0.0%)
Skipped TXs = 0 (0.0%)

RX  808312250 bytes :   25.7 MB/s
TX  139513730 bytes :    4.4 MB/s
