#type       avg     std     min     5th    10th    50th    90th    95th    99th
read    19782.1 366267.4  2599.5  4432.8  4510.6  4968.2  5252.5  5288.1 212311.4
update      0.0     0.0     0.0     0.0     0.0     0.0     0.0     0.0     0.0
op_q        1.0     0.0     1.0     1.0     1.0     1.1     1.1     1.1     1.1
rx      143086.4 212919.8     1.0     1.0     1.0     1.1 503230.5 601650.2 708024.5

Total QPS = 109587.0 (3287610 / 30.0s)

Misses = 0 (0.0%)
Skipped TXs = 0 (0.0%)

RX  808240277 bytes :   25.7 MB/s
TX  139010888 bytes :    4.4 MB/s
