# started on Sun Apr  2 14:24:40 2023

#           time             counts unit events
     5.000163747          1,118,015      LLC-load-misses           #    6.17% of all LL-cache hits     (49.93%)
     5.000163747             13,136      LLC-load-misses           #   13.04% of all LL-cache hits     (50.01%)
     5.000163747         18,112,324      LLC-loads                 #    3.622 M/sec                    (50.08%)
     5.000163747            100,765      LLC-loads                 #    0.020 M/sec                    (41.76%)
     5.000163747            448,252      LLC-store-misses          #    0.090 M/sec                    (25.04%)
     5.000163747              3,699      LLC-store-misses          #    0.740 K/sec                    (33.36%)
     5.000163747          3,566,971      LLC-stores                #    0.713 M/sec                    (24.96%)
     5.000163747             19,321      LLC-stores                #    0.004 M/sec                    (33.28%)
     5.000163747           5,000.01 msec task-clock                #    1.000 CPUs utilized          
     5.000163747     13,415,025,842      cycles:u                  #    2.683 GHz                      (41.60%)
     5.000163747         23,297,818      cycles:k                  #    0.005 GHz                      (41.60%)
     5.000163747     22,088,597,712      instructions:u            #    1.65  insn per cycle           (49.92%)
     5.000163747          7,327,149      instructions:k            #    0.31  insn per cycle           (49.92%)
    10.000484937          4,747,998      LLC-load-misses           #    9.54% of all LL-cache hits     (49.92%)
    10.000484937             11,248      LLC-load-misses           #    5.57% of all LL-cache hits     (49.92%)
    10.000484937         81,426,752      LLC-loads                 #   16.285 M/sec                    (49.92%)
    10.000484937            303,318      LLC-loads                 #    0.061 M/sec                    (41.68%)
    10.000484937          1,420,437      LLC-store-misses          #    0.284 M/sec                    (25.12%)
    10.000484937              1,805      LLC-store-misses          #    0.361 K/sec                    (33.44%)
    10.000484937         16,056,622      LLC-stores                #    3.211 M/sec                    (25.04%)
    10.000484937             47,586      LLC-stores                #    0.010 M/sec                    (33.36%)
    10.000484937           5,000.17 msec task-clock                #    1.000 CPUs utilized          
    10.000484937     13,402,213,399      cycles:u                  #    2.680 GHz                      (41.68%)
    10.000484937         27,276,934      cycles:k                  #    0.005 GHz                      (41.60%)
    10.000484937     12,357,991,917      instructions:u            #    0.92  insn per cycle           (49.92%)
    10.000484937          7,000,777      instructions:k            #    0.28  insn per cycle           (49.92%)
    15.000734588          4,854,815      LLC-load-misses           #    8.04% of all LL-cache hits     (49.92%)
    15.000734588             14,764      LLC-load-misses           #    6.25% of all LL-cache hits     (49.92%)
    15.000734588         81,626,370      LLC-loads                 #   16.325 M/sec                    (49.92%)
    15.000734588            304,185      LLC-loads                 #    0.061 M/sec                    (41.60%)
    15.000734588          1,458,161      LLC-store-misses          #    0.292 M/sec                    (24.96%)
    15.000734588              1,558      LLC-store-misses          #    0.312 K/sec                    (33.36%)
    15.000734588         16,085,760      LLC-stores                #    3.217 M/sec                    (25.12%)
    15.000734588             46,134      LLC-stores                #    0.009 M/sec                    (33.44%)
    15.000734588           5,000.10 msec task-clock                #    1.000 CPUs utilized          
    15.000734588     13,401,166,023      cycles:u                  #    2.680 GHz                      (41.76%)
    15.000734588         30,073,946      cycles:k                  #    0.006 GHz                      (41.76%)
    15.000734588     12,348,280,290      instructions:u            #    0.92  insn per cycle           (50.08%)
    15.000734588          7,211,337      instructions:k            #    0.27  insn per cycle           (50.01%)
    20.001057074          4,865,538      LLC-load-misses           #    7.40% of all LL-cache hits     (50.08%)
    20.001057074             12,123      LLC-load-misses           #    4.78% of all LL-cache hits     (50.01%)
    20.001057074         81,794,419      LLC-loads                 #   16.359 M/sec                    (49.93%)
    20.001057074            307,088      LLC-loads                 #    0.061 M/sec                    (41.60%)
    20.001057074          1,457,268      LLC-store-misses          #    0.291 M/sec                    (24.96%)
    20.001057074              2,962      LLC-store-misses          #    0.592 K/sec                    (33.28%)
    20.001057074         16,158,608      LLC-stores                #    3.232 M/sec                    (24.96%)
    20.001057074             47,957      LLC-stores                #    0.010 M/sec                    (33.35%)
    20.001057074           5,000.18 msec task-clock                #    1.000 CPUs utilized          
    20.001057074     13,402,747,101      cycles:u                  #    2.680 GHz                      (41.75%)
    20.001057074         27,092,343      cycles:k                  #    0.005 GHz                      (41.76%)
    20.001057074     12,360,896,109      instructions:u            #    0.92  insn per cycle           (50.08%)
    20.001057074          6,841,918      instructions:k            #    0.25  insn per cycle           (50.08%)
    25.001297678          4,889,730      LLC-load-misses           #    7.09% of all LL-cache hits     (50.08%)
    25.001297678             13,369      LLC-load-misses           #    5.03% of all LL-cache hits     (50.08%)
    25.001297678         81,720,176      LLC-loads                 #   16.344 M/sec                    (50.08%)
    25.001297678            313,759      LLC-loads                 #    0.063 M/sec                    (41.62%)
    25.001297678          1,473,693      LLC-store-misses          #    0.295 M/sec                    (24.96%)
    25.001297678              3,191      LLC-store-misses          #    0.638 K/sec                    (33.28%)
    25.001297678         16,095,327      LLC-stores                #    3.219 M/sec                    (24.96%)
    25.001297678             49,446      LLC-stores                #    0.010 M/sec                    (33.28%)
    25.001297678           5,000.10 msec task-clock                #    1.000 CPUs utilized          
    25.001297678     13,395,865,517      cycles:u                  #    2.679 GHz                      (41.60%)
    25.001297678         31,183,925      cycles:k                  #    0.006 GHz                      (41.66%)
    25.001297678     12,340,926,175      instructions:u            #    0.92  insn per cycle           (50.06%)
    25.001297678          7,477,826      instructions:k            #    0.27  insn per cycle           (50.08%)
    30.001524001          4,855,613      LLC-load-misses           #    6.83% of all LL-cache hits     (50.06%)
    30.001524001             15,879      LLC-load-misses           #    5.84% of all LL-cache hits     (50.08%)
    30.001524001         81,790,484      LLC-loads                 #   16.358 M/sec                    (50.08%)
    30.001524001            302,863      LLC-loads                 #    0.061 M/sec                    (41.76%)
    30.001524001          1,459,522      LLC-store-misses          #    0.292 M/sec                    (24.96%)
    30.001524001              1,610      LLC-store-misses          #    0.322 K/sec                    (33.28%)
    30.001524001         16,148,791      LLC-stores                #    3.230 M/sec                    (24.96%)
    30.001524001             46,793      LLC-stores                #    0.009 M/sec                    (33.28%)
    30.001524001           5,000.08 msec task-clock                #    1.000 CPUs utilized          
    30.001524001     13,399,144,674      cycles:u                  #    2.680 GHz                      (41.60%)
    30.001524001         30,564,044      cycles:k                  #    0.006 GHz                      (41.60%)
    30.001524001     12,352,062,339      instructions:u            #    0.92  insn per cycle           (49.92%)
    30.001524001          7,228,371      instructions:k            #    0.26  insn per cycle           (49.98%)
    35.001771304          3,905,264      LLC-load-misses           #    5.57% of all LL-cache hits     (49.92%)
    35.001771304             15,900      LLC-load-misses           #    5.82% of all LL-cache hits     (49.97%)
    35.001771304         64,268,669      LLC-loads                 #   12.853 M/sec                    (50.05%)
    35.001771304            280,044      LLC-loads                 #    0.056 M/sec                    (41.76%)
    35.001771304          1,150,121      LLC-store-misses          #    0.230 M/sec                    (25.07%)
    35.001771304              3,109      LLC-store-misses          #    0.622 K/sec                    (33.39%)
    35.001771304         12,849,961      LLC-stores                #    2.570 M/sec                    (24.96%)
    35.001771304             43,986      LLC-stores                #    0.009 M/sec                    (33.28%)
    35.001771304           5,000.11 msec task-clock                #    1.000 CPUs utilized          
    35.001771304     13,402,560,430      cycles:u                  #    2.680 GHz                      (41.60%)
    35.001771304         28,746,632      cycles:k                  #    0.006 GHz                      (41.60%)
    35.001771304     14,508,124,884      instructions:u            #    1.08  insn per cycle           (49.92%)
    35.001771304          7,154,665      instructions:k            #    0.25  insn per cycle           (49.92%)
    36.122164234             13,775      LLC-load-misses           #    0.02% of all LL-cache hits     (49.43%)
    36.122164234              2,971      LLC-load-misses           #    1.23% of all LL-cache hits     (49.27%)
    36.122164234            146,918      LLC-loads                 #    0.033 M/sec                    (49.27%)
    36.122164234             19,632      LLC-loads                 #    0.004 M/sec                    (41.29%)
    36.122164234              4,603      LLC-store-misses          #    0.001 M/sec                    (25.22%)
    36.122164234                926      LLC-store-misses          #    0.205 K/sec                    (33.79%)
    36.122164234              4,960      LLC-stores                #    0.001 M/sec                    (25.71%)
    36.122164234              4,208      LLC-stores                #    0.932 K/sec                    (34.08%)
    36.122164234           1,120.35 msec task-clock                #    0.224 CPUs utilized          
    36.122164234      3,005,345,827      cycles:u                  #    0.666 GHz                      (42.29%)
    36.122164234          5,508,916      cycles:k                  #    0.001 GHz                      (41.93%)
    36.122164234      5,289,325,510      instructions:u            #    0.44  insn per cycle           (50.15%)
    36.122164234          1,709,591      instructions:k            #    0.07  insn per cycle           (49.79%)
