# started on Sun Apr  2 13:12:51 2023

#           time             counts unit events
     5.000192615            320,940      LLC-load-misses           #   18.80% of all LL-cache hits     (49.94%)
     5.000192615             13,591      LLC-load-misses           #   13.25% of all LL-cache hits     (50.02%)
     5.000192615          1,707,485      LLC-loads                 #    0.341 M/sec                    (50.08%)
     5.000192615            102,599      LLC-loads                 #    0.021 M/sec                    (41.76%)
     5.000192615            264,179      LLC-store-misses          #    0.053 M/sec                    (25.02%)
     5.000192615              7,905      LLC-store-misses          #    0.002 M/sec                    (33.34%)
     5.000192615            389,320      LLC-stores                #    0.078 M/sec                    (24.96%)
     5.000192615             21,142      LLC-stores                #    0.004 M/sec                    (33.28%)
     5.000192615           5,000.05 msec task-clock                #    1.000 CPUs utilized          
     5.000192615     13,415,423,184      cycles:u                  #    2.683 GHz                      (41.60%)
     5.000192615         20,460,879      cycles:k                  #    0.004 GHz                      (41.60%)
     5.000192615     24,413,028,448      instructions:u            #    1.82  insn per cycle           (49.92%)
     5.000192615          7,720,666      instructions:k            #    0.38  insn per cycle           (49.92%)
    10.000471149          4,470,420      LLC-load-misses           #   11.67% of all LL-cache hits     (49.92%)
    10.000471149             13,997      LLC-load-misses           #    7.02% of all LL-cache hits     (49.92%)
    10.000471149         74,877,879      LLC-loads                 #   14.975 M/sec                    (49.93%)
    10.000471149            296,023      LLC-loads                 #    0.059 M/sec                    (41.69%)
    10.000471149          1,327,988      LLC-store-misses          #    0.266 M/sec                    (25.12%)
    10.000471149                786      LLC-store-misses          #    0.157 K/sec                    (33.44%)
    10.000471149         14,764,666      LLC-stores                #    2.953 M/sec                    (25.03%)
    10.000471149             39,241      LLC-stores                #    0.008 M/sec                    (33.35%)
    10.000471149           5,000.13 msec task-clock                #    1.000 CPUs utilized          
    10.000471149     13,396,440,037      cycles:u                  #    2.679 GHz                      (41.67%)
    10.000471149         28,099,633      cycles:k                  #    0.006 GHz                      (41.60%)
    10.000471149     13,245,190,324      instructions:u            #    0.99  insn per cycle           (49.92%)
    10.000471149          7,042,779      instructions:k            #    0.29  insn per cycle           (49.92%)
    15.000735613          4,855,586      LLC-load-misses           #    9.22% of all LL-cache hits     (49.92%)
    15.000735613             10,104      LLC-load-misses           #    4.29% of all LL-cache hits     (49.92%)
    15.000735613         81,400,926      LLC-loads                 #   16.280 M/sec                    (49.92%)
    15.000735613            307,767      LLC-loads                 #    0.062 M/sec                    (41.60%)
    15.000735613          1,442,427      LLC-store-misses          #    0.288 M/sec                    (24.97%)
    15.000735613                917      LLC-store-misses          #    0.183 K/sec                    (33.37%)
    15.000735613         16,079,765      LLC-stores                #    3.216 M/sec                    (25.12%)
    15.000735613             42,965      LLC-stores                #    0.009 M/sec                    (33.44%)
    15.000735613           5,000.13 msec task-clock                #    1.000 CPUs utilized          
    15.000735613     13,396,526,406      cycles:u                  #    2.679 GHz                      (41.76%)
    15.000735613         26,335,173      cycles:k                  #    0.005 GHz                      (41.75%)
    15.000735613     12,275,900,465      instructions:u            #    0.92  insn per cycle           (50.07%)
    15.000735613          7,024,019      instructions:k            #    0.28  insn per cycle           (49.99%)
    20.001040891          4,885,117      LLC-load-misses           #    8.16% of all LL-cache hits     (50.08%)
    20.001040891             15,692      LLC-load-misses           #    6.16% of all LL-cache hits     (50.00%)
    20.001040891         81,480,462      LLC-loads                 #   16.296 M/sec                    (49.92%)
    20.001040891            313,067      LLC-loads                 #    0.063 M/sec                    (41.60%)
    20.001040891          1,450,012      LLC-store-misses          #    0.290 M/sec                    (24.96%)
    20.001040891                907      LLC-store-misses          #    0.181 K/sec                    (33.28%)
    20.001040891         16,054,369      LLC-stores                #    3.211 M/sec                    (24.96%)
    20.001040891             44,219      LLC-stores                #    0.009 M/sec                    (33.36%)
    20.001040891           5,000.17 msec task-clock                #    1.000 CPUs utilized          
    20.001040891     13,393,478,084      cycles:u                  #    2.679 GHz                      (41.76%)
    20.001040891         28,907,760      cycles:k                  #    0.006 GHz                      (41.76%)
    20.001040891     12,264,952,375      instructions:u            #    0.92  insn per cycle           (50.08%)
    20.001040891          7,338,604      instructions:k            #    0.28  insn per cycle           (50.08%)
    25.001278632          4,903,258      LLC-load-misses           #    7.64% of all LL-cache hits     (50.08%)
    25.001278632             12,185      LLC-load-misses           #    4.55% of all LL-cache hits     (50.08%)
    25.001278632         81,488,359      LLC-loads                 #   16.297 M/sec                    (50.08%)
    25.001278632            319,108      LLC-loads                 #    0.064 M/sec                    (41.60%)
    25.001278632          1,462,142      LLC-store-misses          #    0.292 M/sec                    (24.96%)
    25.001278632              1,965      LLC-store-misses          #    0.393 K/sec                    (33.28%)
    25.001278632         16,065,864      LLC-stores                #    3.213 M/sec                    (24.96%)
    25.001278632             46,726      LLC-stores                #    0.009 M/sec                    (33.28%)
    25.001278632           5,000.11 msec task-clock                #    1.000 CPUs utilized          
    25.001278632     13,394,660,949      cycles:u                  #    2.679 GHz                      (41.60%)
    25.001278632         27,875,676      cycles:k                  #    0.006 GHz                      (41.68%)
    25.001278632     12,262,560,475      instructions:u            #    0.92  insn per cycle           (50.08%)
    25.001278632          7,181,034      instructions:k            #    0.27  insn per cycle           (50.08%)
    30.001502198          4,906,127      LLC-load-misses           #    7.31% of all LL-cache hits     (50.07%)
    30.001502198             12,367      LLC-load-misses           #    4.49% of all LL-cache hits     (50.08%)
    30.001502198         81,549,247      LLC-loads                 #   16.309 M/sec                    (50.08%)
    30.001502198            315,328      LLC-loads                 #    0.063 M/sec                    (41.76%)
    30.001502198          1,442,618      LLC-store-misses          #    0.289 M/sec                    (24.96%)
    30.001502198              1,379      LLC-store-misses          #    0.276 K/sec                    (33.28%)
    30.001502198         16,043,129      LLC-stores                #    3.209 M/sec                    (24.96%)
    30.001502198             44,160      LLC-stores                #    0.009 M/sec                    (33.28%)
    30.001502198           5,000.08 msec task-clock                #    1.000 CPUs utilized          
    30.001502198     13,397,006,981      cycles:u                  #    2.679 GHz                      (41.60%)
    30.001502198         27,611,355      cycles:k                  #    0.006 GHz                      (41.60%)
    30.001502198     12,268,378,741      instructions:u            #    0.92  insn per cycle           (49.92%)
    30.001502198          7,215,784      instructions:k            #    0.27  insn per cycle           (49.99%)
    35.001774402          4,918,110      LLC-load-misses           #    7.11% of all LL-cache hits     (49.92%)
    35.001774402             13,127      LLC-load-misses           #    4.68% of all LL-cache hits     (49.99%)
    35.001774402         81,697,565      LLC-loads                 #   16.339 M/sec                    (50.07%)
    35.001774402            307,570      LLC-loads                 #    0.062 M/sec                    (41.76%)
    35.001774402          1,470,976      LLC-store-misses          #    0.294 M/sec                    (25.05%)
    35.001774402                728      LLC-store-misses          #    0.146 K/sec                    (33.37%)
    35.001774402         16,090,198      LLC-stores                #    3.218 M/sec                    (24.96%)
    35.001774402             42,784      LLC-stores                #    0.009 M/sec                    (33.28%)
    35.001774402           5,000.14 msec task-clock                #    1.000 CPUs utilized          
    35.001774402     13,395,727,801      cycles:u                  #    2.679 GHz                      (41.60%)
    35.001774402         28,478,080      cycles:k                  #    0.006 GHz                      (41.60%)
    35.001774402     12,265,462,371      instructions:u            #    0.92  insn per cycle           (49.92%)
    35.001774402          7,089,379      instructions:k            #    0.26  insn per cycle           (49.92%)
    37.603144871            558,277      LLC-load-misses           #    0.91% of all LL-cache hits     (49.82%)
    37.603144871              8,518      LLC-load-misses           #    3.32% of all LL-cache hits     (49.82%)
    37.603144871          7,095,509      LLC-loads                 #    1.510 M/sec                    (49.82%)
    37.603144871             89,795      LLC-loads                 #    0.019 M/sec                    (41.64%)
    37.603144871            171,034      LLC-store-misses          #    0.036 M/sec                    (25.19%)
    37.603144871              3,925      LLC-store-misses          #    0.835 K/sec                    (33.57%)
    37.603144871          1,359,406      LLC-stores                #    0.289 M/sec                    (25.15%)
    37.603144871             15,444      LLC-stores                #    0.003 M/sec                    (33.45%)
    37.603144871           2,601.30 msec task-clock                #    0.520 CPUs utilized          
    37.603144871      6,973,120,047      cycles:u                  #    1.484 GHz                      (41.75%)
    37.603144871         17,094,784      cycles:k                  #    0.004 GHz                      (41.60%)
    37.603144871     11,362,971,028      instructions:u            #    0.90  insn per cycle           (49.90%)
    37.603144871          4,100,924      instructions:k            #    0.16  insn per cycle           (49.82%)
