# started on Thu Mar 30 22:14:30 2023

#           time             counts unit events
     5.000298975            242,520      LLC-load-misses           #   14.02% of all LL-cache hits     (49.98%)
     5.000298975              5,449      LLC-load-misses           #    6.86% of all LL-cache hits     (50.06%)
     5.000298975          1,729,468      LLC-loads                 #    0.346 M/sec                    (50.08%)
     5.000298975             79,478      LLC-loads                 #    0.016 M/sec                    (41.76%)
     5.000298975            114,846      LLC-store-misses          #    0.023 M/sec                    (24.98%)
     5.000298975             10,981      LLC-store-misses          #    0.002 M/sec                    (33.30%)
     5.000298975            691,413      LLC-stores                #    0.138 M/sec                    (24.96%)
     5.000298975             23,997      LLC-stores                #    0.005 M/sec                    (33.28%)
     5.000298975           5,000.10 msec task-clock                #    1.000 CPUs utilized          
     5.000298975     13,416,992,268      cycles:u                  #    2.683 GHz                      (41.60%)
     5.000298975         23,232,597      cycles:k                  #    0.005 GHz                      (41.60%)
     5.000298975     24,143,826,354      instructions:u            #    1.80  insn per cycle           (49.92%)
     5.000298975          7,912,464      instructions:k            #    0.34  insn per cycle           (49.92%)
    10.000620989          4,341,629      LLC-load-misses           #   11.58% of all LL-cache hits     (49.92%)
    10.000620989              5,619      LLC-load-misses           #    3.06% of all LL-cache hits     (49.92%)
    10.000620989         73,283,100      LLC-loads                 #   14.656 M/sec                    (49.97%)
    10.000620989            287,585      LLC-loads                 #    0.058 M/sec                    (41.73%)
    10.000620989          1,251,889      LLC-store-misses          #    0.250 M/sec                    (25.12%)
    10.000620989              1,001      LLC-store-misses          #    0.200 K/sec                    (33.44%)
    10.000620989         14,123,262      LLC-stores                #    2.825 M/sec                    (24.99%)
    10.000620989             46,075      LLC-stores                #    0.009 M/sec                    (33.31%)
    10.000620989           5,000.14 msec task-clock                #    1.000 CPUs utilized          
    10.000620989     13,406,975,748      cycles:u                  #    2.681 GHz                      (41.63%)
    10.000620989         23,525,732      cycles:k                  #    0.005 GHz                      (41.60%)
    10.000620989     12,985,845,580      instructions:u            #    0.97  insn per cycle           (49.92%)
    10.000620989          7,236,448      instructions:k            #    0.31  insn per cycle           (49.92%)
    15.000841095          4,722,582      LLC-load-misses           #    9.15% of all LL-cache hits     (49.92%)
    15.000841095              8,688      LLC-load-misses           #    3.81% of all LL-cache hits     (49.92%)
    15.000841095         79,778,097      LLC-loads                 #   15.955 M/sec                    (49.92%)
    15.000841095            316,150      LLC-loads                 #    0.063 M/sec                    (41.60%)
    15.000841095          1,389,182      LLC-store-misses          #    0.278 M/sec                    (25.01%)
    15.000841095              4,238      LLC-store-misses          #    0.848 K/sec                    (33.41%)
    15.000841095         15,471,129      LLC-stores                #    3.094 M/sec                    (25.12%)
    15.000841095             50,578      LLC-stores                #    0.010 M/sec                    (33.44%)
    15.000841095           5,000.04 msec task-clock                #    1.000 CPUs utilized          
    15.000841095     13,401,884,908      cycles:u                  #    2.680 GHz                      (41.76%)
    15.000841095         27,901,826      cycles:k                  #    0.006 GHz                      (41.71%)
    15.000841095     11,895,007,563      instructions:u            #    0.89  insn per cycle           (50.03%)
    15.000841095          7,472,438      instructions:k            #    0.30  insn per cycle           (49.95%)
    20.001101006          4,703,775      LLC-load-misses           #    8.01% of all LL-cache hits     (50.04%)
    20.001101006              5,788      LLC-load-misses           #    2.34% of all LL-cache hits     (49.96%)
    20.001101006         80,005,194      LLC-loads                 #   16.001 M/sec                    (49.92%)
    20.001101006            306,496      LLC-loads                 #    0.061 M/sec                    (41.60%)
    20.001101006          1,386,305      LLC-store-misses          #    0.277 M/sec                    (24.96%)
    20.001101006              3,314      LLC-store-misses          #    0.663 K/sec                    (33.28%)
    20.001101006         15,441,378      LLC-stores                #    3.088 M/sec                    (25.00%)
    20.001101006             49,324      LLC-stores                #    0.010 M/sec                    (33.40%)
    20.001101006           5,000.09 msec task-clock                #    1.000 CPUs utilized          
    20.001101006     13,404,532,674      cycles:u                  #    2.681 GHz                      (41.76%)
    20.001101006         25,177,186      cycles:k                  #    0.005 GHz                      (41.76%)
    20.001101006     11,894,055,893      instructions:u            #    0.89  insn per cycle           (50.08%)
    20.001101006          7,356,822      instructions:k            #    0.29  insn per cycle           (50.08%)
    25.001358758          4,725,068      LLC-load-misses           #    7.51% of all LL-cache hits     (50.08%)
    25.001358758              7,926      LLC-load-misses           #    3.05% of all LL-cache hits     (50.08%)
    25.001358758         79,943,531      LLC-loads                 #   15.988 M/sec                    (50.04%)
    25.001358758            308,256      LLC-loads                 #    0.062 M/sec                    (41.60%)
    25.001358758          1,393,659      LLC-store-misses          #    0.279 M/sec                    (24.96%)
    25.001358758              1,153      LLC-store-misses          #    0.231 K/sec                    (33.28%)
    25.001358758         15,445,408      LLC-stores                #    3.089 M/sec                    (24.96%)
    25.001358758             50,020      LLC-stores                #    0.010 M/sec                    (33.28%)
    25.001358758           5,000.09 msec task-clock                #    1.000 CPUs utilized          
    25.001358758     13,402,966,103      cycles:u                  #    2.681 GHz                      (41.64%)
    25.001358758         26,837,998      cycles:k                  #    0.005 GHz                      (41.72%)
    25.001358758     11,884,606,006      instructions:u            #    0.89  insn per cycle           (50.08%)
    25.001358758          7,462,841      instructions:k            #    0.29  insn per cycle           (50.08%)
    30.001578117          4,733,510      LLC-load-misses           #    7.19% of all LL-cache hits     (50.08%)
    30.001578117              7,453      LLC-load-misses           #    2.79% of all LL-cache hits     (50.08%)
    30.001578117         80,104,740      LLC-loads                 #   16.021 M/sec                    (50.08%)
    30.001578117            304,672      LLC-loads                 #    0.061 M/sec                    (41.73%)
    30.001578117          1,393,187      LLC-store-misses          #    0.279 M/sec                    (24.96%)
    30.001578117              1,217      LLC-store-misses          #    0.243 K/sec                    (33.28%)
    30.001578117         15,559,808      LLC-stores                #    3.112 M/sec                    (24.96%)
    30.001578117             48,655      LLC-stores                #    0.010 M/sec                    (33.28%)
    30.001578117           5,000.05 msec task-clock                #    1.000 CPUs utilized          
    30.001578117     13,406,256,026      cycles:u                  #    2.681 GHz                      (41.60%)
    30.001578117         24,490,132      cycles:k                  #    0.005 GHz                      (41.60%)
    30.001578117     11,910,763,630      instructions:u            #    0.89  insn per cycle           (49.95%)
    30.001578117          7,188,696      instructions:k            #    0.29  insn per cycle           (50.03%)
    35.001798059          4,746,024      LLC-load-misses           #    7.00% of all LL-cache hits     (49.95%)
    35.001798059              4,987      LLC-load-misses           #    1.83% of all LL-cache hits     (50.03%)
    35.001798059         80,093,917      LLC-loads                 #   16.019 M/sec                    (50.08%)
    35.001798059            310,089      LLC-loads                 #    0.062 M/sec                    (41.76%)
    35.001798059          1,412,436      LLC-store-misses          #    0.282 M/sec                    (25.01%)
    35.001798059              3,264      LLC-store-misses          #    0.653 K/sec                    (33.33%)
    35.001798059         15,520,670      LLC-stores                #    3.104 M/sec                    (24.96%)
    35.001798059             50,257      LLC-stores                #    0.010 M/sec                    (33.28%)
    35.001798059           5,000.05 msec task-clock                #    1.000 CPUs utilized          
    35.001798059     13,405,779,208      cycles:u                  #    2.681 GHz                      (41.60%)
    35.001798059         24,698,272      cycles:k                  #    0.005 GHz                      (41.60%)
    35.001798059     11,898,888,825      instructions:u            #    0.89  insn per cycle           (49.92%)
    35.001798059          7,252,580      instructions:k            #    0.29  insn per cycle           (49.92%)
    37.645446256            493,458      LLC-load-misses           #    0.82% of all LL-cache hits     (49.93%)
    37.645446256              5,157      LLC-load-misses           #    2.08% of all LL-cache hits     (49.93%)
    37.645446256          7,569,484      LLC-loads                 #    1.609 M/sec                    (49.98%)
    37.645446256             73,773      LLC-loads                 #    0.016 M/sec                    (41.75%)
    37.645446256            139,676      LLC-store-misses          #    0.030 M/sec                    (25.10%)
    37.645446256              4,580      LLC-store-misses          #    0.973 K/sec                    (33.43%)
    37.645446256          1,446,356      LLC-stores                #    0.307 M/sec                    (24.97%)
    37.645446256             15,648      LLC-stores                #    0.003 M/sec                    (33.29%)
    37.645446256           2,643.56 msec task-clock                #    0.529 CPUs utilized          
    37.645446256      7,091,959,656      cycles:u                  #    1.507 GHz                      (41.61%)
    37.645446256         12,815,353      cycles:k                  #    0.003 GHz                      (41.61%)
    37.645446256     11,479,138,814      instructions:u            #    0.91  insn per cycle           (49.93%)
    37.645446256          4,119,031      instructions:k            #    0.17  insn per cycle           (49.93%)
