# started on Sun Apr  2 13:17:31 2023

#           time             counts unit events
     5.000214484            989,912      LLC-load-misses           #    6.11% of all LL-cache hits     (49.97%)
     5.000214484              4,149      LLC-load-misses           #    4.57% of all LL-cache hits     (50.05%)
     5.000214484         16,200,581      LLC-loads                 #    3.240 M/sec                    (50.08%)
     5.000214484             90,718      LLC-loads                 #    0.018 M/sec                    (41.76%)
     5.000214484            300,800      LLC-store-misses          #    0.060 M/sec                    (24.99%)
     5.000214484              3,332      LLC-store-misses          #    0.666 K/sec                    (33.31%)
     5.000214484          3,257,116      LLC-stores                #    0.651 M/sec                    (24.96%)
     5.000214484             19,297      LLC-stores                #    0.004 M/sec                    (33.28%)
     5.000214484           5,000.08 msec task-clock                #    1.000 CPUs utilized          
     5.000214484     13,418,256,662      cycles:u                  #    2.684 GHz                      (41.60%)
     5.000214484         19,998,915      cycles:k                  #    0.004 GHz                      (41.60%)
     5.000214484     22,352,581,367      instructions:u            #    1.67  insn per cycle           (49.92%)
     5.000214484          7,583,181      instructions:k            #    0.38  insn per cycle           (49.92%)
    10.000533476          4,559,123      LLC-load-misses           #    9.67% of all LL-cache hits     (49.92%)
    10.000533476              7,352      LLC-load-misses           #    3.85% of all LL-cache hits     (49.92%)
    10.000533476         78,134,390      LLC-loads                 #   15.626 M/sec                    (49.97%)
    10.000533476            290,800      LLC-loads                 #    0.058 M/sec                    (41.73%)
    10.000533476          1,343,628      LLC-store-misses          #    0.269 M/sec                    (25.12%)
    10.000533476                618      LLC-store-misses          #    0.124 K/sec                    (33.44%)
    10.000533476         15,945,512      LLC-stores                #    3.189 M/sec                    (25.00%)
    10.000533476             44,001      LLC-stores                #    0.009 M/sec                    (33.31%)
    10.000533476           5,000.20 msec task-clock                #    1.000 CPUs utilized          
    10.000533476     13,407,891,084      cycles:u                  #    2.682 GHz                      (41.63%)
    10.000533476         25,058,318      cycles:k                  #    0.005 GHz                      (41.60%)
    10.000533476     12,174,393,885      instructions:u            #    0.91  insn per cycle           (49.92%)
    10.000533476          7,654,914      instructions:k            #    0.34  insn per cycle           (49.92%)
    15.000771056          4,622,097      LLC-load-misses           #    8.02% of all LL-cache hits     (49.92%)
    15.000771056              9,519      LLC-load-misses           #    4.21% of all LL-cache hits     (49.92%)
    15.000771056         78,563,340      LLC-loads                 #   15.712 M/sec                    (49.92%)
    15.000771056            296,342      LLC-loads                 #    0.059 M/sec                    (41.60%)
    15.000771056          1,369,764      LLC-store-misses          #    0.274 M/sec                    (25.00%)
    15.000771056                946      LLC-store-misses          #    0.189 K/sec                    (33.40%)
    15.000771056         16,003,761      LLC-stores                #    3.201 M/sec                    (25.12%)
    15.000771056             44,227      LLC-stores                #    0.009 M/sec                    (33.45%)
    15.000771056           5,000.12 msec task-clock                #    1.000 CPUs utilized          
    15.000771056     13,406,526,014      cycles:u                  #    2.681 GHz                      (41.76%)
    15.000771056         25,263,438      cycles:k                  #    0.005 GHz                      (41.72%)
    15.000771056     12,192,366,120      instructions:u            #    0.91  insn per cycle           (50.04%)
    15.000771056          7,545,281      instructions:k            #    0.32  insn per cycle           (49.96%)
    20.001043604          4,620,840      LLC-load-misses           #    7.35% of all LL-cache hits     (50.04%)
    20.001043604              4,517      LLC-load-misses           #    1.85% of all LL-cache hits     (49.96%)
    20.001043604         78,638,702      LLC-loads                 #   15.727 M/sec                    (49.92%)
    20.001043604            297,903      LLC-loads                 #    0.060 M/sec                    (41.60%)
    20.001043604          1,377,522      LLC-store-misses          #    0.275 M/sec                    (24.96%)
    20.001043604              1,256      LLC-store-misses          #    0.251 K/sec                    (33.28%)
    20.001043604         16,019,077      LLC-stores                #    3.204 M/sec                    (25.00%)
    20.001043604             47,220      LLC-stores                #    0.009 M/sec                    (33.40%)
    20.001043604           5,000.16 msec task-clock                #    1.000 CPUs utilized          
    20.001043604     13,406,209,284      cycles:u                  #    2.681 GHz                      (41.76%)
    20.001043604         26,420,590      cycles:k                  #    0.005 GHz                      (41.76%)
    20.001043604     12,205,962,774      instructions:u            #    0.91  insn per cycle           (50.08%)
    20.001043604          7,494,162      instructions:k            #    0.31  insn per cycle           (50.08%)
    25.001297896          4,623,762      LLC-load-misses           #    7.00% of all LL-cache hits     (50.08%)
    25.001297896              6,700      LLC-load-misses           #    2.63% of all LL-cache hits     (50.08%)
    25.001297896         78,687,354      LLC-loads                 #   15.737 M/sec                    (50.05%)
    25.001297896            295,875      LLC-loads                 #    0.059 M/sec                    (41.60%)
    25.001297896          1,394,213      LLC-store-misses          #    0.279 M/sec                    (24.96%)
    25.001297896              1,102      LLC-store-misses          #    0.220 K/sec                    (33.28%)
    25.001297896         16,038,254      LLC-stores                #    3.208 M/sec                    (24.96%)
    25.001297896             46,354      LLC-stores                #    0.009 M/sec                    (33.28%)
    25.001297896           5,000.14 msec task-clock                #    1.000 CPUs utilized          
    25.001297896     13,404,919,666      cycles:u                  #    2.681 GHz                      (41.63%)
    25.001297896         27,203,546      cycles:k                  #    0.005 GHz                      (41.71%)
    25.001297896     12,203,846,913      instructions:u            #    0.91  insn per cycle           (50.08%)
    25.001297896          7,862,188      instructions:k            #    0.32  insn per cycle           (50.08%)
    30.001525498          4,620,558      LLC-load-misses           #    6.78% of all LL-cache hits     (50.08%)
    30.001525498              8,609      LLC-load-misses           #    3.30% of all LL-cache hits     (50.08%)
    30.001525498         78,674,984      LLC-loads                 #   15.735 M/sec                    (50.08%)
    30.001525498            293,215      LLC-loads                 #    0.059 M/sec                    (41.73%)
    30.001525498          1,387,216      LLC-store-misses          #    0.277 M/sec                    (24.96%)
    30.001525498                757      LLC-store-misses          #    0.151 K/sec                    (33.28%)
    30.001525498         16,030,032      LLC-stores                #    3.206 M/sec                    (24.96%)
    30.001525498             43,736      LLC-stores                #    0.009 M/sec                    (33.28%)
    30.001525498           5,000.11 msec task-clock                #    1.000 CPUs utilized          
    30.001525498     13,408,169,417      cycles:u                  #    2.682 GHz                      (41.60%)
    30.001525498         24,323,031      cycles:k                  #    0.005 GHz                      (41.60%)
    30.001525498     12,203,969,928      instructions:u            #    0.91  insn per cycle           (49.94%)
    30.001525498          7,454,339      instructions:k            #    0.30  insn per cycle           (50.03%)
    35.001793677          3,789,546      LLC-load-misses           #    5.62% of all LL-cache hits     (49.94%)
    35.001793677              7,007      LLC-load-misses           #    2.68% of all LL-cache hits     (50.02%)
    35.001793677         62,878,217      LLC-loads                 #   12.575 M/sec                    (50.08%)
    35.001793677            264,333      LLC-loads                 #    0.053 M/sec                    (41.76%)
    35.001793677          1,113,153      LLC-store-misses          #    0.223 M/sec                    (25.02%)
    35.001793677              2,129      LLC-store-misses          #    0.426 K/sec                    (33.34%)
    35.001793677         12,849,674      LLC-stores                #    2.570 M/sec                    (24.96%)
    35.001793677             40,627      LLC-stores                #    0.008 M/sec                    (33.28%)
    35.001793677           5,000.15 msec task-clock                #    1.000 CPUs utilized          
    35.001793677     13,409,716,774      cycles:u                  #    2.682 GHz                      (41.60%)
    35.001793677         26,339,370      cycles:k                  #    0.005 GHz                      (41.60%)
    35.001793677     14,386,297,077      instructions:u            #    1.07  insn per cycle           (49.92%)
    35.001793677          7,646,906      instructions:k            #    0.31  insn per cycle           (49.92%)
    36.150745595              4,132      LLC-load-misses           #    0.01% of all LL-cache hits     (50.14%)
    36.150745595              1,166      LLC-load-misses           #    0.51% of all LL-cache hits     (50.13%)
    36.150745595             59,270      LLC-loads                 #    0.013 M/sec                    (49.87%)
    36.150745595             16,713      LLC-loads                 #    0.004 M/sec                    (41.51%)
    36.150745595                125      LLC-store-misses          #    0.028 K/sec                    (24.80%)
    36.150745595              1,438      LLC-store-misses          #    0.318 K/sec                    (33.15%)
    36.150745595              1,001      LLC-stores                #    0.222 K/sec                    (25.07%)
    36.150745595              3,716      LLC-stores                #    0.822 K/sec                    (33.42%)
    36.150745595           1,148.92 msec task-clock                #    0.230 CPUs utilized          
    36.150745595      3,082,984,217      cycles:u                  #    0.682 GHz                      (41.78%)
    36.150745595          5,030,671      cycles:k                  #    0.001 GHz                      (41.78%)
    36.150745595      5,608,649,243      instructions:u            #    0.46  insn per cycle           (50.13%)
    36.150745595          1,690,975      instructions:k            #    0.08  insn per cycle           (50.13%)
