# started on Sun Apr  2 13:03:32 2023

#           time             counts unit events
     5.000170067          1,040,043      LLC-load-misses           #    6.12% of all LL-cache hits     (49.93%)
     5.000170067             12,218      LLC-load-misses           #   12.33% of all LL-cache hits     (50.01%)
     5.000170067         17,004,649      LLC-loads                 #    3.401 M/sec                    (50.08%)
     5.000170067             99,054      LLC-loads                 #    0.020 M/sec                    (41.76%)
     5.000170067            404,014      LLC-store-misses          #    0.081 M/sec                    (25.03%)
     5.000170067              3,975      LLC-store-misses          #    0.795 K/sec                    (33.35%)
     5.000170067          3,240,483      LLC-stores                #    0.648 M/sec                    (24.96%)
     5.000170067             18,846      LLC-stores                #    0.004 M/sec                    (33.28%)
     5.000170067           5,000.05 msec task-clock                #    1.000 CPUs utilized          
     5.000170067     13,413,791,662      cycles:u                  #    2.683 GHz                      (41.60%)
     5.000170067         20,860,110      cycles:k                  #    0.004 GHz                      (41.60%)
     5.000170067     22,530,675,771      instructions:u            #    1.68  insn per cycle           (49.92%)
     5.000170067          7,317,769      instructions:k            #    0.35  insn per cycle           (49.92%)
    10.000481931          4,711,314      LLC-load-misses           #    9.68% of all LL-cache hits     (49.92%)
    10.000481931             13,528      LLC-load-misses           #    6.43% of all LL-cache hits     (49.92%)
    10.000481931         80,321,309      LLC-loads                 #   16.064 M/sec                    (49.92%)
    10.000481931            321,461      LLC-loads                 #    0.064 M/sec                    (41.68%)
    10.000481931          1,393,708      LLC-store-misses          #    0.279 M/sec                    (25.12%)
    10.000481931              4,051      LLC-store-misses          #    0.810 K/sec                    (33.44%)
    10.000481931         16,007,778      LLC-stores                #    3.201 M/sec                    (25.04%)
    10.000481931             46,714      LLC-stores                #    0.009 M/sec                    (33.36%)
    10.000481931           5,000.21 msec task-clock                #    1.000 CPUs utilized          
    10.000481931     13,395,104,894      cycles:u                  #    2.679 GHz                      (41.68%)
    10.000481931         28,373,005      cycles:k                  #    0.006 GHz                      (41.60%)
    10.000481931     12,315,097,447      instructions:u            #    0.92  insn per cycle           (49.92%)
    10.000481931          7,389,347      instructions:k            #    0.30  insn per cycle           (49.92%)
    15.000747706          4,778,869      LLC-load-misses           #    8.06% of all LL-cache hits     (49.92%)
    15.000747706             13,816      LLC-load-misses           #    5.61% of all LL-cache hits     (49.92%)
    15.000747706         80,541,187      LLC-loads                 #   16.108 M/sec                    (49.92%)
    15.000747706            318,426      LLC-loads                 #    0.064 M/sec                    (41.60%)
    15.000747706          1,420,744      LLC-store-misses          #    0.284 M/sec                    (24.96%)
    15.000747706              4,251      LLC-store-misses          #    0.850 K/sec                    (33.36%)
    15.000747706         16,051,467      LLC-stores                #    3.210 M/sec                    (25.12%)
    15.000747706             48,753      LLC-stores                #    0.010 M/sec                    (33.44%)
    15.000747706           5,000.16 msec task-clock                #    1.000 CPUs utilized          
    15.000747706     13,397,217,497      cycles:u                  #    2.679 GHz                      (41.76%)
    15.000747706         27,980,162      cycles:k                  #    0.006 GHz                      (41.76%)
    15.000747706     12,308,033,114      instructions:u            #    0.92  insn per cycle           (50.08%)
    15.000747706          7,236,355      instructions:k            #    0.28  insn per cycle           (50.01%)
    20.001024007          4,797,467      LLC-load-misses           #    7.42% of all LL-cache hits     (50.08%)
    20.001024007              8,380      LLC-load-misses           #    3.19% of all LL-cache hits     (50.01%)
    20.001024007         80,665,638      LLC-loads                 #   16.133 M/sec                    (49.93%)
    20.001024007            312,750      LLC-loads                 #    0.063 M/sec                    (41.60%)
    20.001024007          1,436,943      LLC-store-misses          #    0.287 M/sec                    (24.96%)
    20.001024007              1,156      LLC-store-misses          #    0.231 K/sec                    (33.28%)
    20.001024007         16,034,771      LLC-stores                #    3.207 M/sec                    (24.96%)
    20.001024007             45,765      LLC-stores                #    0.009 M/sec                    (33.35%)
    20.001024007           5,000.18 msec task-clock                #    1.000 CPUs utilized          
    20.001024007     13,396,956,188      cycles:u                  #    2.679 GHz                      (41.75%)
    20.001024007         26,401,877      cycles:k                  #    0.005 GHz                      (41.76%)
    20.001024007     12,318,132,469      instructions:u            #    0.92  insn per cycle           (50.08%)
    20.001024007          7,135,253      instructions:k            #    0.28  insn per cycle           (50.08%)
    25.001248463          4,784,164      LLC-load-misses           #    7.05% of all LL-cache hits     (50.08%)
    25.001248463             14,100      LLC-load-misses           #    5.16% of all LL-cache hits     (50.08%)
    25.001248463         80,688,214      LLC-loads                 #   16.137 M/sec                    (50.08%)
    25.001248463            314,098      LLC-loads                 #    0.063 M/sec                    (41.62%)
    25.001248463          1,423,682      LLC-store-misses          #    0.285 M/sec                    (24.96%)
    25.001248463                622      LLC-store-misses          #    0.124 K/sec                    (33.28%)
    25.001248463         16,046,119      LLC-stores                #    3.209 M/sec                    (24.96%)
    25.001248463             44,569      LLC-stores                #    0.009 M/sec                    (33.28%)
    25.001248463           5,000.12 msec task-clock                #    1.000 CPUs utilized          
    25.001248463     13,394,615,067      cycles:u                  #    2.679 GHz                      (41.60%)
    25.001248463         31,725,301      cycles:k                  #    0.006 GHz                      (41.66%)
    25.001248463     12,312,968,006      instructions:u            #    0.92  insn per cycle           (50.06%)
    25.001248463          7,332,414      instructions:k            #    0.27  insn per cycle           (50.08%)
    30.001498459          4,794,826      LLC-load-misses           #    6.85% of all LL-cache hits     (50.06%)
    30.001498459             14,314      LLC-load-misses           #    5.11% of all LL-cache hits     (50.08%)
    30.001498459         80,885,679      LLC-loads                 #   16.177 M/sec                    (50.08%)
    30.001498459            315,259      LLC-loads                 #    0.063 M/sec                    (41.76%)
    30.001498459          1,431,500      LLC-store-misses          #    0.286 M/sec                    (24.96%)
    30.001498459                751      LLC-store-misses          #    0.150 K/sec                    (33.28%)
    30.001498459         16,070,195      LLC-stores                #    3.214 M/sec                    (24.96%)
    30.001498459             43,993      LLC-stores                #    0.009 M/sec                    (33.28%)
    30.001498459           5,000.15 msec task-clock                #    1.000 CPUs utilized          
    30.001498459     13,399,305,630      cycles:u                  #    2.680 GHz                      (41.60%)
    30.001498459         26,564,117      cycles:k                  #    0.005 GHz                      (41.60%)
    30.001498459     12,317,498,532      instructions:u            #    0.92  insn per cycle           (49.92%)
    30.001498459          7,046,938      instructions:k            #    0.26  insn per cycle           (49.98%)
    35.001748739          3,964,341      LLC-load-misses           #    5.72% of all LL-cache hits     (49.92%)
    35.001748739             16,280      LLC-load-misses           #    5.79% of all LL-cache hits     (49.98%)
    35.001748739         64,732,543      LLC-loads                 #   12.946 M/sec                    (50.05%)
    35.001748739            288,730      LLC-loads                 #    0.058 M/sec                    (41.76%)
    35.001748739          1,175,402      LLC-store-misses          #    0.235 M/sec                    (25.07%)
    35.001748739              5,077      LLC-store-misses          #    0.001 M/sec                    (33.39%)
    35.001748739         12,859,386      LLC-stores                #    2.572 M/sec                    (24.96%)
    35.001748739             44,037      LLC-stores                #    0.009 M/sec                    (33.28%)
    35.001748739           5,000.14 msec task-clock                #    1.000 CPUs utilized          
    35.001748739     13,399,245,484      cycles:u                  #    2.680 GHz                      (41.60%)
    35.001748739         25,438,833      cycles:k                  #    0.005 GHz                      (41.60%)
    35.001748739     14,435,707,463      instructions:u            #    1.08  insn per cycle           (49.92%)
    35.001748739          6,999,512      instructions:k            #    0.26  insn per cycle           (49.92%)
    36.127213192              9,973      LLC-load-misses           #    0.02% of all LL-cache hits     (49.65%)
    36.127213192              1,588      LLC-load-misses           #    0.64% of all LL-cache hits     (49.30%)
    36.127213192             87,614      LLC-loads                 #    0.019 M/sec                    (49.05%)
    36.127213192             17,618      LLC-loads                 #    0.004 M/sec                    (41.11%)
    36.127213192              2,791      LLC-store-misses          #    0.618 K/sec                    (25.11%)
    36.127213192              1,337      LLC-store-misses          #    0.296 K/sec                    (33.64%)
    36.127213192              3,470      LLC-stores                #    0.768 K/sec                    (25.59%)
    36.127213192              3,898      LLC-stores                #    0.863 K/sec                    (34.12%)
    36.127213192           1,125.44 msec task-clock                #    0.225 CPUs utilized          
    36.127213192      3,019,425,303      cycles:u                  #    0.669 GHz                      (42.55%)
    36.127213192          5,507,609      cycles:k                  #    0.001 GHz                      (42.19%)
    36.127213192      5,486,311,789      instructions:u            #    0.45  insn per cycle           (50.37%)
    36.127213192          1,611,478      instructions:k            #    0.07  insn per cycle           (50.01%)
