# started on Sun Apr  2 13:47:47 2023

#           time             counts unit events
     5.000158760          1,037,835      LLC-load-misses           #    6.05% of all LL-cache hits     (49.95%)
     5.000158760              6,571      LLC-load-misses           #    7.21% of all LL-cache hits     (50.03%)
     5.000158760         17,146,460      LLC-loads                 #    3.429 M/sec                    (50.08%)
     5.000158760             91,139      LLC-loads                 #    0.018 M/sec                    (41.76%)
     5.000158760            344,977      LLC-store-misses          #    0.069 M/sec                    (25.01%)
     5.000158760              3,390      LLC-store-misses          #    0.678 K/sec                    (33.33%)
     5.000158760          3,230,829      LLC-stores                #    0.646 M/sec                    (24.96%)
     5.000158760             19,087      LLC-stores                #    0.004 M/sec                    (33.28%)
     5.000158760           5,000.02 msec task-clock                #    1.000 CPUs utilized          
     5.000158760     13,416,792,380      cycles:u                  #    2.683 GHz                      (41.60%)
     5.000158760         19,644,304      cycles:k                  #    0.004 GHz                      (41.60%)
     5.000158760     22,304,528,621      instructions:u            #    1.66  insn per cycle           (49.92%)
     5.000158760          7,819,781      instructions:k            #    0.40  insn per cycle           (49.92%)
    10.000467791          4,685,042      LLC-load-misses           #    9.51% of all LL-cache hits     (49.92%)
    10.000467791              6,418      LLC-load-misses           #    3.30% of all LL-cache hits     (49.92%)
    10.000467791         81,416,819      LLC-loads                 #   16.283 M/sec                    (49.94%)
    10.000467791            297,478      LLC-loads                 #    0.059 M/sec                    (41.71%)
    10.000467791          1,369,507      LLC-store-misses          #    0.274 M/sec                    (25.12%)
    10.000467791                971      LLC-store-misses          #    0.194 K/sec                    (33.44%)
    10.000467791         16,042,013      LLC-stores                #    3.208 M/sec                    (25.02%)
    10.000467791             42,845      LLC-stores                #    0.009 M/sec                    (33.34%)
    10.000467791           5,000.18 msec task-clock                #    1.000 CPUs utilized          
    10.000467791     13,399,623,939      cycles:u                  #    2.680 GHz                      (41.66%)
    10.000467791         27,434,667      cycles:k                  #    0.005 GHz                      (41.60%)
    10.000467791     12,305,110,628      instructions:u            #    0.92  insn per cycle           (49.92%)
    10.000467791          7,579,015      instructions:k            #    0.32  insn per cycle           (49.92%)
    15.000718017          4,775,239      LLC-load-misses           #    7.95% of all LL-cache hits     (49.92%)
    15.000718017              7,528      LLC-load-misses           #    3.28% of all LL-cache hits     (49.92%)
    15.000718017         81,665,213      LLC-loads                 #   16.333 M/sec                    (49.92%)
    15.000718017            299,466      LLC-loads                 #    0.060 M/sec                    (41.60%)
    15.000718017          1,417,923      LLC-store-misses          #    0.284 M/sec                    (24.98%)
    15.000718017                539      LLC-store-misses          #    0.108 K/sec                    (33.38%)
    15.000718017         16,099,175      LLC-stores                #    3.220 M/sec                    (25.12%)
    15.000718017             41,843      LLC-stores                #    0.008 M/sec                    (33.44%)
    15.000718017           5,000.12 msec task-clock                #    1.000 CPUs utilized          
    15.000718017     13,400,307,666      cycles:u                  #    2.680 GHz                      (41.76%)
    15.000718017         26,231,543      cycles:k                  #    0.005 GHz                      (41.74%)
    15.000718017     12,309,946,764      instructions:u            #    0.92  insn per cycle           (50.06%)
    15.000718017          7,450,039      instructions:k            #    0.30  insn per cycle           (49.98%)
    20.000981195          4,799,796      LLC-load-misses           #    7.33% of all LL-cache hits     (50.07%)
    20.000981195              5,001      LLC-load-misses           #    2.01% of all LL-cache hits     (49.99%)
    20.000981195         81,779,683      LLC-loads                 #   16.356 M/sec                    (49.92%)
    20.000981195            306,257      LLC-loads                 #    0.061 M/sec                    (41.60%)
    20.000981195          1,429,388      LLC-store-misses          #    0.286 M/sec                    (24.96%)
    20.000981195              1,105      LLC-store-misses          #    0.221 K/sec                    (33.28%)
    20.000981195         16,151,703      LLC-stores                #    3.230 M/sec                    (24.98%)
    20.000981195             44,983      LLC-stores                #    0.009 M/sec                    (33.37%)
    20.000981195           5,000.14 msec task-clock                #    1.000 CPUs utilized          
    20.000981195     13,395,089,007      cycles:u                  #    2.679 GHz                      (41.76%)
    20.000981195         31,579,495      cycles:k                  #    0.006 GHz                      (41.76%)
    20.000981195     12,308,319,019      instructions:u            #    0.92  insn per cycle           (50.08%)
    20.000981195          7,859,022      instructions:k            #    0.30  insn per cycle           (50.08%)
    25.001209379          4,799,978      LLC-load-misses           #    6.98% of all LL-cache hits     (50.08%)
    25.001209379              7,389      LLC-load-misses           #    2.86% of all LL-cache hits     (50.08%)
    25.001209379         81,790,590      LLC-loads                 #   16.358 M/sec                    (50.07%)
    25.001209379            298,320      LLC-loads                 #    0.060 M/sec                    (41.60%)
    25.001209379          1,420,614      LLC-store-misses          #    0.284 M/sec                    (24.96%)
    25.001209379                486      LLC-store-misses          #    0.097 K/sec                    (33.28%)
    25.001209379         16,138,986      LLC-stores                #    3.228 M/sec                    (24.96%)
    25.001209379             42,664      LLC-stores                #    0.009 M/sec                    (33.28%)
    25.001209379           5,000.11 msec task-clock                #    1.000 CPUs utilized          
    25.001209379     13,398,637,863      cycles:u                  #    2.680 GHz                      (41.61%)
    25.001209379         27,478,051      cycles:k                  #    0.005 GHz                      (41.69%)
    25.001209379     12,310,312,302      instructions:u            #    0.92  insn per cycle           (50.08%)
    25.001209379          7,723,154      instructions:k            #    0.29  insn per cycle           (50.08%)
    30.001431892          4,801,853      LLC-load-misses           #    6.77% of all LL-cache hits     (50.08%)
    30.001431892             12,070      LLC-load-misses           #    4.55% of all LL-cache hits     (50.08%)
    30.001431892         81,731,350      LLC-loads                 #   16.346 M/sec                    (50.08%)
    30.001431892            298,612      LLC-loads                 #    0.060 M/sec                    (41.76%)
    30.001431892          1,423,077      LLC-store-misses          #    0.285 M/sec                    (24.96%)
    30.001431892                688      LLC-store-misses          #    0.138 K/sec                    (33.28%)
    30.001431892         16,076,837      LLC-stores                #    3.215 M/sec                    (24.96%)
    30.001431892             42,535      LLC-stores                #    0.009 M/sec                    (33.28%)
    30.001431892           5,000.10 msec task-clock                #    1.000 CPUs utilized          
    30.001431892     13,398,852,967      cycles:u                  #    2.680 GHz                      (41.60%)
    30.001431892         26,705,070      cycles:k                  #    0.005 GHz                      (41.60%)
    30.001431892     12,297,760,135      instructions:u            #    0.92  insn per cycle           (49.92%)
    30.001431892          7,622,273      instructions:k            #    0.29  insn per cycle           (50.00%)
    35.001681586          3,976,848      LLC-load-misses           #    5.67% of all LL-cache hits     (49.92%)
    35.001681586              4,514      LLC-load-misses           #    1.69% of all LL-cache hits     (50.00%)
    35.001681586         65,328,140      LLC-loads                 #   13.065 M/sec                    (50.08%)
    35.001681586            274,504      LLC-loads                 #    0.055 M/sec                    (41.76%)
    35.001681586          1,171,367      LLC-store-misses          #    0.234 M/sec                    (25.04%)
    35.001681586              2,029      LLC-store-misses          #    0.406 K/sec                    (33.36%)
    35.001681586         12,885,916      LLC-stores                #    2.577 M/sec                    (24.96%)
    35.001681586             41,970      LLC-stores                #    0.008 M/sec                    (33.28%)
    35.001681586           5,000.12 msec task-clock                #    1.000 CPUs utilized          
    35.001681586     13,400,624,777      cycles:u                  #    2.680 GHz                      (41.60%)
    35.001681586         27,642,561      cycles:k                  #    0.006 GHz                      (41.60%)
    35.001681586     14,350,432,493      instructions:u            #    1.07  insn per cycle           (49.92%)
    35.001681586          7,540,681      instructions:k            #    0.28  insn per cycle           (49.92%)
    36.127939224              9,700      LLC-load-misses           #    0.02% of all LL-cache hits     (49.58%)
    36.127939224              1,966      LLC-load-misses           #    0.84% of all LL-cache hits     (49.22%)
    36.127939224             94,254      LLC-loads                 #    0.021 M/sec                    (49.01%)
    36.127939224             16,010      LLC-loads                 #    0.004 M/sec                    (41.19%)
    36.127939224              1,959      LLC-store-misses          #    0.434 K/sec                    (25.21%)
    36.127939224              1,701      LLC-store-misses          #    0.377 K/sec                    (33.73%)
    36.127939224              4,637      LLC-stores                #    0.001 M/sec                    (25.57%)
    36.127939224              4,352      LLC-stores                #    0.964 K/sec                    (34.10%)
    36.127939224           1,126.22 msec task-clock                #    0.225 CPUs utilized          
    36.127939224      3,021,165,292      cycles:u                  #    0.669 GHz                      (42.48%)
    36.127939224          6,044,120      cycles:k                  #    0.001 GHz                      (42.12%)
    36.127939224      5,439,221,975      instructions:u            #    0.45  insn per cycle           (50.29%)
    36.127939224          1,807,935      instructions:k            #    0.08  insn per cycle           (49.94%)
