# started on Sun Apr  2 14:34:45 2023

#           time             counts unit events
     5.000210619             42,688      LLC-load-misses           #   19.05% of all LL-cache hits     (49.96%)
     5.000210619             10,863      LLC-load-misses           #   32.17% of all LL-cache hits     (50.04%)
     5.000210619            224,057      LLC-loads                 #    0.045 M/sec                    (50.08%)
     5.000210619             33,771      LLC-loads                 #    0.007 M/sec                    (41.76%)
     5.000210619            165,298      LLC-store-misses          #    0.033 M/sec                    (25.00%)
     5.000210619              3,967      LLC-store-misses          #    0.793 K/sec                    (33.32%)
     5.000210619            473,256      LLC-stores                #    0.095 M/sec                    (24.96%)
     5.000210619             10,526      LLC-stores                #    0.002 M/sec                    (33.28%)
     5.000210619           4,999.99 msec task-clock                #    1.000 CPUs utilized          
     5.000210619     13,422,097,457      cycles:u                  #    2.684 GHz                      (41.60%)
     5.000210619         18,311,775      cycles:k                  #    0.004 GHz                      (41.60%)
     5.000210619     24,128,754,322      instructions:u            #    1.80  insn per cycle           (49.92%)
     5.000210619          7,301,989      instructions:k            #    0.40  insn per cycle           (49.92%)
    10.000512087          4,417,566      LLC-load-misses           #   11.47% of all LL-cache hits     (49.92%)
    10.000512087             14,532      LLC-load-misses           #    9.24% of all LL-cache hits     (49.92%)
    10.000512087         76,835,647      LLC-loads                 #   15.367 M/sec                    (49.96%)
    10.000512087            280,712      LLC-loads                 #    0.056 M/sec                    (41.72%)
    10.000512087          1,303,171      LLC-store-misses          #    0.261 M/sec                    (25.12%)
    10.000512087              1,378      LLC-store-misses          #    0.276 K/sec                    (33.44%)
    10.000512087         14,454,759      LLC-stores                #    2.891 M/sec                    (25.01%)
    10.000512087             43,372      LLC-stores                #    0.009 M/sec                    (33.33%)
    10.000512087           5,000.10 msec task-clock                #    1.000 CPUs utilized          
    10.000512087     13,397,531,422      cycles:u                  #    2.679 GHz                      (41.65%)
    10.000512087         39,163,377      cycles:k                  #    0.008 GHz                      (41.60%)
    10.000512087     13,291,898,676      instructions:u            #    0.99  insn per cycle           (49.92%)
    10.000512087         11,507,920      instructions:k            #    0.40  insn per cycle           (49.92%)
    15.000809254          4,854,245      LLC-load-misses           #    9.01% of all LL-cache hits     (49.92%)
    15.000809254             14,427      LLC-load-misses           #    6.98% of all LL-cache hits     (49.92%)
    15.000809254         84,500,275      LLC-loads                 #   16.900 M/sec                    (49.92%)
    15.000809254            305,782      LLC-loads                 #    0.061 M/sec                    (41.60%)
    15.000809254          1,444,209      LLC-store-misses          #    0.289 M/sec                    (24.99%)
    15.000809254              1,395      LLC-store-misses          #    0.279 K/sec                    (33.39%)
    15.000809254         15,947,645      LLC-stores                #    3.189 M/sec                    (25.12%)
    15.000809254             47,641      LLC-stores                #    0.010 M/sec                    (33.44%)
    15.000809254           5,000.10 msec task-clock                #    1.000 CPUs utilized          
    15.000809254     13,397,446,725      cycles:u                  #    2.679 GHz                      (41.76%)
    15.000809254         29,686,785      cycles:k                  #    0.006 GHz                      (41.73%)
    15.000809254     12,223,801,191      instructions:u            #    0.91  insn per cycle           (50.05%)
    15.000809254          7,114,403      instructions:k            #    0.24  insn per cycle           (49.97%)
    20.001094438          4,895,937      LLC-load-misses           #    7.95% of all LL-cache hits     (50.06%)
    20.001094438             11,715      LLC-load-misses           #    5.03% of all LL-cache hits     (49.98%)
    20.001094438         84,627,607      LLC-loads                 #   16.925 M/sec                    (49.92%)
    20.001094438            310,448      LLC-loads                 #    0.062 M/sec                    (41.60%)
    20.001094438          1,471,905      LLC-store-misses          #    0.294 M/sec                    (24.96%)
    20.001094438              2,437      LLC-store-misses          #    0.487 K/sec                    (33.28%)
    20.001094438         16,053,302      LLC-stores                #    3.211 M/sec                    (24.98%)
    20.001094438             50,335      LLC-stores                #    0.010 M/sec                    (33.38%)
    20.001094438           5,000.09 msec task-clock                #    1.000 CPUs utilized          
    20.001094438     13,396,344,360      cycles:u                  #    2.679 GHz                      (41.76%)
    20.001094438         30,525,629      cycles:k                  #    0.006 GHz                      (41.76%)
    20.001094438     12,230,519,483      instructions:u            #    0.91  insn per cycle           (50.08%)
    20.001094438          7,283,063      instructions:k            #    0.25  insn per cycle           (50.08%)
    25.001325865          4,866,047      LLC-load-misses           #    7.35% of all LL-cache hits     (50.08%)
    25.001325865             14,092      LLC-load-misses           #    5.68% of all LL-cache hits     (50.08%)
    25.001325865         84,713,621      LLC-loads                 #   16.943 M/sec                    (50.06%)
    25.001325865            309,401      LLC-loads                 #    0.062 M/sec                    (41.60%)
    25.001325865          1,448,069      LLC-store-misses          #    0.290 M/sec                    (24.96%)
    25.001325865              1,643      LLC-store-misses          #    0.329 K/sec                    (33.28%)
    25.001325865         16,022,046      LLC-stores                #    3.204 M/sec                    (24.96%)
    25.001325865             49,554      LLC-stores                #    0.010 M/sec                    (33.28%)
    25.001325865           5,000.03 msec task-clock                #    1.000 CPUs utilized          
    25.001325865     13,398,271,914      cycles:u                  #    2.680 GHz                      (41.62%)
    25.001325865         30,942,857      cycles:k                  #    0.006 GHz                      (41.70%)
    25.001325865     12,226,652,974      instructions:u            #    0.91  insn per cycle           (50.08%)
    25.001325865          7,463,156      instructions:k            #    0.25  insn per cycle           (50.08%)
    30.001558736          4,861,849      LLC-load-misses           #    7.02% of all LL-cache hits     (50.08%)
    30.001558736             16,333      LLC-load-misses           #    6.30% of all LL-cache hits     (50.08%)
    30.001558736         84,786,607      LLC-loads                 #   16.957 M/sec                    (50.08%)
    30.001558736            314,461      LLC-loads                 #    0.063 M/sec                    (41.75%)
    30.001558736          1,455,549      LLC-store-misses          #    0.291 M/sec                    (24.96%)
    30.001558736              2,409      LLC-store-misses          #    0.482 K/sec                    (33.28%)
    30.001558736         16,013,043      LLC-stores                #    3.203 M/sec                    (24.96%)
    30.001558736             49,340      LLC-stores                #    0.010 M/sec                    (33.28%)
    30.001558736           5,000.04 msec task-clock                #    1.000 CPUs utilized          
    30.001558736     13,392,158,922      cycles:u                  #    2.678 GHz                      (41.60%)
    30.001558736         34,265,825      cycles:k                  #    0.007 GHz                      (41.60%)
    30.001558736     12,234,190,384      instructions:u            #    0.91  insn per cycle           (49.93%)
    30.001558736          7,315,189      instructions:k            #    0.24  insn per cycle           (50.01%)
    35.001882843          4,882,304      LLC-load-misses           #    6.83% of all LL-cache hits     (49.93%)
    35.001882843             11,590      LLC-load-misses           #    4.36% of all LL-cache hits     (50.01%)
    35.001882843         84,651,663      LLC-loads                 #   16.930 M/sec                    (50.08%)
    35.001882843            305,784      LLC-loads                 #    0.061 M/sec                    (41.76%)
    35.001882843          1,453,410      LLC-store-misses          #    0.291 M/sec                    (25.03%)
    35.001882843              1,457      LLC-store-misses          #    0.291 K/sec                    (33.35%)
    35.001882843         16,025,430      LLC-stores                #    3.205 M/sec                    (24.96%)
    35.001882843             47,628      LLC-stores                #    0.010 M/sec                    (33.28%)
    35.001882843           5,000.13 msec task-clock                #    1.000 CPUs utilized          
    35.001882843     13,396,778,272      cycles:u                  #    2.679 GHz                      (41.60%)
    35.001882843         29,942,505      cycles:k                  #    0.006 GHz                      (41.60%)
    35.001882843     12,232,514,510      instructions:u            #    0.91  insn per cycle           (49.92%)
    35.001882843          7,019,100      instructions:k            #    0.23  insn per cycle           (49.92%)
    37.613876512            691,986      LLC-load-misses           #    1.09% of all LL-cache hits     (49.76%)
    37.613876512              6,878      LLC-load-misses           #    2.82% of all LL-cache hits     (49.62%)
    37.613876512          8,466,460      LLC-loads                 #    1.801 M/sec                    (49.63%)
    37.613876512             91,397      LLC-loads                 #    0.019 M/sec                    (41.51%)
    37.613876512            185,752      LLC-store-misses          #    0.040 M/sec                    (25.12%)
    37.613876512              2,050      LLC-store-misses          #    0.436 K/sec                    (33.55%)
    37.613876512          1,610,693      LLC-stores                #    0.343 M/sec                    (25.27%)
    37.613876512             15,539      LLC-stores                #    0.003 M/sec                    (33.68%)
    37.613876512           2,611.88 msec task-clock                #    0.522 CPUs utilized          
    37.613876512      7,004,955,818      cycles:u                  #    1.490 GHz                      (41.95%)
    37.613876512         12,748,496      cycles:k                  #    0.003 GHz                      (41.80%)
    37.613876512     10,444,313,401      instructions:u            #    0.83  insn per cycle           (50.07%)
    37.613876512          3,807,571      instructions:k            #    0.14  insn per cycle           (49.91%)
