# started on Sun Apr  2 13:21:01 2023

#           time             counts unit events
     5.000177050             67,378      LLC-load-misses           #   12.08% of all LL-cache hits     (49.99%)
     5.000177050              9,165      LLC-load-misses           #   15.53% of all LL-cache hits     (50.07%)
     5.000177050            557,725      LLC-loads                 #    0.112 M/sec                    (50.08%)
     5.000177050             59,016      LLC-loads                 #    0.012 M/sec                    (41.76%)
     5.000177050             67,937      LLC-store-misses          #    0.014 M/sec                    (24.97%)
     5.000177050              4,163      LLC-store-misses          #    0.833 K/sec                    (33.29%)
     5.000177050            221,610      LLC-stores                #    0.044 M/sec                    (24.96%)
     5.000177050             10,989      LLC-stores                #    0.002 M/sec                    (33.28%)
     5.000177050           5,000.06 msec task-clock                #    1.000 CPUs utilized          
     5.000177050     13,421,684,891      cycles:u                  #    2.684 GHz                      (41.60%)
     5.000177050         18,521,588      cycles:k                  #    0.004 GHz                      (41.60%)
     5.000177050     24,965,173,058      instructions:u            #    1.86  insn per cycle           (49.92%)
     5.000177050          7,870,044      instructions:k            #    0.42  insn per cycle           (49.92%)
    10.000470436          4,396,302      LLC-load-misses           #   11.48% of all LL-cache hits     (49.92%)
    10.000470436              8,317      LLC-load-misses           #    4.65% of all LL-cache hits     (49.92%)
    10.000470436         76,055,474      LLC-loads                 #   15.211 M/sec                    (49.98%)
    10.000470436            299,041      LLC-loads                 #    0.060 M/sec                    (41.75%)
    10.000470436          1,353,182      LLC-store-misses          #    0.271 M/sec                    (25.12%)
    10.000470436             32,864      LLC-store-misses          #    0.007 M/sec                    (33.44%)
    10.000470436         14,594,332      LLC-stores                #    2.919 M/sec                    (24.98%)
    10.000470436             44,481      LLC-stores                #    0.009 M/sec                    (33.30%)
    10.000470436           5,000.17 msec task-clock                #    1.000 CPUs utilized          
    10.000470436     13,405,749,543      cycles:u                  #    2.681 GHz                      (41.62%)
    10.000470436         25,626,322      cycles:k                  #    0.005 GHz                      (41.60%)
    10.000470436     13,399,845,062      instructions:u            #    1.00  insn per cycle           (49.92%)
    10.000470436          7,440,671      instructions:k            #    0.34  insn per cycle           (49.92%)
    15.000718377          4,919,836      LLC-load-misses           #    9.22% of all LL-cache hits     (49.92%)
    15.000718377              6,873      LLC-load-misses           #    3.08% of all LL-cache hits     (49.92%)
    15.000718377         83,402,472      LLC-loads                 #   16.680 M/sec                    (49.92%)
    15.000718377            311,049      LLC-loads                 #    0.062 M/sec                    (41.60%)
    15.000718377          1,474,910      LLC-store-misses          #    0.295 M/sec                    (25.02%)
    15.000718377              1,023      LLC-store-misses          #    0.205 K/sec                    (33.42%)
    15.000718377         16,021,668      LLC-stores                #    3.204 M/sec                    (25.12%)
    15.000718377             47,811      LLC-stores                #    0.010 M/sec                    (33.44%)
    15.000718377           5,000.13 msec task-clock                #    1.000 CPUs utilized          
    15.000718377     13,400,999,980      cycles:u                  #    2.680 GHz                      (41.76%)
    15.000718377         31,840,808      cycles:k                  #    0.006 GHz                      (41.70%)
    15.000718377     12,265,819,859      instructions:u            #    0.91  insn per cycle           (50.02%)
    15.000718377          7,728,605      instructions:k            #    0.31  insn per cycle           (49.94%)
    20.000983739          4,959,724      LLC-load-misses           #    8.15% of all LL-cache hits     (50.03%)
    20.000983739             10,631      LLC-load-misses           #    4.34% of all LL-cache hits     (49.95%)
    20.000983739         83,391,844      LLC-loads                 #   16.678 M/sec                    (49.92%)
    20.000983739            310,916      LLC-loads                 #    0.062 M/sec                    (41.60%)
    20.000983739          1,486,590      LLC-store-misses          #    0.297 M/sec                    (24.96%)
    20.000983739              1,364      LLC-store-misses          #    0.273 K/sec                    (33.28%)
    20.000983739         16,044,617      LLC-stores                #    3.209 M/sec                    (25.02%)
    20.000983739             47,395      LLC-stores                #    0.009 M/sec                    (33.41%)
    20.000983739           5,000.16 msec task-clock                #    1.000 CPUs utilized          
    20.000983739     13,402,519,319      cycles:u                  #    2.680 GHz                      (41.76%)
    20.000983739         28,719,572      cycles:k                  #    0.006 GHz                      (41.76%)
    20.000983739     12,271,772,843      instructions:u            #    0.92  insn per cycle           (50.08%)
    20.000983739          7,719,731      instructions:k            #    0.29  insn per cycle           (50.08%)
    25.001228653          4,913,338      LLC-load-misses           #    7.52% of all LL-cache hits     (50.08%)
    25.001228653              8,706      LLC-load-misses           #    3.35% of all LL-cache hits     (50.08%)
    25.001228653         83,484,541      LLC-loads                 #   16.696 M/sec                    (50.03%)
    25.001228653            320,397      LLC-loads                 #    0.064 M/sec                    (41.60%)
    25.001228653          1,454,396      LLC-store-misses          #    0.291 M/sec                    (24.96%)
    25.001228653              1,262      LLC-store-misses          #    0.252 K/sec                    (33.28%)
    25.001228653         16,038,846      LLC-stores                #    3.208 M/sec                    (24.96%)
    25.001228653             51,762      LLC-stores                #    0.010 M/sec                    (33.28%)
    25.001228653           5,000.13 msec task-clock                #    1.000 CPUs utilized          
    25.001228653     13,400,079,021      cycles:u                  #    2.680 GHz                      (41.65%)
    25.001228653         31,935,773      cycles:k                  #    0.006 GHz                      (41.73%)
    25.001228653     12,259,827,802      instructions:u            #    0.91  insn per cycle           (50.08%)
    25.001228653          7,828,352      instructions:k            #    0.29  insn per cycle           (50.08%)
    30.001458384          4,881,598      LLC-load-misses           #    7.14% of all LL-cache hits     (50.08%)
    30.001458384              8,352      LLC-load-misses           #    3.12% of all LL-cache hits     (50.08%)
    30.001458384         83,513,151      LLC-loads                 #   16.702 M/sec                    (50.08%)
    30.001458384            308,272      LLC-loads                 #    0.062 M/sec                    (41.72%)
    30.001458384          1,461,054      LLC-store-misses          #    0.292 M/sec                    (24.96%)
    30.001458384                781      LLC-store-misses          #    0.156 K/sec                    (33.28%)
    30.001458384         16,095,828      LLC-stores                #    3.219 M/sec                    (24.96%)
    30.001458384             47,210      LLC-stores                #    0.009 M/sec                    (33.28%)
    30.001458384           5,000.12 msec task-clock                #    1.000 CPUs utilized          
    30.001458384     13,400,626,319      cycles:u                  #    2.680 GHz                      (41.60%)
    30.001458384         30,921,423      cycles:k                  #    0.006 GHz                      (41.60%)
    30.001458384     12,275,143,757      instructions:u            #    0.92  insn per cycle           (49.96%)
    30.001458384          7,674,192      instructions:k            #    0.27  insn per cycle           (50.04%)
    35.001735088          4,862,545      LLC-load-misses           #    6.89% of all LL-cache hits     (49.96%)
    35.001735088             11,481      LLC-load-misses           #    4.18% of all LL-cache hits     (50.04%)
    35.001735088         83,441,699      LLC-loads                 #   16.688 M/sec                    (50.08%)
    35.001735088            312,025      LLC-loads                 #    0.062 M/sec                    (41.76%)
    35.001735088          1,445,946      LLC-store-misses          #    0.289 M/sec                    (25.00%)
    35.001735088                645      LLC-store-misses          #    0.129 K/sec                    (33.32%)
    35.001735088         16,043,767      LLC-stores                #    3.209 M/sec                    (24.96%)
    35.001735088             46,828      LLC-stores                #    0.009 M/sec                    (33.28%)
    35.001735088           5,000.17 msec task-clock                #    1.000 CPUs utilized          
    35.001735088     13,402,134,393      cycles:u                  #    2.680 GHz                      (41.60%)
    35.001735088         29,471,014      cycles:k                  #    0.006 GHz                      (41.60%)
    35.001735088     12,270,447,995      instructions:u            #    0.92  insn per cycle           (49.92%)
    35.001735088          7,636,189      instructions:k            #    0.27  insn per cycle           (49.92%)
    37.619572698            649,350      LLC-load-misses           #    1.03% of all LL-cache hits     (49.81%)
    37.619572698              4,341      LLC-load-misses           #    1.73% of all LL-cache hits     (49.66%)
    37.619572698          8,141,159      LLC-loads                 #    1.731 M/sec                    (49.58%)
    37.619572698             88,605      LLC-loads                 #    0.019 M/sec                    (41.48%)
    37.619572698            169,842      LLC-store-misses          #    0.036 M/sec                    (25.13%)
    37.619572698              3,674      LLC-store-misses          #    0.781 K/sec                    (33.53%)
    37.619572698          1,533,402      LLC-stores                #    0.326 M/sec                    (25.21%)
    37.619572698             16,022      LLC-stores                #    0.003 M/sec                    (33.62%)
    37.619572698           2,617.77 msec task-clock                #    0.524 CPUs utilized          
    37.619572698      7,019,030,865      cycles:u                  #    1.493 GHz                      (42.02%)
    37.619572698         15,731,594      cycles:k                  #    0.003 GHz                      (41.87%)
    37.619572698     11,348,020,406      instructions:u            #    0.90  insn per cycle           (50.12%)
    37.619572698          4,041,164      instructions:k            #    0.15  insn per cycle           (49.97%)
