# started on Thu Mar 30 22:16:05 2023

#           time             counts unit events
     5.000268764             69,755      LLC-load-misses           #    9.81% of all LL-cache hits     (49.92%)
     5.000268764              5,881      LLC-load-misses           #    6.66% of all LL-cache hits     (50.00%)
     5.000268764            711,114      LLC-loads                 #    0.142 M/sec                    (50.08%)
     5.000268764             88,358      LLC-loads                 #    0.018 M/sec                    (41.76%)
     5.000268764            101,571      LLC-store-misses          #    0.020 M/sec                    (25.04%)
     5.000268764            438,103      LLC-store-misses          #    0.088 M/sec                    (33.36%)
     5.000268764             79,046      LLC-stores                #    0.016 M/sec                    (24.96%)
     5.000268764            397,632      LLC-stores                #    0.080 M/sec                    (33.28%)
     5.000268764           5,000.06 msec task-clock                #    1.000 CPUs utilized          
     5.000268764     13,396,885,347      cycles:u                  #    2.679 GHz                      (41.60%)
     5.000268764         44,401,862      cycles:k                  #    0.009 GHz                      (41.60%)
     5.000268764     24,720,608,884      instructions:u            #    1.85  insn per cycle           (49.92%)
     5.000268764         19,798,992      instructions:k            #    0.45  insn per cycle           (49.92%)
    10.000537638            356,483      LLC-load-misses           #   12.33% of all LL-cache hits     (49.92%)
    10.000537638              2,782      LLC-load-misses           #    2.76% of all LL-cache hits     (49.92%)
    10.000537638          5,069,698      LLC-loads                 #    1.014 M/sec                    (49.92%)
    10.000537638            112,934      LLC-loads                 #    0.023 M/sec                    (41.68%)
    10.000537638            117,434      LLC-store-misses          #    0.023 M/sec                    (25.12%)
    10.000537638            753,207      LLC-store-misses          #    0.151 M/sec                    (33.44%)
    10.000537638            989,557      LLC-stores                #    0.198 M/sec                    (25.05%)
    10.000537638            313,235      LLC-stores                #    0.063 M/sec                    (33.37%)
    10.000537638           5,000.08 msec task-clock                #    1.000 CPUs utilized          
    10.000537638     13,410,586,122      cycles:u                  #    2.682 GHz                      (41.68%)
    10.000537638         21,865,365      cycles:k                  #    0.004 GHz                      (41.61%)
    10.000537638     24,103,458,414      instructions:u            #    1.80  insn per cycle           (49.92%)
    10.000537638          9,176,757      instructions:k            #    0.28  insn per cycle           (49.92%)
    15.000721528          4,786,571      LLC-load-misses           #   16.09% of all LL-cache hits     (49.93%)
    15.000721528              7,115      LLC-load-misses           #    4.16% of all LL-cache hits     (49.92%)
    15.000721528         83,454,280      LLC-loads                 #   16.691 M/sec                    (49.92%)
    15.000721528            312,183      LLC-loads                 #    0.062 M/sec                    (41.60%)
    15.000721528          1,405,751      LLC-store-misses          #    0.281 M/sec                    (24.96%)
    15.000721528              1,757      LLC-store-misses          #    0.351 K/sec                    (33.35%)
    15.000721528         15,278,016      LLC-stores                #    3.056 M/sec                    (25.11%)
    15.000721528             48,874      LLC-stores                #    0.010 M/sec                    (33.44%)
    15.000721528           5,000.02 msec task-clock                #    1.000 CPUs utilized          
    15.000721528     13,406,028,078      cycles:u                  #    2.681 GHz                      (41.76%)
    15.000721528         26,513,766      cycles:k                  #    0.005 GHz                      (41.76%)
    15.000721528     11,786,082,722      instructions:u            #    0.88  insn per cycle           (50.08%)
    15.000721528          7,196,954      instructions:k            #    0.23  insn per cycle           (50.01%)
    20.000970781          4,817,900      LLC-load-misses           #   11.14% of all LL-cache hits     (50.08%)
    20.000970781              5,726      LLC-load-misses           #    2.76% of all LL-cache hits     (50.01%)
    20.000970781         83,683,031      LLC-loads                 #   16.736 M/sec                    (49.93%)
    20.000970781            316,027      LLC-loads                 #    0.063 M/sec                    (41.60%)
    20.000970781          1,427,852      LLC-store-misses          #    0.286 M/sec                    (24.96%)
    20.000970781              1,754      LLC-store-misses          #    0.351 K/sec                    (33.28%)
    20.000970781         15,327,690      LLC-stores                #    3.066 M/sec                    (24.96%)
    20.000970781             50,720      LLC-stores                #    0.010 M/sec                    (33.35%)
    20.000970781           5,000.06 msec task-clock                #    1.000 CPUs utilized          
    20.000970781     13,404,612,309      cycles:u                  #    2.681 GHz                      (41.75%)
    20.000970781         28,618,137      cycles:k                  #    0.006 GHz                      (41.76%)
    20.000970781     11,772,304,524      instructions:u            #    0.88  insn per cycle           (50.08%)
    20.000970781          7,602,582      instructions:k            #    0.25  insn per cycle           (50.08%)
    25.001207075          4,795,165      LLC-load-misses           #    9.34% of all LL-cache hits     (50.08%)
    25.001207075              7,605      LLC-load-misses           #    3.33% of all LL-cache hits     (50.08%)
    25.001207075         83,791,892      LLC-loads                 #   16.758 M/sec                    (50.08%)
    25.001207075            312,066      LLC-loads                 #    0.062 M/sec                    (41.62%)
    25.001207075          1,437,163      LLC-store-misses          #    0.287 M/sec                    (24.96%)
    25.001207075                973      LLC-store-misses          #    0.195 K/sec                    (33.28%)
    25.001207075         15,360,829      LLC-stores                #    3.072 M/sec                    (24.96%)
    25.001207075             47,595      LLC-stores                #    0.010 M/sec                    (33.28%)
    25.001207075           5,000.06 msec task-clock                #    1.000 CPUs utilized          
    25.001207075     13,407,745,045      cycles:u                  #    2.682 GHz                      (41.60%)
    25.001207075         25,157,748      cycles:k                  #    0.005 GHz                      (41.66%)
    25.001207075     11,780,212,541      instructions:u            #    0.88  insn per cycle           (50.06%)
    25.001207075          7,181,927      instructions:k            #    0.25  insn per cycle           (50.08%)
    30.001386656          4,770,528      LLC-load-misses           #    8.41% of all LL-cache hits     (50.06%)
    30.001386656              8,661      LLC-load-misses           #    3.57% of all LL-cache hits     (50.08%)
    30.001386656         83,681,786      LLC-loads                 #   16.736 M/sec                    (50.08%)
    30.001386656            315,632      LLC-loads                 #    0.063 M/sec                    (41.76%)
    30.001386656          1,410,693      LLC-store-misses          #    0.282 M/sec                    (24.96%)
    30.001386656                628      LLC-store-misses          #    0.126 K/sec                    (33.28%)
    30.001386656         15,352,815      LLC-stores                #    3.071 M/sec                    (24.96%)
    30.001386656             49,896      LLC-stores                #    0.010 M/sec                    (33.28%)
    30.001386656           5,000.01 msec task-clock                #    1.000 CPUs utilized          
    30.001386656     13,402,591,655      cycles:u                  #    2.680 GHz                      (41.60%)
    30.001386656         29,266,822      cycles:k                  #    0.006 GHz                      (41.60%)
    30.001386656     11,773,983,491      instructions:u            #    0.88  insn per cycle           (49.92%)
    30.001386656          7,498,389      instructions:k            #    0.26  insn per cycle           (49.98%)
    35.001625760          4,757,065      LLC-load-misses           #    7.85% of all LL-cache hits     (49.92%)
    35.001625760              6,561      LLC-load-misses           #    2.59% of all LL-cache hits     (49.97%)
    35.001625760         83,768,594      LLC-loads                 #   16.754 M/sec                    (50.05%)
    35.001625760            315,347      LLC-loads                 #    0.063 M/sec                    (41.76%)
    35.001625760          1,427,063      LLC-store-misses          #    0.285 M/sec                    (25.07%)
    35.001625760              2,351      LLC-store-misses          #    0.470 K/sec                    (33.39%)
    35.001625760         15,375,726      LLC-stores                #    3.075 M/sec                    (24.96%)
    35.001625760             50,540      LLC-stores                #    0.010 M/sec                    (33.28%)
    35.001625760           5,000.06 msec task-clock                #    1.000 CPUs utilized          
    35.001625760     13,406,379,809      cycles:u                  #    2.681 GHz                      (41.60%)
    35.001625760         25,695,760      cycles:k                  #    0.005 GHz                      (41.60%)
    35.001625760     11,780,218,230      instructions:u            #    0.88  insn per cycle           (49.92%)
    35.001625760          7,236,436      instructions:k            #    0.25  insn per cycle           (49.92%)
    40.001788247          4,642,984      LLC-load-misses           #    7.37% of all LL-cache hits     (49.92%)
    40.001788247              9,341      LLC-load-misses           #    3.59% of all LL-cache hits     (49.92%)
    40.001788247         79,507,108      LLC-loads                 #   15.901 M/sec                    (49.92%)
    40.001788247            310,571      LLC-loads                 #    0.062 M/sec                    (41.65%)
    40.001788247          1,367,677      LLC-store-misses          #    0.274 M/sec                    (25.09%)
    40.001788247              2,792      LLC-store-misses          #    0.558 K/sec                    (33.44%)
    40.001788247         14,490,408      LLC-stores                #    2.898 M/sec                    (25.07%)
    40.001788247             50,231      LLC-stores                #    0.010 M/sec                    (33.39%)
    40.001788247           4,999.99 msec task-clock                #    1.000 CPUs utilized          
    40.001788247     13,403,692,334      cycles:u                  #    2.681 GHz                      (41.71%)
    40.001788247         28,602,154      cycles:k                  #    0.006 GHz                      (41.63%)
    40.001788247     12,340,221,859      instructions:u            #    0.92  insn per cycle           (49.95%)
    40.001788247          7,630,154      instructions:k            #    0.27  insn per cycle           (49.92%)
    41.915266223             35,102      LLC-load-misses           #    0.06% of all LL-cache hits     (50.17%)
    41.915266223              3,378      LLC-load-misses           #    1.43% of all LL-cache hits     (50.17%)
    41.915266223            421,235      LLC-loads                 #    0.090 M/sec                    (50.17%)
    41.915266223             48,667      LLC-loads                 #    0.010 M/sec                    (41.76%)
    41.915266223              7,406      LLC-store-misses          #    0.002 M/sec                    (24.83%)
    41.915266223              2,458      LLC-store-misses          #    0.528 K/sec                    (33.11%)
    41.915266223             33,580      LLC-stores                #    0.007 M/sec                    (24.79%)
    41.915266223              7,407      LLC-stores                #    0.002 M/sec                    (33.15%)
    41.915266223           1,913.41 msec task-clock                #    0.383 CPUs utilized          
    41.915266223      5,135,690,214      cycles:u                  #    1.103 GHz                      (41.51%)
    41.915266223          7,297,408      cycles:k                  #    0.002 GHz                      (41.72%)
    41.915266223      9,136,154,535      instructions:u            #    0.73  insn per cycle           (50.09%)
    41.915266223          2,843,969      instructions:k            #    0.11  insn per cycle           (50.17%)
