# started on Sun Apr  2 13:53:38 2023

#           time             counts unit events
     5.000184821          1,198,652      LLC-load-misses           #    6.87% of all LL-cache hits     (49.97%)
     5.000184821              8,333      LLC-load-misses           #    4.79% of all LL-cache hits     (50.05%)
     5.000184821         17,438,044      LLC-loads                 #    3.488 M/sec                    (50.08%)
     5.000184821            174,112      LLC-loads                 #    0.035 M/sec                    (41.76%)
     5.000184821            508,432      LLC-store-misses          #    0.102 M/sec                    (24.99%)
     5.000184821             16,163      LLC-store-misses          #    0.003 M/sec                    (33.31%)
     5.000184821          3,516,082      LLC-stores                #    0.703 M/sec                    (24.96%)
     5.000184821             33,228      LLC-stores                #    0.007 M/sec                    (33.28%)
     5.000184821           5,000.05 msec task-clock                #    1.000 CPUs utilized          
     5.000184821     13,410,492,530      cycles:u                  #    2.682 GHz                      (41.60%)
     5.000184821         25,301,883      cycles:k                  #    0.005 GHz                      (41.60%)
     5.000184821     21,317,267,130      instructions:u            #    1.59  insn per cycle           (49.92%)
     5.000184821          8,141,668      instructions:k            #    0.32  insn per cycle           (49.92%)
    10.000505000          4,329,237      LLC-load-misses           #    9.14% of all LL-cache hits     (49.92%)
    10.000505000              9,646      LLC-load-misses           #    4.10% of all LL-cache hits     (49.92%)
    10.000505000         77,323,552      LLC-loads                 #   15.464 M/sec                    (49.97%)
    10.000505000            296,883      LLC-loads                 #    0.059 M/sec                    (41.73%)
    10.000505000          1,241,485      LLC-store-misses          #    0.248 M/sec                    (25.12%)
    10.000505000                879      LLC-store-misses          #    0.176 K/sec                    (33.44%)
    10.000505000         15,706,739      LLC-stores                #    3.141 M/sec                    (24.99%)
    10.000505000             42,165      LLC-stores                #    0.008 M/sec                    (33.31%)
    10.000505000           5,000.19 msec task-clock                #    1.000 CPUs utilized          
    10.000505000     13,405,893,550      cycles:u                  #    2.681 GHz                      (41.63%)
    10.000505000         26,289,803      cycles:k                  #    0.005 GHz                      (41.60%)
    10.000505000     12,097,453,696      instructions:u            #    0.90  insn per cycle           (49.92%)
    10.000505000          7,612,231      instructions:k            #    0.30  insn per cycle           (49.92%)
    15.000762442          4,358,882      LLC-load-misses           #    7.58% of all LL-cache hits     (49.92%)
    15.000762442              5,863      LLC-load-misses           #    2.28% of all LL-cache hits     (49.92%)
    15.000762442         77,782,876      LLC-loads                 #   15.556 M/sec                    (49.92%)
    15.000762442            301,070      LLC-loads                 #    0.060 M/sec                    (41.60%)
    15.000762442          1,246,561      LLC-store-misses          #    0.249 M/sec                    (25.00%)
    15.000762442                996      LLC-store-misses          #    0.199 K/sec                    (33.40%)
    15.000762442         15,829,682      LLC-stores                #    3.166 M/sec                    (25.12%)
    15.000762442             43,419      LLC-stores                #    0.009 M/sec                    (33.44%)
    15.000762442           5,000.14 msec task-clock                #    1.000 CPUs utilized          
    15.000762442     13,403,951,621      cycles:u                  #    2.681 GHz                      (41.76%)
    15.000762442         28,703,606      cycles:k                  #    0.006 GHz                      (41.72%)
    15.000762442     12,126,582,351      instructions:u            #    0.90  insn per cycle           (50.04%)
    15.000762442          7,488,232      instructions:k            #    0.28  insn per cycle           (49.96%)
    20.001061759          4,354,004      LLC-load-misses           #    6.95% of all LL-cache hits     (50.04%)
    20.001061759              7,033      LLC-load-misses           #    2.62% of all LL-cache hits     (49.96%)
    20.001061759         77,893,819      LLC-loads                 #   15.578 M/sec                    (49.92%)
    20.001061759            299,691      LLC-loads                 #    0.060 M/sec                    (41.60%)
    20.001061759          1,238,892      LLC-store-misses          #    0.248 M/sec                    (24.96%)
    20.001061759                832      LLC-store-misses          #    0.166 K/sec                    (33.28%)
    20.001061759         15,851,373      LLC-stores                #    3.170 M/sec                    (25.00%)
    20.001061759             44,692      LLC-stores                #    0.009 M/sec                    (33.40%)
    20.001061759           5,000.18 msec task-clock                #    1.000 CPUs utilized          
    20.001061759     13,404,447,664      cycles:u                  #    2.681 GHz                      (41.76%)
    20.001061759         28,492,661      cycles:k                  #    0.006 GHz                      (41.76%)
    20.001061759     12,134,310,631      instructions:u            #    0.91  insn per cycle           (50.08%)
    20.001061759          7,815,804      instructions:k            #    0.29  insn per cycle           (50.08%)
    25.001357165          4,359,946      LLC-load-misses           #    6.64% of all LL-cache hits     (50.08%)
    25.001357165              8,332      LLC-load-misses           #    3.04% of all LL-cache hits     (50.08%)
    25.001357165         77,832,466      LLC-loads                 #   15.566 M/sec                    (50.05%)
    25.001357165            297,274      LLC-loads                 #    0.059 M/sec                    (41.60%)
    25.001357165          1,243,789      LLC-store-misses          #    0.249 M/sec                    (24.96%)
    25.001357165              1,511      LLC-store-misses          #    0.302 K/sec                    (33.28%)
    25.001357165         15,876,332      LLC-stores                #    3.175 M/sec                    (24.96%)
    25.001357165             42,863      LLC-stores                #    0.009 M/sec                    (33.28%)
    25.001357165           5,000.17 msec task-clock                #    1.000 CPUs utilized          
    25.001357165     13,404,868,655      cycles:u                  #    2.681 GHz                      (41.63%)
    25.001357165         27,000,184      cycles:k                  #    0.005 GHz                      (41.71%)
    25.001357165     12,130,929,103      instructions:u            #    0.90  insn per cycle           (50.08%)
    25.001357165          7,417,382      instructions:k            #    0.27  insn per cycle           (50.08%)
    30.001601959          4,344,369      LLC-load-misses           #    6.42% of all LL-cache hits     (50.08%)
    30.001601959             11,690      LLC-load-misses           #    4.20% of all LL-cache hits     (50.08%)
    30.001601959         77,913,607      LLC-loads                 #   15.582 M/sec                    (50.08%)
    30.001601959            300,173      LLC-loads                 #    0.060 M/sec                    (41.74%)
    30.001601959          1,245,407      LLC-store-misses          #    0.249 M/sec                    (24.96%)
    30.001601959              1,541      LLC-store-misses          #    0.308 K/sec                    (33.28%)
    30.001601959         15,851,784      LLC-stores                #    3.170 M/sec                    (24.96%)
    30.001601959             42,691      LLC-stores                #    0.009 M/sec                    (33.28%)
    30.001601959           5,000.12 msec task-clock                #    1.000 CPUs utilized          
    30.001601959     13,406,693,937      cycles:u                  #    2.681 GHz                      (41.60%)
    30.001601959         27,015,670      cycles:k                  #    0.005 GHz                      (41.60%)
    30.001601959     12,133,870,509      instructions:u            #    0.91  insn per cycle           (49.94%)
    30.001601959          7,670,125      instructions:k            #    0.28  insn per cycle           (50.02%)
    35.001858498          3,470,650      LLC-load-misses           #    5.19% of all LL-cache hits     (49.94%)
    35.001858498              7,758      LLC-load-misses           #    2.82% of all LL-cache hits     (50.02%)
    35.001858498         61,603,716      LLC-loads                 #   12.320 M/sec                    (50.08%)
    35.001858498            257,093      LLC-loads                 #    0.051 M/sec                    (41.76%)
    35.001858498            978,454      LLC-store-misses          #    0.196 M/sec                    (25.02%)
    35.001858498              2,843      LLC-store-misses          #    0.569 K/sec                    (33.34%)
    35.001858498         12,670,740      LLC-stores                #    2.534 M/sec                    (24.96%)
    35.001858498             39,602      LLC-stores                #    0.008 M/sec                    (33.28%)
    35.001858498           5,000.13 msec task-clock                #    1.000 CPUs utilized          
    35.001858498     13,406,550,716      cycles:u                  #    2.681 GHz                      (41.60%)
    35.001858498         27,391,289      cycles:k                  #    0.005 GHz                      (41.60%)
    35.001858498     14,387,341,962      instructions:u            #    1.07  insn per cycle           (49.92%)
    35.001858498          7,686,784      instructions:k            #    0.28  insn per cycle           (49.92%)
    36.160166925              4,078      LLC-load-misses           #    0.01% of all LL-cache hits     (49.73%)
    36.160166925                955      LLC-load-misses           #    0.39% of all LL-cache hits     (49.73%)
    36.160166925             49,640      LLC-loads                 #    0.011 M/sec                    (49.80%)
    36.160166925             12,554      LLC-loads                 #    0.003 M/sec                    (41.86%)
    36.160166925                  3      LLC-store-misses          #    0.001 K/sec                    (25.41%)
    36.160166925              1,477      LLC-store-misses          #    0.327 K/sec                    (33.70%)
    36.160166925                876      LLC-stores                #    0.194 K/sec                    (24.99%)
    36.160166925              3,810      LLC-stores                #    0.843 K/sec                    (33.28%)
    36.160166925           1,158.28 msec task-clock                #    0.232 CPUs utilized          
    36.160166925      3,106,410,908      cycles:u                  #    0.687 GHz                      (41.57%)
    36.160166925          6,231,068      cycles:k                  #    0.001 GHz                      (41.44%)
    36.160166925      5,565,456,908      instructions:u            #    0.46  insn per cycle           (49.73%)
    36.160166925          1,815,739      instructions:k            #    0.07  insn per cycle           (49.73%)
