# started on Sun Apr  2 14:52:34 2023

#           time             counts unit events
     5.000171187          1,323,926      LLC-load-misses           #    6.87% of all LL-cache hits     (49.94%)
     5.000171187             11,288      LLC-load-misses           #    6.95% of all LL-cache hits     (50.02%)
     5.000171187         19,262,201      LLC-loads                 #    3.852 M/sec                    (50.08%)
     5.000171187            162,430      LLC-loads                 #    0.032 M/sec                    (41.76%)
     5.000171187            519,165      LLC-store-misses          #    0.104 M/sec                    (25.02%)
     5.000171187              8,747      LLC-store-misses          #    0.002 M/sec                    (33.34%)
     5.000171187          3,813,355      LLC-stores                #    0.763 M/sec                    (24.96%)
     5.000171187             33,342      LLC-stores                #    0.007 M/sec                    (33.28%)
     5.000171187           5,000.00 msec task-clock                #    1.000 CPUs utilized          
     5.000171187     13,408,681,533      cycles:u                  #    2.682 GHz                      (41.60%)
     5.000171187         22,427,297      cycles:k                  #    0.004 GHz                      (41.60%)
     5.000171187     21,603,809,555      instructions:u            #    1.61  insn per cycle           (49.92%)
     5.000171187          7,646,555      instructions:k            #    0.34  insn per cycle           (49.92%)
    10.000517871          4,466,446      LLC-load-misses           #    8.93% of all LL-cache hits     (49.92%)
    10.000517871             13,151      LLC-load-misses           #    5.57% of all LL-cache hits     (49.92%)
    10.000517871         80,742,952      LLC-loads                 #   16.148 M/sec                    (49.94%)
    10.000517871            309,730      LLC-loads                 #    0.062 M/sec                    (41.70%)
    10.000517871          1,266,633      LLC-store-misses          #    0.253 M/sec                    (25.13%)
    10.000517871              2,433      LLC-store-misses          #    0.487 K/sec                    (33.44%)
    10.000517871         16,260,952      LLC-stores                #    3.252 M/sec                    (25.02%)
    10.000517871             47,066      LLC-stores                #    0.009 M/sec                    (33.34%)
    10.000517871           5,000.19 msec task-clock                #    1.000 CPUs utilized          
    10.000517871     13,395,247,685      cycles:u                  #    2.679 GHz                      (41.66%)
    10.000517871         31,896,586      cycles:k                  #    0.006 GHz                      (41.60%)
    10.000517871     12,491,604,768      instructions:u            #    0.93  insn per cycle           (49.92%)
    10.000517871          7,402,710      instructions:k            #    0.27  insn per cycle           (49.92%)
    15.000753564          4,480,169      LLC-load-misses           #    7.42% of all LL-cache hits     (49.92%)
    15.000753564             14,613      LLC-load-misses           #    5.63% of all LL-cache hits     (49.92%)
    15.000753564         81,105,598      LLC-loads                 #   16.221 M/sec                    (49.92%)
    15.000753564            305,834      LLC-loads                 #    0.061 M/sec                    (41.60%)
    15.000753564          1,265,472      LLC-store-misses          #    0.253 M/sec                    (24.97%)
    15.000753564                653      LLC-store-misses          #    0.131 K/sec                    (33.37%)
    15.000753564         16,292,337      LLC-stores                #    3.258 M/sec                    (25.12%)
    15.000753564             43,689      LLC-stores                #    0.009 M/sec                    (33.44%)
    15.000753564           5,000.08 msec task-clock                #    1.000 CPUs utilized          
    15.000753564     13,400,010,727      cycles:u                  #    2.680 GHz                      (41.76%)
    15.000753564         25,472,145      cycles:k                  #    0.005 GHz                      (41.75%)
    15.000753564     12,520,214,308      instructions:u            #    0.93  insn per cycle           (50.07%)
    15.000753564          7,161,116      instructions:k            #    0.27  insn per cycle           (49.99%)
    20.001045024          4,497,535      LLC-load-misses           #    6.85% of all LL-cache hits     (50.07%)
    20.001045024              9,971      LLC-load-misses           #    3.69% of all LL-cache hits     (49.99%)
    20.001045024         81,374,277      LLC-loads                 #   16.275 M/sec                    (49.92%)
    20.001045024            302,260      LLC-loads                 #    0.060 M/sec                    (41.60%)
    20.001045024          1,262,337      LLC-store-misses          #    0.252 M/sec                    (24.96%)
    20.001045024                838      LLC-store-misses          #    0.168 K/sec                    (33.28%)
    20.001045024         16,391,918      LLC-stores                #    3.278 M/sec                    (24.97%)
    20.001045024             43,817      LLC-stores                #    0.009 M/sec                    (33.37%)
    20.001045024           5,000.14 msec task-clock                #    1.000 CPUs utilized          
    20.001045024     13,398,362,912      cycles:u                  #    2.680 GHz                      (41.76%)
    20.001045024         27,621,360      cycles:k                  #    0.006 GHz                      (41.76%)
    20.001045024     12,544,842,625      instructions:u            #    0.94  insn per cycle           (50.08%)
    20.001045024          7,084,237      instructions:k            #    0.26  insn per cycle           (50.08%)
    25.001272360          4,484,256      LLC-load-misses           #    6.52% of all LL-cache hits     (50.08%)
    25.001272360             11,387      LLC-load-misses           #    4.13% of all LL-cache hits     (50.08%)
    25.001272360         81,434,256      LLC-loads                 #   16.287 M/sec                    (50.08%)
    25.001272360            298,570      LLC-loads                 #    0.060 M/sec                    (41.60%)
    25.001272360          1,273,876      LLC-store-misses          #    0.255 M/sec                    (24.96%)
    25.001272360                664      LLC-store-misses          #    0.133 K/sec                    (33.28%)
    25.001272360         16,394,387      LLC-stores                #    3.279 M/sec                    (24.96%)
    25.001272360             43,854      LLC-stores                #    0.009 M/sec                    (33.28%)
    25.001272360           5,000.08 msec task-clock                #    1.000 CPUs utilized          
    25.001272360     13,398,823,657      cycles:u                  #    2.680 GHz                      (41.60%)
    25.001272360         25,959,245      cycles:k                  #    0.005 GHz                      (41.68%)
    25.001272360     12,549,630,719      instructions:u            #    0.94  insn per cycle           (50.08%)
    25.001272360          7,226,632      instructions:k            #    0.27  insn per cycle           (50.08%)
    30.001499552          4,482,062      LLC-load-misses           #    6.32% of all LL-cache hits     (50.08%)
    30.001499552             14,500      LLC-load-misses           #    5.16% of all LL-cache hits     (50.08%)
    30.001499552         81,294,557      LLC-loads                 #   16.259 M/sec                    (50.08%)
    30.001499552            307,883      LLC-loads                 #    0.062 M/sec                    (41.76%)
    30.001499552          1,270,116      LLC-store-misses          #    0.254 M/sec                    (24.96%)
    30.001499552                679      LLC-store-misses          #    0.136 K/sec                    (33.28%)
    30.001499552         16,390,498      LLC-stores                #    3.278 M/sec                    (24.96%)
    30.001499552             43,733      LLC-stores                #    0.009 M/sec                    (33.28%)
    30.001499552           5,000.06 msec task-clock                #    1.000 CPUs utilized          
    30.001499552     13,401,751,552      cycles:u                  #    2.680 GHz                      (41.60%)
    30.001499552         25,107,567      cycles:k                  #    0.005 GHz                      (41.60%)
    30.001499552     12,540,881,508      instructions:u            #    0.94  insn per cycle           (49.92%)
    30.001499552          7,298,546      instructions:k            #    0.28  insn per cycle           (50.00%)
    35.001756608          3,521,340      LLC-load-misses           #    5.04% of all LL-cache hits     (49.92%)
    35.001756608             13,535      LLC-load-misses           #    4.86% of all LL-cache hits     (49.99%)
    35.001756608         63,575,684      LLC-loads                 #   12.715 M/sec                    (50.07%)
    35.001756608            260,972      LLC-loads                 #    0.052 M/sec                    (41.76%)
    35.001756608            999,866      LLC-store-misses          #    0.200 M/sec                    (25.05%)
    35.001756608              3,560      LLC-store-misses          #    0.712 K/sec                    (33.37%)
    35.001756608         12,883,217      LLC-stores                #    2.577 M/sec                    (24.96%)
    35.001756608             41,498      LLC-stores                #    0.008 M/sec                    (33.28%)
    35.001756608           5,000.10 msec task-clock                #    1.000 CPUs utilized          
    35.001756608     13,404,696,174      cycles:u                  #    2.681 GHz                      (41.60%)
    35.001756608         23,545,448      cycles:k                  #    0.005 GHz                      (41.60%)
    35.001756608     14,864,197,360      instructions:u            #    1.11  insn per cycle           (49.92%)
    35.001756608          7,086,469      instructions:k            #    0.27  insn per cycle           (49.92%)
    36.202562041              1,625      LLC-load-misses           #    0.00% of all LL-cache hits     (49.97%)
    36.202562041              1,286      LLC-load-misses           #    0.53% of all LL-cache hits     (49.97%)
    36.202562041             82,175      LLC-loads                 #    0.018 M/sec                    (49.97%)
    36.202562041             11,415      LLC-loads                 #    0.003 M/sec                    (41.71%)
    36.202562041                  0      LLC-store-misses          #    0.000 K/sec                    (25.05%)
    36.202562041              1,060      LLC-store-misses          #    0.234 K/sec                    (33.38%)
    36.202562041              5,699      LLC-stores                #    0.001 M/sec                    (24.98%)
    36.202562041              3,476      LLC-stores                #    0.768 K/sec                    (33.31%)
    36.202562041           1,200.76 msec task-clock                #    0.240 CPUs utilized          
    36.202562041      3,222,469,398      cycles:u                  #    0.712 GHz                      (41.64%)
    36.202562041          4,366,782      cycles:k                  #    0.001 GHz                      (41.64%)
    36.202562041      5,909,181,621      instructions:u            #    0.49  insn per cycle           (49.97%)
    36.202562041          1,724,984      instructions:k            #    0.07  insn per cycle           (49.97%)
