# started on Sun Apr  2 15:01:29 2023

#           time             counts unit events
     5.000178153          1,095,326      LLC-load-misses           #    6.17% of all LL-cache hits     (49.97%)
     5.000178153             11,601      LLC-load-misses           #   12.43% of all LL-cache hits     (50.05%)
     5.000178153         17,746,012      LLC-loads                 #    3.549 M/sec                    (50.08%)
     5.000178153             93,312      LLC-loads                 #    0.019 M/sec                    (41.76%)
     5.000178153            418,619      LLC-store-misses          #    0.084 M/sec                    (24.99%)
     5.000178153              3,876      LLC-store-misses          #    0.775 K/sec                    (33.31%)
     5.000178153          3,539,989      LLC-stores                #    0.708 M/sec                    (24.96%)
     5.000178153             19,462      LLC-stores                #    0.004 M/sec                    (33.28%)
     5.000178153           5,000.02 msec task-clock                #    1.000 CPUs utilized          
     5.000178153     13,415,368,385      cycles:u                  #    2.683 GHz                      (41.60%)
     5.000178153         22,996,879      cycles:k                  #    0.005 GHz                      (41.60%)
     5.000178153     22,221,792,296      instructions:u            #    1.66  insn per cycle           (49.92%)
     5.000178153          7,383,244      instructions:k            #    0.32  insn per cycle           (49.92%)
    10.000529951          4,637,081      LLC-load-misses           #    9.55% of all LL-cache hits     (49.92%)
    10.000529951             14,177      LLC-load-misses           #    7.14% of all LL-cache hits     (49.92%)
    10.000529951         79,378,042      LLC-loads                 #   15.875 M/sec                    (49.97%)
    10.000529951            303,554      LLC-loads                 #    0.061 M/sec                    (41.73%)
    10.000529951          1,367,368      LLC-store-misses          #    0.273 M/sec                    (25.13%)
    10.000529951              1,130      LLC-store-misses          #    0.226 K/sec                    (33.44%)
    10.000529951         15,668,482      LLC-stores                #    3.134 M/sec                    (24.99%)
    10.000529951             47,095      LLC-stores                #    0.009 M/sec                    (33.31%)
    10.000529951           5,000.20 msec task-clock                #    1.000 CPUs utilized          
    10.000529951     13,397,910,796      cycles:u                  #    2.680 GHz                      (41.63%)
    10.000529951         30,735,078      cycles:k                  #    0.006 GHz                      (41.60%)
    10.000529951     12,123,088,419      instructions:u            #    0.90  insn per cycle           (49.92%)
    10.000529951          7,355,686      instructions:k            #    0.27  insn per cycle           (49.92%)
    15.000784783          4,748,958      LLC-load-misses           #    8.07% of all LL-cache hits     (49.92%)
    15.000784783             13,929      LLC-load-misses           #    5.91% of all LL-cache hits     (49.92%)
    15.000784783         79,474,543      LLC-loads                 #   15.895 M/sec                    (49.92%)
    15.000784783            310,259      LLC-loads                 #    0.062 M/sec                    (41.60%)
    15.000784783          1,414,404      LLC-store-misses          #    0.283 M/sec                    (25.00%)
    15.000784783              1,730      LLC-store-misses          #    0.346 K/sec                    (33.40%)
    15.000784783         15,652,426      LLC-stores                #    3.130 M/sec                    (25.12%)
    15.000784783             46,902      LLC-stores                #    0.009 M/sec                    (33.44%)
    15.000784783           5,000.10 msec task-clock                #    1.000 CPUs utilized          
    15.000784783     13,396,524,512      cycles:u                  #    2.679 GHz                      (41.76%)
    15.000784783         29,397,248      cycles:k                  #    0.006 GHz                      (41.72%)
    15.000784783     12,111,707,016      instructions:u            #    0.90  insn per cycle           (50.04%)
    15.000784783          7,153,389      instructions:k            #    0.26  insn per cycle           (49.96%)
    20.001097282          4,727,338      LLC-load-misses           #    7.38% of all LL-cache hits     (50.04%)
    20.001097282             12,424      LLC-load-misses           #    4.92% of all LL-cache hits     (49.96%)
    20.001097282         79,704,558      LLC-loads                 #   15.941 M/sec                    (49.92%)
    20.001097282            303,384      LLC-loads                 #    0.061 M/sec                    (41.60%)
    20.001097282          1,400,134      LLC-store-misses          #    0.280 M/sec                    (24.96%)
    20.001097282                868      LLC-store-misses          #    0.174 K/sec                    (33.28%)
    20.001097282         15,714,716      LLC-stores                #    3.143 M/sec                    (25.00%)
    20.001097282             45,916      LLC-stores                #    0.009 M/sec                    (33.40%)
    20.001097282           5,000.16 msec task-clock                #    1.000 CPUs utilized          
    20.001097282     13,400,263,376      cycles:u                  #    2.680 GHz                      (41.76%)
    20.001097282         29,225,855      cycles:k                  #    0.006 GHz                      (41.76%)
    20.001097282     12,114,421,873      instructions:u            #    0.90  insn per cycle           (50.08%)
    20.001097282          7,213,306      instructions:k            #    0.26  insn per cycle           (50.08%)
    25.001342272          4,779,472      LLC-load-misses           #    7.12% of all LL-cache hits     (50.08%)
    25.001342272             14,775      LLC-load-misses           #    5.58% of all LL-cache hits     (50.08%)
    25.001342272         79,569,479      LLC-loads                 #   15.914 M/sec                    (50.05%)
    25.001342272            313,100      LLC-loads                 #    0.063 M/sec                    (41.60%)
    25.001342272          1,421,694      LLC-store-misses          #    0.284 M/sec                    (24.96%)
    25.001342272              3,458      LLC-store-misses          #    0.692 K/sec                    (33.28%)
    25.001342272         15,714,204      LLC-stores                #    3.143 M/sec                    (24.96%)
    25.001342272             49,993      LLC-stores                #    0.010 M/sec                    (33.28%)
    25.001342272           5,000.10 msec task-clock                #    1.000 CPUs utilized          
    25.001342272     13,396,041,462      cycles:u                  #    2.679 GHz                      (41.63%)
    25.001342272         32,182,549      cycles:k                  #    0.006 GHz                      (41.71%)
    25.001342272     12,104,507,617      instructions:u            #    0.90  insn per cycle           (50.08%)
    25.001342272          7,637,878      instructions:k            #    0.26  insn per cycle           (50.08%)
    30.001591465          4,717,837      LLC-load-misses           #    6.81% of all LL-cache hits     (50.08%)
    30.001591465             15,418      LLC-load-misses           #    5.66% of all LL-cache hits     (50.08%)
    30.001591465         79,512,270      LLC-loads                 #   15.902 M/sec                    (50.08%)
    30.001591465            310,255      LLC-loads                 #    0.062 M/sec                    (41.73%)
    30.001591465          1,398,144      LLC-store-misses          #    0.280 M/sec                    (24.96%)
    30.001591465                901      LLC-store-misses          #    0.180 K/sec                    (33.28%)
    30.001591465         15,704,310      LLC-stores                #    3.141 M/sec                    (24.96%)
    30.001591465             45,870      LLC-stores                #    0.009 M/sec                    (33.28%)
    30.001591465           5,000.10 msec task-clock                #    1.000 CPUs utilized          
    30.001591465     13,401,914,402      cycles:u                  #    2.680 GHz                      (41.60%)
    30.001591465         28,247,444      cycles:k                  #    0.006 GHz                      (41.60%)
    30.001591465     12,110,391,791      instructions:u            #    0.90  insn per cycle           (49.95%)
    30.001591465          7,040,284      instructions:k            #    0.24  insn per cycle           (50.03%)
    35.001834260          3,868,182      LLC-load-misses           #    5.67% of all LL-cache hits     (49.94%)
    35.001834260             14,052      LLC-load-misses           #    5.16% of all LL-cache hits     (50.02%)
    35.001834260         62,565,547      LLC-loads                 #   12.513 M/sec                    (50.08%)
    35.001834260            272,709      LLC-loads                 #    0.055 M/sec                    (41.76%)
    35.001834260          1,154,499      LLC-store-misses          #    0.231 M/sec                    (25.02%)
    35.001834260              2,999      LLC-store-misses          #    0.600 K/sec                    (33.34%)
    35.001834260         12,489,426      LLC-stores                #    2.498 M/sec                    (24.96%)
    35.001834260             43,301      LLC-stores                #    0.009 M/sec                    (33.28%)
    35.001834260           5,000.09 msec task-clock                #    1.000 CPUs utilized          
    35.001834260     13,402,651,430      cycles:u                  #    2.680 GHz                      (41.60%)
    35.001834260         28,463,473      cycles:k                  #    0.006 GHz                      (41.60%)
    35.001834260     14,444,526,714      instructions:u            #    1.08  insn per cycle           (49.92%)
    35.001834260          7,222,655      instructions:k            #    0.25  insn per cycle           (49.92%)
    36.090004420              5,907      LLC-load-misses           #    0.01% of all LL-cache hits     (49.92%)
    36.090004420              3,057      LLC-load-misses           #    1.27% of all LL-cache hits     (49.55%)
    36.090004420            104,588      LLC-loads                 #    0.023 M/sec                    (49.27%)
    36.090004420             14,807      LLC-loads                 #    0.003 M/sec                    (40.89%)
    36.090004420              1,072      LLC-store-misses          #    0.238 K/sec                    (25.08%)
    36.090004420                966      LLC-store-misses          #    0.214 K/sec                    (33.54%)
    36.090004420              9,860      LLC-stores                #    0.002 M/sec                    (25.36%)
    36.090004420              2,930      LLC-stores                #    0.650 K/sec                    (33.82%)
    36.090004420           1,088.13 msec task-clock                #    0.218 CPUs utilized          
    36.090004420      2,921,122,292      cycles:u                  #    0.648 GHz                      (42.27%)
    36.090004420          3,769,072      cycles:k                  #    0.001 GHz                      (42.27%)
    36.090004420      5,332,540,734      instructions:u            #    0.44  insn per cycle           (50.66%)
    36.090004420          1,597,657      instructions:k            #    0.06  insn per cycle           (50.29%)
