# started on Sun Apr  2 13:57:53 2023

#           time             counts unit events
     5.000185454             35,927      LLC-load-misses           #   14.47% of all LL-cache hits     (49.97%)
     5.000185454             12,118      LLC-load-misses           #   30.39% of all LL-cache hits     (50.05%)
     5.000185454            248,264      LLC-loads                 #    0.050 M/sec                    (50.08%)
     5.000185454             39,873      LLC-loads                 #    0.008 M/sec                    (41.76%)
     5.000185454            213,261      LLC-store-misses          #    0.043 M/sec                    (24.99%)
     5.000185454              4,313      LLC-store-misses          #    0.863 K/sec                    (33.31%)
     5.000185454            471,267      LLC-stores                #    0.094 M/sec                    (24.96%)
     5.000185454             11,956      LLC-stores                #    0.002 M/sec                    (33.28%)
     5.000185454           4,999.89 msec task-clock                #    1.000 CPUs utilized          
     5.000185454     13,419,926,307      cycles:u                  #    2.684 GHz                      (41.60%)
     5.000185454         24,008,342      cycles:k                  #    0.005 GHz                      (41.60%)
     5.000185454     24,421,699,622      instructions:u            #    1.82  insn per cycle           (49.92%)
     5.000185454          7,436,613      instructions:k            #    0.31  insn per cycle           (49.92%)
    10.000560560          4,420,776      LLC-load-misses           #   11.67% of all LL-cache hits     (49.92%)
    10.000560560             13,396      LLC-load-misses           #    8.24% of all LL-cache hits     (49.92%)
    10.000560560         75,527,921      LLC-loads                 #   15.106 M/sec                    (49.96%)
    10.000560560            285,185      LLC-loads                 #    0.057 M/sec                    (41.72%)
    10.000560560          1,310,316      LLC-store-misses          #    0.262 M/sec                    (25.13%)
    10.000560560              1,931      LLC-store-misses          #    0.386 K/sec                    (33.44%)
    10.000560560         14,414,973      LLC-stores                #    2.883 M/sec                    (25.00%)
    10.000560560             42,086      LLC-stores                #    0.008 M/sec                    (33.32%)
    10.000560560           5,000.10 msec task-clock                #    1.000 CPUs utilized          
    10.000560560     13,402,164,152      cycles:u                  #    2.680 GHz                      (41.64%)
    10.000560560         27,457,409      cycles:k                  #    0.005 GHz                      (41.60%)
    10.000560560     13,107,959,472      instructions:u            #    0.98  insn per cycle           (49.92%)
    10.000560560          8,965,950      instructions:k            #    0.35  insn per cycle           (49.92%)
    15.000841909          4,832,071      LLC-load-misses           #    9.16% of all LL-cache hits     (49.92%)
    15.000841909             13,225      LLC-load-misses           #    6.35% of all LL-cache hits     (49.92%)
    15.000841909         82,399,482      LLC-loads                 #   16.480 M/sec                    (49.92%)
    15.000841909            300,122      LLC-loads                 #    0.060 M/sec                    (41.60%)
    15.000841909          1,442,874      LLC-store-misses          #    0.289 M/sec                    (25.00%)
    15.000841909              1,521      LLC-store-misses          #    0.304 K/sec                    (33.40%)
    15.000841909         15,611,280      LLC-stores                #    3.122 M/sec                    (25.12%)
    15.000841909             46,532      LLC-stores                #    0.009 M/sec                    (33.44%)
    15.000841909           5,000.01 msec task-clock                #    1.000 CPUs utilized          
    15.000841909     13,396,799,675      cycles:u                  #    2.679 GHz                      (41.76%)
    15.000841909         32,881,587      cycles:k                  #    0.007 GHz                      (41.73%)
    15.000841909     12,052,645,263      instructions:u            #    0.90  insn per cycle           (50.05%)
    15.000841909          7,096,838      instructions:k            #    0.25  insn per cycle           (49.97%)
    20.001198078          4,832,290      LLC-load-misses           #    8.03% of all LL-cache hits     (50.05%)
    20.001198078             13,779      LLC-load-misses           #    5.98% of all LL-cache hits     (49.97%)
    20.001198078         82,645,362      LLC-loads                 #   16.529 M/sec                    (49.92%)
    20.001198078            296,378      LLC-loads                 #    0.059 M/sec                    (41.60%)
    20.001198078          1,439,240      LLC-store-misses          #    0.288 M/sec                    (24.96%)
    20.001198078              1,439      LLC-store-misses          #    0.288 K/sec                    (33.28%)
    20.001198078         15,648,029      LLC-stores                #    3.130 M/sec                    (24.99%)
    20.001198078             48,626      LLC-stores                #    0.010 M/sec                    (33.39%)
    20.001198078           5,000.08 msec task-clock                #    1.000 CPUs utilized          
    20.001198078     13,396,584,863      cycles:u                  #    2.679 GHz                      (41.76%)
    20.001198078         32,598,142      cycles:k                  #    0.007 GHz                      (41.76%)
    20.001198078     12,057,508,544      instructions:u            #    0.90  insn per cycle           (50.08%)
    20.001198078          7,462,277      instructions:k            #    0.26  insn per cycle           (50.08%)
    25.001463429          4,821,004      LLC-load-misses           #    7.45% of all LL-cache hits     (50.08%)
    25.001463429             14,987      LLC-load-misses           #    6.10% of all LL-cache hits     (50.08%)
    25.001463429         82,567,513      LLC-loads                 #   16.513 M/sec                    (50.06%)
    25.001463429            306,245      LLC-loads                 #    0.061 M/sec                    (41.60%)
    25.001463429          1,448,293      LLC-store-misses          #    0.290 M/sec                    (24.96%)
    25.001463429              2,479      LLC-store-misses          #    0.496 K/sec                    (33.28%)
    25.001463429         15,639,557      LLC-stores                #    3.128 M/sec                    (24.96%)
    25.001463429             48,605      LLC-stores                #    0.010 M/sec                    (33.28%)
    25.001463429           5,000.00 msec task-clock                #    1.000 CPUs utilized          
    25.001463429     13,395,724,565      cycles:u                  #    2.679 GHz                      (41.62%)
    25.001463429         33,309,029      cycles:k                  #    0.007 GHz                      (41.70%)
    25.001463429     12,040,667,071      instructions:u            #    0.90  insn per cycle           (50.08%)
    25.001463429          7,470,161      instructions:k            #    0.25  insn per cycle           (50.08%)
    30.001702063          4,818,132      LLC-load-misses           #    7.12% of all LL-cache hits     (50.08%)
    30.001702063             13,242      LLC-load-misses           #    5.20% of all LL-cache hits     (50.08%)
    30.001702063         82,663,371      LLC-loads                 #   16.533 M/sec                    (50.08%)
    30.001702063            299,605      LLC-loads                 #    0.060 M/sec                    (41.74%)
    30.001702063          1,441,979      LLC-store-misses          #    0.288 M/sec                    (24.96%)
    30.001702063              1,301      LLC-store-misses          #    0.260 K/sec                    (33.28%)
    30.001702063         15,684,079      LLC-stores                #    3.137 M/sec                    (24.96%)
    30.001702063             45,434      LLC-stores                #    0.009 M/sec                    (33.28%)
    30.001702063           4,999.97 msec task-clock                #    1.000 CPUs utilized          
    30.001702063     13,398,697,197      cycles:u                  #    2.680 GHz                      (41.60%)
    30.001702063         29,412,489      cycles:k                  #    0.006 GHz                      (41.60%)
    30.001702063     12,051,647,004      instructions:u            #    0.90  insn per cycle           (49.94%)
    30.001702063          7,019,067      instructions:k            #    0.23  insn per cycle           (50.02%)
    35.002015677          4,826,356      LLC-load-misses           #    6.91% of all LL-cache hits     (49.93%)
    35.002015677             16,676      LLC-load-misses           #    6.39% of all LL-cache hits     (50.01%)
    35.002015677         82,556,462      LLC-loads                 #   16.511 M/sec                    (50.08%)
    35.002015677            299,540      LLC-loads                 #    0.060 M/sec                    (41.76%)
    35.002015677          1,428,425      LLC-store-misses          #    0.286 M/sec                    (25.03%)
    35.002015677              1,280      LLC-store-misses          #    0.256 K/sec                    (33.35%)
    35.002015677         15,610,359      LLC-stores                #    3.122 M/sec                    (24.96%)
    35.002015677             45,285      LLC-stores                #    0.009 M/sec                    (33.28%)
    35.002015677           5,000.05 msec task-clock                #    1.000 CPUs utilized          
    35.002015677     13,395,885,133      cycles:u                  #    2.679 GHz                      (41.60%)
    35.002015677         31,701,216      cycles:k                  #    0.006 GHz                      (41.60%)
    35.002015677     12,041,549,234      instructions:u            #    0.90  insn per cycle           (49.92%)
    35.002015677          7,389,057      instructions:k            #    0.24  insn per cycle           (49.92%)
    37.591949949            667,027      LLC-load-misses           #    1.07% of all LL-cache hits     (50.04%)
    37.591949949              9,778      LLC-load-misses           #    4.08% of all LL-cache hits     (50.04%)
    37.591949949          7,996,441      LLC-loads                 #    1.702 M/sec                    (49.96%)
    37.591949949             90,491      LLC-loads                 #    0.019 M/sec                    (41.62%)
    37.591949949            158,869      LLC-store-misses          #    0.034 M/sec                    (24.94%)
    37.591949949              4,026      LLC-store-misses          #    0.857 K/sec                    (33.28%)
    37.591949949          1,455,919      LLC-stores                #    0.310 M/sec                    (25.02%)
    37.591949949             17,167      LLC-stores                #    0.004 M/sec                    (33.36%)
    37.591949949           2,589.79 msec task-clock                #    0.518 CPUs utilized          
    37.591949949      6,944,744,663      cycles:u                  #    1.478 GHz                      (41.70%)
    37.591949949         14,568,607      cycles:k                  #    0.003 GHz                      (41.70%)
    37.591949949     10,813,154,213      instructions:u            #    0.86  insn per cycle           (50.04%)
    37.591949949          3,933,522      instructions:k            #    0.14  insn per cycle           (50.04%)
