# started on Sun Apr  2 14:45:59 2023

#           time             counts unit events
     5.000167875            994,060      LLC-load-misses           #    5.92% of all LL-cache hits     (49.98%)
     5.000167875             14,046      LLC-load-misses           #   15.88% of all LL-cache hits     (50.06%)
     5.000167875         16,783,222      LLC-loads                 #    3.357 M/sec                    (50.08%)
     5.000167875             88,467      LLC-loads                 #    0.018 M/sec                    (41.76%)
     5.000167875            369,166      LLC-store-misses          #    0.074 M/sec                    (24.98%)
     5.000167875              3,264      LLC-store-misses          #    0.653 K/sec                    (33.30%)
     5.000167875          3,600,747      LLC-stores                #    0.720 M/sec                    (24.96%)
     5.000167875             18,729      LLC-stores                #    0.004 M/sec                    (33.28%)
     5.000167875           5,000.01 msec task-clock                #    1.000 CPUs utilized          
     5.000167875     13,422,130,419      cycles:u                  #    2.684 GHz                      (41.60%)
     5.000167875         18,768,750      cycles:k                  #    0.004 GHz                      (41.60%)
     5.000167875     22,280,808,001      instructions:u            #    1.66  insn per cycle           (49.92%)
     5.000167875          7,472,922      instructions:k            #    0.40  insn per cycle           (49.92%)
    10.000481503          4,475,390      LLC-load-misses           #    9.52% of all LL-cache hits     (49.92%)
    10.000481503             13,432      LLC-load-misses           #    6.83% of all LL-cache hits     (49.92%)
    10.000481503         77,209,908      LLC-loads                 #   15.442 M/sec                    (49.98%)
    10.000481503            305,091      LLC-loads                 #    0.061 M/sec                    (41.74%)
    10.000481503          1,322,392      LLC-store-misses          #    0.264 M/sec                    (25.12%)
    10.000481503                914      LLC-store-misses          #    0.183 K/sec                    (33.44%)
    10.000481503         15,857,344      LLC-stores                #    3.171 M/sec                    (24.98%)
    10.000481503             49,387      LLC-stores                #    0.010 M/sec                    (33.30%)
    10.000481503           5,000.13 msec task-clock                #    1.000 CPUs utilized          
    10.000481503     13,406,670,462      cycles:u                  #    2.681 GHz                      (41.62%)
    10.000481503         27,931,057      cycles:k                  #    0.006 GHz                      (41.60%)
    10.000481503     12,080,376,465      instructions:u            #    0.90  insn per cycle           (49.92%)
    10.000481503          6,995,792      instructions:k            #    0.30  insn per cycle           (49.92%)
    15.000731094          4,542,570      LLC-load-misses           #    7.94% of all LL-cache hits     (49.92%)
    15.000731094             10,349      LLC-load-misses           #    4.49% of all LL-cache hits     (49.92%)
    15.000731094         77,590,257      LLC-loads                 #   15.518 M/sec                    (49.92%)
    15.000731094            298,497      LLC-loads                 #    0.060 M/sec                    (41.60%)
    15.000731094          1,361,716      LLC-store-misses          #    0.272 M/sec                    (25.01%)
    15.000731094                688      LLC-store-misses          #    0.138 K/sec                    (33.41%)
    15.000731094         15,899,813      LLC-stores                #    3.180 M/sec                    (25.12%)
    15.000731094             49,704      LLC-stores                #    0.010 M/sec                    (33.44%)
    15.000731094           5,000.09 msec task-clock                #    1.000 CPUs utilized          
    15.000731094     13,405,089,797      cycles:u                  #    2.681 GHz                      (41.76%)
    15.000731094         28,944,577      cycles:k                  #    0.006 GHz                      (41.71%)
    15.000731094     12,091,246,516      instructions:u            #    0.90  insn per cycle           (50.03%)
    15.000731094          7,046,467      instructions:k            #    0.28  insn per cycle           (49.95%)
    20.001004920          4,550,000      LLC-load-misses           #    7.30% of all LL-cache hits     (50.03%)
    20.001004920             17,208      LLC-load-misses           #    6.88% of all LL-cache hits     (49.95%)
    20.001004920         77,645,579      LLC-loads                 #   15.529 M/sec                    (49.92%)
    20.001004920            308,919      LLC-loads                 #    0.062 M/sec                    (41.60%)
    20.001004920          1,365,765      LLC-store-misses          #    0.273 M/sec                    (24.96%)
    20.001004920                850      LLC-store-misses          #    0.170 K/sec                    (33.28%)
    20.001004920         15,938,167      LLC-stores                #    3.188 M/sec                    (25.01%)
    20.001004920             52,347      LLC-stores                #    0.010 M/sec                    (33.41%)
    20.001004920           5,000.11 msec task-clock                #    1.000 CPUs utilized          
    20.001004920     13,403,692,823      cycles:u                  #    2.681 GHz                      (41.76%)
    20.001004920         33,368,791      cycles:k                  #    0.007 GHz                      (41.77%)
    20.001004920     12,095,833,273      instructions:u            #    0.90  insn per cycle           (50.08%)
    20.001004920          7,656,615      instructions:k            #    0.28  insn per cycle           (50.08%)
    25.001236997          4,576,877      LLC-load-misses           #    7.00% of all LL-cache hits     (50.08%)
    25.001236997             12,525      LLC-load-misses           #    4.80% of all LL-cache hits     (50.08%)
    25.001236997         77,665,838      LLC-loads                 #   15.533 M/sec                    (50.04%)
    25.001236997            302,753      LLC-loads                 #    0.061 M/sec                    (41.60%)
    25.001236997          1,363,390      LLC-store-misses          #    0.273 M/sec                    (24.96%)
    25.001236997              1,156      LLC-store-misses          #    0.231 K/sec                    (33.28%)
    25.001236997         15,939,355      LLC-stores                #    3.188 M/sec                    (24.96%)
    25.001236997             49,641      LLC-stores                #    0.010 M/sec                    (33.28%)
    25.001236997           5,000.07 msec task-clock                #    1.000 CPUs utilized          
    25.001236997     13,405,431,644      cycles:u                  #    2.681 GHz                      (41.64%)
    25.001236997         28,745,860      cycles:k                  #    0.006 GHz                      (41.72%)
    25.001236997     12,098,045,209      instructions:u            #    0.90  insn per cycle           (50.08%)
    25.001236997          6,990,104      instructions:k            #    0.25  insn per cycle           (50.08%)
    30.001475751          4,563,819      LLC-load-misses           #    6.77% of all LL-cache hits     (50.08%)
    30.001475751             13,186      LLC-load-misses           #    4.93% of all LL-cache hits     (50.08%)
    30.001475751         77,755,282      LLC-loads                 #   15.551 M/sec                    (50.08%)
    30.001475751            301,196      LLC-loads                 #    0.060 M/sec                    (41.72%)
    30.001475751          1,365,816      LLC-store-misses          #    0.273 M/sec                    (24.96%)
    30.001475751              1,929      LLC-store-misses          #    0.386 K/sec                    (33.28%)
    30.001475751         15,916,177      LLC-stores                #    3.183 M/sec                    (24.96%)
    30.001475751             50,315      LLC-stores                #    0.010 M/sec                    (33.28%)
    30.001475751           5,000.08 msec task-clock                #    1.000 CPUs utilized          
    30.001475751     13,400,407,888      cycles:u                  #    2.680 GHz                      (41.60%)
    30.001475751         32,449,620      cycles:k                  #    0.006 GHz                      (41.60%)
    30.001475751     12,092,483,543      instructions:u            #    0.90  insn per cycle           (49.96%)
    30.001475751          7,114,132      instructions:k            #    0.25  insn per cycle           (50.04%)
    35.001748599          3,652,751      LLC-load-misses           #    5.49% of all LL-cache hits     (49.95%)
    35.001748599             15,216      LLC-load-misses           #    5.71% of all LL-cache hits     (50.03%)
    35.001748599         61,400,300      LLC-loads                 #   12.280 M/sec                    (50.08%)
    35.001748599            261,525      LLC-loads                 #    0.052 M/sec                    (41.76%)
    35.001748599          1,089,265      LLC-store-misses          #    0.218 M/sec                    (25.01%)
    35.001748599              3,531      LLC-store-misses          #    0.706 K/sec                    (33.33%)
    35.001748599         12,608,838      LLC-stores                #    2.522 M/sec                    (24.96%)
    35.001748599             45,381      LLC-stores                #    0.009 M/sec                    (33.28%)
    35.001748599           5,000.11 msec task-clock                #    1.000 CPUs utilized          
    35.001748599     13,407,486,371      cycles:u                  #    2.681 GHz                      (41.60%)
    35.001748599         28,907,253      cycles:k                  #    0.006 GHz                      (41.60%)
    35.001748599     14,423,424,313      instructions:u            #    1.08  insn per cycle           (49.92%)
    35.001748599          7,326,036      instructions:k            #    0.26  insn per cycle           (49.92%)
    36.124677149              2,611      LLC-load-misses           #    0.00% of all LL-cache hits     (49.29%)
    36.124677149              2,274      LLC-load-misses           #    0.97% of all LL-cache hits     (49.16%)
    36.124677149             59,425      LLC-loads                 #    0.013 M/sec                    (49.29%)
    36.124677149             16,291      LLC-loads                 #    0.004 M/sec                    (41.45%)
    36.124677149                715      LLC-store-misses          #    0.158 K/sec                    (25.42%)
    36.124677149              1,474      LLC-store-misses          #    0.326 K/sec                    (33.97%)
    36.124677149              2,573      LLC-stores                #    0.570 K/sec                    (25.65%)
    36.124677149              4,250      LLC-stores                #    0.941 K/sec                    (33.97%)
    36.124677149           1,122.89 msec task-clock                #    0.225 CPUs utilized          
    36.124677149      3,012,952,898      cycles:u                  #    0.667 GHz                      (42.16%)
    36.124677149          4,937,402      cycles:k                  #    0.001 GHz                      (41.81%)
    36.124677149      5,505,128,444      instructions:u            #    0.45  insn per cycle           (50.00%)
    36.124677149          1,569,847      instructions:k            #    0.06  insn per cycle           (49.64%)
