sent     447603 | retrans       6808 | timeout       2361 | loss rate 0.0053%
sent     510609 | retrans       8040 | timeout       2926 | loss rate 0.0057%
sent     555664 | retrans       8139 | timeout       2634 | loss rate 0.0047%
sent     491911 | retrans       8033 | timeout       3224 | loss rate 0.0066%
sent     412683 | retrans       7016 | timeout       2976 | loss rate 0.0072%
sent     474085 | retrans       7304 | timeout       2622 | loss rate 0.0055%
sent     556763 | retrans       8087 | timeout       2767 | loss rate 0.0050%
