sent     386549 | retrans      14659 | timeout       8664 | loss rate 0.0224%
sent     388810 | retrans      16348 | timeout      10159 | loss rate 0.0261%
sent     451638 | retrans      16309 | timeout       9305 | loss rate 0.0206%
sent     545158 | retrans      21560 | timeout      12550 | loss rate 0.0230%
sent     417423 | retrans      16615 | timeout       9945 | loss rate 0.0238%
sent     594061 | retrans      21357 | timeout      11081 | loss rate 0.0187%
sent     601394 | retrans      21155 | timeout      11311 | loss rate 0.0188%
