sent     464473 | retrans       7513 | timeout       2433 | loss rate 0.0052%
sent     436407 | retrans       7379 | timeout       2705 | loss rate 0.0062%
sent     534672 | retrans       8166 | timeout       2523 | loss rate 0.0047%
sent     398661 | retrans       6952 | timeout       2573 | loss rate 0.0065%
sent     413578 | retrans       8159 | timeout       3498 | loss rate 0.0085%
sent     571760 | retrans       8660 | timeout       2541 | loss rate 0.0044%
sent     547299 | retrans       8547 | timeout       2583 | loss rate 0.0047%
