sent     511261 | retrans      16075 | timeout       8331 | loss rate 0.0163%
sent     371317 | retrans      12813 | timeout       7240 | loss rate 0.0195%
sent     524358 | retrans      17232 | timeout       9106 | loss rate 0.0174%
sent     335287 | retrans      13308 | timeout       8366 | loss rate 0.0250%
sent     511993 | retrans      17767 | timeout       9925 | loss rate 0.0194%
sent     634706 | retrans      21331 | timeout      10973 | loss rate 0.0173%
sent     501167 | retrans      16024 | timeout       8488 | loss rate 0.0169%
