sent     401929 | retrans       6326 | timeout       2409 | loss rate 0.0060%
sent     368950 | retrans       5646 | timeout       2247 | loss rate 0.0061%
sent     510823 | retrans       7181 | timeout       2328 | loss rate 0.0046%
sent     547486 | retrans       7901 | timeout       2785 | loss rate 0.0051%
sent     523136 | retrans       7816 | timeout       2892 | loss rate 0.0055%
sent     482250 | retrans       6906 | timeout       2143 | loss rate 0.0044%
sent     585760 | retrans       7994 | timeout       2491 | loss rate 0.0043%
