sent     483010 | retrans      16469 | timeout       8984 | loss rate 0.0186%
sent     311315 | retrans      11838 | timeout       7227 | loss rate 0.0232%
sent     529232 | retrans      18000 | timeout       9838 | loss rate 0.0186%
sent     440803 | retrans      15613 | timeout       8733 | loss rate 0.0198%
sent     384900 | retrans      15031 | timeout       8968 | loss rate 0.0233%
sent     653735 | retrans      21664 | timeout      10688 | loss rate 0.0163%
sent     605920 | retrans      19081 | timeout       9599 | loss rate 0.0158%
