sent     543167 | retrans      19204 | timeout      10228 | loss rate 0.0188%
sent     483690 | retrans      19316 | timeout      11048 | loss rate 0.0228%
sent     511509 | retrans      18641 | timeout      10231 | loss rate 0.0200%
sent     497968 | retrans      20658 | timeout      12149 | loss rate 0.0244%
sent     361827 | retrans      17213 | timeout      10799 | loss rate 0.0298%
sent     498989 | retrans      19219 | timeout      10475 | loss rate 0.0210%
sent     480041 | retrans      17595 | timeout       9916 | loss rate 0.0207%
