sent     452904 | retrans      11245 | timeout       5454 | loss rate 0.0120%
sent     352914 | retrans       9560 | timeout       5235 | loss rate 0.0148%
sent     571456 | retrans      13860 | timeout       6281 | loss rate 0.0110%
sent     547705 | retrans      13577 | timeout       6352 | loss rate 0.0116%
sent     390364 | retrans      10311 | timeout       5232 | loss rate 0.0134%
sent     543795 | retrans      12644 | timeout       5248 | loss rate 0.0096%
sent     537682 | retrans      12150 | timeout       5239 | loss rate 0.0097%
