#type       avg     std     min     5th    10th    50th    90th    95th    99th
read     1350.8    38.8   218.1  1278.3  1285.2  1340.5  1395.9  1449.8  1526.0
update      0.0     0.0     0.0     0.0     0.0     0.0     0.0     0.0     0.0
op_q        1.0     0.0     1.0     1.0     1.0     1.1     1.1     1.1     1.1
rx      5452086.5 70627.1 5324898.6 5103466.1 5129840.6 5340836.6 5551832.6 5578207.1 5994352.8

Total QPS = 829312.6 (24879384 / 30.0s)

Misses = 0 (0.0%)
Skipped TXs = 0 (0.0%)

RX 6104495747 bytes :  194.1 MB/s
TX 1050512361 bytes :   33.4 MB/s
