#type       avg     std     min     5th    10th    50th    90th    95th    99th
read     1348.1    46.1   319.3  1276.6  1284.0  1342.8  1419.8  1481.3  1530.4
update      0.0     0.0     0.0     0.0     0.0     0.0     0.0     0.0     0.0
op_q        1.0     0.0     1.0     1.0     1.0     1.1     1.1     1.1     1.1
rx      5467116.8 136939.8 5324898.6 5110384.0 5143676.4 5410015.6 5908131.3 6025706.0 6119765.8

Total QPS = 830910.3 (24927311 / 30.0s)

Misses = 0 (0.0%)
Skipped TXs = 0 (0.0%)

RX 6117753647 bytes :  194.5 MB/s
TX 1052619525 bytes :   33.5 MB/s
