#type       avg     std     min     5th    10th    50th    90th    95th    99th
read       48.3    11.2    26.8    37.4    38.7    46.9    58.8    63.1    74.0
update      0.0     0.0     0.0     0.0     0.0     0.0     0.0     0.0     0.0
op_q        1.0     0.0     1.0     1.0     1.0     1.1     1.1     1.1     1.1
rx      2096540.0 55996.7 1866344.5 1966011.3 1977441.6 2068884.0 2204448.7 2286474.7 2352095.5

Total QPS = 319931.8 (9597956 / 30.0s)

Misses = 0 (0.0%)
Skipped TXs = 0 (0.0%)

RX 2357675485 bytes :   74.9 MB/s
TX  405312135 bytes :   12.9 MB/s
