#type       avg     std     min     5th    10th    50th    90th    95th    99th
read       55.4    17.9    26.8    39.5    42.0    53.4    69.7    76.9    96.8
update      0.0     0.0     0.0     0.0     0.0     0.0     0.0     0.0     0.0
op_q        1.0     0.0     1.0     1.0     1.0     1.1     1.1     1.1     1.1
rx      3158034.9 66893.9 3005766.4 2896455.3 2927024.7 3171018.4 3408381.2 3438051.5 3461787.8

Total QPS = 479773.5 (14393206 / 30.0s)

Misses = 0 (0.0%)
Skipped TXs = 0 (0.0%)

RX 3530779654 bytes :  112.2 MB/s
TX  607713812 bytes :   19.3 MB/s
