#type       avg     std     min     5th    10th    50th    90th    95th    99th
read       59.5    29.2    29.5    41.6    44.4    57.0    75.2    81.2    98.8
update      0.0     0.0     0.0     0.0     0.0     0.0     0.0     0.0     0.0
op_q        1.0     0.0     1.0     1.0     1.0     1.1     1.1     1.1     1.1
rx      3668058.5 60843.7 3636977.4 3485169.5 3502617.2 3642198.4 3781779.7 3799227.3 3813185.5

Total QPS = 559799.4 (16793983 / 30.0s)

Misses = 0 (0.0%)
Skipped TXs = 0 (0.0%)

RX 4121105231 bytes :  131.0 MB/s
TX  709137758 bytes :   22.5 MB/s
