#type       avg     std     min     5th    10th    50th    90th    95th    99th
read       60.1    27.4    26.8    41.8    44.8    57.5    76.3    83.0   102.6
update      0.0     0.0     0.0     0.0     0.0     0.0     0.0     0.0     0.0
op_q        1.0     0.0     1.0     1.0     1.0     1.1     1.1     1.1     1.1
rx      3667562.8 77383.4 3306343.1 3483484.2 3501498.4 3645611.5 3789724.6 3807738.7 4073879.6

Total QPS = 560037.2 (16801117 / 30.0s)

Misses = 0 (0.0%)
Skipped TXs = 0 (0.0%)

RX 4119467048 bytes :  131.0 MB/s
TX  709409299 bytes :   22.6 MB/s
