#type       avg     std     min     5th    10th    50th    90th    95th    99th
read       59.5    27.4    26.8    41.9    44.7    57.1    74.7    80.3    97.2
update      0.0     0.0     0.0     0.0     0.0     0.0     0.0     0.0     0.0
op_q        1.0     0.0     1.0     1.0     1.0     1.1     1.1     1.1     1.1
rx      3651413.6 79300.9 3306343.1 3483691.6 3501942.8 3647952.1 3793961.5 3812212.6 4108755.0

Total QPS = 559978.0 (16799344 / 30.0s)

Misses = 0 (0.0%)
Skipped TXs = 0 (0.0%)

RX 4104847490 bytes :  130.5 MB/s
TX  709313073 bytes :   22.5 MB/s
