#type       avg     std     min     5th    10th    50th    90th    95th    99th
read       61.6    30.7    26.8    42.2    45.4    58.3    77.7    85.5   113.1
update      0.0     0.0     0.0     0.0     0.0     0.0     0.0     0.0     0.0
op_q        1.0     0.0     1.0     1.0     1.0     1.1     1.1     1.1     1.1
rx      3933490.7 62982.5 3636977.4 3821876.9 3841564.6 3999066.3 4156568.0 4176255.7 4192005.9

Total QPS = 600242.9 (18007288 / 30.0s)

Misses = 0 (0.0%)
Skipped TXs = 0 (0.0%)

RX 4412273475 bytes :  140.3 MB/s
TX  760361806 bytes :   24.2 MB/s
