#type       avg     std     min     5th    10th    50th    90th    95th    99th
read       62.1    31.7    26.8    42.9    46.2    59.1    78.3    85.5   104.3
update      0.0     0.0     0.0     0.0     0.0     0.0     0.0     0.0     0.0
op_q        1.0     0.0     1.0     1.0     1.0     1.1     1.1     1.1     1.1
rx      3942043.7 70713.9 3636977.4 3816987.2 3836932.2 3996492.8 4156053.3 4175998.4 4191954.4

Total QPS = 599944.2 (17998327 / 30.0s)

Misses = 0 (0.0%)
Skipped TXs = 0 (0.0%)

RX 4412049460 bytes :  140.3 MB/s
TX  760039686 bytes :   24.2 MB/s
