#type       avg     std     min     5th    10th    50th    90th    95th    99th
read       67.8    39.8    29.5    45.9    49.8    63.8    86.4    95.5   116.9
update      0.0     0.0     0.0     0.0     0.0     0.0     0.0     0.0     0.0
op_q        1.0     0.0     1.0     1.0     1.0     1.1     1.1     1.1     1.1
rx      4213499.3 76016.5 4000675.1 3858720.1 3902946.1 4246663.6 4541763.0 4578650.4 4608160.3

Total QPS = 640058.0 (19201741 / 30.0s)

Misses = 0 (0.0%)
Skipped TXs = 0 (0.0%)

RX 4712016583 bytes :  149.8 MB/s
TX  810676486 bytes :   25.8 MB/s
