#type       avg     std     min     5th    10th    50th    90th    95th    99th
read       66.2    39.0    26.8    44.9    48.3    62.1    83.8    93.1   123.3
update      0.0     0.0     0.0     0.0     0.0     0.0     0.0     0.0     0.0
op_q        1.0     0.0     1.0     1.0     1.0     1.1     1.1     1.1     1.1
rx      4202681.0 70642.8 4000675.1 3855731.8 3896969.6 4225217.5 4537473.7 4576505.8 4607731.4

Total QPS = 639855.8 (19195674 / 30.0s)

Misses = 0 (0.0%)
Skipped TXs = 0 (0.0%)

RX 4709352448 bytes :  149.7 MB/s
TX  810517746 bytes :   25.8 MB/s
