#type       avg     std     min     5th    10th    50th    90th    95th    99th
read       65.5    38.7    26.8    44.4    47.9    61.5    82.5    91.5   118.2
update      0.0     0.0     0.0     0.0     0.0     0.0     0.0     0.0     0.0
op_q        1.0     0.0     1.0     1.0     1.0     1.1     1.1     1.1     1.1
rx      4194578.6 76191.6 4000675.1 3852639.0 3890783.9 4195943.4 4531618.9 4573578.3 4607145.9

Total QPS = 639820.2 (19194616 / 30.0s)

Misses = 0 (0.0%)
Skipped TXs = 0 (0.0%)

RX 4709265083 bytes :  149.7 MB/s
TX  810414663 bytes :   25.8 MB/s
