#type       avg     std     min     5th    10th    50th    90th    95th    99th
read       66.0    40.9    29.5    44.7    48.1    61.9    83.2    92.4   122.2
update      0.0     0.0     0.0     0.0     0.0     0.0     0.0     0.0     0.0
op_q        1.0     0.0     1.0     1.0     1.0     1.1     1.1     1.1     1.1
rx      4192063.9 68792.9 4000675.1 3850395.2 3886296.3 4173505.2 4526024.3 4570781.1 4606586.4

Total QPS = 639869.1 (19196075 / 30.0s)

Misses = 0 (0.0%)
Skipped TXs = 0 (0.0%)

RX 4698672855 bytes :  149.4 MB/s
TX  810541217 bytes :   25.8 MB/s
