#type       avg     std     min     5th    10th    50th    90th    95th    99th
read       70.5    41.1    29.5    47.2    51.0    66.1    90.4   100.5   124.7
update      0.0     0.0     0.0     0.0     0.0     0.0     0.0     0.0     0.0
op_q        1.0     0.0     1.0     1.0     1.0     1.1     1.1     1.1     1.1
rx      4453232.6 80177.2 4400742.6 4217740.5 4239537.7 4413914.5 4588291.4 4610088.5 4954010.6

Total QPS = 680059.3 (20401780 / 30.0s)

Misses = 0 (0.0%)
Skipped TXs = 0 (0.0%)

RX 4989401948 bytes :  158.6 MB/s
TX  861471049 bytes :   27.4 MB/s
