#type       avg     std     min     5th    10th    50th    90th    95th    99th
read       81.0    50.2    32.4    53.0    56.7    75.4   106.1   118.2   153.2
update      0.0     0.0     0.0     0.0     0.0     0.0     0.0     0.0     0.0
op_q        1.0     0.0     1.0     1.0     1.0     1.1     1.1     1.1     1.1
rx      4711332.4 85814.9 4400742.6 4382429.8 4568916.2 4817061.3 5025085.5 5051088.5 5071891.0

Total QPS = 719849.4 (21595482 / 30.0s)

Misses = 0 (0.0%)
Skipped TXs = 0 (0.0%)

RX 5284395778 bytes :  168.0 MB/s
TX  911809652 bytes :   29.0 MB/s
