#type       avg     std     min     5th    10th    50th    90th    95th    99th
read       77.4    47.8    29.5    50.3    54.2    72.0   102.2   114.3   148.9
update      0.0     0.0     0.0     0.0     0.0     0.0     0.0     0.0     0.0
op_q        1.0     0.0     1.0     1.0     1.0     1.1     1.1     1.1     1.1
rx      4704256.5 80866.3 4400742.6 4348523.2 4501103.0 4809524.2 5023578.1 5050334.8 5071740.2

Total QPS = 719662.0 (21589860 / 30.0s)

Misses = 0 (0.0%)
Skipped TXs = 0 (0.0%)

RX 5287426341 bytes :  168.1 MB/s
TX  911595967 bytes :   29.0 MB/s
