#type       avg     std     min     5th    10th    50th    90th    95th    99th
read       81.3    49.5    32.4    53.2    57.0    75.7   106.4   119.0   153.4
update      0.0     0.0     0.0     0.0     0.0     0.0     0.0     0.0     0.0
op_q        1.0     0.0     1.0     1.0     1.0     1.1     1.1     1.1     1.1
rx      4741584.5 84479.6 4400742.6 4531618.9 4633999.9 4830929.5 5027859.2 5052475.4 5072168.3

Total QPS = 720004.6 (21600139 / 30.0s)

Misses = 0 (0.0%)
Skipped TXs = 0 (0.0%)

RX 5306494734 bytes :  168.7 MB/s
TX  912096077 bytes :   29.0 MB/s
