#type       avg     std     min     5th    10th    50th    90th    95th    99th
read       81.7    51.9    32.4    53.7    57.3    76.1   106.3   118.2   151.8
update      0.0     0.0     0.0     0.0     0.0     0.0     0.0     0.0     0.0
op_q        1.0     0.0     1.0     1.0     1.0     1.1     1.1     1.1     1.1
rx      4726017.9 80753.4 4400742.6 4531618.9 4633999.9 4830929.5 5027859.2 5052475.4 5072168.3

Total QPS = 719617.1 (21588516 / 30.0s)

Misses = 0 (0.0%)
Skipped TXs = 0 (0.0%)

RX 5298507374 bytes :  168.4 MB/s
TX  911487633 bytes :   29.0 MB/s
