#type       avg     std     min     5th    10th    50th    90th    95th    99th
read       96.7    73.7    32.4    56.6    61.2    85.5   132.7   152.8   220.7
update      0.0     0.0     0.0     0.0     0.0     0.0     0.0     0.0     0.0
op_q        1.0     0.0     1.0     1.0     1.0     1.1     1.1     1.1     1.1
rx      4991767.8 79956.9 4840816.9 4642102.0 4668666.3 4881180.2 5197974.7 5391387.7 5546118.1

Total QPS = 760152.7 (22804583 / 30.0s)

Misses = 0 (0.0%)
Skipped TXs = 0 (0.0%)

RX 5586322057 bytes :  177.6 MB/s
TX  962771370 bytes :   30.6 MB/s
