#type       avg     std     min     5th    10th    50th    90th    95th    99th
read       91.5    58.2    32.4    56.0    60.4    82.8   124.8   141.6   191.0
update      0.0     0.0     0.0     0.0     0.0     0.0     0.0     0.0     0.0
op_q        1.0     0.0     1.0     1.0     1.0     1.1     1.1     1.1     1.1
rx      4967036.0 80752.4 4840816.9 4640656.4 4665774.9 4866723.5 5067672.1 5272364.3 5522313.4

Total QPS = 760119.1 (22803574 / 30.0s)

Misses = 0 (0.0%)
Skipped TXs = 0 (0.0%)

RX 5571729269 bytes :  177.1 MB/s
TX  962889640 bytes :   30.6 MB/s
