#type       avg     std     min     5th    10th    50th    90th    95th    99th
read      147.0   100.4    32.4    66.2    74.2   124.6   234.9   283.3   461.9
update      0.0     0.0     0.0     0.0     0.0     0.0     0.0     0.0     0.0
op_q        1.0     0.0     1.0     1.0     1.0     1.1     1.1     1.1     1.1
rx      5245783.7 85076.4 4840816.9 5090109.7 5116146.1 5324437.0 5532728.0 5558764.4 5579593.4

Total QPS = 799715.7 (23991475 / 30.0s)

Misses = 0 (0.0%)
Skipped TXs = 0 (0.0%)

RX 5890773339 bytes :  187.3 MB/s
TX 1012985646 bytes :   32.2 MB/s
