#type       avg     std     min     5th    10th    50th    90th    95th    99th
read      154.4   112.5    32.4    67.6    75.8   128.4   248.4   303.0   512.3
update      0.0     0.0     0.0     0.0     0.0     0.0     0.0     0.0     0.0
op_q        1.0     0.0     1.0     1.0     1.0     1.1     1.1     1.1     1.1
rx      5233853.2 74186.4 4840816.9 5090109.7 5116146.1 5324437.0 5532728.0 5558764.4 5579593.4

Total QPS = 799830.0 (23994901 / 30.0s)

Misses = 0 (0.0%)
Skipped TXs = 0 (0.0%)

RX 5862853298 bytes :  186.4 MB/s
TX 1013141613 bytes :   32.2 MB/s
