#type       avg     std     min     5th    10th    50th    90th    95th    99th
read      151.0   121.1    32.4    65.0    73.1   122.4   245.6   300.7   644.9
update      0.0     0.0     0.0     0.0     0.0     0.0     0.0     0.0     0.0
op_q        1.0     0.0     1.0     1.0     1.0     1.1     1.1     1.1     1.1
rx      5268768.1 90217.8 4840816.9 5099443.5 5124988.7 5329349.6 5533710.5 5559255.6 5579691.7

Total QPS = 800168.1 (24005045 / 30.0s)

Misses = 0 (0.0%)
Skipped TXs = 0 (0.0%)

RX 5894638818 bytes :  187.4 MB/s
TX 1013543920 bytes :   32.2 MB/s
