#type       avg     std     min     5th    10th    50th    90th    95th    99th
read      119.4    78.1    35.7    63.0    69.7   106.0   174.1   201.2   291.1
update      0.0     0.0     0.0     0.0     0.0     0.0     0.0     0.0     0.0
op_q        1.0     0.0     1.0     1.0     1.0     1.1     1.1     1.1     1.1
rx      5247526.3 76866.6 5324898.6 5102477.0 5127862.5 5330946.1 5534029.8 5559415.3 5579723.6

Total QPS = 799974.3 (23999232 / 30.0s)

Misses = 0 (0.0%)
Skipped TXs = 0 (0.0%)

RX 5876428360 bytes :  186.8 MB/s
TX 1013353644 bytes :   32.2 MB/s
