#type       avg     std     min     5th    10th    50th    90th    95th    99th
read      143.7   113.8    32.4    65.2    73.4   121.1   217.9   258.1   775.8
update      0.0     0.0     0.0     0.0     0.0     0.0     0.0     0.0     0.0
op_q        1.0     0.0     1.0     1.0     1.0     1.1     1.1     1.1     1.1
rx      5250933.1 78543.7 4840816.9 5096371.7 5122078.4 5327732.8 5533387.1 5559093.9 5579659.4

Total QPS = 799942.0 (23998261 / 30.0s)

Misses = 0 (0.0%)
Skipped TXs = 0 (0.0%)

RX 5875692798 bytes :  186.8 MB/s
TX 1013296236 bytes :   32.2 MB/s
