#type       avg     std     min     5th    10th    50th    90th    95th    99th
read      137.3   103.7    32.4    64.3    72.1   116.8   207.3   246.0   505.4
update      0.0     0.0     0.0     0.0     0.0     0.0     0.0     0.0     0.0
op_q        1.0     0.0     1.0     1.0     1.0     1.1     1.1     1.1     1.1
rx      5270470.2 84732.6 4840816.9 5096371.7 5122078.4 5327732.8 5533387.1 5559093.9 5579659.4

Total QPS = 799747.7 (23992432 / 30.0s)

Misses = 0 (0.0%)
Skipped TXs = 0 (0.0%)

RX 5906333269 bytes :  187.8 MB/s
TX 1013059682 bytes :   32.2 MB/s
