#type       avg     std     min     5th    10th    50th    90th    95th    99th
read       45.0     9.7    29.5    36.3    37.8    43.7    52.9    55.9    65.3
update      0.0     0.0     0.0     0.0     0.0     0.0     0.0     0.0     0.0
op_q        1.0     0.0     1.0     1.0     1.0     1.1     1.1     1.1     1.1
rx      522865.0 28385.7 406170.9 473565.2 479245.1 523432.0 562704.8 573300.2 613620.3

Total QPS = 79945.5 (2398366 / 30.0s)

Misses = 0 (0.0%)
Skipped TXs = 0 (0.0%)

RX  588277363 bytes :   18.7 MB/s
TX  101290092 bytes :    3.2 MB/s
