#type       avg     std     min     5th    10th    50th    90th    95th    99th
read       45.4    10.0    29.5    36.9    38.1    44.0    53.4    56.9    71.4
update      0.0     0.0     0.0     0.0     0.0     0.0     0.0     0.0     0.0
op_q        1.0     0.0     1.0     1.0     1.0     1.1     1.1     1.1     1.1
rx      526883.9 27672.3 406170.9 473281.2 480778.7 529512.6 562834.9 567000.2 612360.3

Total QPS = 80004.6 (2400137 / 30.0s)

Misses = 0 (0.0%)
Skipped TXs = 0 (0.0%)

RX  588219323 bytes :   18.7 MB/s
TX  101327351 bytes :    3.2 MB/s
