#type       avg     std     min     5th    10th    50th    90th    95th    99th
read      132.2    87.5    32.4    64.2    71.8   115.5   201.4   235.8   358.5
update      0.0     0.0     0.0     0.0     0.0     0.0     0.0     0.0     0.0
op_q        1.0     0.0     1.0     1.0     1.0     1.1     1.1     1.1     1.1
rx      5287464.3 79599.7 5324898.6 5102477.0 5127862.5 5330946.1 5534029.8 5559415.3 5579723.6

Total QPS = 799712.8 (23991386 / 30.0s)

Misses = 0 (0.0%)
Skipped TXs = 0 (0.0%)

RX 5912021243 bytes :  187.9 MB/s
TX 1012999838 bytes :   32.2 MB/s
