#type       avg     std     min     5th    10th    50th    90th    95th    99th
read      140.2    94.9    32.4    65.3    73.4   120.6   217.1   257.3   442.4
update      0.0     0.0     0.0     0.0     0.0     0.0     0.0     0.0     0.0
op_q        1.0     0.0     1.0     1.0     1.0     1.1     1.1     1.1     1.1
rx      5266608.8 88344.9 4840816.9 5096371.7 5122078.4 5327732.8 5533387.1 5559093.9 5579659.4

Total QPS = 800290.8 (24008726 / 30.0s)

Misses = 0 (0.0%)
Skipped TXs = 0 (0.0%)

RX 5896866334 bytes :  187.5 MB/s
TX 1013678844 bytes :   32.2 MB/s
