#type       avg     std     min     5th    10th    50th    90th    95th    99th
read     1349.8    40.5   263.9  1276.6  1283.5  1339.2  1395.0  1441.7  1525.2
update      0.0     0.0     0.0     0.0     0.0     0.0     0.0     0.0     0.0
op_q        1.0     0.0     1.0     1.0     1.0     1.1     1.1     1.1     1.1
rx      5403198.4 70304.7 5324898.6 5102477.0 5127862.5 5330946.1 5534029.8 5559415.3 5579723.6

Total QPS = 826443.6 (24793310 / 30.0s)

Misses = 0 (0.0%)
Skipped TXs = 0 (0.0%)

RX 6055509022 bytes :  192.5 MB/s
TX 1046955454 bytes :   33.3 MB/s
