#type       avg     std     min     5th    10th    50th    90th    95th    99th
read     1297.9   158.4    43.2   931.4  1181.7  1330.6  1397.1  1461.2  1526.9
update      0.0     0.0     0.0     0.0     0.0     0.0     0.0     0.0     0.0
op_q        1.0     0.0     1.0     1.0     1.0     1.1     1.1     1.1     1.1
rx      5438175.8 102118.9 5324898.6 5104722.0 5132352.4 5353395.9 5574439.3 5799600.7 6074544.8

Total QPS = 827464.0 (24823922 / 30.0s)

Misses = 0 (0.0%)
Skipped TXs = 0 (0.0%)

RX 6081607523 bytes :  193.3 MB/s
TX 1048185600 bytes :   33.3 MB/s
