#type       avg     std     min     5th    10th    50th    90th    95th    99th
read     1318.2    44.3   263.9  1197.3  1238.5  1326.4  1387.1  1394.7  1483.2
update      0.0     0.0     0.0     0.0     0.0     0.0     0.0     0.0     0.0
op_q        1.0     0.0     1.0     1.0     1.0     1.1     1.1     1.1     1.1
rx      5559110.1 118505.6 5324898.6 5121240.2 5165388.8 5518577.8 6011873.7 6077577.3 6130140.1

Total QPS = 850028.7 (25500862 / 30.0s)

Misses = 0 (0.0%)
Skipped TXs = 0 (0.0%)

RX 6245518374 bytes :  198.5 MB/s
TX 1076757655 bytes :   34.2 MB/s
