#type       avg     std     min     5th    10th    50th    90th    95th    99th
read     1346.7   159.6   425.0  1277.5  1284.3  1338.9  1393.5  1421.1  1521.5
update      0.0     0.0     0.0     0.0     0.0     0.0     0.0     0.0     0.0
op_q        1.0     0.0     1.0     1.0     1.0     1.1     1.1     1.1     1.1
rx      5454864.5 84759.3 5324898.6 5104722.0 5132352.4 5353395.9 5574439.3 5799600.7 6074544.8

Total QPS = 830973.2 (24929198 / 30.0s)

Misses = 0 (0.0%)
Skipped TXs = 0 (0.0%)

RX 6111534866 bytes :  194.3 MB/s
TX 1052595921 bytes :   33.5 MB/s
