#type       avg     std     min     5th    10th    50th    90th    95th    99th
read     1335.7   349.1   290.3  1277.1  1283.7  1336.7  1389.6  1396.3  1499.3
update      0.0     0.0     0.0     0.0     0.0     0.0     0.0     0.0     0.0
op_q        1.0     0.0     1.0     1.0     1.0     1.1     1.1     1.1     1.1
rx      5490866.3 77232.1 5324898.6 5105897.8 5134703.9 5365153.5 5672981.8 5908131.3 6096250.9

Total QPS = 838724.8 (25161746 / 30.0s)

Misses = 0 (0.0%)
Skipped TXs = 0 (0.0%)

RX 6162306449 bytes :  195.9 MB/s
TX 1062485622 bytes :   33.8 MB/s
