#type       avg     std     min     5th    10th    50th    90th    95th    99th
read     1350.6    41.2   290.3  1278.2  1285.1  1340.0  1394.9  1440.1  1524.1
update      0.0     0.0     0.0     0.0     0.0     0.0     0.0     0.0     0.0
op_q        1.0     0.0     1.0     1.0     1.0     1.1     1.1     1.1     1.1
rx      5472534.0 146477.2 5324898.6 5104535.3 5131979.0 5351528.9 5571078.8 5770960.7 6068816.8

Total QPS = 829205.3 (24876160 / 30.0s)

Misses = 0 (0.0%)
Skipped TXs = 0 (0.0%)

RX 6126917528 bytes :  194.8 MB/s
TX 1050380675 bytes :   33.4 MB/s
