#type       avg     std     min     5th    10th    50th    90th    95th    99th
read     1357.0   314.1   386.4  1278.5  1285.8  1344.3  1428.0  1485.1  1530.9
update      0.0     0.0     0.0     0.0     0.0     0.0     0.0     0.0     0.0
op_q        1.0     0.0     1.0     1.0     1.0     1.1     1.1     1.1     1.1
rx      5413056.1 95188.2 5324898.6 5102798.4 5128505.1 5334159.5 5539813.8 5565520.6 5696496.7

Total QPS = 825460.6 (24763819 / 30.0s)

Misses = 0 (0.0%)
Skipped TXs = 0 (0.0%)

RX 6071303841 bytes :  193.0 MB/s
TX 1045777501 bytes :   33.2 MB/s
