#type       avg     std     min     5th    10th    50th    90th    95th    99th
read     1331.3    38.7   218.1  1274.1  1280.8  1335.0  1389.1  1395.9  1495.9
update      0.0     0.0     0.0     0.0     0.0     0.0     0.0     0.0     0.0
op_q        1.0     0.0     1.0     1.0     1.0     1.1     1.1     1.1     1.1
rx      5516480.3 90992.0 5324898.6 5113356.5 5149621.4 5439741.0 5957120.8 6050200.8 6124664.8

Total QPS = 841345.9 (25240379 / 30.0s)

Misses = 0 (0.0%)
Skipped TXs = 0 (0.0%)

RX 6182559623 bytes :  196.5 MB/s
TX 1065797838 bytes :   33.9 MB/s
