#type       avg     std     min     5th    10th    50th    90th    95th    99th
read     1324.7   157.1   263.9  1275.6  1282.2  1334.9  1387.6  1394.2  1435.9
update      0.0     0.0     0.0     0.0     0.0     0.0     0.0     0.0     0.0
op_q        1.0     0.0     1.0     1.0     1.0     1.1     1.1     1.1     1.1
rx      5569605.5 72242.7 5324898.6 5116911.9 5156732.2 5475294.8 5989217.3 6066249.1 6127874.4

Total QPS = 844886.3 (25346597 / 30.0s)

Misses = 0 (0.0%)
Skipped TXs = 0 (0.0%)

RX 6226009943 bytes :  197.9 MB/s
TX 1070251672 bytes :   34.0 MB/s
