sent     674970 | retrans         23 | timeout         23 | loss rate 0.0000%
sent     674236 | retrans         45 | timeout         45 | loss rate 0.0001%
sent     675720 | retrans          2 | timeout          2 | loss rate 0.0000%
sent     677304 | retrans          6 | timeout          6 | loss rate 0.0000%
sent     674446 | retrans          2 | timeout          2 | loss rate 0.0000%
sent     673417 | retrans          1 | timeout          1 | loss rate 0.0000%
sent     675370 | retrans          0 | timeout          0 | loss rate 0.0000%
