sent    2806137 | retrans          0 | timeout          0 | loss rate 0.0000%
sent    2811579 | retrans          0 | timeout          0 | loss rate 0.0000%
sent    2810166 | retrans          0 | timeout          0 | loss rate 0.0000%
sent    2809626 | retrans          0 | timeout          0 | loss rate 0.0000%
sent    2806133 | retrans          0 | timeout          0 | loss rate 0.0000%
sent    2808777 | retrans          0 | timeout          0 | loss rate 0.0000%
sent    2812186 | retrans          0 | timeout          0 | loss rate 0.0000%
