sent    2478160 | retrans        127 | timeout        127 | loss rate 0.0001%
sent    2472605 | retrans         42 | timeout         42 | loss rate 0.0000%
sent    2478247 | retrans         13 | timeout         13 | loss rate 0.0000%
sent    2482021 | retrans          6 | timeout          3 | loss rate 0.0000%
sent    2472566 | retrans         25 | timeout         25 | loss rate 0.0000%
sent    2472922 | retrans          4 | timeout          4 | loss rate 0.0000%
sent    2479451 | retrans          0 | timeout          0 | loss rate 0.0000%
