sent    2979179 | retrans          0 | timeout          0 | loss rate 0.0000%
sent    2980373 | retrans          0 | timeout          0 | loss rate 0.0000%
sent    2980406 | retrans          0 | timeout          0 | loss rate 0.0000%
sent    2981341 | retrans          0 | timeout          0 | loss rate 0.0000%
sent    2979282 | retrans          0 | timeout          0 | loss rate 0.0000%
sent    2981680 | retrans          0 | timeout          0 | loss rate 0.0000%
sent    2980898 | retrans          0 | timeout          0 | loss rate 0.0000%
