sent     674548 | retrans         87 | timeout         87 | loss rate 0.0001%
sent     675407 | retrans         38 | timeout         38 | loss rate 0.0001%
sent     676439 | retrans          0 | timeout          0 | loss rate 0.0000%
sent     676331 | retrans         14 | timeout         14 | loss rate 0.0000%
sent     674102 | retrans          0 | timeout          0 | loss rate 0.0000%
sent     674952 | retrans          1 | timeout          1 | loss rate 0.0000%
sent     677879 | retrans          0 | timeout          0 | loss rate 0.0000%
