sent    3322835 | retrans          0 | timeout          0 | loss rate 0.0000%
sent    3322602 | retrans          0 | timeout          0 | loss rate 0.0000%
sent    3322801 | retrans          0 | timeout          0 | loss rate 0.0000%
sent    3321333 | retrans          0 | timeout          0 | loss rate 0.0000%
sent    3322342 | retrans          0 | timeout          0 | loss rate 0.0000%
sent    3322614 | retrans          0 | timeout          0 | loss rate 0.0000%
sent    3319780 | retrans          0 | timeout          0 | loss rate 0.0000%
