sent    2810247 | retrans          0 | timeout          0 | loss rate 0.0000%
sent    2813495 | retrans          0 | timeout          0 | loss rate 0.0000%
sent    2809085 | retrans          0 | timeout          0 | loss rate 0.0000%
sent    2812122 | retrans          0 | timeout          0 | loss rate 0.0000%
sent    2803576 | retrans          0 | timeout          0 | loss rate 0.0000%
sent    2806227 | retrans          0 | timeout          0 | loss rate 0.0000%
sent    2813637 | retrans          0 | timeout          0 | loss rate 0.0000%
