sent     675969 | retrans         19 | timeout         19 | loss rate 0.0000%
sent     675073 | retrans         32 | timeout         32 | loss rate 0.0000%
sent     676138 | retrans          2 | timeout          2 | loss rate 0.0000%
sent     676105 | retrans         51 | timeout         51 | loss rate 0.0001%
sent     673991 | retrans          0 | timeout          0 | loss rate 0.0000%
sent     674300 | retrans          4 | timeout          4 | loss rate 0.0000%
sent     678341 | retrans          0 | timeout          0 | loss rate 0.0000%
