sent    1672457 | retrans          0 | timeout          0 | loss rate 0.0000%
sent    1666171 | retrans          0 | timeout          0 | loss rate 0.0000%
sent    1678615 | retrans          0 | timeout          0 | loss rate 0.0000%
sent    1680629 | retrans          0 | timeout          0 | loss rate 0.0000%
sent    1656666 | retrans          0 | timeout          0 | loss rate 0.0000%
sent    1659714 | retrans          0 | timeout          0 | loss rate 0.0000%
sent    1697976 | retrans          0 | timeout          0 | loss rate 0.0000%
