sent    3661017 | retrans         13 | timeout          0 | loss rate 0.0000%
sent    3666057 | retrans          5 | timeout          0 | loss rate 0.0000%
sent    3667488 | retrans          5 | timeout          0 | loss rate 0.0000%
sent    3667765 | retrans          5 | timeout          0 | loss rate 0.0000%
sent    3666187 | retrans          6 | timeout          0 | loss rate 0.0000%
sent    3664374 | retrans          3 | timeout          0 | loss rate 0.0000%
sent    3660288 | retrans          3 | timeout          0 | loss rate 0.0000%
