sent    2642030 | retrans          0 | timeout          0 | loss rate 0.0000%
sent    2635955 | retrans          0 | timeout          0 | loss rate 0.0000%
sent    2643100 | retrans          0 | timeout          0 | loss rate 0.0000%
sent    2639875 | retrans          0 | timeout          0 | loss rate 0.0000%
sent    2644554 | retrans          0 | timeout          0 | loss rate 0.0000%
sent    2643048 | retrans          0 | timeout          0 | loss rate 0.0000%
sent    2648417 | retrans          0 | timeout          0 | loss rate 0.0000%
