sent    3608260 | retrans         58 | timeout         45 | loss rate 0.0000%
sent    3611088 | retrans         20 | timeout         16 | loss rate 0.0000%
sent    3610096 | retrans         12 | timeout          6 | loss rate 0.0000%
sent    3608825 | retrans         49 | timeout         39 | loss rate 0.0000%
sent    3612071 | retrans         29 | timeout         16 | loss rate 0.0000%
sent    3611010 | retrans         21 | timeout         15 | loss rate 0.0000%
sent    3606751 | retrans         10 | timeout          0 | loss rate 0.0000%
