sent    2979414 | retrans          0 | timeout          0 | loss rate 0.0000%
sent    2979245 | retrans          0 | timeout          0 | loss rate 0.0000%
sent    2983007 | retrans          0 | timeout          0 | loss rate 0.0000%
sent    2983078 | retrans          0 | timeout          0 | loss rate 0.0000%
sent    2981964 | retrans          0 | timeout          0 | loss rate 0.0000%
sent    2981198 | retrans          0 | timeout          0 | loss rate 0.0000%
sent    2983467 | retrans          0 | timeout          0 | loss rate 0.0000%
