sent    2340813 | retrans          0 | timeout          0 | loss rate 0.0000%
sent    2334026 | retrans          0 | timeout          0 | loss rate 0.0000%
sent    2330072 | retrans          0 | timeout          0 | loss rate 0.0000%
sent    2339553 | retrans          0 | timeout          0 | loss rate 0.0000%
sent    2333301 | retrans          0 | timeout          0 | loss rate 0.0000%
sent    2336070 | retrans          0 | timeout          0 | loss rate 0.0000%
sent    2342057 | retrans          0 | timeout          0 | loss rate 0.0000%
