sent    1678270 | retrans          0 | timeout          0 | loss rate 0.0000%
sent    1659970 | retrans          0 | timeout          0 | loss rate 0.0000%
sent    1676756 | retrans          0 | timeout          0 | loss rate 0.0000%
sent    1627836 | retrans          0 | timeout          0 | loss rate 0.0000%
sent    1670831 | retrans          0 | timeout          0 | loss rate 0.0000%
sent    1650821 | retrans          0 | timeout          0 | loss rate 0.0000%
sent    1678651 | retrans          0 | timeout          0 | loss rate 0.0000%
