sent    1671106 | retrans          0 | timeout          0 | loss rate 0.0000%
sent    1655237 | retrans          0 | timeout          0 | loss rate 0.0000%
sent    1676208 | retrans          0 | timeout          0 | loss rate 0.0000%
sent    1690255 | retrans          0 | timeout          0 | loss rate 0.0000%
sent    1653207 | retrans          0 | timeout          0 | loss rate 0.0000%
sent    1657597 | retrans          0 | timeout          0 | loss rate 0.0000%
sent    1672864 | retrans          0 | timeout          0 | loss rate 0.0000%
