sent    3673220 | retrans          0 | timeout          0 | loss rate 0.0000%
sent    3673900 | retrans          0 | timeout          0 | loss rate 0.0000%
sent    3670429 | retrans          0 | timeout          0 | loss rate 0.0000%
sent    3674406 | retrans          0 | timeout          0 | loss rate 0.0000%
sent    3672581 | retrans          0 | timeout          0 | loss rate 0.0000%
sent    3672180 | retrans          0 | timeout          0 | loss rate 0.0000%
sent    3675192 | retrans          0 | timeout          0 | loss rate 0.0000%
