sent    2179667 | retrans          0 | timeout          0 | loss rate 0.0000%
sent    2184100 | retrans          0 | timeout          0 | loss rate 0.0000%
sent    2175458 | retrans          0 | timeout          0 | loss rate 0.0000%
sent    2170514 | retrans          0 | timeout          0 | loss rate 0.0000%
sent    2181918 | retrans          0 | timeout          0 | loss rate 0.0000%
sent    2180432 | retrans          0 | timeout          0 | loss rate 0.0000%
sent    2178558 | retrans          0 | timeout          0 | loss rate 0.0000%
