sent    3322980 | retrans          0 | timeout          0 | loss rate 0.0000%
sent    3323211 | retrans          0 | timeout          0 | loss rate 0.0000%
sent    3323638 | retrans          0 | timeout          0 | loss rate 0.0000%
sent    3324869 | retrans          0 | timeout          0 | loss rate 0.0000%
sent    3328877 | retrans          0 | timeout          0 | loss rate 0.0000%
sent    3324479 | retrans          0 | timeout          0 | loss rate 0.0000%
sent    3321285 | retrans          0 | timeout          0 | loss rate 0.0000%
