sent    2984044 | retrans          0 | timeout          0 | loss rate 0.0000%
sent    2978513 | retrans          0 | timeout          0 | loss rate 0.0000%
sent    2981438 | retrans          0 | timeout          0 | loss rate 0.0000%
sent    2981394 | retrans          0 | timeout          0 | loss rate 0.0000%
sent    2980893 | retrans          0 | timeout          0 | loss rate 0.0000%
sent    2981671 | retrans          0 | timeout          0 | loss rate 0.0000%
sent    2982623 | retrans          0 | timeout          0 | loss rate 0.0000%
