sent    3612915 | retrans          0 | timeout          0 | loss rate 0.0000%
sent    3614232 | retrans          0 | timeout          0 | loss rate 0.0000%
sent    3612919 | retrans          0 | timeout          0 | loss rate 0.0000%
sent    3614080 | retrans          0 | timeout          0 | loss rate 0.0000%
sent    3614055 | retrans          0 | timeout          0 | loss rate 0.0000%
sent    3611396 | retrans          0 | timeout          0 | loss rate 0.0000%
sent    3610471 | retrans          2 | timeout          0 | loss rate 0.0000%
