sent    3326835 | retrans          0 | timeout          0 | loss rate 0.0000%
sent    3326353 | retrans          0 | timeout          0 | loss rate 0.0000%
sent    3327686 | retrans          0 | timeout          0 | loss rate 0.0000%
sent    3328496 | retrans          0 | timeout          0 | loss rate 0.0000%
sent    3324125 | retrans          0 | timeout          0 | loss rate 0.0000%
sent    3324055 | retrans          0 | timeout          0 | loss rate 0.0000%
sent    3325078 | retrans          0 | timeout          0 | loss rate 0.0000%
