sent     672840 | retrans        111 | timeout         87 | loss rate 0.0001%
sent     675504 | retrans         34 | timeout         34 | loss rate 0.0001%
sent     674444 | retrans         10 | timeout         10 | loss rate 0.0000%
sent     674971 | retrans          8 | timeout          8 | loss rate 0.0000%
sent     674975 | retrans          5 | timeout          5 | loss rate 0.0000%
sent     676094 | retrans          0 | timeout          0 | loss rate 0.0000%
sent     674360 | retrans          0 | timeout          0 | loss rate 0.0000%
