sent    3497066 | retrans          0 | timeout          0 | loss rate 0.0000%
sent    3498016 | retrans          0 | timeout          0 | loss rate 0.0000%
sent    3500105 | retrans          0 | timeout          0 | loss rate 0.0000%
sent    3496234 | retrans          0 | timeout          0 | loss rate 0.0000%
sent    3492616 | retrans          0 | timeout          0 | loss rate 0.0000%
sent    3499829 | retrans          0 | timeout          0 | loss rate 0.0000%
sent    3498225 | retrans          0 | timeout          0 | loss rate 0.0000%
