sent    2814208 | retrans          0 | timeout          0 | loss rate 0.0000%
sent    2808687 | retrans          0 | timeout          0 | loss rate 0.0000%
sent    2811547 | retrans          0 | timeout          0 | loss rate 0.0000%
sent    2814380 | retrans          0 | timeout          0 | loss rate 0.0000%
sent    2812416 | retrans          0 | timeout          0 | loss rate 0.0000%
sent    2808392 | retrans          0 | timeout          0 | loss rate 0.0000%
sent    2807434 | retrans          0 | timeout          0 | loss rate 0.0000%
