sent    2478377 | retrans         50 | timeout         50 | loss rate 0.0000%
sent    2478189 | retrans         48 | timeout         48 | loss rate 0.0000%
sent    2478840 | retrans          0 | timeout          0 | loss rate 0.0000%
sent    2475932 | retrans         59 | timeout         59 | loss rate 0.0000%
sent    2467934 | retrans         10 | timeout         10 | loss rate 0.0000%
sent    2476322 | retrans          3 | timeout          3 | loss rate 0.0000%
sent    2482563 | retrans         32 | timeout         32 | loss rate 0.0000%
