sent    2983800 | retrans          0 | timeout          0 | loss rate 0.0000%
sent    2980485 | retrans          0 | timeout          0 | loss rate 0.0000%
sent    2982876 | retrans          0 | timeout          0 | loss rate 0.0000%
sent    2982839 | retrans          0 | timeout          0 | loss rate 0.0000%
sent    2980050 | retrans          0 | timeout          0 | loss rate 0.0000%
sent    2981049 | retrans          0 | timeout          0 | loss rate 0.0000%
sent    2980751 | retrans          0 | timeout          0 | loss rate 0.0000%
