sent    1689395 | retrans          0 | timeout          0 | loss rate 0.0000%
sent    1659987 | retrans          0 | timeout          0 | loss rate 0.0000%
sent    1697109 | retrans          0 | timeout          0 | loss rate 0.0000%
sent    1678177 | retrans          0 | timeout          0 | loss rate 0.0000%
sent    1647057 | retrans          0 | timeout          0 | loss rate 0.0000%
sent    1651172 | retrans          0 | timeout          0 | loss rate 0.0000%
sent    1685659 | retrans          0 | timeout          0 | loss rate 0.0000%
