sent    2323772 | retrans          0 | timeout          0 | loss rate 0.0000%
sent    2329645 | retrans          0 | timeout          0 | loss rate 0.0000%
sent    2327895 | retrans          0 | timeout          0 | loss rate 0.0000%
sent    2338143 | retrans          0 | timeout          0 | loss rate 0.0000%
sent    2330427 | retrans          0 | timeout          0 | loss rate 0.0000%
sent    2324681 | retrans          0 | timeout          0 | loss rate 0.0000%
sent    2332442 | retrans          0 | timeout          0 | loss rate 0.0000%
