sent    3151034 | retrans         49 | timeout         49 | loss rate 0.0000%
sent    3156289 | retrans          2 | timeout          2 | loss rate 0.0000%
sent    3154829 | retrans          7 | timeout          7 | loss rate 0.0000%
sent    3149465 | retrans          5 | timeout          5 | loss rate 0.0000%
sent    3150451 | retrans          1 | timeout          1 | loss rate 0.0000%
sent    3156892 | retrans         12 | timeout         12 | loss rate 0.0000%
sent    3153356 | retrans          0 | timeout          0 | loss rate 0.0000%
