sent    2319067 | retrans          0 | timeout          0 | loss rate 0.0000%
sent    2331071 | retrans          0 | timeout          0 | loss rate 0.0000%
sent    2326495 | retrans          0 | timeout          0 | loss rate 0.0000%
sent    2343894 | retrans          0 | timeout          0 | loss rate 0.0000%
sent    2319214 | retrans          0 | timeout          0 | loss rate 0.0000%
sent    2332545 | retrans          0 | timeout          0 | loss rate 0.0000%
sent    2326780 | retrans          0 | timeout          0 | loss rate 0.0000%
