#type       avg     std     min     5th    10th    50th    90th    95th    99th
read      403.3  6772.9    35.7    64.5    76.1   133.6   221.2   267.7  3175.5
update      0.0     0.0     0.0     0.0     0.0     0.0     0.0     0.0     0.0
op_q        1.0     0.0     1.0     1.0     1.0     1.1     1.1     1.1     1.1
rx      53985.8  8413.5     1.0 40813.5 43436.3 53611.1 65390.5 69402.9 76229.0

Total QPS = 65006.3 (1950190 / 30.0s)

Misses = 0 (0.0%)
Skipped TXs = 0 (0.0%)

RX  480974836 bytes :   15.3 MB/s
TX   82328339 bytes :    2.6 MB/s
