#type       avg     std     min     5th    10th    50th    90th    95th    99th
read    50427.3 385261.3    35.7    95.1   133.2  2316.8  4055.5 207254.9 897126.8
update      0.0     0.0     0.0     0.0     0.0     0.0     0.0     0.0     0.0
op_q        1.0     0.0     1.0     1.0     1.0     1.1     1.1     1.1     1.1
rx      67283.9 10130.3     1.0 51843.9 54823.8 67224.4 80840.9 84176.7 92104.8

Total QPS = 80278.5 (2408356 / 30.0s)

Misses = 0 (0.0%)
Skipped TXs = 0 (0.0%)

RX  592645108 bytes :   18.8 MB/s
TX  101887156 bytes :    3.2 MB/s
