# started on Mon Mar 27 10:02:03 2023

#           time             counts unit events
     5.000169113          1,155,929      LLC-load-misses           #    6.27% of all LL-cache hits     (46.24%)
     5.000169113             19,642      LLC-load-misses           #    4.65% of all LL-cache hits     (46.24%)
     5.000169113         18,432,853      LLC-loads                 #    3.687 M/sec                    (39.27%)
     5.000169113            422,188      LLC-loads                 #    0.084 M/sec                    (38.73%)
     5.000169113            472,221      LLC-store-misses          #    0.094 M/sec                    (30.48%)
     5.000169113              3,833      LLC-store-misses          #    0.767 K/sec                    (38.24%)
     5.000169113          3,718,027      LLC-stores                #    0.744 M/sec                    (23.28%)
     5.000169113             57,672      LLC-stores                #    0.012 M/sec                    (31.04%)
     5.000169113           5,000.07 msec task-clock                #    1.000 CPUs utilized          
     5.000169113     13,396,032,759      cycles:u                  #    2.679 GHz                      (38.73%)
     5.000169113         40,399,266      cycles:k                  #    0.008 GHz                      (38.65%)
     5.000169113     21,263,211,347      instructions:u            #    1.59  insn per cycle           (46.33%)
     5.000169113         15,588,546      instructions:k            #    0.39  insn per cycle           (46.25%)
    10.000467027          4,616,694      LLC-load-misses           #    9.19% of all LL-cache hits     (46.24%)
    10.000467027              9,854      LLC-load-misses           #    2.24% of all LL-cache hits     (46.24%)
    10.000467027         82,063,507      LLC-loads                 #   16.412 M/sec                    (38.40%)
    10.000467027            458,933      LLC-loads                 #    0.092 M/sec                    (38.40%)
    10.000467027          1,349,570      LLC-store-misses          #    0.270 M/sec                    (30.72%)
    10.000467027              1,466      LLC-store-misses          #    0.293 K/sec                    (38.40%)
    10.000467027         15,767,037      LLC-stores                #    3.153 M/sec                    (23.04%)
    10.000467027             45,624      LLC-stores                #    0.009 M/sec                    (30.72%)
    10.000467027           5,000.21 msec task-clock                #    1.000 CPUs utilized          
    10.000467027     13,401,109,987      cycles:u                  #    2.680 GHz                      (38.46%)
    10.000467027         28,238,215      cycles:k                  #    0.006 GHz                      (38.54%)
    10.000467027     12,155,442,718      instructions:u            #    0.91  insn per cycle           (46.24%)
    10.000467027          9,341,041      instructions:k            #    0.27  insn per cycle           (46.24%)
    15.000705863          4,613,210      LLC-load-misses           #    7.60% of all LL-cache hits     (46.24%)
    15.000705863             75,614      LLC-load-misses           #   14.27% of all LL-cache hits     (46.24%)
    15.000705863         81,685,265      LLC-loads                 #   16.337 M/sec                    (38.50%)
    15.000705863            708,474      LLC-loads                 #    0.142 M/sec                    (38.42%)
    15.000705863          1,376,729      LLC-store-misses          #    0.275 M/sec                    (30.72%)
    15.000705863              3,208      LLC-store-misses          #    0.642 K/sec                    (38.40%)
    15.000705863         15,679,658      LLC-stores                #    3.136 M/sec                    (23.04%)
    15.000705863            100,903      LLC-stores                #    0.020 M/sec                    (30.72%)
    15.000705863           5,000.16 msec task-clock                #    1.000 CPUs utilized          
    15.000705863     13,343,125,925      cycles:u                  #    2.669 GHz                      (38.40%)
    15.000705863         87,261,270      cycles:k                  #    0.017 GHz                      (38.40%)
    15.000705863     12,083,172,583      instructions:u            #    0.90  insn per cycle           (46.14%)
    15.000705863         71,748,114      instructions:k            #    1.38  insn per cycle           (46.22%)
    20.000981543          4,596,785      LLC-load-misses           #    6.96% of all LL-cache hits     (46.13%)
    20.000981543             54,869      LLC-load-misses           #    7.70% of all LL-cache hits     (46.21%)
    20.000981543         82,169,977      LLC-loads                 #   16.433 M/sec                    (38.56%)
    20.000981543          1,260,905      LLC-loads                 #    0.252 M/sec                    (38.56%)
    20.000981543          1,355,029      LLC-store-misses          #    0.271 M/sec                    (30.75%)
    20.000981543              1,855      LLC-store-misses          #    0.371 K/sec                    (38.43%)
    20.000981543         15,671,932      LLC-stores                #    3.134 M/sec                    (23.04%)
    20.000981543            162,824      LLC-stores                #    0.033 M/sec                    (30.72%)
    20.000981543           5,000.20 msec task-clock                #    1.000 CPUs utilized          
    20.000981543     13,336,913,615      cycles:u                  #    2.667 GHz                      (38.40%)
    20.000981543         93,141,380      cycles:k                  #    0.019 GHz                      (38.40%)
    20.000981543     12,066,771,020      instructions:u            #    0.90  insn per cycle           (46.08%)
    20.000981543         38,821,725      instructions:k            #    0.62  insn per cycle           (46.08%)
    25.001204237          4,662,698      LLC-load-misses           #    6.73% of all LL-cache hits     (46.08%)
    25.001204237              8,051      LLC-load-misses           #    1.20% of all LL-cache hits     (46.08%)
    25.001204237         82,244,370      LLC-loads                 #   16.448 M/sec                    (38.53%)
    25.001204237            507,891      LLC-loads                 #    0.102 M/sec                    (38.56%)
    25.001204237          1,388,541      LLC-store-misses          #    0.278 M/sec                    (30.88%)
    25.001204237              1,545      LLC-store-misses          #    0.309 K/sec                    (38.56%)
    25.001204237         15,807,660      LLC-stores                #    3.161 M/sec                    (23.04%)
    25.001204237             51,408      LLC-stores                #    0.010 M/sec                    (30.72%)
    25.001204237           5,000.14 msec task-clock                #    1.000 CPUs utilized          
    25.001204237     13,398,222,944      cycles:u                  #    2.680 GHz                      (38.40%)
    25.001204237         31,816,074      cycles:k                  #    0.006 GHz                      (38.40%)
    25.001204237     12,174,054,968      instructions:u            #    0.91  insn per cycle           (46.08%)
    25.001204237         10,252,715      instructions:k            #    0.18  insn per cycle           (46.08%)
    30.001406898          4,628,020      LLC-load-misses           #    6.48% of all LL-cache hits     (46.08%)
    30.001406898            114,475      LLC-load-misses           #   16.34% of all LL-cache hits     (46.08%)
    30.001406898         81,604,317      LLC-loads                 #   16.320 M/sec                    (38.40%)
    30.001406898            845,350      LLC-loads                 #    0.169 M/sec                    (38.44%)
    30.001406898          1,379,199      LLC-store-misses          #    0.276 M/sec                    (30.84%)
    30.001406898              1,063      LLC-store-misses          #    0.213 K/sec                    (38.56%)
    30.001406898         15,753,707      LLC-stores                #    3.151 M/sec                    (23.16%)
    30.001406898             83,784      LLC-stores                #    0.017 M/sec                    (30.84%)
    30.001406898           5,000.12 msec task-clock                #    1.000 CPUs utilized          
    30.001406898     13,361,140,440      cycles:u                  #    2.672 GHz                      (38.52%)
    30.001406898         67,954,571      cycles:k                  #    0.014 GHz                      (38.44%)
    30.001406898     12,133,892,982      instructions:u            #    0.91  insn per cycle           (46.12%)
    30.001406898         34,485,034      instructions:k            #    0.59  insn per cycle           (46.08%)
    35.001649567          3,689,683      LLC-load-misses           #    5.24% of all LL-cache hits     (46.12%)
    35.001649567             46,970      LLC-load-misses           #    6.33% of all LL-cache hits     (46.08%)
    35.001649567         64,831,001      LLC-loads                 #   12.966 M/sec                    (38.40%)
    35.001649567            992,812      LLC-loads                 #    0.199 M/sec                    (38.40%)
    35.001649567          1,073,020      LLC-store-misses          #    0.215 M/sec                    (30.72%)
    35.001649567              3,012      LLC-store-misses          #    0.602 K/sec                    (38.44%)
    35.001649567         12,394,209      LLC-stores                #    2.479 M/sec                    (23.16%)
    35.001649567            123,558      LLC-stores                #    0.025 M/sec                    (30.88%)
    35.001649567           5,000.16 msec task-clock                #    1.000 CPUs utilized          
    35.001649567     13,357,565,928      cycles:u                  #    2.671 GHz                      (38.56%)
    35.001649567         77,657,563      cycles:k                  #    0.016 GHz                      (38.56%)
    35.001649567     14,415,170,731      instructions:u            #    1.08  insn per cycle           (46.24%)
    35.001649567         31,065,005      instructions:k            #    0.51  insn per cycle           (46.20%)
    36.152860969              5,334      LLC-load-misses           #    0.01% of all LL-cache hits     (46.49%)
    36.152860969                705      LLC-load-misses           #    0.11% of all LL-cache hits     (46.34%)
    36.152860969             77,581      LLC-loads                 #    0.017 M/sec                    (38.22%)
    36.152860969             19,505      LLC-loads                 #    0.004 M/sec                    (38.22%)
    36.152860969              1,975      LLC-store-misses          #    0.437 K/sec                    (30.58%)
    36.152860969                204      LLC-store-misses          #    0.045 K/sec                    (38.22%)
    36.152860969              5,110      LLC-stores                #    0.001 M/sec                    (22.93%)
    36.152860969              2,844      LLC-stores                #    0.629 K/sec                    (30.73%)
    36.152860969           1,151.19 msec task-clock                #    0.230 CPUs utilized          
    36.152860969      3,090,328,629      cycles:u                  #    0.684 GHz                      (38.72%)
    36.152860969          4,429,297      cycles:k                  #    0.001 GHz                      (38.85%)
    36.152860969      5,598,502,565      instructions:u            #    0.46  insn per cycle           (46.49%)
    36.152860969          2,183,432      instructions:k            #    0.04  insn per cycle           (46.49%)
