  num          irqs       pkts  cpus name
  104 RX    2495309    2314361     6 mlx4-33@0000:07:00.0
  105 RX    2486813    2305037     7 mlx4-34@0000:07:00.0
  106 RX    2450275    2316145     8 mlx4-35@0000:07:00.0
  107 RX    2443932    2288194     9 mlx4-36@0000:07:00.0
total       9876329    9223737
