  num          irqs       pkts  cpus name
  104 RX    2420499    2327386     4 mlx4-33@0000:07:00.0
  105 RX    2379316    2258410     5 mlx4-34@0000:07:00.0
  106 RX    2459042    2306696     6 mlx4-35@0000:07:00.0
  107 RX    2465237    2336673     7 mlx4-36@0000:07:00.0
  108 RX    2229995    2306327     8 mlx4-37@0000:07:00.0
  109 RX    2206397    2323399     9 mlx4-38@0000:07:00.0
  110 RX    2210290    2281663    10 mlx4-39@0000:07:00.0
  111 RX    2222102    2325586    11 mlx4-40@0000:07:00.0
total      18592878   18466140
