  num          irqs       pkts  cpus name
  104 RX    2459834    2340412     4 mlx4-33@0000:07:00.0
  105 RX    2423451    2327750     5 mlx4-34@0000:07:00.0
  106 RX    2433114    2345761     6 mlx4-35@0000:07:00.0
  107 RX    2400237    2276126     7 mlx4-36@0000:07:00.0
  108 RX    2199713    2256490     8 mlx4-37@0000:07:00.0
  109 RX    2182876    2279125     9 mlx4-38@0000:07:00.0
  110 RX    2216131    2320982    10 mlx4-39@0000:07:00.0
  111 RX    2192490    2246886    11 mlx4-40@0000:07:00.0
total      18507846   18393532
