# started on Sun Apr  2 00:20:19 2023

#           time             counts unit events
     5.002020070          3,283,589      LLC-load-misses           #   19.98% of all LL-cache accesses  (49.94%)
     5.002020070         33,779,680      LLC-load-misses           #   28.94% of all LL-cache accesses  (50.02%)
     5.002020070         16,433,406      LLC-loads                 #  410.636 K/sec                    (50.10%)
     5.002020070        116,709,577      LLC-loads                 #    2.916 M/sec                    (41.79%)
     5.002020070            194,293      LLC-store-misses          #    4.855 K/sec                    (25.04%)
     5.002020070         20,079,461      LLC-store-misses          #  501.744 K/sec                    (33.35%)
     5.002020070          6,689,681      LLC-stores                #  167.161 K/sec                    (24.95%)
     5.002020070         53,304,942      LLC-stores                #    1.332 M/sec                    (33.26%)
     5.002020070          40,019.37 msec task-clock                #    8.004 CPUs utilized          
     5.002020070      2,974,984,105      cycles:u                  #    0.074 GHz                      (41.58%)
     5.002020070     20,130,818,008      cycles:k                  #    0.503 GHz                      (41.57%)
     5.002020070      1,899,173,652      instructions:u            #    0.64  insn per cycle           (49.89%)
     5.002020070     10,626,389,485      instructions:k            #    0.53  insn per cycle           (49.89%)
    10.006018909         15,528,948      LLC-load-misses           #   19.88% of all LL-cache accesses  (49.88%)
    10.006018909        162,151,138      LLC-load-misses           #   29.55% of all LL-cache accesses  (49.88%)
    10.006018909         78,097,164      LLC-loads                 #    1.951 M/sec                    (49.88%)
    10.006018909        548,725,646      LLC-loads                 #   13.708 M/sec                    (41.64%)
    10.006018909            964,578      LLC-store-misses          #   24.096 K/sec                    (25.10%)
    10.006018909         93,014,253      LLC-store-misses          #    2.324 M/sec                    (33.49%)
    10.006018909         33,000,848      LLC-stores                #  824.392 K/sec                    (25.11%)
    10.006018909        251,484,926      LLC-stores                #    6.282 M/sec                    (33.42%)
    10.006018909          40,030.55 msec task-clock                #    8.006 CPUs utilized          
    10.006018909     14,065,240,772      cycles:u                  #    0.351 GHz                      (41.73%)
    10.006018909     93,476,583,119      cycles:k                  #    2.335 GHz                      (41.65%)
    10.006018909      8,543,300,216      instructions:u            #    0.61  insn per cycle           (49.96%)
    10.006018909     50,541,246,592      instructions:k            #    0.54  insn per cycle           (49.88%)
    15.010013995         15,494,792      LLC-load-misses           #   19.85% of all LL-cache accesses  (50.04%)
    15.010013995        162,171,040      LLC-load-misses           #   29.62% of all LL-cache accesses  (49.96%)
    15.010013995         78,070,610      LLC-loads                 #    1.950 M/sec                    (49.89%)
    15.010013995        547,552,222      LLC-loads                 #   13.678 M/sec                    (41.57%)
    15.010013995            967,082      LLC-store-misses          #   24.159 K/sec                    (24.94%)
    15.010013995         92,954,060      LLC-store-misses          #    2.322 M/sec                    (33.26%)
    15.010013995         33,000,025      LLC-stores                #  824.368 K/sec                    (25.01%)
    15.010013995        251,713,086      LLC-stores                #    6.288 M/sec                    (33.41%)
    15.010013995          40,030.70 msec task-clock                #    8.006 CPUs utilized          
    15.010013995     14,059,421,956      cycles:u                  #    0.351 GHz                      (41.80%)
    15.010013995     93,498,421,559      cycles:k                  #    2.336 GHz                      (41.80%)
    15.010013995      8,535,670,501      instructions:u            #    0.61  insn per cycle           (50.12%)
    15.010013995     50,598,108,604      instructions:k            #    0.54  insn per cycle           (50.12%)
    20.014023273         15,489,285      LLC-load-misses           #   19.84% of all LL-cache accesses  (50.12%)
    20.014023273        161,878,336      LLC-load-misses           #   29.57% of all LL-cache accesses  (50.12%)
    20.014023273         78,086,252      LLC-loads                 #    1.951 M/sec                    (50.12%)
    20.014023273        547,449,749      LLC-loads                 #   13.676 M/sec                    (41.65%)
    20.014023273            964,036      LLC-store-misses          #   24.082 K/sec                    (24.94%)
    20.014023273         92,921,344      LLC-store-misses          #    2.321 M/sec                    (33.26%)
    20.014023273         33,011,235      LLC-stores                #  824.650 K/sec                    (24.94%)
    20.014023273        251,729,015      LLC-stores                #    6.288 M/sec                    (33.25%)
    20.014023273          40,030.61 msec task-clock                #    8.006 CPUs utilized          
    20.014023273     14,061,334,274      cycles:u                  #    0.351 GHz                      (41.57%)
    20.014023273     93,431,142,161      cycles:k                  #    2.334 GHz                      (41.64%)
    20.014023273      8,530,127,172      instructions:u            #    0.61  insn per cycle           (50.03%)
    20.014023273     50,566,957,463      instructions:k            #    0.54  insn per cycle           (50.11%)
    25.018021851         15,495,605      LLC-load-misses           #   19.87% of all LL-cache accesses  (49.95%)
    25.018021851        161,838,156      LLC-load-misses           #   29.57% of all LL-cache accesses  (50.03%)
    25.018021851         77,971,701      LLC-loads                 #    1.948 M/sec                    (50.11%)
    25.018021851        547,237,917      LLC-loads                 #   13.670 M/sec                    (41.81%)
    25.018021851            962,615      LLC-store-misses          #   24.047 K/sec                    (25.03%)
    25.018021851         93,023,356      LLC-store-misses          #    2.324 M/sec                    (33.34%)
    25.018021851         32,870,798      LLC-stores                #  821.136 K/sec                    (24.94%)
    25.018021851        251,687,508      LLC-stores                #    6.287 M/sec                    (33.25%)
    25.018021851          40,030.87 msec task-clock                #    8.006 CPUs utilized          
    25.018021851     14,067,417,770      cycles:u                  #    0.351 GHz                      (41.57%)
    25.018021851     93,492,605,561      cycles:k                  #    2.336 GHz                      (41.56%)
    25.018021851      8,530,527,502      instructions:u            #    0.61  insn per cycle           (49.88%)
    25.018021851     50,611,006,304      instructions:k            #    0.54  insn per cycle           (49.88%)
    30.022016969         15,499,036      LLC-load-misses           #   19.90% of all LL-cache accesses  (49.88%)
    30.022016969        161,704,691      LLC-load-misses           #   29.56% of all LL-cache accesses  (49.88%)
    30.022016969         77,880,510      LLC-loads                 #    1.946 M/sec                    (49.88%)
    30.022016969        547,009,592      LLC-loads                 #   13.665 M/sec                    (41.64%)
    30.022016969            966,326      LLC-store-misses          #   24.140 K/sec                    (25.10%)
    30.022016969         93,073,127      LLC-store-misses          #    2.325 M/sec                    (33.49%)
    30.022016969         32,855,557      LLC-stores                #  820.757 K/sec                    (25.11%)
    30.022016969        251,630,528      LLC-stores                #    6.286 M/sec                    (33.42%)
    30.022016969          40,030.81 msec task-clock                #    8.006 CPUs utilized          
    30.022016969     14,061,008,076      cycles:u                  #    0.351 GHz                      (41.73%)
    30.022016969     93,472,243,640      cycles:k                  #    2.335 GHz                      (41.65%)
    30.022016969      8,530,648,645      instructions:u            #    0.61  insn per cycle           (49.96%)
    30.022016969     50,598,190,763      instructions:k            #    0.54  insn per cycle           (49.88%)
    35.026052386         12,346,898      LLC-load-misses           #   19.78% of all LL-cache accesses  (50.04%)
    35.026052386        129,148,145      LLC-load-misses           #   29.48% of all LL-cache accesses  (49.97%)
    35.026052386         62,434,731      LLC-loads                 #    1.560 M/sec                    (49.89%)
    35.026052386        438,122,179      LLC-loads                 #   10.944 M/sec                    (41.57%)
    35.026052386            773,110      LLC-store-misses          #   19.313 K/sec                    (24.94%)
    35.026052386         74,297,882      LLC-store-misses          #    1.856 M/sec                    (33.26%)
    35.026052386         25,948,440      LLC-stores                #  648.201 K/sec                    (25.01%)
    35.026052386        199,338,607      LLC-stores                #    4.980 M/sec                    (33.41%)
    35.026052386          40,031.48 msec task-clock                #    8.006 CPUs utilized          
    35.026052386     11,189,118,816      cycles:u                  #    0.280 GHz                      (41.80%)
    35.026052386     74,257,065,489      cycles:k                  #    1.855 GHz                      (41.80%)
    35.026052386      6,958,640,049      instructions:u            #    0.62  insn per cycle           (50.12%)
    35.026052386     40,273,375,015      instructions:k            #    0.54  insn per cycle           (50.12%)
    36.114597697             36,773      LLC-load-misses           #   14.23% of all LL-cache accesses  (49.94%)
    36.114597697            275,361      LLC-load-misses           #   21.24% of all LL-cache accesses  (50.30%)
    36.114597697            258,417      LLC-loads                 #   29.677 K/sec                    (50.67%)
    36.114597697          1,296,679      LLC-loads                 #  148.912 K/sec                    (42.26%)
    36.114597697                  7      LLC-store-misses          #    0.804 /sec                     (25.36%)
    36.114597697            341,582      LLC-store-misses          #   39.228 K/sec                    (33.53%)
    36.114597697              7,544      LLC-stores                #  866.360 /sec                     (24.71%)
    36.114597697            467,366      LLC-stores                #   53.673 K/sec                    (32.79%)
    36.114597697           8,707.70 msec task-clock                #    1.742 CPUs utilized          
    36.114597697        119,075,396      cycles:u                  #    0.014 GHz                      (40.88%)
    36.114597697        248,576,103      cycles:k                  #    0.029 GHz                      (40.83%)
    36.114597697        308,442,271      instructions:u            #    2.59  insn per cycle           (49.28%)
    36.114597697         37,648,709      instructions:k            #    0.15  insn per cycle           (49.56%)
