# started on Sat Apr  1 22:55:10 2023

#           time             counts unit events
     5.003658830          6,774,339      LLC-load-misses           #   20.07% of all LL-cache accesses  (49.90%)
     5.003658830         65,390,455      LLC-load-misses           #   27.81% of all LL-cache accesses  (49.98%)
     5.003658830         33,751,033      LLC-loads                 #  421.457 K/sec                    (50.06%)
     5.003658830        235,096,665      LLC-loads                 #    2.936 M/sec                    (41.82%)
     5.003658830            405,924      LLC-store-misses          #    5.069 K/sec                    (25.09%)
     5.003658830         35,252,858      LLC-store-misses          #  440.211 K/sec                    (33.40%)
     5.003658830         13,266,379      LLC-stores                #  165.660 K/sec                    (24.94%)
     5.003658830        105,885,291      LLC-stores                #    1.322 M/sec                    (33.25%)
     5.003658830          80,081.81 msec task-clock                #   16.016 CPUs utilized          
     5.003658830      5,533,015,856      cycles:u                  #    0.069 GHz                      (41.56%)
     5.003658830     38,623,877,033      cycles:k                  #    0.482 GHz                      (41.55%)
     5.003658830      3,652,130,877      instructions:u            #    0.66  insn per cycle           (49.86%)
     5.003658830     20,677,882,323      instructions:k            #    0.54  insn per cycle           (49.86%)
    10.007663336         32,812,823      LLC-load-misses           #   19.92% of all LL-cache accesses  (49.88%)
    10.007663336        315,908,790      LLC-load-misses           #   28.07% of all LL-cache accesses  (49.88%)
    10.007663336        164,755,420      LLC-loads                 #    2.058 M/sec                    (49.88%)
    10.007663336      1,125,532,141      LLC-loads                 #   14.059 M/sec                    (41.59%)
    10.007663336          1,942,762      LLC-store-misses          #   24.266 K/sec                    (25.04%)
    10.007663336        165,128,003      LLC-store-misses          #    2.063 M/sec                    (33.43%)
    10.007663336         68,946,259      LLC-stores                #  861.176 K/sec                    (25.15%)
    10.007663336        532,233,274      LLC-stores                #    6.648 M/sec                    (33.47%)
    10.007663336          80,060.58 msec task-clock                #   16.012 CPUs utilized          
    10.007663336     27,793,470,646      cycles:u                  #    0.347 GHz                      (41.79%)
    10.007663336    187,209,883,251      cycles:k                  #    2.338 GHz                      (41.71%)
    10.007663336     17,486,546,079      instructions:u            #    0.63  insn per cycle           (50.02%)
    10.007663336    102,662,388,955      instructions:k            #    0.55  insn per cycle           (49.94%)
    15.011661790         32,797,713      LLC-load-misses           #   19.90% of all LL-cache accesses  (50.10%)
    15.011661790        316,114,399      LLC-load-misses           #   28.08% of all LL-cache accesses  (50.02%)
    15.011661790        164,806,060      LLC-loads                 #    2.058 M/sec                    (49.95%)
    15.011661790      1,125,932,390      LLC-loads                 #   14.063 M/sec                    (41.57%)
    15.011661790          1,943,809      LLC-store-misses          #   24.279 K/sec                    (24.94%)
    15.011661790        165,802,849      LLC-store-misses          #    2.071 M/sec                    (33.26%)
    15.011661790         69,166,270      LLC-stores                #  863.911 K/sec                    (24.96%)
    15.011661790        533,119,825      LLC-stores                #    6.659 M/sec                    (33.35%)
    15.011661790          80,061.84 msec task-clock                #   16.012 CPUs utilized          
    15.011661790     27,796,880,841      cycles:u                  #    0.347 GHz                      (41.74%)
    15.011661790    187,180,149,257      cycles:k                  #    2.338 GHz                      (41.80%)
    15.011661790     17,480,687,083      instructions:u            #    0.63  insn per cycle           (50.12%)
    15.011661790    102,704,874,251      instructions:k            #    0.55  insn per cycle           (50.12%)
    20.015659038         32,802,259      LLC-load-misses           #   19.90% of all LL-cache accesses  (50.11%)
    20.015659038        316,052,045      LLC-load-misses           #   28.06% of all LL-cache accesses  (50.12%)
    20.015659038        164,858,433      LLC-loads                 #    2.059 M/sec                    (50.12%)
    20.015659038      1,126,448,085      LLC-loads                 #   14.070 M/sec                    (41.71%)
    20.015659038          1,943,917      LLC-store-misses          #   24.280 K/sec                    (24.94%)
    20.015659038        165,588,503      LLC-store-misses          #    2.068 M/sec                    (33.26%)
    20.015659038         69,247,537      LLC-stores                #  864.935 K/sec                    (24.94%)
    20.015659038        533,392,266      LLC-stores                #    6.662 M/sec                    (33.25%)
    20.015659038          80,060.96 msec task-clock                #   16.012 CPUs utilized          
    20.015659038     27,805,526,896      cycles:u                  #    0.347 GHz                      (41.57%)
    20.015659038    187,213,676,145      cycles:k                  #    2.338 GHz                      (41.58%)
    20.015659038     17,490,987,167      instructions:u            #    0.63  insn per cycle           (49.97%)
    20.015659038    102,758,178,670      instructions:k            #    0.55  insn per cycle           (50.05%)
    25.019658414         32,825,507      LLC-load-misses           #   19.90% of all LL-cache accesses  (49.90%)
    25.019658414        315,980,549      LLC-load-misses           #   28.06% of all LL-cache accesses  (49.97%)
    25.019658414        164,913,158      LLC-loads                 #    2.060 M/sec                    (50.05%)
    25.019658414      1,126,033,463      LLC-loads                 #   14.065 M/sec                    (41.80%)
    25.019658414          1,946,018      LLC-store-misses          #   24.306 K/sec                    (25.09%)
    25.019658414        165,567,029      LLC-store-misses          #    2.068 M/sec                    (33.40%)
    25.019658414         69,175,690      LLC-stores                #  864.029 K/sec                    (24.95%)
    25.019658414        533,220,971      LLC-stores                #    6.660 M/sec                    (33.26%)
    25.019658414          80,061.78 msec task-clock                #   16.012 CPUs utilized          
    25.019658414     27,821,513,481      cycles:u                  #    0.348 GHz                      (41.57%)
    25.019658414    187,243,463,700      cycles:k                  #    2.339 GHz                      (41.56%)
    25.019658414     17,499,162,288      instructions:u            #    0.63  insn per cycle           (49.88%)
    25.019658414    102,792,744,936      instructions:k            #    0.55  insn per cycle           (49.88%)
    30.023663611         32,818,232      LLC-load-misses           #   19.89% of all LL-cache accesses  (49.88%)
    30.023663611        316,018,574      LLC-load-misses           #   28.05% of all LL-cache accesses  (49.88%)
    30.023663611        165,036,643      LLC-loads                 #    2.061 M/sec                    (49.88%)
    30.023663611      1,126,625,782      LLC-loads                 #   14.072 M/sec                    (41.59%)
    30.023663611          1,941,821      LLC-store-misses          #   24.254 K/sec                    (25.04%)
    30.023663611        165,388,293      LLC-store-misses          #    2.066 M/sec                    (33.43%)
    30.023663611         69,239,863      LLC-stores                #  864.832 K/sec                    (25.16%)
    30.023663611        533,271,764      LLC-stores                #    6.661 M/sec                    (33.47%)
    30.023663611          80,061.61 msec task-clock                #   16.012 CPUs utilized          
    30.023663611     27,811,029,171      cycles:u                  #    0.347 GHz                      (41.79%)
    30.023663611    187,236,013,720      cycles:k                  #    2.339 GHz                      (41.71%)
    30.023663611     17,491,462,951      instructions:u            #    0.63  insn per cycle           (50.02%)
    30.023663611    102,761,303,368      instructions:k            #    0.55  insn per cycle           (49.94%)
    35.027731052         26,185,381      LLC-load-misses           #   19.82% of all LL-cache accesses  (50.10%)
    35.027731052        252,467,917      LLC-load-misses           #   27.95% of all LL-cache accesses  (50.03%)
    35.027731052        132,127,969      LLC-loads                 #    1.650 M/sec                    (49.95%)
    35.027731052        903,392,809      LLC-loads                 #   11.283 M/sec                    (41.57%)
    35.027731052          1,553,815      LLC-store-misses          #   19.407 K/sec                    (24.94%)
    35.027731052        133,208,878      LLC-store-misses          #    1.664 M/sec                    (33.25%)
    35.027731052         55,382,648      LLC-stores                #  691.737 K/sec                    (24.96%)
    35.027731052        428,059,200      LLC-stores                #    5.347 M/sec                    (33.35%)
    35.027731052          80,063.19 msec task-clock                #   16.013 CPUs utilized          
    35.027731052     22,499,987,417      cycles:u                  #    0.281 GHz                      (41.74%)
    35.027731052    149,888,973,761      cycles:k                  #    1.872 GHz                      (41.80%)
    35.027731052     14,535,782,358      instructions:u            #    0.65  insn per cycle           (50.12%)
    35.027731052     82,205,855,486      instructions:k            #    0.55  insn per cycle           (50.12%)
    36.255552679             48,601      LLC-load-misses           #   19.84% of all LL-cache accesses  (49.90%)
    36.255552679            609,651      LLC-load-misses           #   23.87% of all LL-cache accesses  (50.22%)
    36.255552679            244,949      LLC-loads                 #   12.470 K/sec                    (50.54%)
    36.255552679          2,553,784      LLC-loads                 #  130.010 K/sec                    (42.35%)
    36.255552679              4,412      LLC-store-misses          #  224.609 /sec                     (25.34%)
    36.255552679            777,435      LLC-store-misses          #   39.578 K/sec                    (33.49%)
    36.255552679              2,956      LLC-stores                #  150.486 /sec                     (24.69%)
    36.255552679          1,033,281      LLC-stores                #   52.603 K/sec                    (32.84%)
    36.255552679          19,643.00 msec task-clock                #    3.929 CPUs utilized          
    36.255552679         67,565,402      cycles:u                  #    0.003 GHz                      (40.98%)
    36.255552679        515,276,744      cycles:k                  #    0.026 GHz                      (40.81%)
    36.255552679         82,804,512      instructions:u            #    1.23  insn per cycle           (49.25%)
    36.255552679         69,627,648      instructions:k            #    0.14  insn per cycle           (49.56%)
