# started on Sat Apr  1 22:56:38 2023

#           time             counts unit events
     5.004628400            938,906      LLC-load-misses           #   19.60% of all LL-cache accesses  (49.88%)
     5.004628400          8,584,842      LLC-load-misses           #   28.85% of all LL-cache accesses  (49.96%)
     5.004628400          4,789,372      LLC-loads                 #  478.493 K/sec                    (50.05%)
     5.004628400         29,755,848      LLC-loads                 #    2.973 M/sec                    (41.82%)
     5.004628400             56,169      LLC-store-misses          #    5.612 K/sec                    (25.10%)
     5.004628400          5,225,783      LLC-store-misses          #  522.093 K/sec                    (33.42%)
     5.004628400          2,019,786      LLC-stores                #  201.791 K/sec                    (24.94%)
     5.004628400         12,299,573      LLC-stores                #    1.229 M/sec                    (33.25%)
     5.004628400          10,009.29 msec task-clock                #    2.002 CPUs utilized          
     5.004628400        845,043,413      cycles:u                  #    0.084 GHz                      (41.56%)
     5.004628400      5,737,477,253      cycles:k                  #    0.573 GHz                      (41.55%)
     5.004628400        551,052,804      instructions:u            #    0.65  insn per cycle           (49.87%)
     5.004628400      3,219,230,127      instructions:k            #    0.56  insn per cycle           (49.86%)
    10.008628395          3,866,276      LLC-load-misses           #   19.45% of all LL-cache accesses  (49.88%)
    10.008628395         35,075,760      LLC-load-misses           #   28.53% of all LL-cache accesses  (49.88%)
    10.008628395         19,872,923      LLC-loads                 #    1.986 M/sec                    (49.88%)
    10.008628395        122,921,917      LLC-loads                 #   12.283 M/sec                    (41.57%)
    10.008628395            248,219      LLC-store-misses          #   24.803 K/sec                    (25.02%)
    10.008628395         21,330,636      LLC-store-misses          #    2.131 M/sec                    (33.41%)
    10.008628395          8,941,013      LLC-stores                #  893.418 K/sec                    (25.18%)
    10.008628395         49,792,405      LLC-stores                #    4.975 M/sec                    (33.49%)
    10.008628395          10,007.64 msec task-clock                #    2.002 CPUs utilized          
    10.008628395      3,540,004,940      cycles:u                  #    0.354 GHz                      (41.81%)
    10.008628395     23,344,539,526      cycles:k                  #    2.333 GHz                      (41.73%)
    10.008628395      2,164,179,837      instructions:u            #    0.61  insn per cycle           (50.04%)
    10.008628395     13,087,723,123      instructions:k            #    0.56  insn per cycle           (49.96%)
    15.012629763          3,868,306      LLC-load-misses           #   19.49% of all LL-cache accesses  (50.12%)
    15.012629763         35,106,775      LLC-load-misses           #   28.61% of all LL-cache accesses  (50.04%)
    15.012629763         19,851,739      LLC-loads                 #    1.984 M/sec                    (49.96%)
    15.012629763        122,703,157      LLC-loads                 #   12.261 M/sec                    (41.57%)
    15.012629763            249,655      LLC-store-misses          #   24.946 K/sec                    (24.94%)
    15.012629763         21,342,216      LLC-store-misses          #    2.133 M/sec                    (33.26%)
    15.012629763          8,966,657      LLC-stores                #  895.975 K/sec                    (24.94%)
    15.012629763         49,917,757      LLC-stores                #    4.988 M/sec                    (33.33%)
    15.012629763          10,007.71 msec task-clock                #    2.002 CPUs utilized          
    15.012629763      3,542,700,740      cycles:u                  #    0.354 GHz                      (41.72%)
    15.012629763     23,345,524,144      cycles:k                  #    2.333 GHz                      (41.80%)
    15.012629763      2,170,469,119      instructions:u            #    0.61  insn per cycle           (50.12%)
    15.012629763     13,105,188,569      instructions:k            #    0.56  insn per cycle           (50.12%)
    20.016625937          3,860,122      LLC-load-misses           #   19.37% of all LL-cache accesses  (50.11%)
    20.016625937         35,059,371      LLC-load-misses           #   28.59% of all LL-cache accesses  (50.12%)
    20.016625937         19,928,024      LLC-loads                 #    1.991 M/sec                    (50.12%)
    20.016625937        122,631,838      LLC-loads                 #   12.254 M/sec                    (41.73%)
    20.016625937            248,366      LLC-store-misses          #   24.818 K/sec                    (24.94%)
    20.016625937         21,379,664      LLC-store-misses          #    2.136 M/sec                    (33.26%)
    20.016625937          9,056,807      LLC-stores                #  904.989 K/sec                    (24.94%)
    20.016625937         50,097,435      LLC-stores                #    5.006 M/sec                    (33.25%)
    20.016625937          10,007.64 msec task-clock                #    2.002 CPUs utilized          
    20.016625937      3,545,652,703      cycles:u                  #    0.354 GHz                      (41.57%)
    20.016625937     23,339,314,460      cycles:k                  #    2.332 GHz                      (41.56%)
    20.016625937      2,163,955,021      instructions:u            #    0.61  insn per cycle           (49.95%)
    20.016625937     13,119,093,810      instructions:k            #    0.56  insn per cycle           (50.03%)
    25.020628709          3,855,180      LLC-load-misses           #   19.40% of all LL-cache accesses  (49.88%)
    25.020628709         35,090,028      LLC-load-misses           #   28.68% of all LL-cache accesses  (49.96%)
    25.020628709         19,868,376      LLC-loads                 #    1.985 M/sec                    (50.04%)
    25.020628709        122,331,642      LLC-loads                 #   12.224 M/sec                    (41.81%)
    25.020628709            248,841      LLC-store-misses          #   24.865 K/sec                    (25.11%)
    25.020628709         21,302,156      LLC-store-misses          #    2.129 M/sec                    (33.42%)
    25.020628709          9,051,943      LLC-stores                #  904.501 K/sec                    (24.94%)
    25.020628709         50,046,081      LLC-stores                #    5.001 M/sec                    (33.26%)
    25.020628709          10,007.66 msec task-clock                #    2.002 CPUs utilized          
    25.020628709      3,543,132,644      cycles:u                  #    0.354 GHz                      (41.57%)
    25.020628709     23,345,884,599      cycles:k                  #    2.333 GHz                      (41.56%)
    25.020628709      2,164,690,177      instructions:u            #    0.61  insn per cycle           (49.88%)
    25.020628709     13,129,376,540      instructions:k            #    0.56  insn per cycle           (49.88%)
    30.024628346          3,852,146      LLC-load-misses           #   19.44% of all LL-cache accesses  (49.88%)
    30.024628346         35,036,238      LLC-load-misses           #   28.70% of all LL-cache accesses  (49.88%)
    30.024628346         19,815,959      LLC-loads                 #    1.980 M/sec                    (49.88%)
    30.024628346        122,060,246      LLC-loads                 #   12.197 M/sec                    (41.57%)
    30.024628346            246,870      LLC-store-misses          #   24.668 K/sec                    (25.02%)
    30.024628346         21,386,201      LLC-store-misses          #    2.137 M/sec                    (33.41%)
    30.024628346          8,972,524      LLC-stores                #  896.562 K/sec                    (25.18%)
    30.024628346         50,023,163      LLC-stores                #    4.998 M/sec                    (33.49%)
    30.024628346          10,007.70 msec task-clock                #    2.002 CPUs utilized          
    30.024628346      3,545,493,965      cycles:u                  #    0.354 GHz                      (41.81%)
    30.024628346     23,342,949,384      cycles:k                  #    2.332 GHz                      (41.72%)
    30.024628346      2,161,479,883      instructions:u            #    0.61  insn per cycle           (50.04%)
    30.024628346     13,127,561,715      instructions:k            #    0.56  insn per cycle           (49.96%)
    35.028656598          2,990,087      LLC-load-misses           #   19.48% of all LL-cache accesses  (50.12%)
    35.028656598         27,015,957      LLC-load-misses           #   28.62% of all LL-cache accesses  (50.04%)
    35.028656598         15,352,251      LLC-loads                 #    1.534 M/sec                    (49.96%)
    35.028656598         94,387,271      LLC-loads                 #    9.431 M/sec                    (41.57%)
    35.028656598            213,948      LLC-store-misses          #   21.378 K/sec                    (24.94%)
    35.028656598         16,574,136      LLC-store-misses          #    1.656 M/sec                    (33.26%)
    35.028656598          6,888,641      LLC-stores                #  688.323 K/sec                    (24.94%)
    35.028656598         38,750,555      LLC-stores                #    3.872 M/sec                    (33.33%)
    35.028656598          10,007.87 msec task-clock                #    2.002 CPUs utilized          
    35.028656598      2,739,522,400      cycles:u                  #    0.274 GHz                      (41.72%)
    35.028656598     17,995,318,938      cycles:k                  #    1.798 GHz                      (41.80%)
    35.028656598      1,664,694,480      instructions:u            #    0.61  insn per cycle           (50.12%)
    35.028656598     10,102,144,663      instructions:k            #    0.56  insn per cycle           (50.12%)
    35.986808849                990      LLC-load-misses           #    1.10% of all LL-cache accesses  (49.90%)
    35.986808849             75,598      LLC-load-misses           #   21.58% of all LL-cache accesses  (49.90%)
    35.986808849             89,990      LLC-loads                 #   46.966 K/sec                    (49.90%)
    35.986808849            350,361      LLC-loads                 #  182.853 K/sec                    (41.76%)
    35.986808849                  3      LLC-store-misses          #    1.566 /sec                     (25.05%)
    35.986808849             93,579      LLC-store-misses          #   48.839 K/sec                    (33.40%)
    35.986808849             14,409      LLC-stores                #    7.520 K/sec                    (25.05%)
    35.986808849            195,811      LLC-stores                #  102.194 K/sec                    (33.40%)
    35.986808849           1,916.08 msec task-clock                #    0.383 CPUs utilized          
    35.986808849         11,320,506      cycles:u                  #    0.006 GHz                      (41.74%)
    35.986808849         66,167,180      cycles:k                  #    0.035 GHz                      (41.57%)
    35.986808849         10,668,938      instructions:u            #    0.94  insn per cycle           (49.89%)
    35.986808849         17,623,266      instructions:k            #    0.27  insn per cycle           (49.89%)
