# started on Sat Apr  1 22:52:35 2023

#           time             counts unit events
     5.004778538          1,808,470      LLC-load-misses           #   20.13% of all LL-cache accesses  (49.88%)
     5.004778538         18,114,232      LLC-load-misses           #   28.55% of all LL-cache accesses  (49.96%)
     5.004778538          8,983,576      LLC-loads                 #  448.737 K/sec                    (50.05%)
     5.004778538         63,444,173      LLC-loads                 #    3.169 M/sec                    (41.82%)
     5.004778538            118,271      LLC-store-misses          #    5.908 K/sec                    (25.10%)
     5.004778538         10,631,695      LLC-store-misses          #  531.062 K/sec                    (33.42%)
     5.004778538          3,580,116      LLC-stores                #  178.830 K/sec                    (24.94%)
     5.004778538         28,008,967      LLC-stores                #    1.399 M/sec                    (33.25%)
     5.004778538          20,019.68 msec task-clock                #    4.004 CPUs utilized          
     5.004778538      1,740,176,797      cycles:u                  #    0.087 GHz                      (41.56%)
     5.004778538     11,078,981,875      cycles:k                  #    0.553 GHz                      (41.55%)
     5.004778538      1,263,321,738      instructions:u            #    0.73  insn per cycle           (49.86%)
     5.004778538      5,978,115,978      instructions:k            #    0.54  insn per cycle           (49.86%)
    10.008781555          7,621,099      LLC-load-misses           #   19.98% of all LL-cache accesses  (49.88%)
    10.008781555         75,928,910      LLC-load-misses           #   28.78% of all LL-cache accesses  (49.88%)
    10.008781555         38,146,197      LLC-loads                 #    1.906 M/sec                    (49.88%)
    10.008781555        263,824,723      LLC-loads                 #   13.181 M/sec                    (41.57%)
    10.008781555            485,196      LLC-store-misses          #   24.241 K/sec                    (25.02%)
    10.008781555         43,937,532      LLC-store-misses          #    2.195 M/sec                    (33.41%)
    10.008781555         16,051,997      LLC-stores                #  801.982 K/sec                    (25.18%)
    10.008781555        120,192,293      LLC-stores                #    6.005 M/sec                    (33.49%)
    10.008781555          20,015.40 msec task-clock                #    4.003 CPUs utilized          
    10.008781555      7,096,013,419      cycles:u                  #    0.355 GHz                      (41.81%)
    10.008781555     46,667,698,942      cycles:k                  #    2.332 GHz                      (41.73%)
    10.008781555      4,245,536,824      instructions:u            #    0.60  insn per cycle           (50.04%)
    10.008781555     25,584,874,166      instructions:k            #    0.55  insn per cycle           (49.96%)
    15.012782444          7,603,239      LLC-load-misses           #   19.98% of all LL-cache accesses  (50.12%)
    15.012782444         75,929,649      LLC-load-misses           #   28.93% of all LL-cache accesses  (50.04%)
    15.012782444         38,049,426      LLC-loads                 #    1.901 M/sec                    (49.96%)
    15.012782444        262,425,688      LLC-loads                 #   13.111 M/sec                    (41.57%)
    15.012782444            481,913      LLC-store-misses          #   24.077 K/sec                    (24.94%)
    15.012782444         44,075,211      LLC-store-misses          #    2.202 M/sec                    (33.26%)
    15.012782444         16,091,516      LLC-stores                #  803.959 K/sec                    (24.94%)
    15.012782444        120,561,225      LLC-stores                #    6.023 M/sec                    (33.33%)
    15.012782444          20,015.34 msec task-clock                #    4.003 CPUs utilized          
    15.012782444      7,092,900,296      cycles:u                  #    0.354 GHz                      (41.72%)
    15.012782444     46,684,314,727      cycles:k                  #    2.332 GHz                      (41.80%)
    15.012782444      4,239,647,340      instructions:u            #    0.60  insn per cycle           (50.12%)
    15.012782444     25,646,995,739      instructions:k            #    0.55  insn per cycle           (50.12%)
    20.016779981          7,608,460      LLC-load-misses           #   19.98% of all LL-cache accesses  (50.11%)
    20.016779981         75,946,736      LLC-load-misses           #   28.89% of all LL-cache accesses  (50.12%)
    20.016779981         38,072,203      LLC-loads                 #    1.902 M/sec                    (50.12%)
    20.016779981        262,883,317      LLC-loads                 #   13.134 M/sec                    (41.73%)
    20.016779981            482,203      LLC-store-misses          #   24.092 K/sec                    (24.94%)
    20.016779981         44,054,606      LLC-store-misses          #    2.201 M/sec                    (33.26%)
    20.016779981         16,077,949      LLC-stores                #  803.286 K/sec                    (24.94%)
    20.016779981        120,543,822      LLC-stores                #    6.023 M/sec                    (33.25%)
    20.016779981          20,015.23 msec task-clock                #    4.003 CPUs utilized          
    20.016779981      7,092,740,314      cycles:u                  #    0.354 GHz                      (41.57%)
    20.016779981     46,674,303,940      cycles:k                  #    2.332 GHz                      (41.56%)
    20.016779981      4,237,104,404      instructions:u            #    0.60  insn per cycle           (49.95%)
    20.016779981     25,643,413,643      instructions:k            #    0.55  insn per cycle           (50.03%)
    25.020778278          7,593,262      LLC-load-misses           #   19.98% of all LL-cache accesses  (49.88%)
    25.020778278         75,871,233      LLC-load-misses           #   28.90% of all LL-cache accesses  (49.95%)
    25.020778278         37,997,561      LLC-loads                 #    1.898 M/sec                    (50.04%)
    25.020778278        262,567,886      LLC-loads                 #   13.118 M/sec                    (41.80%)
    25.020778278            483,292      LLC-store-misses          #   24.146 K/sec                    (25.11%)
    25.020778278         44,098,996      LLC-store-misses          #    2.203 M/sec                    (33.42%)
    25.020778278         16,077,312      LLC-stores                #  803.251 K/sec                    (24.94%)
    25.020778278        120,552,634      LLC-stores                #    6.023 M/sec                    (33.26%)
    25.020778278          20,015.31 msec task-clock                #    4.003 CPUs utilized          
    25.020778278      7,091,520,720      cycles:u                  #    0.354 GHz                      (41.57%)
    25.020778278     46,685,562,696      cycles:k                  #    2.332 GHz                      (41.56%)
    25.020778278      4,236,417,686      instructions:u            #    0.60  insn per cycle           (49.88%)
    25.020778278     25,650,330,671      instructions:k            #    0.55  insn per cycle           (49.88%)
    30.024783730          7,597,825      LLC-load-misses           #   19.96% of all LL-cache accesses  (49.88%)
    30.024783730         75,892,183      LLC-load-misses           #   28.87% of all LL-cache accesses  (49.88%)
    30.024783730         38,064,008      LLC-loads                 #    1.902 M/sec                    (49.88%)
    30.024783730        262,891,862      LLC-loads                 #   13.134 M/sec                    (41.57%)
    30.024783730            482,084      LLC-store-misses          #   24.086 K/sec                    (25.02%)
    30.024783730         43,988,874      LLC-store-misses          #    2.198 M/sec                    (33.41%)
    30.024783730         16,077,914      LLC-stores                #  803.278 K/sec                    (25.18%)
    30.024783730        120,322,249      LLC-stores                #    6.011 M/sec                    (33.49%)
    30.024783730          20,015.39 msec task-clock                #    4.003 CPUs utilized          
    30.024783730      7,089,864,168      cycles:u                  #    0.354 GHz                      (41.81%)
    30.024783730     46,686,097,730      cycles:k                  #    2.333 GHz                      (41.73%)
    30.024783730      4,234,882,839      instructions:u            #    0.60  insn per cycle           (50.04%)
    30.024783730     25,643,719,188      instructions:k            #    0.55  insn per cycle           (49.96%)
    35.028806529          5,836,094      LLC-load-misses           #   19.92% of all LL-cache accesses  (50.12%)
    35.028806529         58,425,399      LLC-load-misses           #   28.77% of all LL-cache accesses  (50.04%)
    35.028806529         29,297,787      LLC-loads                 #    1.464 M/sec                    (49.96%)
    35.028806529        203,045,813      LLC-loads                 #   10.144 M/sec                    (41.57%)
    35.028806529            373,030      LLC-store-misses          #   18.637 K/sec                    (24.94%)
    35.028806529         34,101,476      LLC-store-misses          #    1.704 M/sec                    (33.26%)
    35.028806529         12,398,598      LLC-stores                #  619.443 K/sec                    (24.94%)
    35.028806529         93,362,308      LLC-stores                #    4.664 M/sec                    (33.33%)
    35.028806529          20,015.73 msec task-clock                #    4.003 CPUs utilized          
    35.028806529      5,488,923,402      cycles:u                  #    0.274 GHz                      (41.72%)
    35.028806529     36,057,868,869      cycles:k                  #    1.801 GHz                      (41.80%)
    35.028806529      3,273,652,964      instructions:u            #    0.60  insn per cycle           (50.12%)
    35.028806529     19,794,232,146      instructions:k            #    0.55  insn per cycle           (50.12%)
    35.974450148              2,250      LLC-load-misses           #   71.79% of all LL-cache accesses  (49.46%)
    35.974450148            123,510      LLC-load-misses           #   28.26% of all LL-cache accesses  (49.89%)
    35.974450148              3,134      LLC-loads                 #  828.624 /sec                     (50.31%)
    35.974450148            437,093      LLC-loads                 #  115.567 K/sec                    (42.31%)
    35.974450148                  0      LLC-store-misses          #    0.000 /sec                     (25.38%)
    35.974450148            147,486      LLC-store-misses          #   38.995 K/sec                    (33.85%)
    35.974450148                294      LLC-stores                #   77.733 /sec                     (25.16%)
    35.974450148            195,479      LLC-stores                #   51.684 K/sec                    (33.19%)
    35.974450148           3,782.18 msec task-clock                #    0.756 CPUs utilized          
    35.974450148            167,536      cycles:u                  #    0.000 GHz                      (41.23%)
    35.974450148         97,320,610      cycles:k                  #    0.026 GHz                      (40.81%)
    35.974450148            390,838      instructions:u            #    2.33  insn per cycle           (49.23%)
    35.974450148          9,751,945      instructions:k            #    0.10  insn per cycle           (49.23%)
