# started on Sun Apr  2 00:06:52 2023

#           time             counts unit events
     5.003885923            909,472      LLC-load-misses           #   18.95% of all LL-cache accesses  (49.92%)
     5.003885923          9,409,746      LLC-load-misses           #   31.49% of all LL-cache accesses  (50.00%)
     5.003885923          4,798,687      LLC-loads                 #  479.442 K/sec                    (50.08%)
     5.003885923         29,877,945      LLC-loads                 #    2.985 M/sec                    (41.82%)
     5.003885923             72,579      LLC-store-misses          #    7.251 K/sec                    (25.07%)
     5.003885923          5,990,668      LLC-store-misses          #  598.534 K/sec                    (33.38%)
     5.003885923          1,849,175      LLC-stores                #  184.753 K/sec                    (24.94%)
     5.003885923         12,334,351      LLC-stores                #    1.232 M/sec                    (33.25%)
     5.003885923          10,008.91 msec task-clock                #    2.002 CPUs utilized          
     5.003885923        782,391,382      cycles:u                  #    0.078 GHz                      (41.56%)
     5.003885923      5,616,166,261      cycles:k                  #    0.561 GHz                      (41.56%)
     5.003885923        498,204,384      instructions:u            #    0.64  insn per cycle           (49.87%)
     5.003885923      3,112,581,699      instructions:k            #    0.55  insn per cycle           (49.87%)
    10.007882695          3,877,200      LLC-load-misses           #   19.10% of all LL-cache accesses  (49.88%)
    10.007882695         39,610,959      LLC-load-misses           #   32.03% of all LL-cache accesses  (49.88%)
    10.007882695         20,304,754      LLC-loads                 #    2.029 M/sec                    (49.88%)
    10.007882695        123,651,849      LLC-loads                 #   12.356 M/sec                    (41.61%)
    10.007882695            250,278      LLC-store-misses          #   25.009 K/sec                    (25.06%)
    10.007882695         23,736,874      LLC-store-misses          #    2.372 M/sec                    (33.45%)
    10.007882695          8,204,017      LLC-stores                #  819.774 K/sec                    (25.14%)
    10.007882695         51,269,501      LLC-stores                #    5.123 M/sec                    (33.45%)
    10.007882695          10,007.65 msec task-clock                #    2.002 CPUs utilized          
    10.007882695      3,384,154,153      cycles:u                  #    0.338 GHz                      (41.77%)
    10.007882695     23,505,893,116      cycles:k                  #    2.349 GHz                      (41.69%)
    10.007882695      2,174,404,708      instructions:u            #    0.64  insn per cycle           (50.00%)
    10.007882695     13,171,224,461      instructions:k            #    0.56  insn per cycle           (49.92%)
    15.011885311          3,875,950      LLC-load-misses           #   19.07% of all LL-cache accesses  (50.08%)
    15.011885311         39,700,648      LLC-load-misses           #   32.08% of all LL-cache accesses  (50.00%)
    15.011885311         20,324,099      LLC-loads                 #    2.031 M/sec                    (49.92%)
    15.011885311        123,765,771      LLC-loads                 #   12.367 M/sec                    (41.57%)
    15.011885311            249,302      LLC-store-misses          #   24.911 K/sec                    (24.94%)
    15.011885311         23,792,904      LLC-store-misses          #    2.377 M/sec                    (33.26%)
    15.011885311          8,157,199      LLC-stores                #  815.094 K/sec                    (24.98%)
    15.011885311         51,572,400      LLC-stores                #    5.153 M/sec                    (33.37%)
    15.011885311          10,007.68 msec task-clock                #    2.002 CPUs utilized          
    15.011885311      3,387,770,593      cycles:u                  #    0.339 GHz                      (41.76%)
    15.011885311     23,500,372,895      cycles:k                  #    2.348 GHz                      (41.80%)
    15.011885311      2,179,747,093      instructions:u            #    0.64  insn per cycle           (50.12%)
    15.011885311     13,178,864,911      instructions:k            #    0.56  insn per cycle           (50.12%)
    20.015885368          3,864,518      LLC-load-misses           #   19.17% of all LL-cache accesses  (50.12%)
    20.015885368         39,631,369      LLC-load-misses           #   32.12% of all LL-cache accesses  (50.12%)
    20.015885368         20,161,762      LLC-loads                 #    2.015 M/sec                    (50.12%)
    20.015885368        123,397,707      LLC-loads                 #   12.330 M/sec                    (41.69%)
    20.015885368            250,275      LLC-store-misses          #   25.008 K/sec                    (24.94%)
    20.015885368         23,774,414      LLC-store-misses          #    2.376 M/sec                    (33.26%)
    20.015885368          8,227,053      LLC-stores                #  822.074 K/sec                    (24.94%)
    20.015885368         51,551,047      LLC-stores                #    5.151 M/sec                    (33.25%)
    20.015885368          10,007.68 msec task-clock                #    2.002 CPUs utilized          
    20.015885368      3,388,590,666      cycles:u                  #    0.339 GHz                      (41.57%)
    20.015885368     23,493,532,867      cycles:k                  #    2.348 GHz                      (41.60%)
    20.015885368      2,170,666,195      instructions:u            #    0.64  insn per cycle           (49.99%)
    20.015885368     13,192,741,987      instructions:k            #    0.56  insn per cycle           (50.07%)
    25.019883748          3,863,089      LLC-load-misses           #   19.18% of all LL-cache accesses  (49.92%)
    25.019883748         39,604,354      LLC-load-misses           #   32.10% of all LL-cache accesses  (50.00%)
    25.019883748         20,145,537      LLC-loads                 #    2.013 M/sec                    (50.08%)
    25.019883748        123,389,929      LLC-loads                 #   12.330 M/sec                    (41.81%)
    25.019883748            249,640      LLC-store-misses          #   24.945 K/sec                    (25.07%)
    25.019883748         23,896,129      LLC-store-misses          #    2.388 M/sec                    (33.38%)
    25.019883748          8,200,312      LLC-stores                #  819.401 K/sec                    (24.94%)
    25.019883748         51,559,406      LLC-stores                #    5.152 M/sec                    (33.25%)
    25.019883748          10,007.69 msec task-clock                #    2.002 CPUs utilized          
    25.019883748      3,387,694,003      cycles:u                  #    0.339 GHz                      (41.57%)
    25.019883748     23,502,119,732      cycles:k                  #    2.348 GHz                      (41.56%)
    25.019883748      2,168,805,269      instructions:u            #    0.64  insn per cycle           (49.88%)
    25.019883748     13,189,621,460      instructions:k            #    0.56  insn per cycle           (49.88%)
    30.023885516          3,858,605      LLC-load-misses           #   19.13% of all LL-cache accesses  (49.88%)
    30.023885516         39,630,443      LLC-load-misses           #   32.14% of all LL-cache accesses  (49.88%)
    30.023885516         20,168,704      LLC-loads                 #    2.015 M/sec                    (49.88%)
    30.023885516        123,289,600      LLC-loads                 #   12.320 M/sec                    (41.61%)
    30.023885516            249,929      LLC-store-misses          #   24.974 K/sec                    (25.06%)
    30.023885516         23,846,158      LLC-store-misses          #    2.383 M/sec                    (33.45%)
    30.023885516          8,181,448      LLC-stores                #  817.519 K/sec                    (25.14%)
    30.023885516         51,626,402      LLC-stores                #    5.159 M/sec                    (33.45%)
    30.023885516          10,007.66 msec task-clock                #    2.002 CPUs utilized          
    30.023885516      3,388,721,675      cycles:u                  #    0.339 GHz                      (41.77%)
    30.023885516     23,500,540,489      cycles:k                  #    2.348 GHz                      (41.69%)
    30.023885516      2,171,654,773      instructions:u            #    0.64  insn per cycle           (50.00%)
    30.023885516     13,197,280,093      instructions:k            #    0.56  insn per cycle           (49.92%)
    35.027908557          2,998,410      LLC-load-misses           #   19.10% of all LL-cache accesses  (50.08%)
    35.027908557         30,660,229      LLC-load-misses           #   32.09% of all LL-cache accesses  (50.00%)
    35.027908557         15,697,552      LLC-loads                 #    1.569 M/sec                    (49.92%)
    35.027908557         95,547,399      LLC-loads                 #    9.547 M/sec                    (41.57%)
    35.027908557            212,499      LLC-store-misses          #   21.233 K/sec                    (24.94%)
    35.027908557         18,555,785      LLC-store-misses          #    1.854 M/sec                    (33.25%)
    35.027908557          6,369,326      LLC-stores                #  636.429 K/sec                    (24.98%)
    35.027908557         40,062,422      LLC-stores                #    4.003 M/sec                    (33.37%)
    35.027908557          10,007.91 msec task-clock                #    2.002 CPUs utilized          
    35.027908557      2,625,522,512      cycles:u                  #    0.262 GHz                      (41.76%)
    35.027908557     18,202,969,308      cycles:k                  #    1.819 GHz                      (41.80%)
    35.027908557      1,679,705,571      instructions:u            #    0.64  insn per cycle           (50.12%)
    35.027908557     10,220,895,335      instructions:k            #    0.56  insn per cycle           (50.12%)
    36.016750167                809      LLC-load-misses           #   60.92% of all LL-cache accesses  (49.93%)
    36.016750167             68,569      LLC-load-misses           #   28.66% of all LL-cache accesses  (50.34%)
    36.016750167              1,328      LLC-loads                 #  671.549 /sec                     (50.75%)
    36.016750167            239,255      LLC-loads                 #  120.988 K/sec                    (42.48%)
    36.016750167                 15      LLC-store-misses          #    7.585 /sec                     (25.34%)
    36.016750167             79,390      LLC-store-misses          #   40.146 K/sec                    (33.48%)
    36.016750167                126      LLC-stores                #   63.716 /sec                     (24.58%)
    36.016750167            104,458      LLC-stores                #   52.823 K/sec                    (32.67%)
    36.016750167           1,977.52 msec task-clock                #    0.396 CPUs utilized          
    36.016750167             91,242      cycles:u                  #    0.000 GHz                      (40.76%)
    36.016750167         50,719,568      cycles:k                  #    0.026 GHz                      (40.69%)
    36.016750167            355,864      instructions:u            #    3.90  insn per cycle           (49.17%)
    36.016750167          5,086,178      instructions:k            #    0.10  insn per cycle           (49.53%)
