# started on Sat Apr  1 23:05:58 2023

#           time             counts unit events
     5.002441414          6,922,647      LLC-load-misses           #   19.20% of all LL-cache accesses  (49.94%)
     5.002441414         65,254,288      LLC-load-misses           #   26.55% of all LL-cache accesses  (50.02%)
     5.002441414         36,063,817      LLC-loads                 #  450.498 K/sec                    (50.10%)
     5.002441414        245,807,924      LLC-loads                 #    3.071 M/sec                    (41.81%)
     5.002441414            400,440      LLC-store-misses          #    5.002 K/sec                    (25.04%)
     5.002441414         35,061,721      LLC-store-misses          #  437.980 K/sec                    (33.35%)
     5.002441414         13,695,849      LLC-stores                #  171.084 K/sec                    (24.94%)
     5.002441414        112,127,753      LLC-stores                #    1.401 M/sec                    (33.26%)
     5.002441414          80,053.19 msec task-clock                #   16.011 CPUs utilized          
     5.002441414      6,377,383,739      cycles:u                  #    0.080 GHz                      (41.57%)
     5.002441414     39,827,258,471      cycles:k                  #    0.498 GHz                      (41.56%)
     5.002441414      4,819,316,640      instructions:u            #    0.76  insn per cycle           (49.88%)
     5.002441414     21,548,470,694      instructions:k            #    0.54  insn per cycle           (49.88%)
    10.006444239         32,584,196      LLC-load-misses           #   19.41% of all LL-cache accesses  (49.88%)
    10.006444239        305,807,414      LLC-load-misses           #   27.01% of all LL-cache accesses  (49.88%)
    10.006444239        167,872,594      LLC-loads                 #    2.097 M/sec                    (49.88%)
    10.006444239      1,132,292,478      LLC-loads                 #   14.143 M/sec                    (41.64%)
    10.006444239          1,945,688      LLC-store-misses          #   24.302 K/sec                    (25.09%)
    10.006444239        159,269,765      LLC-store-misses          #    1.989 M/sec                    (33.49%)
    10.006444239         67,223,934      LLC-stores                #  839.640 K/sec                    (25.11%)
    10.006444239        532,299,569      LLC-stores                #    6.649 M/sec                    (33.42%)
    10.006444239          80,062.77 msec task-clock                #   16.013 CPUs utilized          
    10.006444239     28,460,552,235      cycles:u                  #    0.355 GHz                      (41.74%)
    10.006444239    186,448,877,898      cycles:k                  #    2.329 GHz                      (41.66%)
    10.006444239     17,406,302,450      instructions:u            #    0.61  insn per cycle           (49.97%)
    10.006444239    102,213,574,880      instructions:k            #    0.55  insn per cycle           (49.89%)
    15.010444122         32,576,307      LLC-load-misses           #   19.42% of all LL-cache accesses  (50.05%)
    15.010444122        305,982,533      LLC-load-misses           #   27.02% of all LL-cache accesses  (49.97%)
    15.010444122        167,771,834      LLC-loads                 #    2.096 M/sec                    (49.89%)
    15.010444122      1,132,384,333      LLC-loads                 #   14.144 M/sec                    (41.57%)
    15.010444122          1,949,153      LLC-store-misses          #   24.346 K/sec                    (24.94%)
    15.010444122        159,686,810      LLC-store-misses          #    1.995 M/sec                    (33.26%)
    15.010444122         67,474,078      LLC-stores                #  842.794 K/sec                    (25.01%)
    15.010444122        533,571,150      LLC-stores                #    6.665 M/sec                    (33.40%)
    15.010444122          80,060.03 msec task-clock                #   16.012 CPUs utilized          
    15.010444122     28,460,513,201      cycles:u                  #    0.355 GHz                      (41.79%)
    15.010444122    186,551,085,997      cycles:k                  #    2.330 GHz                      (41.80%)
    15.010444122     17,414,933,276      instructions:u            #    0.61  insn per cycle           (50.12%)
    15.010444122    102,317,492,986      instructions:k            #    0.55  insn per cycle           (50.12%)
    20.014443916         32,584,638      LLC-load-misses           #   19.41% of all LL-cache accesses  (50.12%)
    20.014443916        306,040,300      LLC-load-misses           #   27.04% of all LL-cache accesses  (50.12%)
    20.014443916        167,863,638      LLC-loads                 #    2.097 M/sec                    (50.12%)
    20.014443916      1,131,835,625      LLC-loads                 #   14.137 M/sec                    (41.66%)
    20.014443916          1,947,846      LLC-store-misses          #   24.329 K/sec                    (24.94%)
    20.014443916        159,540,697      LLC-store-misses          #    1.993 M/sec                    (33.26%)
    20.014443916         67,582,756      LLC-stores                #  844.139 K/sec                    (24.94%)
    20.014443916        533,653,995      LLC-stores                #    6.666 M/sec                    (33.25%)
    20.014443916          80,061.18 msec task-clock                #   16.012 CPUs utilized          
    20.014443916     28,460,264,288      cycles:u                  #    0.355 GHz                      (41.57%)
    20.014443916    186,590,107,360      cycles:k                  #    2.331 GHz                      (41.63%)
    20.014443916     17,425,989,002      instructions:u            #    0.61  insn per cycle           (50.03%)
    20.014443916    102,378,536,213      instructions:k            #    0.55  insn per cycle           (50.11%)
    25.018441869         32,584,077      LLC-load-misses           #   19.41% of all LL-cache accesses  (49.95%)
    25.018441869        306,036,047      LLC-load-misses           #   27.03% of all LL-cache accesses  (50.03%)
    25.018441869        167,892,253      LLC-loads                 #    2.097 M/sec                    (50.11%)
    25.018441869      1,132,226,334      LLC-loads                 #   14.142 M/sec                    (41.81%)
    25.018441869          1,942,519      LLC-store-misses          #   24.263 K/sec                    (25.03%)
    25.018441869        159,777,806      LLC-store-misses          #    1.996 M/sec                    (33.35%)
    25.018441869         67,537,461      LLC-stores                #  843.566 K/sec                    (24.94%)
    25.018441869        533,312,169      LLC-stores                #    6.661 M/sec                    (33.25%)
    25.018441869          80,061.88 msec task-clock                #   16.012 CPUs utilized          
    25.018441869     28,455,121,881      cycles:u                  #    0.355 GHz                      (41.57%)
    25.018441869    186,565,325,852      cycles:k                  #    2.330 GHz                      (41.56%)
    25.018441869     17,420,314,554      instructions:u            #    0.61  insn per cycle           (49.88%)
    25.018441869    102,353,168,718      instructions:k            #    0.55  insn per cycle           (49.88%)
    30.022441136         32,587,501      LLC-load-misses           #   19.42% of all LL-cache accesses  (49.88%)
    30.022441136        306,134,313      LLC-load-misses           #   27.04% of all LL-cache accesses  (49.88%)
    30.022441136        167,821,190      LLC-loads                 #    2.096 M/sec                    (49.88%)
    30.022441136      1,132,143,418      LLC-loads                 #   14.141 M/sec                    (41.64%)
    30.022441136          1,948,938      LLC-store-misses          #   24.343 K/sec                    (25.09%)
    30.022441136        159,610,846      LLC-store-misses          #    1.994 M/sec                    (33.49%)
    30.022441136         67,642,798      LLC-stores                #  844.890 K/sec                    (25.11%)
    30.022441136        533,237,828      LLC-stores                #    6.660 M/sec                    (33.42%)
    30.022441136          80,061.04 msec task-clock                #   16.012 CPUs utilized          
    30.022441136     28,467,338,205      cycles:u                  #    0.356 GHz                      (41.74%)
    30.022441136    186,591,125,885      cycles:k                  #    2.331 GHz                      (41.65%)
    30.022441136     17,420,631,242      instructions:u            #    0.61  insn per cycle           (49.97%)
    30.022441136    102,347,128,677      instructions:k            #    0.55  insn per cycle           (49.89%)
    35.026506738         25,862,574      LLC-load-misses           #   19.35% of all LL-cache accesses  (50.05%)
    35.026506738        242,905,641      LLC-load-misses           #   27.04% of all LL-cache accesses  (49.97%)
    35.026506738        133,639,464      LLC-loads                 #    1.669 M/sec                    (49.89%)
    35.026506738        898,281,188      LLC-loads                 #   11.220 M/sec                    (41.57%)
    35.026506738          1,537,104      LLC-store-misses          #   19.198 K/sec                    (24.94%)
    35.026506738        126,973,116      LLC-store-misses          #    1.586 M/sec                    (33.26%)
    35.026506738         53,538,441      LLC-stores                #  668.696 K/sec                    (25.01%)
    35.026506738        424,331,930      LLC-stores                #    5.300 M/sec                    (33.40%)
    35.026506738          80,063.97 msec task-clock                #   16.013 CPUs utilized          
    35.026506738     22,890,393,927      cycles:u                  #    0.286 GHz                      (41.79%)
    35.026506738    148,620,937,537      cycles:k                  #    1.856 GHz                      (41.81%)
    35.026506738     14,552,644,521      instructions:u            #    0.64  insn per cycle           (50.12%)
    35.026506738     81,640,034,304      instructions:k            #    0.55  insn per cycle           (50.12%)
    36.166076577             60,058      LLC-load-misses           #   38.93% of all LL-cache accesses  (49.78%)
    36.166076577            579,003      LLC-load-misses           #   26.51% of all LL-cache accesses  (50.14%)
    36.166076577            154,285      LLC-loads                 #    8.463 K/sec                    (50.49%)
    36.166076577          2,184,043      LLC-loads                 #  119.798 K/sec                    (42.13%)
    36.166076577              1,871      LLC-store-misses          #  102.627 /sec                     (25.28%)
    36.166076577            729,347      LLC-store-misses          #   40.006 K/sec                    (33.70%)
    36.166076577             12,935      LLC-stores                #  709.503 /sec                     (24.94%)
    36.166076577            987,109      LLC-stores                #   54.144 K/sec                    (33.01%)
    36.166076577          18,231.06 msec task-clock                #    3.646 CPUs utilized          
    36.166076577        169,409,790      cycles:u                  #    0.009 GHz                      (41.08%)
    36.166076577        493,728,921      cycles:k                  #    0.027 GHz                      (41.02%)
    36.166076577        411,387,393      instructions:u            #    2.43  insn per cycle           (49.44%)
    36.166076577         59,039,412      instructions:k            #    0.12  insn per cycle           (49.46%)
