# started on Sat Apr  1 23:37:06 2023

#           time             counts unit events
     5.003562666          3,368,350      LLC-load-misses           #   19.35% of all LL-cache accesses  (49.93%)
     5.003562666         35,537,032      LLC-load-misses           #   29.70% of all LL-cache accesses  (50.01%)
     5.003562666         17,407,038      LLC-loads                 #  434.831 K/sec                    (50.10%)
     5.003562666        119,640,779      LLC-loads                 #    2.989 M/sec                    (41.81%)
     5.003562666            225,017      LLC-store-misses          #    5.621 K/sec                    (25.05%)
     5.003562666         21,170,891      LLC-store-misses          #  528.853 K/sec                    (33.37%)
     5.003562666          6,548,220      LLC-stores                #  163.576 K/sec                    (24.94%)
     5.003562666         55,327,148      LLC-stores                #    1.382 M/sec                    (33.25%)
     5.003562666          40,031.74 msec task-clock                #    8.006 CPUs utilized          
     5.003562666      3,080,297,745      cycles:u                  #    0.077 GHz                      (41.56%)
     5.003562666     20,865,112,303      cycles:k                  #    0.521 GHz                      (41.56%)
     5.003562666      1,866,321,683      instructions:u            #    0.61  insn per cycle           (49.87%)
     5.003562666     10,933,117,520      instructions:k            #    0.52  insn per cycle           (49.87%)
    10.007580190         15,469,031      LLC-load-misses           #   19.35% of all LL-cache accesses  (49.88%)
    10.007580190        164,349,895      LLC-load-misses           #   30.38% of all LL-cache accesses  (49.88%)
    10.007580190         79,949,496      LLC-loads                 #    1.997 M/sec                    (49.88%)
    10.007580190        541,038,854      LLC-loads                 #   13.516 M/sec                    (41.62%)
    10.007580190            964,610      LLC-store-misses          #   24.097 K/sec                    (25.08%)
    10.007580190         94,440,928      LLC-store-misses          #    2.359 M/sec                    (33.47%)
    10.007580190         31,216,136      LLC-stores                #  779.803 K/sec                    (25.13%)
    10.007580190        249,402,925      LLC-stores                #    6.230 M/sec                    (33.44%)
    10.007580190          40,030.82 msec task-clock                #    8.006 CPUs utilized          
    10.007580190     14,120,299,525      cycles:u                  #    0.353 GHz                      (41.75%)
    10.007580190     93,429,348,640      cycles:k                  #    2.334 GHz                      (41.67%)
    10.007580190      8,498,628,235      instructions:u            #    0.60  insn per cycle           (49.98%)
    10.007580190     50,309,305,228      instructions:k            #    0.54  insn per cycle           (49.90%)
    15.011588028         15,438,021      LLC-load-misses           #   19.33% of all LL-cache accesses  (50.06%)
    15.011588028        164,418,949      LLC-load-misses           #   30.47% of all LL-cache accesses  (49.99%)
    15.011588028         79,886,161      LLC-loads                 #    1.996 M/sec                    (49.91%)
    15.011588028        539,684,762      LLC-loads                 #   13.482 M/sec                    (41.57%)
    15.011588028            961,369      LLC-store-misses          #   24.016 K/sec                    (24.94%)
    15.011588028         94,583,382      LLC-store-misses          #    2.363 M/sec                    (33.26%)
    15.011588028         31,135,808      LLC-stores                #  777.797 K/sec                    (24.99%)
    15.011588028        249,615,089      LLC-stores                #    6.236 M/sec                    (33.39%)
    15.011588028          40,030.74 msec task-clock                #    8.006 CPUs utilized          
    15.011588028     14,117,326,197      cycles:u                  #    0.353 GHz                      (41.78%)
    15.011588028     93,429,312,962      cycles:k                  #    2.334 GHz                      (41.80%)
    15.011588028      8,485,785,481      instructions:u            #    0.60  insn per cycle           (50.12%)
    15.011588028     50,349,389,505      instructions:k            #    0.54  insn per cycle           (50.12%)
    20.015585178         15,430,425      LLC-load-misses           #   19.33% of all LL-cache accesses  (50.12%)
    20.015585178        164,291,695      LLC-load-misses           #   30.43% of all LL-cache accesses  (50.12%)
    20.015585178         79,841,865      LLC-loads                 #    1.995 M/sec                    (50.12%)
    20.015585178        539,904,873      LLC-loads                 #   13.487 M/sec                    (41.68%)
    20.015585178            961,144      LLC-store-misses          #   24.010 K/sec                    (24.94%)
    20.015585178         94,719,338      LLC-store-misses          #    2.366 M/sec                    (33.26%)
    20.015585178         31,192,180      LLC-stores                #  779.208 K/sec                    (24.94%)
    20.015585178        249,546,085      LLC-stores                #    6.234 M/sec                    (33.25%)
    20.015585178          40,030.63 msec task-clock                #    8.006 CPUs utilized          
    20.015585178     14,125,958,333      cycles:u                  #    0.353 GHz                      (41.57%)
    20.015585178     93,421,641,585      cycles:k                  #    2.334 GHz                      (41.62%)
    20.015585178      8,481,195,027      instructions:u            #    0.60  insn per cycle           (50.01%)
    20.015585178     50,337,190,124      instructions:k            #    0.54  insn per cycle           (50.09%)
    25.019580843         15,424,946      LLC-load-misses           #   19.34% of all LL-cache accesses  (49.93%)
    25.019580843        164,371,556      LLC-load-misses           #   30.48% of all LL-cache accesses  (50.01%)
    25.019580843         79,751,969      LLC-loads                 #    1.992 M/sec                    (50.09%)
    25.019580843        539,357,068      LLC-loads                 #   13.474 M/sec                    (41.81%)
    25.019580843            960,228      LLC-store-misses          #   23.987 K/sec                    (25.05%)
    25.019580843         94,718,894      LLC-store-misses          #    2.366 M/sec                    (33.36%)
    25.019580843         31,128,891      LLC-stores                #  777.626 K/sec                    (24.94%)
    25.019580843        249,688,656      LLC-stores                #    6.237 M/sec                    (33.25%)
    25.019580843          40,030.69 msec task-clock                #    8.006 CPUs utilized          
    25.019580843     14,121,273,300      cycles:u                  #    0.353 GHz                      (41.57%)
    25.019580843     93,430,182,005      cycles:k                  #    2.334 GHz                      (41.56%)
    25.019580843      8,484,308,587      instructions:u            #    0.60  insn per cycle           (49.88%)
    25.019580843     50,364,478,088      instructions:k            #    0.54  insn per cycle           (49.88%)
    30.023584053         15,430,318      LLC-load-misses           #   19.31% of all LL-cache accesses  (49.88%)
    30.023584053        164,437,694      LLC-load-misses           #   30.46% of all LL-cache accesses  (49.88%)
    30.023584053         79,891,853      LLC-loads                 #    1.996 M/sec                    (49.88%)
    30.023584053        539,808,801      LLC-loads                 #   13.485 M/sec                    (41.62%)
    30.023584053            963,200      LLC-store-misses          #   24.061 K/sec                    (25.08%)
    30.023584053         94,478,152      LLC-store-misses          #    2.360 M/sec                    (33.47%)
    30.023584053         31,097,992      LLC-stores                #  776.852 K/sec                    (25.13%)
    30.023584053        249,611,577      LLC-stores                #    6.235 M/sec                    (33.44%)
    30.023584053          40,030.79 msec task-clock                #    8.006 CPUs utilized          
    30.023584053     14,120,946,747      cycles:u                  #    0.353 GHz                      (41.75%)
    30.023584053     93,418,863,931      cycles:k                  #    2.334 GHz                      (41.67%)
    30.023584053      8,486,251,459      instructions:u            #    0.60  insn per cycle           (49.98%)
    30.023584053     50,382,723,979      instructions:k            #    0.54  insn per cycle           (49.90%)
    35.027617685         12,156,246      LLC-load-misses           #   19.26% of all LL-cache accesses  (50.06%)
    35.027617685        129,580,075      LLC-load-misses           #   30.37% of all LL-cache accesses  (49.99%)
    35.027617685         63,109,403      LLC-loads                 #    1.576 M/sec                    (49.91%)
    35.027617685        426,646,990      LLC-loads                 #   10.658 M/sec                    (41.57%)
    35.027617685            764,466      LLC-store-misses          #   19.097 K/sec                    (24.94%)
    35.027617685         74,815,775      LLC-store-misses          #    1.869 M/sec                    (33.26%)
    35.027617685         24,417,424      LLC-stores                #  609.955 K/sec                    (24.99%)
    35.027617685        195,866,594      LLC-stores                #    4.893 M/sec                    (33.39%)
    35.027617685          40,031.50 msec task-clock                #    8.006 CPUs utilized          
    35.027617685     11,070,056,681      cycles:u                  #    0.277 GHz                      (41.78%)
    35.027617685     73,289,889,494      cycles:k                  #    1.831 GHz                      (41.80%)
    35.027617685      6,658,706,382      instructions:u            #    0.60  insn per cycle           (50.12%)
    35.027617685     39,576,486,432      instructions:k            #    0.54  insn per cycle           (50.12%)
    36.077407856             21,413      LLC-load-misses           #   16.65% of all LL-cache accesses  (49.69%)
    36.077407856            262,065      LLC-load-misses           #   22.92% of all LL-cache accesses  (49.82%)
    36.077407856            128,636      LLC-loads                 #   15.318 K/sec                    (50.17%)
    36.077407856          1,143,335      LLC-loads                 #  136.149 K/sec                    (41.92%)
    36.077407856                 11      LLC-store-misses          #    1.310 /sec                     (25.16%)
    36.077407856            402,025      LLC-store-misses          #   47.873 K/sec                    (33.54%)
    36.077407856              7,112      LLC-stores                #  846.902 /sec                     (25.15%)
    36.077407856            468,844      LLC-stores                #   55.830 K/sec                    (33.40%)
    36.077407856           8,397.67 msec task-clock                #    1.680 CPUs utilized          
    36.077407856         93,472,383      cycles:u                  #    0.011 GHz                      (41.45%)
    36.077407856        252,606,549      cycles:k                  #    0.030 GHz                      (41.31%)
    36.077407856        221,467,348      instructions:u            #    2.37  insn per cycle           (49.69%)
    36.077407856         42,319,478      instructions:k            #    0.17  insn per cycle           (49.70%)
