#type       avg     std     min     5th    10th    50th    90th    95th    99th
read      914.3   189.0   198.3   791.5   801.6   881.2   956.9  1058.8  1816.3
update      0.0     0.0     0.0     0.0     0.0     0.0     0.0     0.0     0.0
op_q        1.0     0.0     1.0     1.0     1.0     1.1     1.1     1.1     1.1
rx      8031886.8 291266.4 7087440.0 7479417.2 7532042.8 7953047.8 8709970.2 8852173.8 8965936.7

Total QPS = 1223532.1 (36706137 / 30.0s)

Misses = 0 (0.0%)
Skipped TXs = 0 (0.0%)

RX 8998706246 bytes :  286.1 MB/s
TX 1549926935 bytes :   49.3 MB/s
