#type       avg     std     min     5th    10th    50th    90th    95th    99th
read     3680.0   162.5  3145.4  3353.8  3409.7  3734.3  3941.4  3967.3  3988.0
update      0.0     0.0     0.0     0.0     0.0     0.0     0.0     0.0     0.0
op_q        1.0     0.0     1.0     1.0     1.0     1.1     1.1     1.1     1.1
rx      1999023.7 50897.6 1866344.5 1820163.7 1860837.7 2027906.4 2128127.2 2140654.8 2150676.9

Total QPS = 304342.8 (9130284 / 30.0s)

Misses = 0 (0.0%)
Skipped TXs = 0 (0.0%)

RX 2237478924 bytes :   71.1 MB/s
TX  385499409 bytes :   12.3 MB/s
