#type       avg     std     min     5th    10th    50th    90th    95th    99th
read     3677.4   139.6  3145.4  3338.2  3377.7  3680.3  3930.9  3962.3  3987.3
update      0.0     0.0     0.0     0.0     0.0     0.0     0.0     0.0     0.0
op_q        1.0     0.0     1.0     1.0     1.0     1.1     1.1     1.1     1.1
rx      1996668.1 63374.2 1866344.5 1808542.5 1837595.4 2012105.8 2124967.1 2139074.8 2150360.9

Total QPS = 304618.7 (9138562 / 30.0s)

Misses = 0 (0.0%)
Skipped TXs = 0 (0.0%)

RX 2236408562 bytes :   71.1 MB/s
TX  385926002 bytes :   12.3 MB/s
