#type       avg     std     min     5th    10th    50th    90th    95th    99th
read     3666.3   178.4  2859.5  3343.9  3389.6  3707.9  3936.4  3965.0  3987.9
update      0.0     0.0     0.0     0.0     0.0     0.0     0.0     0.0     0.0
op_q        1.0     0.0     1.0     1.0     1.0     1.1     1.1     1.1     1.1
rx      2003053.6 74548.6 1866344.5 1811125.0 1842760.4 2020874.1 2136870.5 2151370.0 2319285.1

Total QPS = 305637.7 (9169130 / 30.0s)

Misses = 0 (0.0%)
Skipped TXs = 0 (0.0%)

RX 2244736857 bytes :   71.4 MB/s
TX  387156965 bytes :   12.3 MB/s
