#type       avg     std     min     5th    10th    50th    90th    95th    99th
read     3695.6   128.2  3145.4  3351.4  3404.2  3728.1  3940.1  3966.6  3987.8
update      0.0     0.0     0.0     0.0     0.0     0.0     0.0     0.0     0.0
op_q        1.0     0.0     1.0     1.0     1.0     1.1     1.1     1.1     1.1
rx      1988296.2 70713.6 1866344.5 1804910.9 1830332.2 2003496.0 2126315.6 2141668.1 2196246.1

Total QPS = 302951.0 (9088530 / 30.0s)

Misses = 0 (0.0%)
Skipped TXs = 0 (0.0%)

RX 2227916278 bytes :   70.8 MB/s
TX  383816931 bytes :   12.2 MB/s
