#type       avg     std     min     5th    10th    50th    90th    95th    99th
read     1815.6   167.6  1212.7  1593.5  1649.2  1813.8  1999.3  2026.1  2047.5
update      0.0     0.0     0.0     0.0     0.0     0.0     0.0     0.0     0.0
op_q        1.0     0.0     1.0     1.0     1.0     1.1     1.1     1.1     1.1
rx      4050003.4 181476.2 3636977.4 3630908.8 3794095.7 4054807.2 4459409.7 4537473.7 4599925.0

Total QPS = 616681.2 (18500442 / 30.0s)

Misses = 0 (0.0%)
Skipped TXs = 0 (0.0%)

RX 4537358595 bytes :  144.2 MB/s
TX  781152733 bytes :   24.8 MB/s
