#type       avg     std     min     5th    10th    50th    90th    95th    99th
read     1836.6   166.3  1212.7  1661.8  1704.7  1830.2  2006.9  2031.2  2154.2
update      0.0     0.0     0.0     0.0     0.0     0.0     0.0     0.0     0.0
op_q        1.0     0.0     1.0     1.0     1.0     1.1     1.1     1.1     1.1
rx      3994967.6 201691.5 3636977.4 3532237.6 3596753.4 3988736.4 4429051.4 4522294.6 4596889.1

Total QPS = 609851.2 (18295537 / 30.0s)

Misses = 0 (0.0%)
Skipped TXs = 0 (0.0%)

RX 4483904822 bytes :  142.5 MB/s
TX  772542517 bytes :   24.6 MB/s
