sent    1330579 | retrans          0 | timeout          0 | loss rate 0.0000%
sent    1330722 | retrans          0 | timeout          0 | loss rate 0.0000%
sent    1331608 | retrans          0 | timeout          0 | loss rate 0.0000%
sent    1331046 | retrans          0 | timeout          0 | loss rate 0.0000%
sent    1328552 | retrans          0 | timeout          0 | loss rate 0.0000%
sent    1330313 | retrans          0 | timeout          0 | loss rate 0.0000%
sent    1331501 | retrans          0 | timeout          0 | loss rate 0.0000%
