sent    2624542 | retrans          0 | timeout          0 | loss rate 0.0000%
sent    2622794 | retrans          0 | timeout          0 | loss rate 0.0000%
sent    2638641 | retrans          0 | timeout          0 | loss rate 0.0000%
sent    2618700 | retrans          0 | timeout          0 | loss rate 0.0000%
sent    2614301 | retrans          0 | timeout          0 | loss rate 0.0000%
sent    2614250 | retrans          0 | timeout          0 | loss rate 0.0000%
sent    2625016 | retrans          0 | timeout          0 | loss rate 0.0000%
