sent    5307620 | retrans          0 | timeout          0 | loss rate 0.0000%
sent    5323169 | retrans          0 | timeout          0 | loss rate 0.0000%
sent    5305895 | retrans          0 | timeout          0 | loss rate 0.0000%
sent    5343368 | retrans          0 | timeout          0 | loss rate 0.0000%
sent    5341003 | retrans          0 | timeout          0 | loss rate 0.0000%
sent    5318659 | retrans          0 | timeout          0 | loss rate 0.0000%
sent    5289085 | retrans          0 | timeout          0 | loss rate 0.0000%
