sent    5338641 | retrans          0 | timeout          0 | loss rate 0.0000%
sent    5368225 | retrans          0 | timeout          0 | loss rate 0.0000%
sent    5356117 | retrans          0 | timeout          0 | loss rate 0.0000%
sent    5340321 | retrans          0 | timeout          0 | loss rate 0.0000%
sent    5387482 | retrans          0 | timeout          0 | loss rate 0.0000%
sent    5382343 | retrans          0 | timeout          0 | loss rate 0.0000%
sent    5278641 | retrans          0 | timeout          0 | loss rate 0.0000%
