sent    1333782 | retrans          0 | timeout          0 | loss rate 0.0000%
sent    1335736 | retrans          0 | timeout          0 | loss rate 0.0000%
sent    1332626 | retrans          0 | timeout          0 | loss rate 0.0000%
sent    1332342 | retrans          0 | timeout          0 | loss rate 0.0000%
sent    1334433 | retrans          0 | timeout          0 | loss rate 0.0000%
sent    1333665 | retrans          0 | timeout          0 | loss rate 0.0000%
sent    1332433 | retrans          0 | timeout          0 | loss rate 0.0000%
