sent    5362373 | retrans          0 | timeout          0 | loss rate 0.0000%
sent    5379142 | retrans          0 | timeout          0 | loss rate 0.0000%
sent    5412893 | retrans          0 | timeout          0 | loss rate 0.0000%
sent    5383982 | retrans          0 | timeout          0 | loss rate 0.0000%
sent    5373568 | retrans          0 | timeout          0 | loss rate 0.0000%
sent    5404676 | retrans          0 | timeout          0 | loss rate 0.0000%
sent    5320589 | retrans          0 | timeout          0 | loss rate 0.0000%
