sent    1302699 | retrans          0 | timeout          0 | loss rate 0.0000%
sent    1301398 | retrans          0 | timeout          0 | loss rate 0.0000%
sent    1302347 | retrans          0 | timeout          0 | loss rate 0.0000%
sent    1305799 | retrans          0 | timeout          0 | loss rate 0.0000%
sent    1299740 | retrans          0 | timeout          0 | loss rate 0.0000%
sent    1300839 | retrans          0 | timeout          0 | loss rate 0.0000%
sent    1300719 | retrans          0 | timeout          0 | loss rate 0.0000%
