sent    1324762 | retrans          0 | timeout          0 | loss rate 0.0000%
sent    1325282 | retrans          0 | timeout          0 | loss rate 0.0000%
sent    1321492 | retrans          0 | timeout          0 | loss rate 0.0000%
sent    1327751 | retrans          0 | timeout          0 | loss rate 0.0000%
sent    1324892 | retrans          0 | timeout          0 | loss rate 0.0000%
sent    1325356 | retrans          0 | timeout          0 | loss rate 0.0000%
sent    1322185 | retrans          0 | timeout          0 | loss rate 0.0000%
