sent    2631713 | retrans          0 | timeout          0 | loss rate 0.0000%
sent    2625972 | retrans          0 | timeout          0 | loss rate 0.0000%
sent    2628186 | retrans          0 | timeout          0 | loss rate 0.0000%
sent    2642163 | retrans          0 | timeout          0 | loss rate 0.0000%
sent    2635410 | retrans          0 | timeout          0 | loss rate 0.0000%
sent    2630335 | retrans          0 | timeout          0 | loss rate 0.0000%
sent    2618861 | retrans          0 | timeout          0 | loss rate 0.0000%
