sent     668967 | retrans          0 | timeout          0 | loss rate 0.0000%
sent     669418 | retrans          0 | timeout          0 | loss rate 0.0000%
sent     668659 | retrans          0 | timeout          0 | loss rate 0.0000%
sent     669414 | retrans          0 | timeout          0 | loss rate 0.0000%
sent     668641 | retrans          0 | timeout          0 | loss rate 0.0000%
sent     667862 | retrans          0 | timeout          0 | loss rate 0.0000%
sent     668999 | retrans          0 | timeout          0 | loss rate 0.0000%
