#type       avg     std     min     5th    10th    50th    90th    95th    99th
read       65.3    19.1    29.5    45.3    48.5    62.6    84.0    92.2   113.6
update      0.0     0.0     0.0     0.0     0.0     0.0     0.0     0.0     0.0
op_q        1.0     0.0     1.0     1.0     1.0     1.1     1.1     1.1     1.1
rx      2089337.3 49013.4 1866344.5 1966953.9 1977828.6 2064825.8 2151823.1 2253664.3 2345533.4

Total QPS = 320108.1 (9603243 / 30.0s)

Misses = 0 (0.0%)
Skipped TXs = 0 (0.0%)

RX 2347765452 bytes :   74.6 MB/s
TX  405441291 bytes :   12.9 MB/s
