#type       avg     std     min     5th    10th    50th    90th    95th    99th
read       64.6    18.6    32.4    44.7    47.9    62.0    83.1    90.7   108.4
update      0.0     0.0     0.0     0.0     0.0     0.0     0.0     0.0     0.0
op_q        1.0     0.0     1.0     1.0     1.0     1.1     1.1     1.1     1.1
rx      2106445.5 59231.0 1866344.5 1968400.2 1980927.8 2081148.7 2270628.8 2322827.1 2364585.8

Total QPS = 319881.8 (9596453 / 30.0s)

Misses = 0 (0.0%)
Skipped TXs = 0 (0.0%)

RX 2352897314 bytes :   74.8 MB/s
TX  405193345 bytes :   12.9 MB/s
