#type       avg     std     min     5th    10th    50th    90th    95th    99th
read       65.1    19.6    32.4    45.3    48.5    62.5    83.7    91.5   109.6
update      0.0     0.0     0.0     0.0     0.0     0.0     0.0     0.0     0.0
op_q        1.0     0.0     1.0     1.0     1.0     1.1     1.1     1.1     1.1
rx      2101952.7 56090.0 1866344.5 1966472.9 1978518.7 2074884.9 2245461.7 2306981.2 2356196.8

Total QPS = 320039.7 (9601191 / 30.0s)

Misses = 0 (0.0%)
Skipped TXs = 0 (0.0%)

RX 2351339870 bytes :   74.7 MB/s
TX  405372445 bytes :   12.9 MB/s
