#type       avg     std     min     5th    10th    50th    90th    95th    99th
read      133.7   115.6    32.4    59.0    64.9   100.3   239.1   301.2   450.4
update      0.0     0.0     0.0     0.0     0.0     0.0     0.0     0.0     0.0
op_q        1.0     0.0     1.0     1.0     1.0     1.1     1.1     1.1     1.1
rx      3146992.6 63083.9 3005766.4 2892545.2 2919204.6 3132479.9 3399560.2 3433641.0 3460905.7

Total QPS = 480175.8 (14405273 / 30.0s)

Misses = 0 (0.0%)
Skipped TXs = 0 (0.0%)

RX 3519054493 bytes :  111.9 MB/s
TX  608269481 bytes :   19.3 MB/s
