#type       avg     std     min     5th    10th    50th    90th    95th    99th
read      139.5   114.1    32.4    61.4    68.2   111.5   236.1   285.0   426.8
update      0.0     0.0     0.0     0.0     0.0     0.0     0.0     0.0     0.0
op_q        1.0     0.0     1.0     1.0     1.0     1.1     1.1     1.1     1.1
rx      3139138.1 65130.5 3005766.4 2891360.4 2916834.9 3120631.2 3395665.3 3431693.6 3460516.2

Total QPS = 480179.6 (14405389 / 30.0s)

Misses = 0 (0.0%)
Skipped TXs = 0 (0.0%)

RX 3520346199 bytes :  111.9 MB/s
TX  608315534 bytes :   19.3 MB/s
