#type       avg     std     min     5th    10th    50th    90th    95th    99th
read     1716.3   361.5    43.2  1056.6  1233.5  1863.9  2141.0  2197.7  2243.0
update      0.0     0.0     0.0     0.0     0.0     0.0     0.0     0.0     0.0
op_q        1.0     0.0     1.0     1.0     1.0     1.1     1.1     1.1     1.1
rx      3412544.6 69157.9 3306343.1 3173317.2 3194160.0 3360902.5 3672228.5 3743361.3 3800267.5

Total QPS = 519480.1 (15584402 / 30.0s)

Misses = 0 (0.0%)
Skipped TXs = 0 (0.0%)

RX 3820433309 bytes :  121.4 MB/s
TX  658041721 bytes :   20.9 MB/s
