#type       avg     std     min     5th    10th    50th    90th    95th    99th
read     1037.9  1049.1    32.4    82.6   102.4   365.1  2418.5  2448.9  2473.3
update      0.0     0.0     0.0     0.0     0.0     0.0     0.0     0.0     0.0
op_q        1.0     0.0     1.0     1.0     1.0     1.1     1.1     1.1     1.1
rx      3440016.6 276555.6 3005766.4 2913650.6 2961415.4 3521664.2 3768257.7 3799081.9 4043363.7

Total QPS = 514652.0 (15439559 / 30.0s)

Misses = 0 (0.0%)
Skipped TXs = 0 (0.0%)

RX 3777099831 bytes :  120.1 MB/s
TX  651927699 bytes :   20.7 MB/s
