#type       avg     std     min     5th    10th    50th    90th    95th    99th
read     2181.6   292.1   351.3  1861.7  1886.2  2278.2  2439.3  2459.4  2475.5
update      0.0     0.0     0.0     0.0     0.0     0.0     0.0     0.0     0.0
op_q        1.0     0.0     1.0     1.0     1.0     1.1     1.1     1.1     1.1
rx      3350926.8 391285.8 3005766.4 2889768.2 2913650.6 3104709.6 4035333.2 4115638.3 4179882.4

Total QPS = 519776.6 (15593299 / 30.0s)

Misses = 0 (0.0%)
Skipped TXs = 0 (0.0%)

RX 3817342106 bytes :  121.4 MB/s
TX  658406340 bytes :   20.9 MB/s
