#type       avg     std     min     5th    10th    50th    90th    95th    99th
read     2159.4    33.5   218.1  2058.2  2068.5  2151.0  2233.4  2243.7  2252.0
update      0.0     0.0     0.0     0.0     0.0     0.0     0.0     0.0     0.0
op_q        1.0     0.0     1.0     1.0     1.0     1.1     1.1     1.1     1.1
rx      3400494.2 58847.8 3306343.1 3171436.7 3190398.9 3342096.9 3608999.4 3711746.7 3793944.6

Total QPS = 519541.5 (15586247 / 30.0s)

Misses = 0 (0.0%)
Skipped TXs = 0 (0.0%)

RX 3826965275 bytes :  121.7 MB/s
TX  658180305 bytes :   20.9 MB/s
