#type       avg     std     min     5th    10th    50th    90th    95th    99th
read     2160.0   258.9   351.3  1882.0  1902.3  2266.8  2436.7  2457.9  2474.9
update      0.0     0.0     0.0     0.0     0.0     0.0     0.0     0.0     0.0
op_q        1.0     0.0     1.0     1.0     1.0     1.1     1.1     1.1     1.1
rx      3401250.5 267303.8 3005766.4 2944944.7 3024003.7 3407674.7 3745139.6 3787819.3 3992503.8

Total QPS = 521116.4 (15633492 / 30.0s)

Misses = 0 (0.0%)
Skipped TXs = 0 (0.0%)

RX 3828884853 bytes :  121.7 MB/s
TX  660126727 bytes :   21.0 MB/s
