#type       avg     std     min     5th    10th    50th    90th    95th    99th
read     2147.4    33.7   386.4  2058.4  2068.7  2151.0  2233.3  2243.6  2251.9
update      0.0     0.0     0.0     0.0     0.0     0.0     0.0     0.0     0.0
op_q        1.0     0.0     1.0     1.0     1.0     1.1     1.1     1.1     1.1
rx      3425863.3 58774.5 3306343.1 3172332.5 3192190.6 3351055.5 3646362.1 3730428.1 3797680.8

Total QPS = 521220.9 (15636629 / 30.0s)

Misses = 0 (0.0%)
Skipped TXs = 0 (0.0%)

RX 3833938225 bytes :  121.9 MB/s
TX  660268466 bytes :   21.0 MB/s
