#type       avg     std     min     5th    10th    50th    90th    95th    99th
read     2148.2    67.8   514.3  2055.1  2065.7  2150.8  2235.9  2246.6  2362.9
update      0.0     0.0     0.0     0.0     0.0     0.0     0.0     0.0     0.0
op_q        1.0     0.0     1.0     1.0     1.0     1.1     1.1     1.1     1.1
rx      3431732.1 114387.0 3306343.1 3181799.8 3211125.1 3445727.8 3739516.3 3777005.2 3806996.3

Total QPS = 520708.0 (15621244 / 30.0s)

Misses = 0 (0.0%)
Skipped TXs = 0 (0.0%)

RX 3836951096 bytes :  122.0 MB/s
TX  659682035 bytes :   21.0 MB/s
