#type       avg     std     min     5th    10th    50th    90th    95th    99th
read     2127.3    52.8   467.6  2052.9  2063.5  2148.1  2232.8  2243.4  2251.8
update      0.0     0.0     0.0     0.0     0.0     0.0     0.0     0.0     0.0
op_q        1.0     0.0     1.0     1.0     1.0     1.1     1.1     1.1     1.1
rx      3457734.3 90223.2 3306343.1 3184398.2 3216322.0 3472003.0 3745995.8 3780244.9 3807644.2

Total QPS = 525753.3 (15772601 / 30.0s)

Misses = 0 (0.0%)
Skipped TXs = 0 (0.0%)

RX 3858574017 bytes :  122.7 MB/s
TX  666018335 bytes :   21.2 MB/s
