#type       avg     std     min     5th    10th    50th    90th    95th    99th
read     2190.3   530.7   425.0  1880.6  1902.7  2279.7  2439.4  2459.4  2475.4
update      0.0     0.0     0.0     0.0     0.0     0.0     0.0     0.0     0.0
op_q        1.0     0.0     1.0     1.0     1.0     1.1     1.1     1.1     1.1
rx      3365150.5 391809.0 3005766.4 2890019.6 2914153.4 3107223.6 4076273.0 4136108.2 4183976.4

Total QPS = 519464.0 (15583919 / 30.0s)

Misses = 0 (0.0%)
Skipped TXs = 0 (0.0%)

RX 3826574161 bytes :  121.6 MB/s
TX  658095388 bytes :   20.9 MB/s
