#type       avg     std     min     5th    10th    50th    90th    95th    99th
read     2141.9   465.4   565.7  1880.2  1899.3  2255.5  2434.5  2456.9  2474.8
update      0.0     0.0     0.0     0.0     0.0     0.0     0.0     0.0     0.0
op_q        1.0     0.0     1.0     1.0     1.0     1.1     1.1     1.1     1.1
rx      3425262.2 330553.9 3005766.4 2904745.3 2943604.8 3373147.6 3930587.3 4063265.4 4169407.8

Total QPS = 523935.1 (15718053 / 30.0s)

Misses = 0 (0.0%)
Skipped TXs = 0 (0.0%)

RX 3845682641 bytes :  122.3 MB/s
TX  663740348 bytes :   21.1 MB/s
