#type       avg     std     min     5th    10th    50th    90th    95th    99th
read     2182.2   351.3   239.9  1884.4  1906.7  2280.2  2439.3  2459.2  2475.1
update      0.0     0.0     0.0     0.0     0.0     0.0     0.0     0.0     0.0
op_q        1.0     0.0     1.0     1.0     1.0     1.1     1.1     1.1     1.1
rx      3364417.2 244685.8 3005766.4 2937533.0 3009180.1 3385272.5 3726424.9 3770459.5 3805687.1

Total QPS = 518408.7 (15552262 / 30.0s)

Misses = 0 (0.0%)
Skipped TXs = 0 (0.0%)

RX 3809610100 bytes :  121.1 MB/s
TX  656757424 bytes :   20.9 MB/s
