#type       avg     std     min     5th    10th    50th    90th    95th    99th
read     2159.3   431.9   425.0  1882.8  1903.5  2270.6  2437.5  2458.4  2475.1
update      0.0     0.0     0.0     0.0     0.0     0.0     0.0     0.0     0.0
op_q        1.0     0.0     1.0     1.0     1.0     1.1     1.1     1.1     1.1
rx      3398736.9 273001.8 3005766.4 2929572.2 2993258.5 3391627.6 3747376.8 3792121.6 4043363.7

Total QPS = 522656.2 (15679687 / 30.0s)

Misses = 0 (0.0%)
Skipped TXs = 0 (0.0%)

RX 3837170592 bytes :  122.0 MB/s
TX  662101618 bytes :   21.0 MB/s
