#type       avg     std     min     5th    10th    50th    90th    95th    99th
read       54.0    14.0    32.4    39.7    41.7    51.3    70.2    76.9    93.4
update      0.0     0.0     0.0     0.0     0.0     0.0     0.0     0.0     0.0
op_q        1.0     0.0     1.0     1.0     1.0     1.1     1.1     1.1     1.1
rx      526000.4 27241.6 406170.9 475155.6 482653.1 531025.8 565389.4 588807.9 616721.8

Total QPS = 79910.8 (2397339 / 30.0s)

Misses = 0 (0.0%)
Skipped TXs = 0 (0.0%)

RX  589311755 bytes :   18.7 MB/s
TX  101226357 bytes :    3.2 MB/s
