#type       avg     std     min     5th    10th    50th    90th    95th    99th
read       54.2    13.8    32.4    40.4    42.1    51.5    69.9    76.3    91.7
update      0.0     0.0     0.0     0.0     0.0     0.0     0.0     0.0     0.0
op_q        1.0     0.0     1.0     1.0     1.0     1.1     1.1     1.1     1.1
rx      524444.8 27073.6 369246.3 474559.2 481375.1 528078.1 561740.5 565948.3 608580.2

Total QPS = 80024.7 (2400740 / 30.0s)

Misses = 0 (0.0%)
Skipped TXs = 0 (0.0%)

RX  589345547 bytes :   18.7 MB/s
TX  101332231 bytes :    3.2 MB/s
