#type       avg     std     min     5th    10th    50th    90th    95th    99th
read       54.3    13.3    32.4    40.4    42.1    51.7    70.2    76.4    90.2
update      0.0     0.0     0.0     0.0     0.0     0.0     0.0     0.0     0.0
op_q        1.0     0.0     1.0     1.0     1.0     1.1     1.1     1.1     1.1
rx      522401.1 29265.2 406170.9 473058.0 479008.5 524341.9 562260.4 567000.2 618840.3

Total QPS = 80044.5 (2401334 / 30.0s)

Misses = 0 (0.0%)
Skipped TXs = 0 (0.0%)

RX  588519038 bytes :   18.7 MB/s
TX  101403414 bytes :    3.2 MB/s
