sent    2268602 | retrans         45 | timeout         36 | loss rate 0.0000%
sent    2261920 | retrans          3 | timeout          0 | loss rate 0.0000%
sent    2252286 | retrans         21 | timeout         17 | loss rate 0.0000%
sent    2263773 | retrans         19 | timeout         13 | loss rate 0.0000%
sent    2301580 | retrans         89 | timeout         85 | loss rate 0.0000%
sent    2261151 | retrans         44 | timeout         40 | loss rate 0.0000%
sent    2289579 | retrans         19 | timeout         14 | loss rate 0.0000%
