sent    2083245 | retrans          2 | timeout          0 | loss rate 0.0000%
sent    2083424 | retrans          1 | timeout          0 | loss rate 0.0000%
sent    2087998 | retrans          0 | timeout          0 | loss rate 0.0000%
sent    2089214 | retrans          2 | timeout          0 | loss rate 0.0000%
sent    2088179 | retrans          0 | timeout          0 | loss rate 0.0000%
sent    2091144 | retrans          0 | timeout          0 | loss rate 0.0000%
sent    2089336 | retrans          1 | timeout          0 | loss rate 0.0000%
