sent    2300686 | retrans          0 | timeout          0 | loss rate 0.0000%
sent    2291553 | retrans          2 | timeout          0 | loss rate 0.0000%
sent    2278803 | retrans          0 | timeout          0 | loss rate 0.0000%
sent    2265119 | retrans          2 | timeout          0 | loss rate 0.0000%
sent    2300656 | retrans          0 | timeout          0 | loss rate 0.0000%
sent    2274084 | retrans          1 | timeout          0 | loss rate 0.0000%
sent    2288569 | retrans          0 | timeout          0 | loss rate 0.0000%
