sent    2277814 | retrans          3 | timeout          0 | loss rate 0.0000%
sent    2252735 | retrans          4 | timeout          0 | loss rate 0.0000%
sent    2254742 | retrans          6 | timeout          0 | loss rate 0.0000%
sent    2263650 | retrans          3 | timeout          0 | loss rate 0.0000%
sent    2223862 | retrans          8 | timeout          1 | loss rate 0.0000%
sent    2254202 | retrans          6 | timeout          0 | loss rate 0.0000%
sent    2282835 | retrans          5 | timeout          0 | loss rate 0.0000%
