sent    2279609 | retrans          0 | timeout          0 | loss rate 0.0000%
sent    2278483 | retrans          0 | timeout          0 | loss rate 0.0000%
sent    2273285 | retrans          2 | timeout          0 | loss rate 0.0000%
sent    2277624 | retrans          9 | timeout          2 | loss rate 0.0000%
sent    2272969 | retrans          2 | timeout          0 | loss rate 0.0000%
sent    2280077 | retrans          0 | timeout          0 | loss rate 0.0000%
sent    2276238 | retrans          2 | timeout          0 | loss rate 0.0000%
