sent    2119515 | retrans          0 | timeout          0 | loss rate 0.0000%
sent    2117891 | retrans          0 | timeout          0 | loss rate 0.0000%
sent    2112905 | retrans          0 | timeout          0 | loss rate 0.0000%
sent    2112187 | retrans          0 | timeout          0 | loss rate 0.0000%
sent    2108594 | retrans          0 | timeout          0 | loss rate 0.0000%
sent    2113429 | retrans          0 | timeout          0 | loss rate 0.0000%
sent    2116287 | retrans          0 | timeout          0 | loss rate 0.0000%
