sent    2260470 | retrans          4 | timeout          0 | loss rate 0.0000%
sent    2263066 | retrans          0 | timeout          0 | loss rate 0.0000%
sent    2263683 | retrans          0 | timeout          0 | loss rate 0.0000%
sent    2264710 | retrans          0 | timeout          0 | loss rate 0.0000%
sent    2265188 | retrans          0 | timeout          0 | loss rate 0.0000%
sent    2259703 | retrans          6 | timeout          0 | loss rate 0.0000%
sent    2264282 | retrans          1 | timeout          0 | loss rate 0.0000%
