sent    2233960 | retrans         15 | timeout          0 | loss rate 0.0000%
sent    2272153 | retrans          6 | timeout          0 | loss rate 0.0000%
sent    2270251 | retrans         11 | timeout          0 | loss rate 0.0000%
sent    2268292 | retrans         10 | timeout          0 | loss rate 0.0000%
sent    2267382 | retrans          9 | timeout          0 | loss rate 0.0000%
sent    2231112 | retrans         10 | timeout          0 | loss rate 0.0000%
sent    2352651 | retrans          9 | timeout          0 | loss rate 0.0000%
