sent    2286085 | retrans          1 | timeout          0 | loss rate 0.0000%
sent    2284038 | retrans          2 | timeout          0 | loss rate 0.0000%
sent    2286901 | retrans          2 | timeout          0 | loss rate 0.0000%
sent    2288804 | retrans          2 | timeout          0 | loss rate 0.0000%
sent    2283614 | retrans          3 | timeout          1 | loss rate 0.0000%
sent    2284981 | retrans          0 | timeout          0 | loss rate 0.0000%
sent    2287880 | retrans          2 | timeout          0 | loss rate 0.0000%
