sent    1578442 | retrans          0 | timeout          0 | loss rate 0.0000%
sent    1576007 | retrans          0 | timeout          0 | loss rate 0.0000%
sent    1563150 | retrans          0 | timeout          0 | loss rate 0.0000%
sent    1570993 | retrans          0 | timeout          0 | loss rate 0.0000%
sent    1551267 | retrans          0 | timeout          0 | loss rate 0.0000%
sent    1553299 | retrans          0 | timeout          0 | loss rate 0.0000%
sent    1567065 | retrans          0 | timeout          0 | loss rate 0.0000%
