sent    2116635 | retrans          0 | timeout          0 | loss rate 0.0000%
sent    2113684 | retrans          0 | timeout          0 | loss rate 0.0000%
sent    2112163 | retrans          0 | timeout          0 | loss rate 0.0000%
sent    2115663 | retrans          0 | timeout          0 | loss rate 0.0000%
sent    2111148 | retrans          0 | timeout          0 | loss rate 0.0000%
sent    2111615 | retrans          0 | timeout          0 | loss rate 0.0000%
sent    2114362 | retrans          0 | timeout          0 | loss rate 0.0000%
