sent     670368 | retrans         40 | timeout         40 | loss rate 0.0001%
sent     672744 | retrans          0 | timeout          0 | loss rate 0.0000%
sent     671280 | retrans         10 | timeout         10 | loss rate 0.0000%
sent     671463 | retrans         34 | timeout         34 | loss rate 0.0001%
sent     671126 | retrans         75 | timeout         75 | loss rate 0.0001%
sent     670775 | retrans         16 | timeout         16 | loss rate 0.0000%
sent     670977 | retrans         18 | timeout         18 | loss rate 0.0000%
