sent    2275268 | retrans          0 | timeout          0 | loss rate 0.0000%
sent    2274715 | retrans          0 | timeout          0 | loss rate 0.0000%
sent    2273769 | retrans          1 | timeout          0 | loss rate 0.0000%
sent    2275570 | retrans          5 | timeout          2 | loss rate 0.0000%
sent    2283529 | retrans          0 | timeout          0 | loss rate 0.0000%
sent    2277789 | retrans          1 | timeout          0 | loss rate 0.0000%
sent    2275326 | retrans          1 | timeout          0 | loss rate 0.0000%
