sent    1589184 | retrans          0 | timeout          0 | loss rate 0.0000%
sent    1586030 | retrans          0 | timeout          0 | loss rate 0.0000%
sent    1571626 | retrans          0 | timeout          0 | loss rate 0.0000%
sent    1575927 | retrans          0 | timeout          0 | loss rate 0.0000%
sent    1569716 | retrans          0 | timeout          0 | loss rate 0.0000%
sent    1554380 | retrans          0 | timeout          0 | loss rate 0.0000%
sent    1575790 | retrans          0 | timeout          0 | loss rate 0.0000%
