sent     671895 | retrans         73 | timeout         73 | loss rate 0.0001%
sent     673853 | retrans          0 | timeout          0 | loss rate 0.0000%
sent     672090 | retrans         42 | timeout         42 | loss rate 0.0001%
sent     670756 | retrans         35 | timeout         35 | loss rate 0.0001%
sent     669768 | retrans         52 | timeout         52 | loss rate 0.0001%
sent     672752 | retrans         39 | timeout         39 | loss rate 0.0001%
sent     673063 | retrans          2 | timeout          2 | loss rate 0.0000%
