#type       avg     std     min     5th    10th    50th    90th    95th    99th
read     2809.9   203.1   828.3  2712.3  2740.1  2856.6  2973.0  2987.6  3030.2
update      0.0     0.0     0.0     0.0     0.0     0.0     0.0     0.0     0.0
op_q        1.0     0.0     1.0     1.0     1.0     1.1     1.1     1.1     1.1
rx      2609259.7 64904.4 2258276.8 2392017.7 2418894.3 2630373.9 2818783.4 2842334.6 2861175.6

Total QPS = 796015.5 (23880467 / 30.0s)

Misses = 0 (0.0%)
Skipped TXs = 0 (0.0%)

RX 5845017567 bytes :  185.8 MB/s
TX 1008571336 bytes :   32.1 MB/s
