  num          irqs       pkts  cpus name
  104 RX    2584692    2679539     0 mlx4-33@0000:07:00.0
  105 RX    2556005    2657478     1 mlx4-34@0000:07:00.0
  106 RX    2606765    2715349     2 mlx4-35@0000:07:00.0
  107 RX    2733693    2893731     3 mlx4-36@0000:07:00.0
  108 RX    2479571    2544996     4 mlx4-37@0000:07:00.0
  109 RX    2647234    2757096     5 mlx4-38@0000:07:00.0
  110 RX    2653555    2787884     6 mlx4-39@0000:07:00.0
  111 RX    2700807    2857242     7 mlx4-40@0000:07:00.0
total      20962322   21893315
