#type       avg     std     min     5th    10th    50th    90th    95th    99th
read     1191.0    50.0   101.8  1075.5  1100.1  1200.7  1262.7  1270.5  1376.4
update      0.0     0.0     0.0     0.0     0.0     0.0     0.0     0.0     0.0
op_q        1.0     0.0     1.0     1.0     1.0     1.1     1.1     1.1     1.1
rx      6182344.5 143474.1 5857388.4 5655718.8 5726636.9 6250946.5 6656276.4 6706942.6 6747475.6

Total QPS = 940419.5 (28212601 / 30.0s)

Misses = 0 (0.0%)
Skipped TXs = 0 (0.0%)

RX 6943032383 bytes :  220.7 MB/s
TX 1191316265 bytes :   37.9 MB/s
