#type       avg     std     min     5th    10th    50th    90th    95th    99th
read       43.8    11.3    26.8    32.6    34.3    41.7    55.4    60.1    72.9
update      0.0     0.0     0.0     0.0     0.0     0.0     0.0     0.0     0.0
op_q        1.0     0.0     1.0     1.0     1.0     1.1     1.1     1.1     1.1
rx      2104377.6 55616.4 1866344.5 1968143.3 1980377.3 2078249.2 2257368.7 2312934.7 2357387.5

Total QPS = 320173.5 (9605205 / 30.0s)

Misses = 0 (0.0%)
Skipped TXs = 0 (0.0%)

RX 2357559088 bytes :   74.9 MB/s
TX  405640844 bytes :   12.9 MB/s
