#type       avg     std     min     5th    10th    50th    90th    95th    99th
read       44.5    11.9    26.8    33.1    34.7    42.4    56.3    61.5    77.6
update      0.0     0.0     0.0     0.0     0.0     0.0     0.0     0.0     0.0
op_q        1.0     0.0     1.0     1.0     1.0     1.1     1.1     1.1     1.1
rx      2105665.8 56740.6 1866344.5 1964797.4 1976571.4 2070764.0 2224955.2 2296727.9 2354146.1

Total QPS = 319633.7 (9589013 / 30.0s)

Misses = 0 (0.0%)
Skipped TXs = 0 (0.0%)

RX 2348791185 bytes :   74.7 MB/s
TX  404839566 bytes :   12.9 MB/s
