#type       avg     std     min     5th    10th    50th    90th    95th    99th
read       44.3    14.9    26.8    32.7    34.4    41.9    56.1    61.2    77.7
update      0.0     0.0     0.0     0.0     0.0     0.0     0.0     0.0     0.0
op_q        1.0     0.0     1.0     1.0     1.0     1.1     1.1     1.1     1.1
rx      2103463.9 55613.0 2052978.9 1969484.4 1981530.1 2077896.3 2253664.3 2311082.5 2357017.0

Total QPS = 320162.3 (9604871 / 30.0s)

Misses = 0 (0.0%)
Skipped TXs = 0 (0.0%)

RX 2357262509 bytes :   74.9 MB/s
TX  405484355 bytes :   12.9 MB/s
