#type       avg     std     min     5th    10th    50th    90th    95th    99th
read       45.5    15.6    26.8    34.0    35.2    42.9    57.5    63.3    84.1
update      0.0     0.0     0.0     0.0     0.0     0.0     0.0     0.0     0.0
op_q        1.0     0.0     1.0     1.0     1.0     1.1     1.1     1.1     1.1
rx      2103427.2 51147.3 2052978.9 1969124.8 1980811.0 2074300.6 2235997.1 2302248.9 2355250.3

Total QPS = 319866.8 (9596005 / 30.0s)

Misses = 0 (0.0%)
Skipped TXs = 0 (0.0%)

RX 2351432525 bytes :   74.8 MB/s
TX  405185223 bytes :   12.9 MB/s
