#type       avg     std     min     5th    10th    50th    90th    95th    99th
read       43.9    11.3    26.8    32.6    34.4    41.7    55.7    60.3    73.8
update      0.0     0.0     0.0     0.0     0.0     0.0     0.0     0.0     0.0
op_q        1.0     0.0     1.0     1.0     1.0     1.1     1.1     1.1     1.1
rx      2096778.0 50172.1 2052978.9 1968389.3 1979340.0 2066945.6 2165848.2 2267174.5 2348235.4

Total QPS = 319804.4 (9594133 / 30.0s)

Misses = 0 (0.0%)
Skipped TXs = 0 (0.0%)

RX 2349497747 bytes :   74.7 MB/s
TX  405128186 bytes :   12.9 MB/s
