#type       avg     std     min     5th    10th    50th    90th    95th    99th
read       54.0    17.5    26.8    35.3    37.6    50.7    75.4    84.2   105.4
update      0.0     0.0     0.0     0.0     0.0     0.0     0.0     0.0     0.0
op_q        1.0     0.0     1.0     1.0     1.0     1.1     1.1     1.1     1.1
rx      3678253.9 58680.7 3636977.4 3485169.5 3502617.2 3642198.4 3781779.7 3799227.3 3813185.5

Total QPS = 559951.7 (16798556 / 30.0s)

Misses = 0 (0.0%)
Skipped TXs = 0 (0.0%)

RX 4125648365 bytes :  131.2 MB/s
TX  709276471 bytes :   22.5 MB/s
