#type       avg     std     min     5th    10th    50th    90th    95th    99th
read       56.8    21.9    26.8    35.9    38.3    52.6    79.1    89.9   121.5
update      0.0     0.0     0.0     0.0     0.0     0.0     0.0     0.0     0.0
op_q        1.0     0.0     1.0     1.0     1.0     1.1     1.1     1.1     1.1
rx      3696243.9 67985.6 3306343.1 3483797.4 3502169.4 3649145.7 3796122.0 3814494.0 4119653.6

Total QPS = 560021.8 (16800656 / 30.0s)

Misses = 0 (0.0%)
Skipped TXs = 0 (0.0%)

RX 4128880555 bytes :  131.3 MB/s
TX  709375285 bytes :   22.6 MB/s
