#type       avg     std     min     5th    10th    50th    90th    95th    99th
read       55.6    20.0    26.8    35.2    37.7    51.7    78.3    88.1   114.8
update      0.0     0.0     0.0     0.0     0.0     0.0     0.0     0.0     0.0
op_q        1.0     0.0     1.0     1.0     1.0     1.1     1.1     1.1     1.1
rx      3699864.8 71757.9 3636977.4 3485973.0 3504224.2 3650233.5 3796242.9 3814494.0 4119653.6

Total QPS = 559959.5 (16798787 / 30.0s)

Misses = 0 (0.0%)
Skipped TXs = 0 (0.0%)

RX 4140779111 bytes :  131.6 MB/s
TX  709382218 bytes :   22.6 MB/s
