#type       avg     std     min     5th    10th    50th    90th    95th    99th
read       56.7    20.0    26.8    35.2    37.7    52.8    80.2    91.5   116.1
update      0.0     0.0     0.0     0.0     0.0     0.0     0.0     0.0     0.0
op_q        1.0     0.0     1.0     1.0     1.0     1.1     1.1     1.1     1.1
rx      3952488.7 68779.7 3636977.4 3831287.4 3850479.8 4004019.2 4157558.6 4176751.0 4192105.0

Total QPS = 599813.1 (17994395 / 30.0s)

Misses = 0 (0.0%)
Skipped TXs = 0 (0.0%)

RX 4425573275 bytes :  140.7 MB/s
TX  759868932 bytes :   24.2 MB/s
