#type       avg     std     min     5th    10th    50th    90th    95th    99th
read       60.1    21.7    26.8    36.1    38.7    55.9    86.5    98.4   124.3
update      0.0     0.0     0.0     0.0     0.0     0.0     0.0     0.0     0.0
op_q        1.0     0.0     1.0     1.0     1.0     1.1     1.1     1.1     1.1
rx      4219906.7 73469.9 4000675.1 3869977.6 3925461.1 4295846.9 4551599.6 4583568.7 4609144.0

Total QPS = 640001.0 (19200033 / 30.0s)

Misses = 0 (0.0%)
Skipped TXs = 0 (0.0%)

RX 4730800550 bytes :  150.4 MB/s
TX  810721202 bytes :   25.8 MB/s
