#type       avg     std     min     5th    10th    50th    90th    95th    99th
read       60.8    21.8    26.8    36.6    39.1    56.5    87.5    99.9   125.8
update      0.0     0.0     0.0     0.0     0.0     0.0     0.0     0.0     0.0
op_q        1.0     0.0     1.0     1.0     1.0     1.1     1.1     1.1     1.1
rx      4210800.0 67759.7 4000675.1 3858720.1 3902946.1 4246663.6 4541763.0 4578650.4 4608160.3

Total QPS = 639894.4 (19196834 / 30.0s)

Misses = 0 (0.0%)
Skipped TXs = 0 (0.0%)

RX 4726747733 bytes :  150.3 MB/s
TX  810547414 bytes :   25.8 MB/s
