#type       avg     std     min     5th    10th    50th    90th    95th    99th
read       61.2    25.6    26.8    36.5    39.1    56.6    88.2   101.3   128.1
update      0.0     0.0     0.0     0.0     0.0     0.0     0.0     0.0     0.0
op_q        1.0     0.0     1.0     1.0     1.0     1.1     1.1     1.1     1.1
rx      4195868.7 73613.6 4000675.1 3855731.8 3896969.6 4225217.5 4537473.7 4576505.8 4607731.4

Total QPS = 639939.4 (19198188 / 30.0s)

Misses = 0 (0.0%)
Skipped TXs = 0 (0.0%)

RX 4708877625 bytes :  149.7 MB/s
TX  810564281 bytes :   25.8 MB/s
