#type       avg     std     min     5th    10th    50th    90th    95th    99th
read       70.0    52.0    29.5    40.9    44.1    64.0   100.4   113.9   149.6
update      0.0     0.0     0.0     0.0     0.0     0.0     0.0     0.0     0.0
op_q        1.0     0.0     1.0     1.0     1.0     1.1     1.1     1.1     1.1
rx      4470796.0 75021.7 4400742.6 4217883.0 4239822.6 4415339.2 4590855.8 4612795.3 4971593.6

Total QPS = 679963.8 (20398914 / 30.0s)

Misses = 0 (0.0%)
Skipped TXs = 0 (0.0%)

RX 4998909848 bytes :  158.9 MB/s
TX  861318946 bytes :   27.4 MB/s
