#type       avg     std     min     5th    10th    50th    90th    95th    99th
read       74.5    32.9    29.5    41.6    45.4    68.3   109.2   124.9   168.4
update      0.0     0.0     0.0     0.0     0.0     0.0     0.0     0.0     0.0
op_q        1.0     0.0     1.0     1.0     1.0     1.1     1.1     1.1     1.1
rx      4487868.6 75708.3 4400742.6 4218778.5 4241613.6 4424294.1 4606974.6 4793058.5 5020284.9

Total QPS = 679869.0 (20396070 / 30.0s)

Misses = 0 (0.0%)
Skipped TXs = 0 (0.0%)

RX 5026492038 bytes :  159.8 MB/s
TX  861182252 bytes :   27.4 MB/s
