#type       avg     std     min     5th    10th    50th    90th    95th    99th
read       68.4    52.8    26.8    38.4    41.7    63.0    99.7   112.9   141.9
update      0.0     0.0     0.0     0.0     0.0     0.0     0.0     0.0     0.0
op_q        1.0     0.0     1.0     1.0     1.0     1.1     1.1     1.1     1.1
rx      4462167.8 74701.1 4400742.6 4217188.7 4238434.0 4408396.3 4578358.5 4599603.8 4707848.5

Total QPS = 679953.6 (20398608 / 30.0s)

Misses = 0 (0.0%)
Skipped TXs = 0 (0.0%)

RX 4994082774 bytes :  158.8 MB/s
TX  861330306 bytes :   27.4 MB/s
