#type       avg     std     min     5th    10th    50th    90th    95th    99th
read       70.0    29.5    29.5    40.5    43.9    64.3   101.2   114.9   153.7
update      0.0     0.0     0.0     0.0     0.0     0.0     0.0     0.0     0.0
op_q        1.0     0.0     1.0     1.0     1.0     1.1     1.1     1.1     1.1
rx      4480564.0 81453.4 4400742.6 4217883.0 4239822.6 4415339.2 4590855.8 4612795.3 4971593.6

Total QPS = 679906.6 (20397199 / 30.0s)

Misses = 0 (0.0%)
Skipped TXs = 0 (0.0%)

RX 5029436291 bytes :  159.9 MB/s
TX  861226032 bytes :   27.4 MB/s
