#type       avg     std     min     5th    10th    50th    90th    95th    99th
read       72.4    27.7    26.8    40.6    44.4    67.2   106.1   120.3   152.7
update      0.0     0.0     0.0     0.0     0.0     0.0     0.0     0.0     0.0
op_q        1.0     0.0     1.0     1.0     1.0     1.1     1.1     1.1     1.1
rx      4482647.0 76982.9 4400742.6 4217883.0 4239822.6 4415339.2 4590855.8 4612795.3 4971593.6

Total QPS = 679921.5 (20397647 / 30.0s)

Misses = 0 (0.0%)
Skipped TXs = 0 (0.0%)

RX 5014623927 bytes :  159.4 MB/s
TX  861171401 bytes :   27.4 MB/s
