#type       avg     std     min     5th    10th    50th    90th    95th    99th
read       76.6    30.5    29.5    42.8    47.2    71.9   111.6   125.8   159.1
update      0.0     0.0     0.0     0.0     0.0     0.0     0.0     0.0     0.0
op_q        1.0     0.0     1.0     1.0     1.0     1.1     1.1     1.1     1.1
rx      4463455.3 82822.6 4400742.6 4217740.5 4239537.7 4413914.5 4588291.4 4610088.5 4954010.6

Total QPS = 679899.3 (20396987 / 30.0s)

Misses = 0 (0.0%)
Skipped TXs = 0 (0.0%)

RX 4993845803 bytes :  158.8 MB/s
TX  861211295 bytes :   27.4 MB/s
