#type       avg     std     min     5th    10th    50th    90th    95th    99th
read       66.2    36.6    26.8    37.3    40.1    59.6    96.0   110.4   152.8
update      0.0     0.0     0.0     0.0     0.0     0.0     0.0     0.0     0.0
op_q        1.0     0.0     1.0     1.0     1.0     1.1     1.1     1.1     1.1
rx      4492097.9 72960.5 4400742.6 4217883.0 4239822.6 4415339.2 4590855.8 4612795.3 4971593.6

Total QPS = 680387.0 (20411611 / 30.0s)

Misses = 0 (0.0%)
Skipped TXs = 0 (0.0%)

RX 5027938584 bytes :  159.8 MB/s
TX  861873645 bytes :   27.4 MB/s
