#type       avg     std     min     5th    10th    50th    90th    95th    99th
read       75.0    29.3    26.8    40.8    44.9    69.8   111.4   126.1   161.1
update      0.0     0.0     0.0     0.0     0.0     0.0     0.0     0.0     0.0
op_q        1.0     0.0     1.0     1.0     1.0     1.1     1.1     1.1     1.1
rx      4741002.0 76605.7 4400742.6 4621532.0 4645508.8 4837323.4 5029137.9 5053114.7 5072296.2

Total QPS = 720004.0 (21600122 / 30.0s)

Misses = 0 (0.0%)
Skipped TXs = 0 (0.0%)

RX 5306213833 bytes :  168.7 MB/s
TX  911990969 bytes :   29.0 MB/s
