#type       avg     std     min     5th    10th    50th    90th    95th    99th
read       78.7    91.6    29.5    42.6    46.8    71.0   112.2   127.7   176.0
update      0.0     0.0     0.0     0.0     0.0     0.0     0.0     0.0     0.0
op_q        1.0     0.0     1.0     1.0     1.0     1.1     1.1     1.1     1.1
rx      4729898.4 71089.7 4400742.6 4501103.0 4631026.2 4829277.5 5027528.7 5052310.2 5072135.3

Total QPS = 719995.0 (21599851 / 30.0s)

Misses = 0 (0.0%)
Skipped TXs = 0 (0.0%)

RX 5293654557 bytes :  168.3 MB/s
TX  912012605 bytes :   29.0 MB/s
