#type       avg     std     min     5th    10th    50th    90th    95th    99th
read       75.0    33.5    29.5    41.5    45.5    69.1   110.0   125.5   168.3
update      0.0     0.0     0.0     0.0     0.0     0.0     0.0     0.0     0.0
op_q        1.0     0.0     1.0     1.0     1.0     1.1     1.1     1.1     1.1
rx      4744935.4 76770.2 4400742.6 4630236.9 4653755.6 4841904.9 5030054.2 5053572.9 5072387.8

Total QPS = 720289.6 (21608696 / 30.0s)

Misses = 0 (0.0%)
Skipped TXs = 0 (0.0%)

RX 5314024674 bytes :  168.9 MB/s
TX  912316248 bytes :   29.0 MB/s
