#type       avg     std     min     5th    10th    50th    90th    95th    99th
read       85.5    44.6    29.5    43.9    49.3    78.0   126.8   146.1   200.1
update      0.0     0.0     0.0     0.0     0.0     0.0     0.0     0.0     0.0
op_q        1.0     0.0     1.0     1.0     1.0     1.1     1.1     1.1     1.1
rx      4994522.2 73112.1 4840816.9 4643093.2 4670648.7 4891092.3 5272364.3 5428582.5 5553557.1

Total QPS = 760301.0 (22809031 / 30.0s)

Misses = 0 (0.0%)
Skipped TXs = 0 (0.0%)

RX 5589881477 bytes :  177.7 MB/s
TX  963122906 bytes :   30.6 MB/s
