#type       avg     std     min     5th    10th    50th    90th    95th    99th
read       84.2    39.1    29.5    44.2    49.4    77.4   125.4   143.8   191.1
update      0.0     0.0     0.0     0.0     0.0     0.0     0.0     0.0     0.0
op_q        1.0     0.0     1.0     1.0     1.0     1.1     1.1     1.1     1.1
rx      5003116.6 75761.8 4840816.9 4643093.2 4670648.7 4891092.3 5272364.3 5428582.5 5553557.1

Total QPS = 760124.0 (22803728 / 30.0s)

Misses = 0 (0.0%)
Skipped TXs = 0 (0.0%)

RX 5603879298 bytes :  178.1 MB/s
TX  962869202 bytes :   30.6 MB/s
