#type       avg     std     min     5th    10th    50th    90th    95th    99th
read      101.7    52.3    29.5    47.5    54.2    91.8   157.4   186.4   262.8
update      0.0     0.0     0.0     0.0     0.0     0.0     0.0     0.0     0.0
op_q        1.0     0.0     1.0     1.0     1.0     1.1     1.1     1.1     1.1
rx      5256924.9 84742.4 4840816.9 5090109.7 5116146.1 5324437.0 5532728.0 5558764.4 5579593.4

Total QPS = 799647.0 (23989411 / 30.0s)

Misses = 0 (0.0%)
Skipped TXs = 0 (0.0%)

RX 5884234319 bytes :  187.1 MB/s
TX 1012951050 bytes :   32.2 MB/s
