#type       avg     std     min     5th    10th    50th    90th    95th    99th
read       40.5    16.6    26.8    32.1    33.6    39.2    48.0    51.6    60.0
update      0.0     0.0     0.0     0.0     0.0     0.0     0.0     0.0     0.0
op_q        1.0     0.0     1.0     1.0     1.0     1.1     1.1     1.1     1.1
rx      520487.8 25673.3 406170.9 473720.5 479577.9 524045.7 560700.2 565282.0 605556.2

Total QPS = 79966.3 (2398989 / 30.0s)

Misses = 0 (0.0%)
Skipped TXs = 0 (0.0%)

RX  589221298 bytes :   18.7 MB/s
TX  101308258 bytes :    3.2 MB/s
