#type       avg     std     min     5th    10th    50th    90th    95th    99th
read      113.9    54.6    29.5    52.2    60.0   104.3   177.4   207.0   279.0
update      0.0     0.0     0.0     0.0     0.0     0.0     0.0     0.0     0.0
op_q        1.0     0.0     1.0     1.0     1.0     1.1     1.1     1.1     1.1
rx      5524769.7 85540.3 5324898.6 5112106.0 5147120.4 5427235.8 5940197.1 6041739.0 6122972.4

Total QPS = 839879.4 (25196383 / 30.0s)

Misses = 0 (0.0%)
Skipped TXs = 0 (0.0%)

RX 6184282717 bytes :  196.6 MB/s
TX 1063920254 bytes :   33.8 MB/s
