#type       avg     std     min     5th    10th    50th    90th    95th    99th
read      113.1    55.4    29.5    51.5    59.1   103.2   176.6   206.7   284.0
update      0.0     0.0     0.0     0.0     0.0     0.0     0.0     0.0     0.0
op_q        1.0     0.0     1.0     1.0     1.0     1.1     1.1     1.1     1.1
rx      5488851.8 72176.9 5324898.6 5105694.9 5134298.2 5363124.9 5646854.1 5895067.4 6093638.1

Total QPS = 839658.7 (25189774 / 30.0s)

Misses = 0 (0.0%)
Skipped TXs = 0 (0.0%)

RX 6154803445 bytes :  195.7 MB/s
TX 1063657960 bytes :   33.8 MB/s
