#type       avg     std     min     5th    10th    50th    90th    95th    99th
read      108.8    53.9    29.5    50.5    57.6    99.5   168.0   197.0   269.4
update      0.0     0.0     0.0     0.0     0.0     0.0     0.0     0.0     0.0
op_q        1.0     0.0     1.0     1.0     1.0     1.1     1.1     1.1     1.1
rx      5536646.5 80455.2 5324898.6 5114354.6 5151617.7 5449722.1 5968071.4 6055676.1 6125759.8

Total QPS = 840002.3 (25200082 / 30.0s)

Misses = 0 (0.0%)
Skipped TXs = 0 (0.0%)

RX 6199313140 bytes :  197.1 MB/s
TX 1064045294 bytes :   33.8 MB/s
