#type       avg     std     min     5th    10th    50th    90th    95th    99th
read      223.9   215.1    29.5    63.3    76.6   152.5   437.5   728.3  1125.3
update      0.0     0.0     0.0     0.0     0.0     0.0     0.0     0.0     0.0
op_q        1.0     0.0     1.0     1.0     1.0     1.1     1.1     1.1     1.1
rx      5806855.3 91622.1 5324898.6 5609387.9 5637487.5 5862284.5 6087081.5 6115181.2 6137660.9

Total QPS = 880122.9 (26403690 / 30.0s)

Misses = 0 (0.0%)
Skipped TXs = 0 (0.0%)

RX 6510560856 bytes :  207.0 MB/s
TX 1114920368 bytes :   35.4 MB/s
