#type       avg     std     min     5th    10th    50th    90th    95th    99th
read      162.4   104.1    29.5    59.6    71.6   134.7   285.8   364.3   541.6
update      0.0     0.0     0.0     0.0     0.0     0.0     0.0     0.0     0.0
op_q        1.0     0.0     1.0     1.0     1.0     1.1     1.1     1.1     1.1
rx      5796584.6 83471.4 5324898.6 5609387.9 5637487.5 5862284.5 6087081.5 6115181.2 6137660.9

Total QPS = 880239.1 (26407173 / 30.0s)

Misses = 0 (0.0%)
Skipped TXs = 0 (0.0%)

RX 6503305398 bytes :  206.7 MB/s
TX 1115050812 bytes :   35.4 MB/s
