#type       avg     std     min     5th    10th    50th    90th    95th    99th
read      270.3   301.6    29.5    61.1    73.9   146.6   839.6  1073.8  1233.8
update      0.0     0.0     0.0     0.0     0.0     0.0     0.0     0.0     0.0
op_q        1.0     0.0     1.0     1.0     1.0     1.1     1.1     1.1     1.1
rx      5811533.2 86501.7 5857388.4 5612724.7 5640648.7 5864040.8 6087432.8 6115356.8 6137696.0

Total QPS = 879905.7 (26397173 / 30.0s)

Misses = 0 (0.0%)
Skipped TXs = 0 (0.0%)

RX 6514229988 bytes :  207.1 MB/s
TX 1114604086 bytes :   35.4 MB/s
