#type       avg     std     min     5th    10th    50th    90th    95th    99th
read      235.3   185.0    29.5    72.2    87.0   180.7   430.3   568.1  1084.7
update      0.0     0.0     0.0     0.0     0.0     0.0     0.0     0.0     0.0
op_q        1.0     0.0     1.0     1.0     1.0     1.1     1.1     1.1     1.1
rx      6010806.7 81440.1 5857388.4 5614002.3 5643203.9 5876816.4 6110429.0 6139630.6 6617191.0

Total QPS = 919995.8 (27599874 / 30.0s)

Misses = 0 (0.0%)
Skipped TXs = 0 (0.0%)

RX 6740481155 bytes :  214.3 MB/s
TX 1165349421 bytes :   37.0 MB/s
