#type       avg     std     min     5th    10th    50th    90th    95th    99th
read      351.8   383.4    29.5    70.9    85.3   181.6  1184.4  1234.9  1306.0
update      0.0     0.0     0.0     0.0     0.0     0.0     0.0     0.0     0.0
op_q        1.0     0.0     1.0     1.0     1.0     1.1     1.1     1.1     1.1
rx      6050516.2 89550.6 5857388.4 5618906.4 5653012.0 5925857.2 6418669.2 6588139.1 6723714.9

Total QPS = 918795.3 (27563863 / 30.0s)

Misses = 0 (0.0%)
Skipped TXs = 0 (0.0%)

RX 6774986411 bytes :  215.4 MB/s
TX 1163833390 bytes :   37.0 MB/s
