  num          irqs       pkts  cpus name
  104 RX     511129    3095473     0 mlx4-33@0000:07:00.0
  105 RX     509695    2966610     1 mlx4-34@0000:07:00.0
  106 RX     506825    3025534     2 mlx4-35@0000:07:00.0
  107 RX     486073    3093980     3 mlx4-36@0000:07:00.0
  108 RX     531432    3049642     4 mlx4-37@0000:07:00.0
  109 RX     515800    3152168     5 mlx4-38@0000:07:00.0
  110 RX     506139    3069957     6 mlx4-39@0000:07:00.0
  111 RX     501651    3112249     7 mlx4-40@0000:07:00.0
total       4068744   24565613
