  num          irqs       pkts  cpus name
  104 RX     574989    1387879     0 mlx4-33@0000:07:00.0
  105 RX     564584    1545950     1 mlx4-34@0000:07:00.0
  106 RX     574090    1487502     2 mlx4-35@0000:07:00.0
  107 RX     582033    1547175     3 mlx4-36@0000:07:00.0
  108 RX     579915    1481142     4 mlx4-37@0000:07:00.0
  109 RX     565318    1543064     5 mlx4-38@0000:07:00.0
  110 RX     581979    1471558     6 mlx4-39@0000:07:00.0
  111 RX     575098    1409071     7 mlx4-40@0000:07:00.0
total       4598006   11873341
