  num          irqs       pkts  cpus name
  104 RX     251205     616883     0 mlx4-33@0000:07:00.0
  105 RX     259718     581753     1 mlx4-34@0000:07:00.0
  106 RX     256285     605461     2 mlx4-35@0000:07:00.0
  107 RX     243781     592256     3 mlx4-36@0000:07:00.0
  108 RX     247033     584447     4 mlx4-37@0000:07:00.0
  109 RX     248205     570830     5 mlx4-38@0000:07:00.0
  110 RX     247741     579885     6 mlx4-39@0000:07:00.0
  111 RX     255945     607538     7 mlx4-40@0000:07:00.0
total       2009913    4739053
