  num          irqs       pkts  cpus name
  104 RX     233397    3658859     0 mlx4-33@0000:07:00.0
  105 RX     233856    3657329     1 mlx4-34@0000:07:00.0
  106 RX     233502    3659786     2 mlx4-35@0000:07:00.0
  107 RX     234591    3655897     3 mlx4-36@0000:07:00.0
  108 RX     233470    3682594     4 mlx4-37@0000:07:00.0
  109 RX     233265    3656416     5 mlx4-38@0000:07:00.0
  110 RX     234802    3667618     6 mlx4-39@0000:07:00.0
  111 RX     233506    3654096     7 mlx4-40@0000:07:00.0
total       1870389   29292595
