  num          irqs       pkts  cpus name
  104 RX     251674     585157     0 mlx4-33@0000:07:00.0
  105 RX     248416     594174     1 mlx4-34@0000:07:00.0
  106 RX     255230     583249     2 mlx4-35@0000:07:00.0
  107 RX     254190     590281     3 mlx4-36@0000:07:00.0
  108 RX     250861     601299     4 mlx4-37@0000:07:00.0
  109 RX     248563     597146     5 mlx4-38@0000:07:00.0
  110 RX     251903     602923     6 mlx4-39@0000:07:00.0
  111 RX     252782     593137     7 mlx4-40@0000:07:00.0
total       2013619    4747366
