  num          irqs       pkts  cpus name
  104 RX     564117    2662875     0 mlx4-33@0000:07:00.0
  105 RX     566446    2676638     1 mlx4-34@0000:07:00.0
  106 RX     562824    2677349     2 mlx4-35@0000:07:00.0
  107 RX     573655    2652210     3 mlx4-36@0000:07:00.0
  108 RX     567903    2549193     4 mlx4-37@0000:07:00.0
  109 RX     565259    2712350     5 mlx4-38@0000:07:00.0
  110 RX     563803    2527265     6 mlx4-39@0000:07:00.0
  111 RX     572803    2655232     7 mlx4-40@0000:07:00.0
total       4536810   21113112
