  num          irqs       pkts  cpus name
  104 RX     232611    3644431     0 mlx4-33@0000:07:00.0
  105 RX     231880    3641650     1 mlx4-34@0000:07:00.0
  106 RX     233006    3656085     2 mlx4-35@0000:07:00.0
  107 RX     232639    3638074     3 mlx4-36@0000:07:00.0
  108 RX     232599    3632173     4 mlx4-37@0000:07:00.0
  109 RX     232375    3661833     5 mlx4-38@0000:07:00.0
  110 RX     233437    3650296     6 mlx4-39@0000:07:00.0
  111 RX     233973    3640169     7 mlx4-40@0000:07:00.0
total       1862520   29164711
