  num          irqs       pkts  cpus name
  104 RX     238194    3717973     0 mlx4-33@0000:07:00.0
  105 RX     235216    3711497     1 mlx4-34@0000:07:00.0
  106 RX     235230    3700846     2 mlx4-35@0000:07:00.0
  107 RX     236280    3687315     3 mlx4-36@0000:07:00.0
  108 RX     236582    3691175     4 mlx4-37@0000:07:00.0
  109 RX     237055    3724974     5 mlx4-38@0000:07:00.0
  110 RX     236084    3703469     6 mlx4-39@0000:07:00.0
  111 RX     237572    3734879     7 mlx4-40@0000:07:00.0
total       1892213   29672128
