  num          irqs       pkts  cpus name
  104 RX     234888    3635430     0 mlx4-33@0000:07:00.0
  105 RX     232026    3686746     1 mlx4-34@0000:07:00.0
  106 RX     232451    3657775     2 mlx4-35@0000:07:00.0
  107 RX     231006    3622992     3 mlx4-36@0000:07:00.0
  108 RX     233345    3643162     4 mlx4-37@0000:07:00.0
  109 RX     235087    3679993     5 mlx4-38@0000:07:00.0
  110 RX     231498    3621394     6 mlx4-39@0000:07:00.0
  111 RX     232853    3649386     7 mlx4-40@0000:07:00.0
total       1863154   29196878
