  num          irqs       pkts  cpus name
  104 RX     574853    2398304     0 mlx4-33@0000:07:00.0
  105 RX     574156    2410624     1 mlx4-34@0000:07:00.0
  106 RX     574841    2288403     2 mlx4-35@0000:07:00.0
  107 RX     578694    2249908     3 mlx4-36@0000:07:00.0
  108 RX     572924    2369468     4 mlx4-37@0000:07:00.0
  109 RX     581578    2355580     5 mlx4-38@0000:07:00.0
  110 RX     577653    2402653     6 mlx4-39@0000:07:00.0
  111 RX     571109    2329427     7 mlx4-40@0000:07:00.0
total       4605808   18804367
