  num          irqs       pkts  cpus name
  104 RX     531033    2863858     0 mlx4-33@0000:07:00.0
  105 RX     521101    2982859     1 mlx4-34@0000:07:00.0
  106 RX     517586    2956187     2 mlx4-35@0000:07:00.0
  107 RX     545910    2900297     3 mlx4-36@0000:07:00.0
  108 RX     547057    2783895     4 mlx4-37@0000:07:00.0
  109 RX     556672    3017122     5 mlx4-38@0000:07:00.0
  110 RX     539443    2857648     6 mlx4-39@0000:07:00.0
  111 RX     526251    3002795     7 mlx4-40@0000:07:00.0
total       4285053   23364661
