  num          irqs       pkts  cpus name
  104 RX     568826    2660356     0 mlx4-33@0000:07:00.0
  105 RX     559540    2623102     1 mlx4-34@0000:07:00.0
  106 RX     560779    2533501     2 mlx4-35@0000:07:00.0
  107 RX     565605    2695155     3 mlx4-36@0000:07:00.0
  108 RX     567954    2669861     4 mlx4-37@0000:07:00.0
  109 RX     561705    2672309     5 mlx4-38@0000:07:00.0
  110 RX     560154    2628233     6 mlx4-39@0000:07:00.0
  111 RX     568671    2565261     7 mlx4-40@0000:07:00.0
total       4513234   21047778
