  num          irqs       pkts  cpus name
  104 RX     510012    3079060     0 mlx4-33@0000:07:00.0
  105 RX     471534    3198573     1 mlx4-34@0000:07:00.0
  106 RX     524308    3118392     2 mlx4-35@0000:07:00.0
  107 RX     494771    3133928     3 mlx4-36@0000:07:00.0
  108 RX     486803    3055855     4 mlx4-37@0000:07:00.0
  109 RX     528667    3033055     5 mlx4-38@0000:07:00.0
  110 RX     507644    2990606     6 mlx4-39@0000:07:00.0
  111 RX     519545    2991289     7 mlx4-40@0000:07:00.0
total       4043284   24600758
