  num          irqs       pkts  cpus name
  104 RX     234882    3647736     0 mlx4-33@0000:07:00.0
  105 RX     235112    3668325     1 mlx4-34@0000:07:00.0
  106 RX     232753    3665219     2 mlx4-35@0000:07:00.0
  107 RX     233868    3670123     3 mlx4-36@0000:07:00.0
  108 RX     234114    3679559     4 mlx4-37@0000:07:00.0
  109 RX     232492    3671920     5 mlx4-38@0000:07:00.0
  110 RX     234053    3688108     6 mlx4-39@0000:07:00.0
  111 RX     235283    3638987     7 mlx4-40@0000:07:00.0
total       1872557   29329977
