  num          irqs       pkts  cpus name
  104 RX     589982    2296235     0 mlx4-33@0000:07:00.0
  105 RX     592803    2445349     1 mlx4-34@0000:07:00.0
  106 RX     591610    2168907     2 mlx4-35@0000:07:00.0
  107 RX     598455    2408248     3 mlx4-36@0000:07:00.0
  108 RX     593146    2427659     4 mlx4-37@0000:07:00.0
  109 RX     596781    2260001     5 mlx4-38@0000:07:00.0
  110 RX     598693    2407342     6 mlx4-39@0000:07:00.0
  111 RX     593581    2343160     7 mlx4-40@0000:07:00.0
total       4755051   18756901
