  num          irqs       pkts  cpus name
  104 RX     453215    3213369     0 mlx4-33@0000:07:00.0
  105 RX     457688    3110181     1 mlx4-34@0000:07:00.0
  106 RX     450680    3240288     2 mlx4-35@0000:07:00.0
  107 RX     456240    3242638     3 mlx4-36@0000:07:00.0
  108 RX     422633    3149643     4 mlx4-37@0000:07:00.0
  109 RX     478621    3300389     5 mlx4-38@0000:07:00.0
  110 RX     492332    3232797     6 mlx4-39@0000:07:00.0
  111 RX     457250    3238746     7 mlx4-40@0000:07:00.0
total       3668659   25728051
