  num          irqs       pkts  cpus name
  104 RX     575819    2360134     0 mlx4-33@0000:07:00.0
  105 RX     575897    2392488     1 mlx4-34@0000:07:00.0
  106 RX     580346    2307611     2 mlx4-35@0000:07:00.0
  107 RX     584210    2425220     3 mlx4-36@0000:07:00.0
  108 RX     576389    2321573     4 mlx4-37@0000:07:00.0
  109 RX     581249    2396333     5 mlx4-38@0000:07:00.0
  110 RX     580177    2244643     6 mlx4-39@0000:07:00.0
  111 RX     582435    2311362     7 mlx4-40@0000:07:00.0
total       4636522   18759364
