  num          irqs       pkts  cpus name
  104 RX     250713    3504756     0 mlx4-33@0000:07:00.0
  105 RX     255973    3444936     1 mlx4-34@0000:07:00.0
  106 RX     223256    3466475     2 mlx4-35@0000:07:00.0
  107 RX     236684    3465612     3 mlx4-36@0000:07:00.0
  108 RX     224113    3418444     4 mlx4-37@0000:07:00.0
  109 RX     223983    3534800     5 mlx4-38@0000:07:00.0
  110 RX     226167    3492777     6 mlx4-39@0000:07:00.0
  111 RX     233438    3492897     7 mlx4-40@0000:07:00.0
total       1874327   27820697
