  num          irqs       pkts  cpus name
  104 RX     591626    2075655     0 mlx4-33@0000:07:00.0
  105 RX     589453    2055458     1 mlx4-34@0000:07:00.0
  106 RX     593816    2033878     2 mlx4-35@0000:07:00.0
  107 RX     594324    2030011     3 mlx4-36@0000:07:00.0
  108 RX     593677    2052516     4 mlx4-37@0000:07:00.0
  109 RX     595797    2114360     5 mlx4-38@0000:07:00.0
  110 RX     591699    2075575     6 mlx4-39@0000:07:00.0
  111 RX     593599    2155750     7 mlx4-40@0000:07:00.0
total       4743991   16593203
