  num          irqs       pkts  cpus name
  104 RX     385037    3283433     0 mlx4-33@0000:07:00.0
  105 RX     404451    3175793     1 mlx4-34@0000:07:00.0
  106 RX     415260    3213461     2 mlx4-35@0000:07:00.0
  107 RX     396374    3242075     3 mlx4-36@0000:07:00.0
  108 RX     417497    3210944     4 mlx4-37@0000:07:00.0
  109 RX     429188    3238194     5 mlx4-38@0000:07:00.0
  110 RX     448260    3213993     6 mlx4-39@0000:07:00.0
  111 RX     425871    3143925     7 mlx4-40@0000:07:00.0
total       3321938   25721818
