  num          irqs       pkts  cpus name
  104 RX     572131    2547149     0 mlx4-33@0000:07:00.0
  105 RX     569270    2426406     1 mlx4-34@0000:07:00.0
  106 RX     566922    2509688     2 mlx4-35@0000:07:00.0
  107 RX     574799    2429620     3 mlx4-36@0000:07:00.0
  108 RX     581602    2525159     4 mlx4-37@0000:07:00.0
  109 RX     570426    2466224     5 mlx4-38@0000:07:00.0
  110 RX     576600    2531470     6 mlx4-39@0000:07:00.0
  111 RX     573456    2529723     7 mlx4-40@0000:07:00.0
total       4585206   19965439
