  num          irqs       pkts  cpus name
  104 RX     357792    3469704     0 mlx4-33@0000:07:00.0
  105 RX     267169    3547143     1 mlx4-34@0000:07:00.0
  106 RX     234696    3644922     2 mlx4-35@0000:07:00.0
  107 RX     338407    3569575     3 mlx4-36@0000:07:00.0
  108 RX     276116    3488110     4 mlx4-37@0000:07:00.0
  109 RX     386967    3596325     5 mlx4-38@0000:07:00.0
  110 RX     324581    3445527     6 mlx4-39@0000:07:00.0
  111 RX     301988    3390165     7 mlx4-40@0000:07:00.0
total       2487716   28151471
