  num          irqs       pkts  cpus name
  104 RX     577803    1456837     0 mlx4-33@0000:07:00.0
  105 RX     574878    1528775     1 mlx4-34@0000:07:00.0
  106 RX     583188    1476385     2 mlx4-35@0000:07:00.0
  107 RX     572314    1514164     3 mlx4-36@0000:07:00.0
  108 RX     579320    1556784     4 mlx4-37@0000:07:00.0
  109 RX     575835    1506461     5 mlx4-38@0000:07:00.0
  110 RX     576709    1467318     6 mlx4-39@0000:07:00.0
  111 RX     579246    1509025     7 mlx4-40@0000:07:00.0
total       4619293   12015749
