  num          irqs       pkts  cpus name
  104 RX     537224    2922160     0 mlx4-33@0000:07:00.0
  105 RX     543029    2898326     1 mlx4-34@0000:07:00.0
  106 RX     540834    2859649     2 mlx4-35@0000:07:00.0
  107 RX     536164    2874535     3 mlx4-36@0000:07:00.0
  108 RX     523352    2974661     4 mlx4-37@0000:07:00.0
  109 RX     540649    2903592     5 mlx4-38@0000:07:00.0
  110 RX     524018    2978725     6 mlx4-39@0000:07:00.0
  111 RX     531796    2938257     7 mlx4-40@0000:07:00.0
total       4277066   23349905
