  num          irqs       pkts  cpus name
  104 RX     594602    1916303     0 mlx4-33@0000:07:00.0
  105 RX     595954    1980984     1 mlx4-34@0000:07:00.0
  106 RX     597449    1903577     2 mlx4-35@0000:07:00.0
  107 RX     598297    1990222     3 mlx4-36@0000:07:00.0
  108 RX     600522    1958386     4 mlx4-37@0000:07:00.0
  109 RX     598886    1972666     5 mlx4-38@0000:07:00.0
  110 RX     597037    1916179     6 mlx4-39@0000:07:00.0
  111 RX     597409    1886783     7 mlx4-40@0000:07:00.0
total       4780156   15525100
