  num          irqs       pkts  cpus name
  104 RX     248113     583227     0 mlx4-33@0000:07:00.0
  105 RX     251390     581652     1 mlx4-34@0000:07:00.0
  106 RX     247485     606031     2 mlx4-35@0000:07:00.0
  107 RX     251489     581152     3 mlx4-36@0000:07:00.0
  108 RX     247502     597670     4 mlx4-37@0000:07:00.0
  109 RX     253606     593216     5 mlx4-38@0000:07:00.0
  110 RX     256125     592024     6 mlx4-39@0000:07:00.0
  111 RX     258092     611082     7 mlx4-40@0000:07:00.0
total       2013802    4746054
