  num          irqs       pkts  cpus name
  104 RX     234412    3634937     0 mlx4-33@0000:07:00.0
  105 RX     234054    3676111     1 mlx4-34@0000:07:00.0
  106 RX     231966    3657687     2 mlx4-35@0000:07:00.0
  107 RX     233999    3667911     3 mlx4-36@0000:07:00.0
  108 RX     234090    3666211     4 mlx4-37@0000:07:00.0
  109 RX     233726    3663551     5 mlx4-38@0000:07:00.0
  110 RX     234453    3668457     6 mlx4-39@0000:07:00.0
  111 RX     233379    3672999     7 mlx4-40@0000:07:00.0
total       1870079   29307864
