  num          irqs       pkts  cpus name
  104 RX     232673    3613317     0 mlx4-33@0000:07:00.0
  105 RX     234848    3636164     1 mlx4-34@0000:07:00.0
  106 RX     248867    3637295     2 mlx4-35@0000:07:00.0
  107 RX     231027    3636209     3 mlx4-36@0000:07:00.0
  108 RX     232418    3565746     4 mlx4-37@0000:07:00.0
  109 RX     232371    3593985     5 mlx4-38@0000:07:00.0
  110 RX     231996    3635748     6 mlx4-39@0000:07:00.0
  111 RX     232505    3617984     7 mlx4-40@0000:07:00.0
total       1876705   28936448
