  num          irqs       pkts  cpus name
  104 RX     498231    3308289     0 mlx4-33@0000:07:00.0
  105 RX     468887    3243928     1 mlx4-34@0000:07:00.0
  106 RX     456676    3107144     2 mlx4-35@0000:07:00.0
  107 RX     429218    3122664     3 mlx4-36@0000:07:00.0
  108 RX     439071    3284118     4 mlx4-37@0000:07:00.0
  109 RX     413344    3331149     5 mlx4-38@0000:07:00.0
  110 RX     493599    3153381     6 mlx4-39@0000:07:00.0
  111 RX     486690    3189695     7 mlx4-40@0000:07:00.0
total       3685716   25740368
