  num          irqs       pkts  cpus name
  104 RX     348444    3317622     0 mlx4-33@0000:07:00.0
  105 RX     310430    3437134     1 mlx4-34@0000:07:00.0
  106 RX     377507    3366857     2 mlx4-35@0000:07:00.0
  107 RX     375456    3488078     3 mlx4-36@0000:07:00.0
  108 RX     385889    3345321     4 mlx4-37@0000:07:00.0
  109 RX     422538    3345798     5 mlx4-38@0000:07:00.0
  110 RX     383381    3366194     6 mlx4-39@0000:07:00.0
  111 RX     396569    3271524     7 mlx4-40@0000:07:00.0
total       3000214   26938528
