  num          irqs       pkts  cpus name
  104 RX     544707    2588866     0 mlx4-33@0000:07:00.0
  105 RX     568097    2648212     1 mlx4-34@0000:07:00.0
  106 RX     568090    2863488     2 mlx4-35@0000:07:00.0
  107 RX     551388    2750114     3 mlx4-36@0000:07:00.0
  108 RX     543498    2842952     4 mlx4-37@0000:07:00.0
  109 RX     535761    2762029     5 mlx4-38@0000:07:00.0
  110 RX     557898    2876545     6 mlx4-39@0000:07:00.0
  111 RX     556605    2929961     7 mlx4-40@0000:07:00.0
total       4426044   22262167
