  num          irqs       pkts  cpus name
  104 RX     446951    3143786     0 mlx4-33@0000:07:00.0
  105 RX     414843    3262658     1 mlx4-34@0000:07:00.0
  106 RX     392857    3215250     2 mlx4-35@0000:07:00.0
  107 RX     438672    3257118     3 mlx4-36@0000:07:00.0
  108 RX     394332    3237472     4 mlx4-37@0000:07:00.0
  109 RX     405416    3214024     5 mlx4-38@0000:07:00.0
  110 RX     394888    3236369     6 mlx4-39@0000:07:00.0
  111 RX     419016    3148419     7 mlx4-40@0000:07:00.0
total       3306975   25715096
