  num          irqs       pkts  cpus name
  104 RX     571930    2547842     0 mlx4-33@0000:07:00.0
  105 RX     571938    2597328     1 mlx4-34@0000:07:00.0
  106 RX     574537    2622346     2 mlx4-35@0000:07:00.0
  107 RX     572620    2783164     3 mlx4-36@0000:07:00.0
  108 RX     566431    2587522     4 mlx4-37@0000:07:00.0
  109 RX     576089    2671250     5 mlx4-38@0000:07:00.0
  110 RX     572002    2654727     6 mlx4-39@0000:07:00.0
  111 RX     569200    2639174     7 mlx4-40@0000:07:00.0
total       4574747   21103353
