  num          irqs       pkts  cpus name
  104 RX     236673    3728998     0 mlx4-33@0000:07:00.0
  105 RX     237494    3685883     1 mlx4-34@0000:07:00.0
  106 RX     236085    3672296     2 mlx4-35@0000:07:00.0
  107 RX     234934    3687821     3 mlx4-36@0000:07:00.0
  108 RX     234184    3674440     4 mlx4-37@0000:07:00.0
  109 RX     234987    3728043     5 mlx4-38@0000:07:00.0
  110 RX     237846    3706329     6 mlx4-39@0000:07:00.0
  111 RX     234213    3709283     7 mlx4-40@0000:07:00.0
total       1886416   29593093
