  num          irqs       pkts  cpus name
  104 RX     596671    1936240     0 mlx4-33@0000:07:00.0
  105 RX     599285    1914506     1 mlx4-34@0000:07:00.0
  106 RX     600724    1887007     2 mlx4-35@0000:07:00.0
  107 RX     600210    1964080     3 mlx4-36@0000:07:00.0
  108 RX     602823    1953479     4 mlx4-37@0000:07:00.0
  109 RX     601690    1923582     5 mlx4-38@0000:07:00.0
  110 RX     597656    1966352     6 mlx4-39@0000:07:00.0
  111 RX     599446    1967772     7 mlx4-40@0000:07:00.0
total       4798505   15513018
