  num          irqs       pkts  cpus name
  104 RX     580590    2231096     0 mlx4-33@0000:07:00.0
  105 RX     581033    2142285     1 mlx4-34@0000:07:00.0
  106 RX     585789    2222294     2 mlx4-35@0000:07:00.0
  107 RX     587804    2149297     3 mlx4-36@0000:07:00.0
  108 RX     585525    2143466     4 mlx4-37@0000:07:00.0
  109 RX     584355    2194202     5 mlx4-38@0000:07:00.0
  110 RX     584527    2198570     6 mlx4-39@0000:07:00.0
  111 RX     584824    2319772     7 mlx4-40@0000:07:00.0
total       4674447   17600982
