  num          irqs       pkts  cpus name
  104 RX     364894    3250873     0 mlx4-33@0000:07:00.0
  105 RX     427917    3294970     1 mlx4-34@0000:07:00.0
  106 RX     330832    3391053     2 mlx4-35@0000:07:00.0
  107 RX     379223    3465412     3 mlx4-36@0000:07:00.0
  108 RX     361699    3276545     4 mlx4-37@0000:07:00.0
  109 RX     432057    3441238     5 mlx4-38@0000:07:00.0
  110 RX     341125    3418959     6 mlx4-39@0000:07:00.0
  111 RX     448475    3414935     7 mlx4-40@0000:07:00.0
total       3086222   26953985
