  num          irqs       pkts  cpus name
  104 RX     582102    1515051     0 mlx4-33@0000:07:00.0
  105 RX     573672    1503981     1 mlx4-34@0000:07:00.0
  106 RX     580123    1537229     2 mlx4-35@0000:07:00.0
  107 RX     576079    1476223     3 mlx4-36@0000:07:00.0
  108 RX     577831    1464445     4 mlx4-37@0000:07:00.0
  109 RX     575984    1530442     5 mlx4-38@0000:07:00.0
  110 RX     583364    1458576     6 mlx4-39@0000:07:00.0
  111 RX     584344    1446011     7 mlx4-40@0000:07:00.0
total       4633499   11931958
