  num          irqs       pkts  cpus name
  104 RX     585983    2132469     0 mlx4-33@0000:07:00.0
  105 RX     584997    2236765     1 mlx4-34@0000:07:00.0
  106 RX     584279    2253977     2 mlx4-35@0000:07:00.0
  107 RX     588831    2242678     3 mlx4-36@0000:07:00.0
  108 RX     588190    2217554     4 mlx4-37@0000:07:00.0
  109 RX     590799    2165221     5 mlx4-38@0000:07:00.0
  110 RX     586493    2233153     6 mlx4-39@0000:07:00.0
  111 RX     591130    2167898     7 mlx4-40@0000:07:00.0
total       4700702   17649715
