sent    4024735 | retrans          0 | timeout          0 | loss rate 0.0000%
sent    4024288 | retrans          0 | timeout          0 | loss rate 0.0000%
sent    4023498 | retrans          0 | timeout          0 | loss rate 0.0000%
sent    4025873 | retrans          0 | timeout          0 | loss rate 0.0000%
sent    4017496 | retrans          0 | timeout          0 | loss rate 0.0000%
sent    4019831 | retrans          0 | timeout          0 | loss rate 0.0000%
sent    4025700 | retrans          0 | timeout          0 | loss rate 0.0000%
