sent    3515082 | retrans          0 | timeout          0 | loss rate 0.0000%
sent    3512868 | retrans          0 | timeout          0 | loss rate 0.0000%
sent    3517090 | retrans          0 | timeout          0 | loss rate 0.0000%
sent    3512736 | retrans          0 | timeout          0 | loss rate 0.0000%
sent    3514257 | retrans          0 | timeout          0 | loss rate 0.0000%
sent    3510330 | retrans          0 | timeout          0 | loss rate 0.0000%
sent    3518825 | retrans          0 | timeout          0 | loss rate 0.0000%
