sent    4155574 | retrans          0 | timeout          0 | loss rate 0.0000%
sent    4157855 | retrans          0 | timeout          0 | loss rate 0.0000%
sent    4169652 | retrans          0 | timeout          0 | loss rate 0.0000%
sent    4155071 | retrans          0 | timeout          0 | loss rate 0.0000%
sent    4159833 | retrans          0 | timeout          0 | loss rate 0.0000%
sent    4160529 | retrans          0 | timeout          0 | loss rate 0.0000%
sent    4155247 | retrans          0 | timeout          0 | loss rate 0.0000%
