sent    4135734 | retrans          0 | timeout          0 | loss rate 0.0000%
sent    4134877 | retrans          0 | timeout          0 | loss rate 0.0000%
sent    4135734 | retrans          0 | timeout          0 | loss rate 0.0000%
sent    4137789 | retrans          0 | timeout          0 | loss rate 0.0000%
sent    4137452 | retrans          0 | timeout          0 | loss rate 0.0000%
sent    4135811 | retrans          0 | timeout          0 | loss rate 0.0000%
sent    4131671 | retrans          0 | timeout          0 | loss rate 0.0000%
