sent    3175971 | retrans          0 | timeout          0 | loss rate 0.0000%
sent    3172346 | retrans          0 | timeout          0 | loss rate 0.0000%
sent    3181554 | retrans          0 | timeout          0 | loss rate 0.0000%
sent    3176829 | retrans          0 | timeout          0 | loss rate 0.0000%
sent    3181158 | retrans          0 | timeout          0 | loss rate 0.0000%
sent    3182953 | retrans          0 | timeout          0 | loss rate 0.0000%
sent    3182702 | retrans          0 | timeout          0 | loss rate 0.0000%
