sent    3510394 | retrans          0 | timeout          0 | loss rate 0.0000%
sent    3505857 | retrans          0 | timeout          0 | loss rate 0.0000%
sent    3509596 | retrans          0 | timeout          0 | loss rate 0.0000%
sent    3511034 | retrans          0 | timeout          0 | loss rate 0.0000%
sent    3514122 | retrans          0 | timeout          0 | loss rate 0.0000%
sent    3506174 | retrans          0 | timeout          0 | loss rate 0.0000%
sent    3511823 | retrans          0 | timeout          0 | loss rate 0.0000%
