sent    3846675 | retrans          0 | timeout          0 | loss rate 0.0000%
sent    3849482 | retrans          0 | timeout          0 | loss rate 0.0000%
sent    3849568 | retrans          0 | timeout          0 | loss rate 0.0000%
sent    3851454 | retrans          0 | timeout          0 | loss rate 0.0000%
sent    3849159 | retrans          0 | timeout          0 | loss rate 0.0000%
sent    3846855 | retrans          0 | timeout          0 | loss rate 0.0000%
sent    3851452 | retrans          0 | timeout          0 | loss rate 0.0000%
