sent    3675024 | retrans          0 | timeout          0 | loss rate 0.0000%
sent    3675813 | retrans          0 | timeout          0 | loss rate 0.0000%
sent    3674417 | retrans          0 | timeout          0 | loss rate 0.0000%
sent    3677005 | retrans          0 | timeout          0 | loss rate 0.0000%
sent    3672452 | retrans          0 | timeout          0 | loss rate 0.0000%
sent    3678069 | retrans          0 | timeout          0 | loss rate 0.0000%
sent    3676446 | retrans          0 | timeout          0 | loss rate 0.0000%
