sent    2517033 | retrans          0 | timeout          0 | loss rate 0.0000%
sent    2504949 | retrans          0 | timeout          0 | loss rate 0.0000%
sent    2528795 | retrans          0 | timeout          0 | loss rate 0.0000%
sent    2515045 | retrans          0 | timeout          0 | loss rate 0.0000%
sent    2512165 | retrans          0 | timeout          0 | loss rate 0.0000%
sent    2527821 | retrans          0 | timeout          0 | loss rate 0.0000%
sent    2517067 | retrans          0 | timeout          0 | loss rate 0.0000%
