sent    2843320 | retrans          0 | timeout          0 | loss rate 0.0000%
sent    2845508 | retrans          0 | timeout          0 | loss rate 0.0000%
sent    2847154 | retrans          0 | timeout          0 | loss rate 0.0000%
sent    2853934 | retrans          0 | timeout          0 | loss rate 0.0000%
sent    2846602 | retrans          0 | timeout          0 | loss rate 0.0000%
sent    2848551 | retrans          0 | timeout          0 | loss rate 0.0000%
sent    2851742 | retrans          0 | timeout          0 | loss rate 0.0000%
