sent    3173777 | retrans          0 | timeout          0 | loss rate 0.0000%
sent    3167106 | retrans          0 | timeout          0 | loss rate 0.0000%
sent    3169291 | retrans          0 | timeout          0 | loss rate 0.0000%
sent    3172687 | retrans          0 | timeout          0 | loss rate 0.0000%
sent    3169635 | retrans          0 | timeout          0 | loss rate 0.0000%
sent    3170351 | retrans          0 | timeout          0 | loss rate 0.0000%
sent    3173557 | retrans          0 | timeout          0 | loss rate 0.0000%
