sent    2681016 | retrans          0 | timeout          0 | loss rate 0.0000%
sent    2679475 | retrans          0 | timeout          0 | loss rate 0.0000%
sent    2686709 | retrans          0 | timeout          0 | loss rate 0.0000%
sent    2684513 | retrans          0 | timeout          0 | loss rate 0.0000%
sent    2688975 | retrans          0 | timeout          0 | loss rate 0.0000%
sent    2694257 | retrans          0 | timeout          0 | loss rate 0.0000%
sent    2689852 | retrans          0 | timeout          0 | loss rate 0.0000%
