sent    2836959 | retrans          0 | timeout          0 | loss rate 0.0000%
sent    2843544 | retrans          0 | timeout          0 | loss rate 0.0000%
sent    2856613 | retrans          0 | timeout          0 | loss rate 0.0000%
sent    2852694 | retrans          0 | timeout          0 | loss rate 0.0000%
sent    2845680 | retrans          0 | timeout          0 | loss rate 0.0000%
sent    2849895 | retrans          0 | timeout          0 | loss rate 0.0000%
sent    2855060 | retrans          0 | timeout          0 | loss rate 0.0000%
