sent    4167622 | retrans          0 | timeout          0 | loss rate 0.0000%
sent    4163173 | retrans          0 | timeout          0 | loss rate 0.0000%
sent    4171167 | retrans          0 | timeout          0 | loss rate 0.0000%
sent    4163825 | retrans          0 | timeout          0 | loss rate 0.0000%
sent    4163837 | retrans          0 | timeout          0 | loss rate 0.0000%
sent    4165453 | retrans          0 | timeout          0 | loss rate 0.0000%
sent    4161796 | retrans          0 | timeout          0 | loss rate 0.0000%
