sent    4173843 | retrans          0 | timeout          0 | loss rate 0.0000%
sent    4178629 | retrans          0 | timeout          0 | loss rate 0.0000%
sent    4174778 | retrans          0 | timeout          0 | loss rate 0.0000%
sent    4174139 | retrans          0 | timeout          0 | loss rate 0.0000%
sent    4171802 | retrans          0 | timeout          0 | loss rate 0.0000%
sent    4171139 | retrans          0 | timeout          0 | loss rate 0.0000%
sent    4166949 | retrans          0 | timeout          0 | loss rate 0.0000%
