sent    1723077 | retrans          0 | timeout          0 | loss rate 0.0000%
sent    1692138 | retrans          0 | timeout          0 | loss rate 0.0000%
sent    1737822 | retrans          0 | timeout          0 | loss rate 0.0000%
sent    1712642 | retrans          0 | timeout          0 | loss rate 0.0000%
sent    1698446 | retrans          0 | timeout          0 | loss rate 0.0000%
sent    1701858 | retrans          0 | timeout          0 | loss rate 0.0000%
sent    1727039 | retrans          0 | timeout          0 | loss rate 0.0000%
