sent    1719505 | retrans          0 | timeout          0 | loss rate 0.0000%
sent    1703198 | retrans          0 | timeout          0 | loss rate 0.0000%
sent    1725892 | retrans          0 | timeout          0 | loss rate 0.0000%
sent    1728555 | retrans          0 | timeout          0 | loss rate 0.0000%
sent    1715345 | retrans          0 | timeout          0 | loss rate 0.0000%
sent    1710981 | retrans          0 | timeout          0 | loss rate 0.0000%
sent    1700724 | retrans          0 | timeout          0 | loss rate 0.0000%
