sent    2841294 | retrans          0 | timeout          0 | loss rate 0.0000%
sent    2847315 | retrans          0 | timeout          0 | loss rate 0.0000%
sent    2841890 | retrans          0 | timeout          0 | loss rate 0.0000%
sent    2845479 | retrans          0 | timeout          0 | loss rate 0.0000%
sent    2845126 | retrans          0 | timeout          0 | loss rate 0.0000%
sent    2846771 | retrans          0 | timeout          0 | loss rate 0.0000%
sent    2847015 | retrans          0 | timeout          0 | loss rate 0.0000%
