sent    2851137 | retrans          0 | timeout          0 | loss rate 0.0000%
sent    2854640 | retrans          0 | timeout          0 | loss rate 0.0000%
sent    2845755 | retrans          0 | timeout          0 | loss rate 0.0000%
sent    2855397 | retrans          0 | timeout          0 | loss rate 0.0000%
sent    2863358 | retrans          0 | timeout          0 | loss rate 0.0000%
sent    2848938 | retrans          0 | timeout          0 | loss rate 0.0000%
sent    2855104 | retrans          0 | timeout          0 | loss rate 0.0000%
