sent    1714801 | retrans          0 | timeout          0 | loss rate 0.0000%
sent    1717847 | retrans          0 | timeout          0 | loss rate 0.0000%
sent    1727595 | retrans          0 | timeout          0 | loss rate 0.0000%
sent    1721370 | retrans          0 | timeout          0 | loss rate 0.0000%
sent    1711084 | retrans          0 | timeout          0 | loss rate 0.0000%
sent    1701373 | retrans          0 | timeout          0 | loss rate 0.0000%
sent    1717624 | retrans          0 | timeout          0 | loss rate 0.0000%
sent    1724211 | retrans          0 | timeout          0 | loss rate 0.0000%
sent    1700910 | retrans          0 | timeout          0 | loss rate 0.0000%
sent    1715728 | retrans          0 | timeout          0 | loss rate 0.0000%
sent    1714007 | retrans          0 | timeout          0 | loss rate 0.0000%
sent    1700621 | retrans          0 | timeout          0 | loss rate 0.0000%
sent    1730133 | retrans          0 | timeout          0 | loss rate 0.0000%
sent    1720823 | retrans          0 | timeout          0 | loss rate 0.0000%
