sent    2999543 | retrans          0 | timeout          0 | loss rate 0.0000%
sent    2990546 | retrans          0 | timeout          0 | loss rate 0.0000%
sent    3007145 | retrans          0 | timeout          0 | loss rate 0.0000%
sent    2997761 | retrans          0 | timeout          0 | loss rate 0.0000%
sent    3003764 | retrans          0 | timeout          0 | loss rate 0.0000%
sent    3003520 | retrans          0 | timeout          0 | loss rate 0.0000%
sent    2993272 | retrans          0 | timeout          0 | loss rate 0.0000%
