sent     674670 | retrans          0 | timeout          0 | loss rate 0.0000%
sent     678284 | retrans          0 | timeout          0 | loss rate 0.0000%
sent     678702 | retrans          0 | timeout          0 | loss rate 0.0000%
sent     676169 | retrans          0 | timeout          0 | loss rate 0.0000%
sent     680208 | retrans          0 | timeout          0 | loss rate 0.0000%
sent     676861 | retrans          0 | timeout          0 | loss rate 0.0000%
sent     678610 | retrans          0 | timeout          0 | loss rate 0.0000%
