sent    2518855 | retrans          0 | timeout          0 | loss rate 0.0000%
sent    2527247 | retrans          0 | timeout          0 | loss rate 0.0000%
sent    2528917 | retrans          0 | timeout          0 | loss rate 0.0000%
sent    2530258 | retrans          0 | timeout          0 | loss rate 0.0000%
sent    2530480 | retrans          0 | timeout          0 | loss rate 0.0000%
sent    2518658 | retrans          0 | timeout          0 | loss rate 0.0000%
sent    2534211 | retrans          0 | timeout          0 | loss rate 0.0000%
