sent    2666978 | retrans          0 | timeout          0 | loss rate 0.0000%
sent    2670959 | retrans          0 | timeout          0 | loss rate 0.0000%
sent    2683638 | retrans          0 | timeout          0 | loss rate 0.0000%
sent    2676255 | retrans          0 | timeout          0 | loss rate 0.0000%
sent    2678485 | retrans          0 | timeout          0 | loss rate 0.0000%
sent    2678983 | retrans          0 | timeout          0 | loss rate 0.0000%
sent    2682250 | retrans          0 | timeout          0 | loss rate 0.0000%
