sent    3505586 | retrans          0 | timeout          0 | loss rate 0.0000%
sent    3502590 | retrans          0 | timeout          0 | loss rate 0.0000%
sent    3504544 | retrans          0 | timeout          0 | loss rate 0.0000%
sent    3508182 | retrans          0 | timeout          0 | loss rate 0.0000%
sent    3503834 | retrans          0 | timeout          0 | loss rate 0.0000%
sent    3508626 | retrans          0 | timeout          0 | loss rate 0.0000%
sent    3502735 | retrans          0 | timeout          0 | loss rate 0.0000%
