sent    2212169 | retrans          0 | timeout          0 | loss rate 0.0000%
sent    2223215 | retrans          0 | timeout          0 | loss rate 0.0000%
sent    2225130 | retrans          0 | timeout          0 | loss rate 0.0000%
sent    2217641 | retrans          0 | timeout          0 | loss rate 0.0000%
sent    2215016 | retrans          0 | timeout          0 | loss rate 0.0000%
sent    2213080 | retrans          0 | timeout          0 | loss rate 0.0000%
sent    2205674 | retrans          0 | timeout          0 | loss rate 0.0000%
