sent    4107126 | retrans          0 | timeout          0 | loss rate 0.0000%
sent    4112553 | retrans          0 | timeout          0 | loss rate 0.0000%
sent    4108604 | retrans          0 | timeout          0 | loss rate 0.0000%
sent    4112395 | retrans          0 | timeout          0 | loss rate 0.0000%
sent    4113542 | retrans          0 | timeout          0 | loss rate 0.0000%
sent    4116544 | retrans          0 | timeout          0 | loss rate 0.0000%
sent    4106077 | retrans          0 | timeout          0 | loss rate 0.0000%
