sent    4155782 | retrans          0 | timeout          0 | loss rate 0.0000%
sent    4157013 | retrans          0 | timeout          0 | loss rate 0.0000%
sent    4165464 | retrans          0 | timeout          0 | loss rate 0.0000%
sent    4160799 | retrans          0 | timeout          0 | loss rate 0.0000%
sent    4152574 | retrans          0 | timeout          0 | loss rate 0.0000%
sent    4156522 | retrans          0 | timeout          0 | loss rate 0.0000%
sent    4154916 | retrans          0 | timeout          0 | loss rate 0.0000%
