sent    3500861 | retrans          0 | timeout          0 | loss rate 0.0000%
sent    3505813 | retrans          0 | timeout          0 | loss rate 0.0000%
sent    3505326 | retrans          0 | timeout          0 | loss rate 0.0000%
sent    3509183 | retrans          0 | timeout          0 | loss rate 0.0000%
sent    3506503 | retrans          0 | timeout          0 | loss rate 0.0000%
sent    3506264 | retrans          0 | timeout          0 | loss rate 0.0000%
sent    3504745 | retrans          0 | timeout          0 | loss rate 0.0000%
