sent    3330351 | retrans          0 | timeout          0 | loss rate 0.0000%
sent    3329193 | retrans          0 | timeout          0 | loss rate 0.0000%
sent    3332489 | retrans          0 | timeout          0 | loss rate 0.0000%
sent    3332911 | retrans          0 | timeout          0 | loss rate 0.0000%
sent    3326864 | retrans          0 | timeout          0 | loss rate 0.0000%
sent    3334125 | retrans          0 | timeout          0 | loss rate 0.0000%
sent    3336581 | retrans          0 | timeout          0 | loss rate 0.0000%
