sent    2847070 | retrans          0 | timeout          0 | loss rate 0.0000%
sent    2848326 | retrans          0 | timeout          0 | loss rate 0.0000%
sent    2856056 | retrans          0 | timeout          0 | loss rate 0.0000%
sent    2851584 | retrans          0 | timeout          0 | loss rate 0.0000%
sent    2850571 | retrans          0 | timeout          0 | loss rate 0.0000%
sent    2851354 | retrans          0 | timeout          0 | loss rate 0.0000%
sent    2860905 | retrans          0 | timeout          0 | loss rate 0.0000%
