sent    3341073 | retrans          0 | timeout          0 | loss rate 0.0000%
sent    3341416 | retrans          0 | timeout          0 | loss rate 0.0000%
sent    3339185 | retrans          0 | timeout          0 | loss rate 0.0000%
sent    3342285 | retrans          0 | timeout          0 | loss rate 0.0000%
sent    3334602 | retrans          0 | timeout          0 | loss rate 0.0000%
sent    3339839 | retrans          0 | timeout          0 | loss rate 0.0000%
sent    3343411 | retrans          0 | timeout          0 | loss rate 0.0000%
