sent    3174154 | retrans          0 | timeout          0 | loss rate 0.0000%
sent    3170865 | retrans          0 | timeout          0 | loss rate 0.0000%
sent    3171825 | retrans          0 | timeout          0 | loss rate 0.0000%
sent    3175622 | retrans          0 | timeout          0 | loss rate 0.0000%
sent    3168931 | retrans          0 | timeout          0 | loss rate 0.0000%
sent    3174086 | retrans          0 | timeout          0 | loss rate 0.0000%
sent    3173795 | retrans          0 | timeout          0 | loss rate 0.0000%
