sent    4185950 | retrans          0 | timeout          0 | loss rate 0.0000%
sent    4187344 | retrans          0 | timeout          0 | loss rate 0.0000%
sent    4186244 | retrans          0 | timeout          0 | loss rate 0.0000%
sent    4188049 | retrans          0 | timeout          0 | loss rate 0.0000%
sent    4186845 | retrans          0 | timeout          0 | loss rate 0.0000%
sent    4191290 | retrans          0 | timeout          0 | loss rate 0.0000%
sent    4182575 | retrans          0 | timeout          0 | loss rate 0.0000%
