  num          irqs       pkts  cpus name
  104 RX    3679401    4354899     0 mlx4-33@0000:07:00.0
  105 RX    3647889    4304732     1 mlx4-34@0000:07:00.0
  106 RX    3688902    4370809     2 mlx4-35@0000:07:00.0
  107 RX    3754153    4456234     3 mlx4-36@0000:07:00.0
  108 RX     297756          0     4 mlx4-37@0000:07:00.0
  109 RX     297772          0     5 mlx4-38@0000:07:00.0
total      15365873   17486674
