#type       avg     std     min     5th    10th    50th    90th    95th    99th
read       62.8    18.5    32.4    42.8    45.8    59.1    83.4    94.1   119.1
update      0.0     0.0     0.0     0.0     0.0     0.0     0.0     0.0     0.0
op_q        1.0     0.0     1.0     1.0     1.0     1.1     1.1     1.1     1.1
rx      2083366.9 54232.5 1866344.5 1965651.6 1976602.3 2064208.0 2151813.6 2253664.3 2345533.4

Total QPS = 319955.0 (9598650 / 30.0s)

Misses = 0 (0.0%)
Skipped TXs = 0 (0.0%)

RX 2342251540 bytes :   74.5 MB/s
TX  405281867 bytes :   12.9 MB/s
