#type       avg     std     min     5th    10th    50th    90th    95th    99th
read       91.2    70.5    29.5    47.0    51.7    78.7   141.2   169.6   247.3
update      0.0     0.0     0.0     0.0     0.0     0.0     0.0     0.0     0.0
op_q        1.0     0.0     1.0     1.0     1.0     1.1     1.1     1.1     1.1
rx      3147243.7 57920.5 3005766.4 2893845.7 2921805.6 3145484.4 3403055.7 3435388.8 3461255.2

Total QPS = 479895.9 (14396878 / 30.0s)

Misses = 0 (0.0%)
Skipped TXs = 0 (0.0%)

RX 3521602063 bytes :  111.9 MB/s
TX  607868649 bytes :   19.3 MB/s
