#type       avg     std     min     5th    10th    50th    90th    95th    99th
read       90.8    79.6    29.5    46.4    51.1    77.7   141.0   170.7   252.7
update      0.0     0.0     0.0     0.0     0.0     0.0     0.0     0.0     0.0
op_q        1.0     0.0     1.0     1.0     1.0     1.1     1.1     1.1     1.1
rx      3151246.1 62744.6 3005766.4 2893845.7 2921805.6 3145484.4 3403055.7 3435388.8 3461255.2

Total QPS = 480247.2 (14407416 / 30.0s)

Misses = 0 (0.0%)
Skipped TXs = 0 (0.0%)

RX 3531810811 bytes :  112.3 MB/s
TX  608313518 bytes :   19.3 MB/s
