#type       avg     std     min     5th    10th    50th    90th    95th    99th
read       90.7    85.0    29.5    46.5    51.2    77.8   139.8   168.5   248.0
update      0.0     0.0     0.0     0.0     0.0     0.0     0.0     0.0     0.0
op_q        1.0     0.0     1.0     1.0     1.0     1.1     1.1     1.1     1.1
rx      3156612.6 64808.7 3005766.4 2896455.3 2927024.7 3171018.4 3408381.2 3438051.5 3461787.8

Total QPS = 480120.0 (14403602 / 30.0s)

Misses = 0 (0.0%)
Skipped TXs = 0 (0.0%)

RX 3537913887 bytes :  112.5 MB/s
TX  608207448 bytes :   19.3 MB/s
