#type       avg     std     min     5th    10th    50th    90th    95th    99th
read       97.5   142.9    32.4    47.7    52.5    80.5   148.7   180.9   279.2
update      0.0     0.0     0.0     0.0     0.0     0.0     0.0     0.0     0.0
op_q        1.0     0.0     1.0     1.0     1.0     1.1     1.1     1.1     1.1
rx      3155702.7 65058.7 3005766.4 2893845.7 2921805.6 3145484.4 3403055.7 3435388.8 3461255.2

Total QPS = 479933.7 (14398016 / 30.0s)

Misses = 0 (0.0%)
Skipped TXs = 0 (0.0%)

RX 3536727295 bytes :  112.4 MB/s
TX  607946169 bytes :   19.3 MB/s
