#type       avg     std     min     5th    10th    50th    90th    95th    99th
read      116.4    82.5    29.5    50.3    56.0    96.5   198.0   244.6   370.7
update      0.0     0.0     0.0     0.0     0.0     0.0     0.0     0.0     0.0
op_q        1.0     0.0     1.0     1.0     1.0     1.1     1.1     1.1     1.1
rx      3411588.3 68931.9 3005766.4 3170562.4 3191234.3 3356610.0 3664538.5 3739516.3 3799498.5

Total QPS = 519808.6 (15594259 / 30.0s)

Misses = 0 (0.0%)
Skipped TXs = 0 (0.0%)

RX 3819203673 bytes :  121.4 MB/s
TX  658491714 bytes :   20.9 MB/s
