#type       avg     std     min     5th    10th    50th    90th    95th    99th
read      125.9   113.1    29.5    51.3    57.2   101.1   216.5   272.4   437.4
update      0.0     0.0     0.0     0.0     0.0     0.0     0.0     0.0     0.0
op_q        1.0     0.0     1.0     1.0     1.0     1.1     1.1     1.1     1.1
rx      3418664.5 61364.0 3306343.1 3172177.4 3191880.3 3349504.1 3641107.9 3727801.0 3797155.4

Total QPS = 519711.2 (15591336 / 30.0s)

Misses = 0 (0.0%)
Skipped TXs = 0 (0.0%)

RX 3829331259 bytes :  121.7 MB/s
TX  658345629 bytes :   20.9 MB/s
