#type       avg     std     min     5th    10th    50th    90th    95th    99th
read      293.3   294.3    29.5    61.1    73.9   190.6   661.2   905.2  1432.8
update      0.0     0.0     0.0     0.0     0.0     0.0     0.0     0.0     0.0
op_q        1.0     0.0     1.0     1.0     1.0     1.1     1.1     1.1     1.1
rx      3670140.2 65799.5 3636977.4 3485391.8 3503061.7 3644421.1 3785780.4 3803450.3 3992503.8

Total QPS = 559970.9 (16799127 / 30.0s)

Misses = 0 (0.0%)
Skipped TXs = 0 (0.0%)

RX 4107788376 bytes :  130.6 MB/s
TX  709381946 bytes :   22.6 MB/s
