#type       avg     std     min     5th    10th    50th    90th    95th    99th
read      224.0   246.2    32.4    58.4    69.1   159.3   438.2   585.1  1136.6
update      0.0     0.0     0.0     0.0     0.0     0.0     0.0     0.0     0.0
op_q        1.0     0.0     1.0     1.0     1.0     1.1     1.1     1.1     1.1
rx      3683337.1 69177.4 3306343.1 3483691.6 3501942.8 3647952.1 3793961.5 3812212.6 4108755.0

Total QPS = 559840.8 (16795225 / 30.0s)

Misses = 0 (0.0%)
Skipped TXs = 0 (0.0%)

RX 4124316165 bytes :  131.1 MB/s
TX  709093692 bytes :   22.5 MB/s
