#type       avg     std     min     5th    10th    50th    90th    95th    99th
read     1212.2   809.4    32.4    97.3   139.5  1700.5  2038.7  2139.1  2242.2
update      0.0     0.0     0.0     0.0     0.0     0.0     0.0     0.0     0.0
op_q        1.0     0.0     1.0     1.0     1.0     1.1     1.1     1.1     1.1
rx      3865931.0 119955.2 3636977.4 3519095.5 3570469.2 3908057.1 4138366.2 4167154.8 4190185.7

Total QPS = 587754.2 (17632632 / 30.0s)

Misses = 0 (0.0%)
Skipped TXs = 0 (0.0%)

RX 4328685549 bytes :  137.6 MB/s
TX  744603424 bytes :   23.7 MB/s
