#type       avg     std     min     5th    10th    50th    90th    95th    99th
read     1903.2   193.4   149.0  1695.7  1714.9  1870.7  2128.2  2197.0  2252.1
update      0.0     0.0     0.0     0.0     0.0     0.0     0.0     0.0     0.0
op_q        1.0     0.0     1.0     1.0     1.0     1.1     1.1     1.1     1.1
rx      3852628.0 277692.0 3306343.1 3292584.4 3432694.4 3831078.8 4184886.9 4375769.6 4567584.1

Total QPS = 587154.0 (17614620 / 30.0s)

Misses = 0 (0.0%)
Skipped TXs = 0 (0.0%)

RX 4312391107 bytes :  137.1 MB/s
TX  743750282 bytes :   23.6 MB/s
