#type       avg     std     min     5th    10th    50th    90th    95th    99th
read     1560.8   568.2    35.7   422.6   639.9  1812.7  2047.6  2159.0  2250.3
update      0.0     0.0     0.0     0.0     0.0     0.0     0.0     0.0     0.0
op_q        1.0     0.0     1.0     1.0     1.0     1.1     1.1     1.1     1.1
rx      3942525.3 256505.6 3636977.4 3503750.1 3539778.4 3838334.6 4423723.2 4519630.5 4596356.3

Total QPS = 600439.7 (18013193 / 30.0s)

Misses = 0 (0.0%)
Skipped TXs = 0 (0.0%)

RX 4426403865 bytes :  140.7 MB/s
TX  760673563 bytes :   24.2 MB/s
