#type       avg     std     min     5th    10th    50th    90th    95th    99th
read     1876.4   161.3   149.0  1704.6  1721.7  1858.8  2019.4  2039.6  2207.0
update      0.0     0.0     0.0     0.0     0.0     0.0     0.0     0.0     0.0
op_q        1.0     0.0     1.0     1.0     1.0     1.1     1.1     1.1     1.1
rx      3922849.1 197706.9 3636977.4 3506794.8 3545867.7 3857407.1 4162566.6 4242565.0 4540943.2

Total QPS = 596556.3 (17896691 / 30.0s)

Misses = 0 (0.0%)
Skipped TXs = 0 (0.0%)

RX 4396298019 bytes :  139.8 MB/s
TX  755695751 bytes :   24.0 MB/s
