#type       avg     std     min     5th    10th    50th    90th    95th    99th
read     1852.5   157.3   180.3  1696.6  1713.3  1846.8  2012.3  2033.5  2147.3
update      0.0     0.0     0.0     0.0     0.0     0.0     0.0     0.0     0.0
op_q        1.0     0.0     1.0     1.0     1.0     1.1     1.1     1.1     1.1
rx      3983976.9 191855.6 3636977.4 3540726.5 3613731.2 3979657.7 4346997.4 4481267.6 4588683.7

Total QPS = 604309.7 (18129292 / 30.0s)

Misses = 0 (0.0%)
Skipped TXs = 0 (0.0%)

RX 4464006427 bytes :  141.9 MB/s
TX  765466400 bytes :   24.3 MB/s
