#type       avg     std     min     5th    10th    50th    90th    95th    99th
read     1842.4   158.2   163.9  1633.1  1699.8  1843.4  2014.9  2036.9  2189.3
update      0.0     0.0     0.0     0.0     0.0     0.0     0.0     0.0     0.0
op_q        1.0     0.0     1.0     1.0     1.0     1.1     1.1     1.1     1.1
rx      3989136.6 228130.4 3636977.4 3518161.4 3568601.0 3976125.1 4469591.9 4542564.9 4600943.2

Total QPS = 607055.6 (18211670 / 30.0s)

Misses = 0 (0.0%)
Skipped TXs = 0 (0.0%)

RX 4464662413 bytes :  141.9 MB/s
TX  769018925 bytes :   24.4 MB/s
