#type       avg     std     min     5th    10th    50th    90th    95th    99th
read     1845.7   169.2   180.3  1642.8  1702.4  1846.4  2012.8  2033.9  2163.3
update      0.0     0.0     0.0     0.0     0.0     0.0     0.0     0.0     0.0
op_q        1.0     0.0     1.0     1.0     1.0     1.1     1.1     1.1     1.1
rx      3975942.0 224712.8 3636977.4 3516391.6 3565061.4 3936345.9 4398973.0 4507255.4 4593881.3

Total QPS = 606739.9 (18202198 / 30.0s)

Misses = 0 (0.0%)
Skipped TXs = 0 (0.0%)

RX 4458315008 bytes :  141.7 MB/s
TX  768698790 bytes :   24.4 MB/s
