#type       avg     std     min     5th    10th    50th    90th    95th    99th
read     1847.6   191.6   239.9  1579.3  1621.1  1844.1  2033.2  2106.3  2237.3
update      0.0     0.0     0.0     0.0     0.0     0.0     0.0     0.0     0.0
op_q        1.0     0.0     1.0     1.0     1.0     1.1     1.1     1.1     1.1
rx      3985780.5 298134.8 3636977.4 3505724.3 3543726.7 3930587.3 4510639.2 4563088.5 4605047.9

Total QPS = 605985.0 (18179551 / 30.0s)

Misses = 0 (0.0%)
Skipped TXs = 0 (0.0%)

RX 4464297722 bytes :  141.9 MB/s
TX  767641189 bytes :   24.4 MB/s
