#type       avg     std     min     5th    10th    50th    90th    95th    99th
read     1855.5   161.9   290.3  1683.3  1709.6  1853.1  2015.0  2035.4  2172.6
update      0.0     0.0     0.0     0.0     0.0     0.0     0.0     0.0     0.0
op_q        1.0     0.0     1.0     1.0     1.0     1.1     1.1     1.1     1.1
rx      3951825.7 209832.4 3636977.4 3510401.5 3553081.2 3897417.8 4357325.9 4486431.8 4589716.6

Total QPS = 603607.0 (18108210 / 30.0s)

Misses = 0 (0.0%)
Skipped TXs = 0 (0.0%)

RX 4429010720 bytes :  140.8 MB/s
TX  764635893 bytes :   24.3 MB/s
