#type       avg     std     min     5th    10th    50th    90th    95th    99th
read     1848.4   199.5   239.9  1587.4  1637.3  1843.1  2037.7  2127.9  2239.9
update      0.0     0.0     0.0     0.0     0.0     0.0     0.0     0.0     0.0
op_q        1.0     0.0     1.0     1.0     1.0     1.1     1.1     1.1     1.1
rx      3967337.1 279262.8 3636977.4 3505724.3 3543726.7 3882959.3 4475673.0 4545605.4 4601551.3

Total QPS = 605945.1 (18178355 / 30.0s)

Misses = 0 (0.0%)
Skipped TXs = 0 (0.0%)

RX 4448358453 bytes :  141.4 MB/s
TX  767612696 bytes :   24.4 MB/s
