#type       avg     std     min     5th    10th    50th    90th    95th    99th
read       51.6    10.8    32.4    41.2    42.5    50.7    60.8    65.3    78.3
update      0.0     0.0     0.0     0.0     0.0     0.0     0.0     0.0     0.0
op_q        1.0     0.0     1.0     1.0     1.0     1.1     1.1     1.1     1.1
rx      520988.1 27766.3 369246.3 472555.2 477835.1 519750.2 559023.0 563932.0 593460.2

Total QPS = 79907.1 (2397212 / 30.0s)

Misses = 0 (0.0%)
Skipped TXs = 0 (0.0%)

RX  584982800 bytes :   18.6 MB/s
TX  101218800 bytes :    3.2 MB/s
