#type       avg     std     min     5th    10th    50th    90th    95th    99th
read       50.8    11.3    29.5    40.0    41.8    49.6    59.8    64.7    80.0
update      0.0     0.0     0.0     0.0     0.0     0.0     0.0     0.0     0.0
op_q        1.0     0.0     1.0     1.0     1.0     1.1     1.1     1.1     1.1
rx      523617.4 33108.3 369246.3 470330.8 477272.9 527038.0 564104.4 582463.9 615453.0

Total QPS = 79977.3 (2399320 / 30.0s)

Misses = 0 (0.0%)
Skipped TXs = 0 (0.0%)

RX  588050507 bytes :   18.7 MB/s
TX  101321655 bytes :    3.2 MB/s
