#type       avg     std     min     5th    10th    50th    90th    95th    99th
read       51.0    11.0    29.5    40.3    41.9    49.8    60.1    64.9    79.4
update      0.0     0.0     0.0     0.0     0.0     0.0     0.0     0.0     0.0
op_q        1.0     0.0     1.0     1.0     1.0     1.1     1.1     1.1     1.1
rx      522724.8 25355.4 369246.3 474784.2 481857.4 528992.0 562314.3 566479.6 610740.3

Total QPS = 79942.0 (2398260 / 30.0s)

Misses = 0 (0.0%)
Skipped TXs = 0 (0.0%)

RX  585261182 bytes :   18.6 MB/s
TX  101276393 bytes :    3.2 MB/s
