  num          irqs       pkts  cpus name
  104 RX     661479     580646     4 mlx4-33@0000:07:00.0
  105 RX     664004     563483     5 mlx4-34@0000:07:00.0
  106 RX     719006     590050     6 mlx4-35@0000:07:00.0
  107 RX     672619     580294     7 mlx4-36@0000:07:00.0
  108 RX     876534     595330     8 mlx4-37@0000:07:00.0
  109 RX     896953     602639     9 mlx4-38@0000:07:00.0
  110 RX     896730     602718    10 mlx4-39@0000:07:00.0
  111 RX     877308     598671    11 mlx4-40@0000:07:00.0
total       6264633    4713831
