  num          irqs       pkts  cpus name
  104 RX    2302228    2163473     4 mlx4-33@0000:07:00.0
  105 RX    2269754    2130908     5 mlx4-34@0000:07:00.0
  106 RX    2277492    2116891     6 mlx4-35@0000:07:00.0
  107 RX    2321971    2194336     7 mlx4-36@0000:07:00.0
  108 RX    2151259    2115461     8 mlx4-37@0000:07:00.0
  109 RX    2144603    2130006     9 mlx4-38@0000:07:00.0
  110 RX    2174463    2146611    10 mlx4-39@0000:07:00.0
  111 RX    2174074    2175950    11 mlx4-40@0000:07:00.0
total      17815844   17173636
