  num          irqs       pkts  cpus name
  104 RX    1672088    1407380     4 mlx4-33@0000:07:00.0
  105 RX    1562769    1331991     5 mlx4-34@0000:07:00.0
  106 RX    1551930    1369981     6 mlx4-35@0000:07:00.0
  107 RX    1608623    1414542     7 mlx4-36@0000:07:00.0
  108 RX    1770324    1421245     8 mlx4-37@0000:07:00.0
  109 RX    1711843    1348077     9 mlx4-38@0000:07:00.0
  110 RX    1711425    1348828    10 mlx4-39@0000:07:00.0
  111 RX    1818713    1499044    11 mlx4-40@0000:07:00.0
total      13407715   11141088
