  num          irqs       pkts  cpus name
  104 RX    2337047    2180317     4 mlx4-33@0000:07:00.0
  105 RX    2355827    2201314     5 mlx4-34@0000:07:00.0
  106 RX    2452969    2383507     6 mlx4-35@0000:07:00.0
  107 RX    2464122    2343816     7 mlx4-36@0000:07:00.0
  108 RX    2240420    2348646     8 mlx4-37@0000:07:00.0
  109 RX    2201441    2287832     9 mlx4-38@0000:07:00.0
  110 RX    2207108    2272641    10 mlx4-39@0000:07:00.0
  111 RX    2200847    2300616    11 mlx4-40@0000:07:00.0
total      18459781   18318689
