  num          irqs       pkts  cpus name
  104 RX    2016999    1855002     4 mlx4-33@0000:07:00.0
  105 RX    2087670    1883415     5 mlx4-34@0000:07:00.0
  106 RX    2026819    1896032     6 mlx4-35@0000:07:00.0
  107 RX    2022099    1851896     7 mlx4-36@0000:07:00.0
  108 RX    1960696    1774199     8 mlx4-37@0000:07:00.0
  109 RX    2008923    1851546     9 mlx4-38@0000:07:00.0
  110 RX    2053232    1925227    10 mlx4-39@0000:07:00.0
  111 RX    2034881    1909119    11 mlx4-40@0000:07:00.0
total      16211319   14946436
