  num          irqs       pkts  cpus name
  104 RX    2219807    2038496     4 mlx4-33@0000:07:00.0
  105 RX    2340650    2191126     5 mlx4-34@0000:07:00.0
  106 RX    2256468    2124110     6 mlx4-35@0000:07:00.0
  107 RX    2255002    2162910     7 mlx4-36@0000:07:00.0
  108 RX    2160236    2130135     8 mlx4-37@0000:07:00.0
  109 RX    2216566    2208420     9 mlx4-38@0000:07:00.0
  110 RX    2197296    2218922    10 mlx4-39@0000:07:00.0
  111 RX    2129303    2086909    11 mlx4-40@0000:07:00.0
total      17775328   17161028
