  num          irqs       pkts  cpus name
  104 RX    2305841    2178207     4 mlx4-33@0000:07:00.0
  105 RX    2302938    2180656     5 mlx4-34@0000:07:00.0
  106 RX    2239990    2086729     6 mlx4-35@0000:07:00.0
  107 RX    2268309    2143307     7 mlx4-36@0000:07:00.0
  108 RX    2176422    2165280     8 mlx4-37@0000:07:00.0
  109 RX    2149848    2145148     9 mlx4-38@0000:07:00.0
  110 RX    2169404    2165072    10 mlx4-39@0000:07:00.0
  111 RX    2166730    2118002    11 mlx4-40@0000:07:00.0
total      17779482   17182401
