  num          irqs       pkts  cpus name
  104 RX    1625879    1432630     4 mlx4-33@0000:07:00.0
  105 RX    1571910    1320580     5 mlx4-34@0000:07:00.0
  106 RX    1626155    1402149     6 mlx4-35@0000:07:00.0
  107 RX    1605932    1376049     7 mlx4-36@0000:07:00.0
  108 RX    1757849    1409322     8 mlx4-37@0000:07:00.0
  109 RX    1762305    1413925     9 mlx4-38@0000:07:00.0
  110 RX    1748628    1398774    10 mlx4-39@0000:07:00.0
  111 RX    1765339    1416523    11 mlx4-40@0000:07:00.0
total      13463997   11169952
