  num          irqs       pkts  cpus name
  104 RX    2409833    2296492     4 mlx4-33@0000:07:00.0
  105 RX    2420671    2271821     5 mlx4-34@0000:07:00.0
  106 RX    2403104    2267826     6 mlx4-35@0000:07:00.0
  107 RX    2458495    2395833     7 mlx4-36@0000:07:00.0
  108 RX    2192031    2244718     8 mlx4-37@0000:07:00.0
  109 RX    2242177    2322568     9 mlx4-38@0000:07:00.0
  110 RX    2184940    2268952    10 mlx4-39@0000:07:00.0
  111 RX    2189678    2235370    11 mlx4-40@0000:07:00.0
total      18500929   18303580
