  num          irqs       pkts  cpus name
  104 RX    2232661    2087413     4 mlx4-33@0000:07:00.0
  105 RX    2328538    2195980     5 mlx4-34@0000:07:00.0
  106 RX    2261125    2163220     6 mlx4-35@0000:07:00.0
  107 RX    2232594    2130197     7 mlx4-36@0000:07:00.0
  108 RX    2183627    2160560     8 mlx4-37@0000:07:00.0
  109 RX    2166609    2147544     9 mlx4-38@0000:07:00.0
  110 RX    2170145    2147571    10 mlx4-39@0000:07:00.0
  111 RX    2154234    2146806    11 mlx4-40@0000:07:00.0
total      17729533   17179291
