  num          irqs       pkts  cpus name
  104 RX    2436685    2297660     4 mlx4-33@0000:07:00.0
  105 RX    2351685    2271524     5 mlx4-34@0000:07:00.0
  106 RX    2441451    2351340     6 mlx4-35@0000:07:00.0
  107 RX    2484703    2365436     7 mlx4-36@0000:07:00.0
  108 RX    2247765    2368458     8 mlx4-37@0000:07:00.0
  109 RX    2198118    2287959     9 mlx4-38@0000:07:00.0
  110 RX    2239143    2368243    10 mlx4-39@0000:07:00.0
  111 RX    2188978    2277153    11 mlx4-40@0000:07:00.0
total      18588528   18587773
