  num          irqs       pkts  cpus name
  104 RX    2435513    2358903     4 mlx4-33@0000:07:00.0
  105 RX    2439626    2338214     5 mlx4-34@0000:07:00.0
  106 RX    2443600    2272506     6 mlx4-35@0000:07:00.0
  107 RX    2424028    2305486     7 mlx4-36@0000:07:00.0
  108 RX    2183311    2229971     8 mlx4-37@0000:07:00.0
  109 RX    2241174    2327755     9 mlx4-38@0000:07:00.0
  110 RX    2255714    2343635    10 mlx4-39@0000:07:00.0
  111 RX    2179752    2252747    11 mlx4-40@0000:07:00.0
total      18602718   18429217
