  num          irqs       pkts  cpus name
  104 RX    2376713    2229223     4 mlx4-33@0000:07:00.0
  105 RX    2362790    2197954     5 mlx4-34@0000:07:00.0
  106 RX    2421722    2292550     6 mlx4-35@0000:07:00.0
  107 RX    2402612    2294859     7 mlx4-36@0000:07:00.0
  108 RX    2240536    2281542     8 mlx4-37@0000:07:00.0
  109 RX    2213932    2263231     9 mlx4-38@0000:07:00.0
  110 RX    2214410    2264405    10 mlx4-39@0000:07:00.0
  111 RX    2219769    2286094    11 mlx4-40@0000:07:00.0
total      18452484   18109858
