  num          irqs       pkts  cpus name
  104 RX    2457761    2308865     4 mlx4-33@0000:07:00.0
  105 RX    2451001    2314001     5 mlx4-34@0000:07:00.0
  106 RX    2458394    2342273     6 mlx4-35@0000:07:00.0
  107 RX    2430108    2382717     7 mlx4-36@0000:07:00.0
  108 RX    2222161    2287337     8 mlx4-37@0000:07:00.0
  109 RX    2234976    2298306     9 mlx4-38@0000:07:00.0
  110 RX    2191535    2277376    10 mlx4-39@0000:07:00.0
  111 RX    2211737    2299471    11 mlx4-40@0000:07:00.0
total      18657673   18510346
