  num          irqs       pkts  cpus name
  104 RX    2395600    2291329     4 mlx4-33@0000:07:00.0
  105 RX    2459083    2293056     5 mlx4-34@0000:07:00.0
  106 RX    2481209    2359193     6 mlx4-35@0000:07:00.0
  107 RX    2426332    2323471     7 mlx4-36@0000:07:00.0
  108 RX    2219847    2329780     8 mlx4-37@0000:07:00.0
  109 RX    2200697    2261865     9 mlx4-38@0000:07:00.0
  110 RX    2170966    2211157    10 mlx4-39@0000:07:00.0
  111 RX    2221414    2294373    11 mlx4-40@0000:07:00.0
total      18575148   18364224
