  num          irqs       pkts  cpus name
  104 RX    2298578    2206924     4 mlx4-33@0000:07:00.0
  105 RX    2265587    2117475     5 mlx4-34@0000:07:00.0
  106 RX    2335747    2191862     6 mlx4-35@0000:07:00.0
  107 RX    2293274    2163819     7 mlx4-36@0000:07:00.0
  108 RX    2123558    2039809     8 mlx4-37@0000:07:00.0
  109 RX    2189287    2168734     9 mlx4-38@0000:07:00.0
  110 RX    2136106    2131615    10 mlx4-39@0000:07:00.0
  111 RX    2176327    2160745    11 mlx4-40@0000:07:00.0
total      17818464   17180983
