  num          irqs       pkts  cpus name
  104 RX    2061230    1852839     4 mlx4-33@0000:07:00.0
  105 RX    2074796    1881569     5 mlx4-34@0000:07:00.0
  106 RX    2066359    1877665     6 mlx4-35@0000:07:00.0
  107 RX    2030193    1855255     7 mlx4-36@0000:07:00.0
  108 RX    2020464    1851137     8 mlx4-37@0000:07:00.0
  109 RX    2045909    1894703     9 mlx4-38@0000:07:00.0
  110 RX    2030317    1879841    10 mlx4-39@0000:07:00.0
  111 RX    1993021    1840777    11 mlx4-40@0000:07:00.0
total      16322289   14933786
