  num          irqs       pkts  cpus name
  104 RX    2424485    2240727     4 mlx4-33@0000:07:00.0
  105 RX    2389018    2260253     5 mlx4-34@0000:07:00.0
  106 RX    2399807    2342292     6 mlx4-35@0000:07:00.0
  107 RX    2394060    2358775     7 mlx4-36@0000:07:00.0
  108 RX    2220313    2303774     8 mlx4-37@0000:07:00.0
  109 RX    2204482    2315192     9 mlx4-38@0000:07:00.0
  110 RX    2183992    2218485    10 mlx4-39@0000:07:00.0
  111 RX    2219501    2331033    11 mlx4-40@0000:07:00.0
total      18435658   18370531
