  num          irqs       pkts  cpus name
  104 RX    2069436    1873563     4 mlx4-33@0000:07:00.0
  105 RX    2020096    1883376     5 mlx4-34@0000:07:00.0
  106 RX    2055286    1841510     6 mlx4-35@0000:07:00.0
  107 RX    2070878    1866718     7 mlx4-36@0000:07:00.0
  108 RX    1998521    1840782     8 mlx4-37@0000:07:00.0
  109 RX    1958486    1782962     9 mlx4-38@0000:07:00.0
  110 RX    2041631    1887091    10 mlx4-39@0000:07:00.0
  111 RX    2094287    1977776    11 mlx4-40@0000:07:00.0
total      16308621   14953778
