sent    1600797 | retrans          0 | timeout          0 | loss rate 0.0000%
sent    1586212 | retrans          0 | timeout          0 | loss rate 0.0000%
sent    1598422 | retrans          0 | timeout          0 | loss rate 0.0000%
sent    1585766 | retrans          0 | timeout          0 | loss rate 0.0000%
sent    1590961 | retrans          0 | timeout          0 | loss rate 0.0000%
sent    1580564 | retrans          0 | timeout          0 | loss rate 0.0000%
sent    1587752 | retrans          0 | timeout          0 | loss rate 0.0000%
