sent    1601157 | retrans          0 | timeout          0 | loss rate 0.0000%
sent    1582353 | retrans          0 | timeout          0 | loss rate 0.0000%
sent    1595950 | retrans          0 | timeout          0 | loss rate 0.0000%
sent    1592067 | retrans          0 | timeout          0 | loss rate 0.0000%
sent    1588363 | retrans          0 | timeout          0 | loss rate 0.0000%
sent    1586395 | retrans          0 | timeout          0 | loss rate 0.0000%
sent    1571751 | retrans          0 | timeout          0 | loss rate 0.0000%
