sent    2652803 | retrans          0 | timeout          0 | loss rate 0.0000%
sent    2645010 | retrans          0 | timeout          0 | loss rate 0.0000%
sent    2667442 | retrans          0 | timeout          0 | loss rate 0.0000%
sent    2652736 | retrans          0 | timeout          0 | loss rate 0.0000%
sent    2655042 | retrans          0 | timeout          0 | loss rate 0.0000%
sent    2649875 | retrans          0 | timeout          0 | loss rate 0.0000%
sent    2644305 | retrans          0 | timeout          0 | loss rate 0.0000%
