sent    2655311 | retrans          0 | timeout          0 | loss rate 0.0000%
sent    2655605 | retrans          0 | timeout          0 | loss rate 0.0000%
sent    2653340 | retrans          0 | timeout          0 | loss rate 0.0000%
sent    2649528 | retrans          0 | timeout          0 | loss rate 0.0000%
sent    2655837 | retrans          0 | timeout          0 | loss rate 0.0000%
sent    2640997 | retrans          0 | timeout          0 | loss rate 0.0000%
sent    2663270 | retrans          0 | timeout          0 | loss rate 0.0000%
