sent    2286451 | retrans          0 | timeout          0 | loss rate 0.0000%
sent    2289689 | retrans          0 | timeout          0 | loss rate 0.0000%
sent    2288019 | retrans          0 | timeout          0 | loss rate 0.0000%
sent    2289693 | retrans          0 | timeout          0 | loss rate 0.0000%
sent    2282953 | retrans          0 | timeout          0 | loss rate 0.0000%
sent    2287038 | retrans          0 | timeout          0 | loss rate 0.0000%
sent    2294934 | retrans          0 | timeout          0 | loss rate 0.0000%
