sent    2134513 | retrans          0 | timeout          0 | loss rate 0.0000%
sent    2138868 | retrans          0 | timeout          0 | loss rate 0.0000%
sent    2127395 | retrans          0 | timeout          0 | loss rate 0.0000%
sent    2135161 | retrans          0 | timeout          0 | loss rate 0.0000%
sent    2130199 | retrans          0 | timeout          0 | loss rate 0.0000%
sent    2129633 | retrans          0 | timeout          0 | loss rate 0.0000%
sent    2133951 | retrans          0 | timeout          0 | loss rate 0.0000%
