sent    2564452 | retrans          0 | timeout          0 | loss rate 0.0000%
sent    2563968 | retrans          0 | timeout          0 | loss rate 0.0000%
sent    2572018 | retrans          0 | timeout          0 | loss rate 0.0000%
sent    2568644 | retrans          0 | timeout          0 | loss rate 0.0000%
sent    2572442 | retrans          0 | timeout          0 | loss rate 0.0000%
sent    2558741 | retrans          0 | timeout          0 | loss rate 0.0000%
sent    2571820 | retrans          0 | timeout          0 | loss rate 0.0000%
