sent    2661960 | retrans          0 | timeout          0 | loss rate 0.0000%
sent    2654991 | retrans          0 | timeout          0 | loss rate 0.0000%
sent    2666992 | retrans          0 | timeout          0 | loss rate 0.0000%
sent    2672964 | retrans          0 | timeout          0 | loss rate 0.0000%
sent    2647110 | retrans          0 | timeout          0 | loss rate 0.0000%
sent    2665727 | retrans          0 | timeout          0 | loss rate 0.0000%
sent    2658234 | retrans          0 | timeout          0 | loss rate 0.0000%
