sent    2640286 | retrans          0 | timeout          0 | loss rate 0.0000%
sent    2643188 | retrans          0 | timeout          0 | loss rate 0.0000%
sent    2649358 | retrans          0 | timeout          0 | loss rate 0.0000%
sent    2638859 | retrans          0 | timeout          0 | loss rate 0.0000%
sent    2615776 | retrans          0 | timeout          0 | loss rate 0.0000%
sent    2634329 | retrans          0 | timeout          0 | loss rate 0.0000%
sent    2644690 | retrans          0 | timeout          0 | loss rate 0.0000%
