sent    2291292 | retrans          0 | timeout          0 | loss rate 0.0000%
sent    2287149 | retrans          0 | timeout          0 | loss rate 0.0000%
sent    2296053 | retrans          0 | timeout          0 | loss rate 0.0000%
sent    2295179 | retrans          0 | timeout          0 | loss rate 0.0000%
sent    2293225 | retrans          0 | timeout          0 | loss rate 0.0000%
sent    2293716 | retrans          0 | timeout          0 | loss rate 0.0000%
sent    2289737 | retrans          0 | timeout          0 | loss rate 0.0000%
