sent    2285380 | retrans          0 | timeout          0 | loss rate 0.0000%
sent    2285931 | retrans          0 | timeout          0 | loss rate 0.0000%
sent    2292655 | retrans          0 | timeout          0 | loss rate 0.0000%
sent    2286210 | retrans          0 | timeout          0 | loss rate 0.0000%
sent    2285992 | retrans          0 | timeout          0 | loss rate 0.0000%
sent    2289975 | retrans          0 | timeout          0 | loss rate 0.0000%
sent    2291081 | retrans          0 | timeout          0 | loss rate 0.0000%
