sent    2454991 | retrans          0 | timeout          0 | loss rate 0.0000%
sent    2454653 | retrans          0 | timeout          0 | loss rate 0.0000%
sent    2455310 | retrans          0 | timeout          0 | loss rate 0.0000%
sent    2452465 | retrans          0 | timeout          0 | loss rate 0.0000%
sent    2456522 | retrans          0 | timeout          0 | loss rate 0.0000%
sent    2450714 | retrans          0 | timeout          0 | loss rate 0.0000%
sent    2454614 | retrans          0 | timeout          0 | loss rate 0.0000%
