#type       avg     std     min     5th    10th    50th    90th    95th    99th
read     1050.7  2291.6    43.2   835.5   888.3  1012.8  1155.1  1275.1  1620.9
update      0.0     0.0     0.0     0.0     0.0     0.0     0.0     0.0     0.0
op_q        1.0     0.0     1.0     1.0     1.0     1.1     1.1     1.1     1.1
rx      7059530.0 450993.4 5857388.4 6227052.8 6375980.8 7075399.1 7798945.3 7993918.9 8149897.9

Total QPS = 2118940.1 (63569538 / 30.0s)

Misses = 0 (0.0%)
Skipped TXs = 0 (0.0%)

RX 15730466164 bytes :  500.0 MB/s
TX 2683894459 bytes :   85.3 MB/s
