# started on Thu Mar  2 17:07:16 2023


 Performance counter stats for 'CPU(s) 0-1':

       259,268,739      LLC-load-misses           #   23.06% of all LL-cache hits     (49.98%)
         6,943,469      LLC-load-misses           #   53.93% of all LL-cache hits     (49.98%)
     1,124,137,999      LLC-loads                 #   17.641 M/sec                    (49.98%)
        12,875,776      LLC-loads                 #    0.202 M/sec                    (41.66%)
        37,203,503      LLC-store-misses          #    0.584 M/sec                    (25.01%)
           572,810      LLC-store-misses          #    0.009 M/sec                    (33.34%)
       499,112,681      LLC-stores                #    7.833 M/sec                    (25.01%)
           359,952      LLC-stores                #    0.006 M/sec                    (33.34%)
         63,721.80 msec task-clock                #    2.000 CPUs utilized          
   165,161,420,139      cycles:u                  #    2.592 GHz                      (41.68%)
     1,028,630,824      cycles:k                  #    0.016 GHz                      (41.68%)
   208,850,409,171      instructions:u            #    1.26  insn per cycle           (50.00%)
     1,498,122,307      instructions:k            #    1.46  insn per cycle           (49.99%)

      31.862073807 seconds time elapsed

