  num          irqs       pkts  cpus name
  104 RX     605301    3359299     4 mlx4-33@0000:07:00.0
  105 RX     603954    3329050     5 mlx4-34@0000:07:00.0
  106 RX     607054    3331657     6 mlx4-35@0000:07:00.0
  107 RX     607837    3261079     7 mlx4-36@0000:07:00.0
  108 RX     427958    3300172     8 mlx4-37@0000:07:00.0
  109 RX     426425    3288815     9 mlx4-38@0000:07:00.0
  110 RX     416127    3291058    10 mlx4-39@0000:07:00.0
  111 RX     421331    3293786    11 mlx4-40@0000:07:00.0
total       4115987   26454916
