  num          irqs       pkts  cpus name
  104 RX     440931    3352465     0 mlx4-33@0000:07:00.0
  105 RX     438061    3361311     1 mlx4-34@0000:07:00.0
  106 RX     436972    3456053     2 mlx4-35@0000:07:00.0
  107 RX     428704    3353591     3 mlx4-36@0000:07:00.0
  108 RX     440662    3530994     4 mlx4-37@0000:07:00.0
  109 RX     434216    3383363     5 mlx4-38@0000:07:00.0
  110 RX     436140    3357531     6 mlx4-39@0000:07:00.0
  111 RX     441457    3507848     7 mlx4-40@0000:07:00.0
  120 RX     629754    3472441     8 mlx4-49@0000:07:00.0
  121 RX     631460    3469839     9 mlx4-50@0000:07:00.0
  122 RX     628013    3386427    10 mlx4-51@0000:07:00.0
  123 RX     608720    3379600    11 mlx4-52@0000:07:00.0
  124 RX     630669    3396829    12 mlx4-53@0000:07:00.0
  125 RX     628362    3500649    13 mlx4-54@0000:07:00.0
  126 RX     632601    3519210    14 mlx4-55@0000:07:00.0
  127 RX     617249    3499688    15 mlx4-56@0000:07:00.0
total       8503971   54927839
