  num          irqs       pkts  cpus name
  104 RX     605803    3185800     4 mlx4-33@0000:07:00.0
  105 RX     599654    3339737     5 mlx4-34@0000:07:00.0
  106 RX     597161    3336556     6 mlx4-35@0000:07:00.0
  107 RX     601694    3229948     7 mlx4-36@0000:07:00.0
  108 RX     426160    3371920     8 mlx4-37@0000:07:00.0
  109 RX     431216    3252874     9 mlx4-38@0000:07:00.0
  110 RX     429719    3356424    10 mlx4-39@0000:07:00.0
  111 RX     428229    3239891    11 mlx4-40@0000:07:00.0
total       4119636   26313150
