  num          irqs       pkts  cpus name
  104 RX     523027    3296279     6 mlx4-33@0000:07:00.0
  105 RX     487839    3156608     7 mlx4-34@0000:07:00.0
  106 RX     482858    3197155     8 mlx4-35@0000:07:00.0
  107 RX     503374    3282734     9 mlx4-36@0000:07:00.0
total       1997098   12932776
