  num          irqs       pkts  cpus name
  104 RX     479805    3409262     6 mlx4-33@0000:07:00.0
  105 RX     499056    3391409     7 mlx4-34@0000:07:00.0
  106 RX     476680    3331168     8 mlx4-35@0000:07:00.0
  107 RX     511721    3338318     9 mlx4-36@0000:07:00.0
total       1967262   13470157
