  num          irqs       pkts  cpus name
  104 RX     492425    3357016     6 mlx4-33@0000:07:00.0
  105 RX     489429    3298933     7 mlx4-34@0000:07:00.0
  106 RX     514181    3288661     8 mlx4-35@0000:07:00.0
  107 RX     483814    3357233     9 mlx4-36@0000:07:00.0
total       1979849   13301843
