# started on Sun Apr  2 01:45:16 2023

#           time             counts unit events
     5.004676585          1,282,098      LLC-load-misses           #   21.31% of all LL-cache accesses  (49.86%)
     5.004676585          4,482,110      LLC-load-misses           #   14.23% of all LL-cache accesses  (49.94%)
     5.004676585          6,016,422      LLC-loads                 #  600.883 K/sec                    (50.02%)
     5.004676585         31,502,554      LLC-loads                 #    3.146 M/sec                    (41.80%)
     5.004676585            119,873      LLC-store-misses          #   11.972 K/sec                    (25.13%)
     5.004676585          2,136,467      LLC-store-misses          #  213.377 K/sec                    (33.44%)
     5.004676585          1,895,980      LLC-stores                #  189.359 K/sec                    (24.97%)
     5.004676585         15,643,328      LLC-stores                #    1.562 M/sec                    (33.28%)
     5.004676585          10,012.63 msec task-clock                #    2.003 CPUs utilized          
     5.004676585      1,300,955,048      cycles:u                  #    0.130 GHz                      (41.59%)
     5.004676585      5,794,456,737      cycles:k                  #    0.579 GHz                      (41.54%)
     5.004676585      1,067,207,904      instructions:u            #    0.82  insn per cycle           (49.85%)
     5.004676585      4,793,987,070      instructions:k            #    0.83  insn per cycle           (49.85%)
    10.008672749          5,508,792      LLC-load-misses           #   21.30% of all LL-cache accesses  (49.92%)
    10.008672749         17,969,455      LLC-load-misses           #   13.94% of all LL-cache accesses  (49.88%)
    10.008672749         25,861,892      LLC-loads                 #    2.584 M/sec                    (49.88%)
    10.008672749        128,934,962      LLC-loads                 #   12.884 M/sec                    (41.57%)
    10.008672749            490,370      LLC-store-misses          #   49.000 K/sec                    (24.98%)
    10.008672749          6,449,251      LLC-store-misses          #  644.433 K/sec                    (33.37%)
    10.008672749          8,260,635      LLC-stores                #  825.434 K/sec                    (25.14%)
    10.008672749         62,244,470      LLC-stores                #    6.220 M/sec                    (33.49%)
    10.008672749          10,007.63 msec task-clock                #    2.002 CPUs utilized          
    10.008672749      4,972,214,324      cycles:u                  #    0.497 GHz                      (41.81%)
    10.008672749     21,918,212,932      cycles:k                  #    2.190 GHz                      (41.77%)
    10.008672749      2,992,623,017      instructions:u            #    0.60  insn per cycle           (50.08%)
    10.008672749     17,016,012,506      instructions:k            #    0.78  insn per cycle           (50.00%)
    15.012669330          5,499,700      LLC-load-misses           #   21.26% of all LL-cache accesses  (50.12%)
    15.012669330         17,922,580      LLC-load-misses           #   13.91% of all LL-cache accesses  (50.08%)
    15.012669330         25,867,441      LLC-loads                 #    2.585 M/sec                    (50.00%)
    15.012669330        128,845,629      LLC-loads                 #   12.875 M/sec                    (41.57%)
    15.012669330            489,490      LLC-store-misses          #   48.911 K/sec                    (24.94%)
    15.012669330          6,432,180      LLC-store-misses          #  642.724 K/sec                    (33.26%)
    15.012669330          8,276,954      LLC-stores                #  827.060 K/sec                    (24.94%)
    15.012669330         62,470,107      LLC-stores                #    6.242 M/sec                    (33.29%)
    15.012669330          10,007.68 msec task-clock                #    2.002 CPUs utilized          
    15.012669330      4,972,344,038      cycles:u                  #    0.497 GHz                      (41.68%)
    15.012669330     21,916,796,314      cycles:k                  #    2.190 GHz                      (41.76%)
    15.012669330      2,995,798,391      instructions:u            #    0.60  insn per cycle           (50.12%)
    15.012669330     17,064,415,087      instructions:k            #    0.78  insn per cycle           (50.12%)
    20.016658511          5,487,490      LLC-load-misses           #   21.25% of all LL-cache accesses  (50.07%)
    20.016658511         17,909,422      LLC-load-misses           #   13.93% of all LL-cache accesses  (50.12%)
    20.016658511         25,819,461      LLC-loads                 #    2.580 M/sec                    (50.12%)
    20.016658511        128,611,308      LLC-loads                 #   12.851 M/sec                    (41.77%)
    20.016658511            489,061      LLC-store-misses          #   48.869 K/sec                    (24.94%)
    20.016658511          6,429,056      LLC-store-misses          #  642.413 K/sec                    (33.26%)
    20.016658511          8,323,813      LLC-stores                #  831.743 K/sec                    (24.94%)
    20.016658511         62,452,176      LLC-stores                #    6.240 M/sec                    (33.25%)
    20.016658511          10,007.67 msec task-clock                #    2.002 CPUs utilized          
    20.016658511      4,971,069,760      cycles:u                  #    0.497 GHz                      (41.57%)
    20.016658511     21,911,811,354      cycles:k                  #    2.190 GHz                      (41.56%)
    20.016658511      2,989,487,176      instructions:u            #    0.60  insn per cycle           (49.92%)
    20.016658511     17,066,715,437      instructions:k            #    0.78  insn per cycle           (49.99%)
    25.020674850          5,485,570      LLC-load-misses           #   21.24% of all LL-cache accesses  (49.88%)
    25.020674850         17,859,666      LLC-load-misses           #   13.90% of all LL-cache accesses  (49.92%)
    25.020674850         25,824,955      LLC-loads                 #    2.581 M/sec                    (50.00%)
    25.020674850        128,460,112      LLC-loads                 #   12.836 M/sec                    (41.77%)
    25.020674850            488,260      LLC-store-misses          #   48.788 K/sec                    (25.14%)
    25.020674850          6,402,942      LLC-store-misses          #  639.801 K/sec                    (33.46%)
    25.020674850          8,287,060      LLC-stores                #  828.068 K/sec                    (24.98%)
    25.020674850         62,407,961      LLC-stores                #    6.236 M/sec                    (33.30%)
    25.020674850          10,007.70 msec task-clock                #    2.002 CPUs utilized          
    25.020674850      4,968,705,186      cycles:u                  #    0.496 GHz                      (41.61%)
    25.020674850     21,922,337,640      cycles:k                  #    2.191 GHz                      (41.57%)
    25.020674850      2,988,956,585      instructions:u            #    0.60  insn per cycle           (49.88%)
    25.020674850     17,069,775,430      instructions:k            #    0.78  insn per cycle           (49.88%)
    30.024674800          5,485,096      LLC-load-misses           #   21.24% of all LL-cache accesses  (49.92%)
    30.024674800         17,886,961      LLC-load-misses           #   13.90% of all LL-cache accesses  (49.88%)
    30.024674800         25,823,437      LLC-loads                 #    2.580 M/sec                    (49.88%)
    30.024674800        128,700,128      LLC-loads                 #   12.860 M/sec                    (41.57%)
    30.024674800            490,033      LLC-store-misses          #   48.966 K/sec                    (24.98%)
    30.024674800          6,348,744      LLC-store-misses          #  634.387 K/sec                    (33.37%)
    30.024674800          8,296,962      LLC-stores                #  829.059 K/sec                    (25.14%)
    30.024674800         62,407,737      LLC-stores                #    6.236 M/sec                    (33.49%)
    30.024674800          10,007.69 msec task-clock                #    2.002 CPUs utilized          
    30.024674800      4,973,724,193      cycles:u                  #    0.497 GHz                      (41.81%)
    30.024674800     21,916,357,626      cycles:k                  #    2.190 GHz                      (41.77%)
    30.024674800      2,990,468,926      instructions:u            #    0.60  insn per cycle           (50.08%)
    30.024674800     17,077,953,852      instructions:k            #    0.78  insn per cycle           (50.00%)
    35.028694167          4,318,144      LLC-load-misses           #   21.31% of all LL-cache accesses  (50.12%)
    35.028694167         13,894,307      LLC-load-misses           #   13.83% of all LL-cache accesses  (50.08%)
    35.028694167         20,264,438      LLC-loads                 #    2.025 M/sec                    (50.00%)
    35.028694167        100,457,866      LLC-loads                 #   10.038 M/sec                    (41.57%)
    35.028694167            454,682      LLC-store-misses          #   45.432 K/sec                    (24.94%)
    35.028694167          5,116,388      LLC-store-misses          #  511.234 K/sec                    (33.26%)
    35.028694167          6,481,407      LLC-stores                #  647.628 K/sec                    (24.94%)
    35.028694167         48,391,388      LLC-stores                #    4.835 M/sec                    (33.29%)
    35.028694167          10,007.92 msec task-clock                #    2.002 CPUs utilized          
    35.028694167      3,871,109,569      cycles:u                  #    0.387 GHz                      (41.68%)
    35.028694167     17,144,801,440      cycles:k                  #    1.713 GHz                      (41.76%)
    35.028694167      2,320,698,538      instructions:u            #    0.60  insn per cycle           (50.11%)
    35.028694167     13,408,898,642      instructions:k            #    0.78  insn per cycle           (50.12%)
    36.021563727                830      LLC-load-misses           #   62.88% of all LL-cache accesses  (49.38%)
    36.021563727             74,836      LLC-load-misses           #   28.38% of all LL-cache accesses  (49.73%)
    36.021563727              1,320      LLC-loads                 #  664.787 /sec                     (50.13%)
    36.021563727            263,671      LLC-loads                 #  132.792 K/sec                    (42.29%)
    36.021563727                  0      LLC-store-misses          #    0.000 /sec                     (25.39%)
    36.021563727             84,189      LLC-store-misses          #   42.400 K/sec                    (33.85%)
    36.021563727                126      LLC-stores                #   63.457 /sec                     (25.24%)
    36.021563727            108,941      LLC-stores                #   54.866 K/sec                    (33.35%)
    36.021563727           1,985.60 msec task-clock                #    0.397 CPUs utilized          
    36.021563727            128,512      cycles:u                  #    0.000 GHz                      (41.41%)
    36.021563727         54,932,974      cycles:k                  #    0.028 GHz                      (40.99%)
    36.021563727            365,640      instructions:u            #    2.85  insn per cycle           (49.24%)
    36.021563727          5,902,707      instructions:k            #    0.11  insn per cycle           (49.23%)
