# started on Sun Apr  2 01:46:39 2023

#           time             counts unit events
     5.004320020          2,483,754      LLC-load-misses           #   20.57% of all LL-cache accesses  (49.88%)
     5.004320020          9,189,223      LLC-load-misses           #   14.53% of all LL-cache accesses  (49.96%)
     5.004320020         12,074,429      LLC-loads                 #  603.185 K/sec                    (50.04%)
     5.004320020         63,240,356      LLC-loads                 #    3.159 M/sec                    (41.82%)
     5.004320020            168,524      LLC-store-misses          #    8.419 K/sec                    (25.11%)
     5.004320020          3,813,703      LLC-store-misses          #  190.516 K/sec                    (33.42%)
     5.004320020          3,806,684      LLC-stores                #  190.165 K/sec                    (24.94%)
     5.004320020         31,021,126      LLC-stores                #    1.550 M/sec                    (33.25%)
     5.004320020          20,017.79 msec task-clock                #    4.004 CPUs utilized          
     5.004320020      2,145,586,578      cycles:u                  #    0.107 GHz                      (41.56%)
     5.004320020     10,963,682,317      cycles:k                  #    0.548 GHz                      (41.55%)
     5.004320020      1,374,743,528      instructions:u            #    0.64  insn per cycle           (49.86%)
     5.004320020      9,538,828,963      instructions:k            #    0.87  insn per cycle           (49.86%)
    10.008298815         11,024,628      LLC-load-misses           #   20.31% of all LL-cache accesses  (49.88%)
    10.008298815         38,297,917      LLC-load-misses           #   13.91% of all LL-cache accesses  (49.88%)
    10.008298815         54,280,639      LLC-loads                 #    2.712 M/sec                    (49.88%)
    10.008298815        275,264,320      LLC-loads                 #   13.753 M/sec                    (41.57%)
    10.008298815            745,379      LLC-store-misses          #   37.241 K/sec                    (25.02%)
    10.008298815         13,518,385      LLC-store-misses          #  675.406 K/sec                    (33.41%)
    10.008298815         17,311,006      LLC-stores                #  864.893 K/sec                    (25.18%)
    10.008298815        132,952,439      LLC-stores                #    6.643 M/sec                    (33.49%)
    10.008298815          20,015.19 msec task-clock                #    4.003 CPUs utilized          
    10.008298815      9,616,465,716      cycles:u                  #    0.480 GHz                      (41.81%)
    10.008298815     44,153,068,087      cycles:k                  #    2.206 GHz                      (41.73%)
    10.008298815      6,166,402,558      instructions:u            #    0.64  insn per cycle           (50.04%)
    10.008298815     34,827,197,113      instructions:k            #    0.79  insn per cycle           (49.96%)
    15.012317014         11,014,576      LLC-load-misses           #   20.31% of all LL-cache accesses  (50.12%)
    15.012317014         38,289,693      LLC-load-misses           #   13.97% of all LL-cache accesses  (50.04%)
    15.012317014         54,232,890      LLC-loads                 #    2.710 M/sec                    (49.96%)
    15.012317014        274,083,187      LLC-loads                 #   13.694 M/sec                    (41.57%)
    15.012317014            744,018      LLC-store-misses          #   37.172 K/sec                    (24.94%)
    15.012317014         13,497,891      LLC-store-misses          #  674.374 K/sec                    (33.26%)
    15.012317014         17,418,684      LLC-stores                #  870.262 K/sec                    (24.94%)
    15.012317014        132,869,147      LLC-stores                #    6.638 M/sec                    (33.33%)
    15.012317014          20,015.45 msec task-clock                #    4.003 CPUs utilized          
    15.012317014      9,617,872,532      cycles:u                  #    0.481 GHz                      (41.72%)
    15.012317014     44,157,656,763      cycles:k                  #    2.206 GHz                      (41.80%)
    15.012317014      6,160,782,846      instructions:u            #    0.64  insn per cycle           (50.12%)
    15.012317014     34,902,178,425      instructions:k            #    0.79  insn per cycle           (50.12%)
    20.016297815         11,013,053      LLC-load-misses           #   20.29% of all LL-cache accesses  (50.11%)
    20.016297815         38,210,402      LLC-load-misses           #   13.92% of all LL-cache accesses  (50.12%)
    20.016297815         54,281,121      LLC-loads                 #    2.712 M/sec                    (50.12%)
    20.016297815        274,477,286      LLC-loads                 #   13.713 M/sec                    (41.73%)
    20.016297815            744,588      LLC-store-misses          #   37.201 K/sec                    (24.94%)
    20.016297815         13,489,475      LLC-store-misses          #  673.954 K/sec                    (33.26%)
    20.016297815         17,365,163      LLC-stores                #  867.589 K/sec                    (24.94%)
    20.016297815        132,870,775      LLC-stores                #    6.638 M/sec                    (33.25%)
    20.016297815          20,015.43 msec task-clock                #    4.003 CPUs utilized          
    20.016297815      9,619,211,012      cycles:u                  #    0.481 GHz                      (41.57%)
    20.016297815     44,157,195,661      cycles:k                  #    2.206 GHz                      (41.56%)
    20.016297815      6,162,610,222      instructions:u            #    0.64  insn per cycle           (49.95%)
    20.016297815     34,918,033,157      instructions:k            #    0.79  insn per cycle           (50.03%)
    25.020319563         11,014,264      LLC-load-misses           #   20.29% of all LL-cache accesses  (49.88%)
    25.020319563         38,364,548      LLC-load-misses           #   13.95% of all LL-cache accesses  (49.95%)
    25.020319563         54,288,164      LLC-loads                 #    2.712 M/sec                    (50.04%)
    25.020319563        274,932,376      LLC-loads                 #   13.736 M/sec                    (41.80%)
    25.020319563            743,951      LLC-store-misses          #   37.169 K/sec                    (25.11%)
    25.020319563         13,489,252      LLC-store-misses          #  673.945 K/sec                    (33.42%)
    25.020319563         17,294,769      LLC-stores                #  864.074 K/sec                    (24.94%)
    25.020319563        132,975,362      LLC-stores                #    6.644 M/sec                    (33.26%)
    25.020319563          20,015.37 msec task-clock                #    4.003 CPUs utilized          
    25.020319563      9,623,932,239      cycles:u                  #    0.481 GHz                      (41.57%)
    25.020319563     44,153,446,213      cycles:k                  #    2.206 GHz                      (41.56%)
    25.020319563      6,165,005,652      instructions:u            #    0.64  insn per cycle           (49.88%)
    25.020319563     34,928,491,783      instructions:k            #    0.79  insn per cycle           (49.88%)
    30.024318776         11,015,040      LLC-load-misses           #   20.28% of all LL-cache accesses  (49.88%)
    30.024318776         38,322,534      LLC-load-misses           #   13.94% of all LL-cache accesses  (49.88%)
    30.024318776         54,309,312      LLC-loads                 #    2.713 M/sec                    (49.88%)
    30.024318776        274,991,834      LLC-loads                 #   13.739 M/sec                    (41.57%)
    30.024318776            744,205      LLC-store-misses          #   37.182 K/sec                    (25.02%)
    30.024318776         13,475,408      LLC-store-misses          #  673.255 K/sec                    (33.41%)
    30.024318776         17,300,267      LLC-stores                #  864.352 K/sec                    (25.18%)
    30.024318776        132,948,292      LLC-stores                #    6.642 M/sec                    (33.49%)
    30.024318776          20,015.30 msec task-clock                #    4.003 CPUs utilized          
    30.024318776      9,624,488,239      cycles:u                  #    0.481 GHz                      (41.81%)
    30.024318776     44,146,544,755      cycles:k                  #    2.206 GHz                      (41.73%)
    30.024318776      6,162,044,606      instructions:u            #    0.64  insn per cycle           (50.04%)
    30.024318776     34,922,638,913      instructions:k            #    0.79  insn per cycle           (49.96%)
    35.028344766          8,551,027      LLC-load-misses           #   20.18% of all LL-cache accesses  (50.12%)
    35.028344766         29,930,557      LLC-load-misses           #   13.91% of all LL-cache accesses  (50.04%)
    35.028344766         42,373,298      LLC-loads                 #    2.117 M/sec                    (49.96%)
    35.028344766        215,156,256      LLC-loads                 #   10.749 M/sec                    (41.57%)
    35.028344766            595,400      LLC-store-misses          #   29.746 K/sec                    (24.94%)
    35.028344766         10,738,177      LLC-store-misses          #  536.482 K/sec                    (33.26%)
    35.028344766         13,373,309      LLC-stores                #  668.134 K/sec                    (24.94%)
    35.028344766        103,407,983      LLC-stores                #    5.166 M/sec                    (33.33%)
    35.028344766          20,015.91 msec task-clock                #    4.003 CPUs utilized          
    35.028344766      7,429,447,480      cycles:u                  #    0.371 GHz                      (41.72%)
    35.028344766     34,589,931,976      cycles:k                  #    1.728 GHz                      (41.80%)
    35.028344766      4,773,549,297      instructions:u            #    0.64  insn per cycle           (50.12%)
    35.028344766     27,535,072,134      instructions:k            #    0.80  insn per cycle           (50.12%)
    36.018076406              3,585      LLC-load-misses           #   66.67% of all LL-cache accesses  (49.68%)
    36.018076406            134,817      LLC-load-misses           #   28.34% of all LL-cache accesses  (50.08%)
    36.018076406              5,377      LLC-loads                 #    1.358 K/sec                    (50.49%)
    36.018076406            475,791      LLC-loads                 #  120.191 K/sec                    (42.44%)
    36.018076406                 15      LLC-store-misses          #    3.789 /sec                     (25.47%)
    36.018076406            159,952      LLC-store-misses          #   40.406 K/sec                    (33.76%)
    36.018076406                281      LLC-stores                #   70.984 /sec                     (24.86%)
    36.018076406            213,087      LLC-stores                #   53.829 K/sec                    (32.94%)
    36.018076406           3,958.62 msec task-clock                #    0.792 CPUs utilized          
    36.018076406            185,792      cycles:u                  #    0.000 GHz                      (41.02%)
    36.018076406        105,444,904      cycles:k                  #    0.027 GHz                      (40.61%)
    36.018076406            389,279      instructions:u            #    2.10  insn per cycle           (49.07%)
    36.018076406         10,622,235      instructions:k            #    0.10  insn per cycle           (49.27%)
