# started on Sun Apr  2 00:56:00 2023

#           time             counts unit events
     5.004656484          1,230,646      LLC-load-misses           #   21.61% of all LL-cache accesses  (49.82%)
     5.004656484          4,563,580      LLC-load-misses           #   14.84% of all LL-cache accesses  (49.90%)
     5.004656484          5,694,147      LLC-loads                 #  568.206 K/sec                    (49.99%)
     5.004656484         30,750,951      LLC-loads                 #    3.069 M/sec                    (41.77%)
     5.004656484             82,496      LLC-store-misses          #    8.232 K/sec                    (25.11%)
     5.004656484          2,298,704      LLC-store-misses          #  229.382 K/sec                    (33.46%)
     5.004656484          1,765,397      LLC-stores                #  176.165 K/sec                    (25.03%)
     5.004656484         15,027,413      LLC-stores                #    1.500 M/sec                    (33.33%)
     5.004656484          10,021.27 msec task-clock                #    2.004 CPUs utilized          
     5.004656484      1,098,239,292      cycles:u                  #    0.110 GHz                      (41.63%)
     5.004656484      5,427,953,769      cycles:k                  #    0.542 GHz                      (41.59%)
     5.004656484        859,260,840      instructions:u            #    0.78  insn per cycle           (49.89%)
     5.004656484      4,465,934,098      instructions:k            #    0.82  insn per cycle           (49.85%)
    10.008638862          5,527,966      LLC-load-misses           #   21.19% of all LL-cache accesses  (50.00%)
    10.008638862         18,752,970      LLC-load-misses           #   14.10% of all LL-cache accesses  (49.96%)
    10.008638862         26,093,043      LLC-loads                 #    2.607 M/sec                    (49.92%)
    10.008638862        133,017,965      LLC-loads                 #   13.292 M/sec                    (41.57%)
    10.008638862            357,184      LLC-store-misses          #   35.691 K/sec                    (24.98%)
    10.008638862          6,816,481      LLC-store-misses          #  681.131 K/sec                    (33.33%)
    10.008638862          8,217,305      LLC-stores                #  821.107 K/sec                    (25.06%)
    10.008638862         63,289,060      LLC-stores                #    6.324 M/sec                    (33.41%)
    10.008638862          10,007.59 msec task-clock                #    2.002 CPUs utilized          
    10.008638862      4,716,781,218      cycles:u                  #    0.471 GHz                      (41.76%)
    10.008638862     22,171,569,431      cycles:k                  #    2.215 GHz                      (41.76%)
    10.008638862      3,103,318,653      instructions:u            #    0.66  insn per cycle           (50.08%)
    10.008638862     17,606,660,322      instructions:k            #    0.79  insn per cycle           (50.04%)
    15.012638050          5,517,810      LLC-load-misses           #   21.20% of all LL-cache accesses  (50.12%)
    15.012638050         18,704,618      LLC-load-misses           #   14.09% of all LL-cache accesses  (50.08%)
    15.012638050         26,032,991      LLC-loads                 #    2.601 M/sec                    (50.04%)
    15.012638050        132,713,296      LLC-loads                 #   13.261 M/sec                    (41.65%)
    15.012638050            356,652      LLC-store-misses          #   35.638 K/sec                    (24.94%)
    15.012638050          6,792,678      LLC-store-misses          #  678.746 K/sec                    (33.26%)
    15.012638050          8,243,299      LLC-stores                #  823.697 K/sec                    (24.94%)
    15.012638050         63,423,957      LLC-stores                #    6.338 M/sec                    (33.29%)
    15.012638050          10,007.68 msec task-clock                #    2.002 CPUs utilized          
    15.012638050      4,714,151,380      cycles:u                  #    0.471 GHz                      (41.64%)
    15.012638050     22,168,562,651      cycles:k                  #    2.215 GHz                      (41.68%)
    15.012638050      3,100,798,445      instructions:u            #    0.66  insn per cycle           (50.04%)
    15.012638050     17,627,556,052      instructions:k            #    0.80  insn per cycle           (50.08%)
    20.016633224          5,503,109      LLC-load-misses           #   21.18% of all LL-cache accesses  (50.00%)
    20.016633224         18,597,678      LLC-load-misses           #   14.05% of all LL-cache accesses  (50.04%)
    20.016633224         25,977,078      LLC-loads                 #    2.596 M/sec                    (50.08%)
    20.016633224        132,386,338      LLC-loads                 #   13.228 M/sec                    (41.77%)
    20.016633224            356,291      LLC-store-misses          #   35.602 K/sec                    (25.02%)
    20.016633224          6,770,760      LLC-store-misses          #  676.558 K/sec                    (33.34%)
    20.016633224          8,245,669      LLC-stores                #  823.936 K/sec                    (24.94%)
    20.016633224         63,317,581      LLC-stores                #    6.327 M/sec                    (33.25%)
    20.016633224          10,007.66 msec task-clock                #    2.002 CPUs utilized          
    20.016633224      4,718,147,434      cycles:u                  #    0.471 GHz                      (41.57%)
    20.016633224     22,170,403,430      cycles:k                  #    2.215 GHz                      (41.56%)
    20.016633224      3,092,691,833      instructions:u            #    0.66  insn per cycle           (49.92%)
    20.016633224     17,623,687,453      instructions:k            #    0.79  insn per cycle           (49.96%)
    25.020636969          5,501,689      LLC-load-misses           #   21.18% of all LL-cache accesses  (49.88%)
    25.020636969         18,677,222      LLC-load-misses           #   14.09% of all LL-cache accesses  (49.92%)
    25.020636969         25,975,947      LLC-loads                 #    2.596 M/sec                    (49.96%)
    25.020636969        132,523,774      LLC-loads                 #   13.242 M/sec                    (41.69%)
    25.020636969            353,297      LLC-store-misses          #   35.302 K/sec                    (25.06%)
    25.020636969          6,751,287      LLC-store-misses          #  674.607 K/sec                    (33.42%)
    25.020636969          8,230,231      LLC-stores                #  822.387 K/sec                    (25.06%)
    25.020636969         63,224,827      LLC-stores                #    6.318 M/sec                    (33.37%)
    25.020636969          10,007.74 msec task-clock                #    2.002 CPUs utilized          
    25.020636969      4,714,973,933      cycles:u                  #    0.471 GHz                      (41.69%)
    25.020636969     22,166,513,975      cycles:k                  #    2.215 GHz                      (41.64%)
    25.020636969      3,090,255,855      instructions:u            #    0.66  insn per cycle           (49.96%)
    25.020636969     17,624,607,320      instructions:k            #    0.80  insn per cycle           (49.92%)
    30.024639093          5,510,193      LLC-load-misses           #   21.23% of all LL-cache accesses  (50.00%)
    30.024639093         18,623,969      LLC-load-misses           #   14.06% of all LL-cache accesses  (49.96%)
    30.024639093         25,950,445      LLC-loads                 #    2.593 M/sec                    (49.92%)
    30.024639093        132,432,623      LLC-loads                 #   13.233 M/sec                    (41.57%)
    30.024639093            354,271      LLC-store-misses          #   35.400 K/sec                    (24.98%)
    30.024639093          6,765,545      LLC-store-misses          #  676.039 K/sec                    (33.33%)
    30.024639093          8,228,189      LLC-stores                #  822.191 K/sec                    (25.06%)
    30.024639093         63,315,570      LLC-stores                #    6.327 M/sec                    (33.41%)
    30.024639093          10,007.63 msec task-clock                #    2.002 CPUs utilized          
    30.024639093      4,718,563,338      cycles:u                  #    0.471 GHz                      (41.76%)
    30.024639093     22,169,553,213      cycles:k                  #    2.215 GHz                      (41.76%)
    30.024639093      3,094,364,122      instructions:u            #    0.66  insn per cycle           (50.08%)
    30.024639093     17,652,906,289      instructions:k            #    0.80  insn per cycle           (50.04%)
    35.028684419          4,338,550      LLC-load-misses           #   21.24% of all LL-cache accesses  (50.11%)
    35.028684419         14,739,666      LLC-load-misses           #   14.13% of all LL-cache accesses  (50.08%)
    35.028684419         20,423,613      LLC-loads                 #    2.041 M/sec                    (50.04%)
    35.028684419        104,302,105      LLC-loads                 #   10.422 M/sec                    (41.65%)
    35.028684419            305,385      LLC-store-misses          #   30.514 K/sec                    (24.94%)
    35.028684419          5,434,470      LLC-store-misses          #  543.015 K/sec                    (33.26%)
    35.028684419          6,473,738      LLC-stores                #  646.859 K/sec                    (24.94%)
    35.028684419         49,665,149      LLC-stores                #    4.963 M/sec                    (33.29%)
    35.028684419          10,007.96 msec task-clock                #    2.002 CPUs utilized          
    35.028684419      3,701,724,184      cycles:u                  #    0.370 GHz                      (41.64%)
    35.028684419     17,525,073,670      cycles:k                  #    1.751 GHz                      (41.68%)
    35.028684419      2,427,600,477      instructions:u            #    0.66  insn per cycle           (50.04%)
    35.028684419     13,984,257,893      instructions:k            #    0.80  insn per cycle           (50.07%)
    36.147049891                545      LLC-load-misses           #   31.16% of all LL-cache accesses  (49.88%)
    36.147049891             77,881      LLC-load-misses           #   27.06% of all LL-cache accesses  (50.17%)
    36.147049891              1,749      LLC-loads                 #  781.992 /sec                     (50.35%)
    36.147049891            287,812      LLC-loads                 #  128.683 K/sec                    (42.14%)
    36.147049891                 11      LLC-store-misses          #    4.918 /sec                     (25.15%)
    36.147049891             91,416      LLC-store-misses          #   40.873 K/sec                    (33.38%)
    36.147049891                 12      LLC-stores                #    5.365 /sec                     (24.79%)
    36.147049891            118,608      LLC-stores                #   53.031 K/sec                    (33.01%)
    36.147049891           2,236.60 msec task-clock                #    0.447 CPUs utilized          
    36.147049891             69,994      cycles:u                  #    0.000 GHz                      (41.24%)
    36.147049891         58,276,491      cycles:k                  #    0.026 GHz                      (41.13%)
    36.147049891            349,321      instructions:u            #    4.99  insn per cycle           (49.52%)
    36.147049891          5,990,535      instructions:k            #    0.10  insn per cycle           (49.70%)
