# started on Sun Apr  2 01:02:52 2023

#           time             counts unit events
     5.004947313          2,442,213      LLC-load-misses           #   20.70% of all LL-cache accesses  (49.88%)
     5.004947313          9,121,717      LLC-load-misses           #   14.53% of all LL-cache accesses  (49.96%)
     5.004947313         11,796,111      LLC-loads                 #  589.209 K/sec                    (50.05%)
     5.004947313         62,797,238      LLC-loads                 #    3.137 M/sec                    (41.82%)
     5.004947313            189,866      LLC-store-misses          #    9.484 K/sec                    (25.10%)
     5.004947313          3,632,245      LLC-store-misses          #  181.429 K/sec                    (33.42%)
     5.004947313          3,727,262      LLC-stores                #  186.175 K/sec                    (24.94%)
     5.004947313         29,481,514      LLC-stores                #    1.473 M/sec                    (33.25%)
     5.004947313          20,020.25 msec task-clock                #    4.004 CPUs utilized          
     5.004947313      2,210,351,669      cycles:u                  #    0.110 GHz                      (41.56%)
     5.004947313     10,966,700,216      cycles:k                  #    0.548 GHz                      (41.55%)
     5.004947313      1,347,305,975      instructions:u            #    0.61  insn per cycle           (49.86%)
     5.004947313      8,730,516,048      instructions:k            #    0.80  insn per cycle           (49.86%)
    10.008952250         10,688,383      LLC-load-misses           #   20.65% of all LL-cache accesses  (49.88%)
    10.008952250         36,886,690      LLC-load-misses           #   13.88% of all LL-cache accesses  (49.88%)
    10.008952250         51,754,190      LLC-loads                 #    2.586 M/sec                    (49.88%)
    10.008952250        265,723,690      LLC-loads                 #   13.276 M/sec                    (41.57%)
    10.008952250            731,989      LLC-store-misses          #   36.571 K/sec                    (25.02%)
    10.008952250         12,963,418      LLC-store-misses          #  647.676 K/sec                    (33.41%)
    10.008952250         16,854,096      LLC-stores                #  842.061 K/sec                    (25.18%)
    10.008952250        128,255,692      LLC-stores                #    6.408 M/sec                    (33.49%)
    10.008952250          20,015.29 msec task-clock                #    4.003 CPUs utilized          
    10.008952250      9,880,791,985      cycles:u                  #    0.494 GHz                      (41.81%)
    10.008952250     43,897,756,857      cycles:k                  #    2.193 GHz                      (41.73%)
    10.008952250      5,986,888,479      instructions:u            #    0.61  insn per cycle           (50.04%)
    10.008952250     33,712,936,912      instructions:k            #    0.77  insn per cycle           (49.96%)
    15.012943137         10,634,031      LLC-load-misses           #   20.62% of all LL-cache accesses  (50.12%)
    15.012943137         36,615,346      LLC-load-misses           #   13.85% of all LL-cache accesses  (50.04%)
    15.012943137         51,583,882      LLC-loads                 #    2.577 M/sec                    (49.96%)
    15.012943137        264,393,914      LLC-loads                 #   13.210 M/sec                    (41.57%)
    15.012943137            724,264      LLC-store-misses          #   36.185 K/sec                    (24.94%)
    15.012943137         12,880,137      LLC-store-misses          #  643.512 K/sec                    (33.26%)
    15.012943137         16,831,043      LLC-stores                #  840.905 K/sec                    (24.94%)
    15.012943137        127,864,503      LLC-stores                #    6.388 M/sec                    (33.33%)
    15.012943137          20,015.39 msec task-clock                #    4.003 CPUs utilized          
    15.012943137      9,878,725,564      cycles:u                  #    0.494 GHz                      (41.72%)
    15.012943137     43,900,059,591      cycles:k                  #    2.193 GHz                      (41.80%)
    15.012943137      5,964,987,019      instructions:u            #    0.60  insn per cycle           (50.12%)
    15.012943137     33,715,693,708      instructions:k            #    0.77  insn per cycle           (50.12%)
    20.016954701         10,630,237      LLC-load-misses           #   20.63% of all LL-cache accesses  (50.11%)
    20.016954701         36,492,188      LLC-load-misses           #   13.80% of all LL-cache accesses  (50.12%)
    20.016954701         51,534,752      LLC-loads                 #    2.575 M/sec                    (50.12%)
    20.016954701        264,373,961      LLC-loads                 #   13.209 M/sec                    (41.73%)
    20.016954701            734,872      LLC-store-misses          #   36.715 K/sec                    (24.94%)
    20.016954701         12,870,934      LLC-store-misses          #  643.053 K/sec                    (33.26%)
    20.016954701         16,883,642      LLC-stores                #  843.534 K/sec                    (24.94%)
    20.016954701        127,718,669      LLC-stores                #    6.381 M/sec                    (33.25%)
    20.016954701          20,015.37 msec task-clock                #    4.003 CPUs utilized          
    20.016954701      9,873,006,555      cycles:u                  #    0.493 GHz                      (41.57%)
    20.016954701     43,894,913,060      cycles:k                  #    2.193 GHz                      (41.56%)
    20.016954701      5,963,834,435      instructions:u            #    0.60  insn per cycle           (49.95%)
    20.016954701     33,732,962,456      instructions:k            #    0.77  insn per cycle           (50.03%)
    25.020954210         10,636,964      LLC-load-misses           #   20.62% of all LL-cache accesses  (49.88%)
    25.020954210         36,673,399      LLC-load-misses           #   13.84% of all LL-cache accesses  (49.96%)
    25.020954210         51,577,318      LLC-loads                 #    2.577 M/sec                    (50.04%)
    25.020954210        264,952,988      LLC-loads                 #   13.238 M/sec                    (41.81%)
    25.020954210            727,183      LLC-store-misses          #   36.331 K/sec                    (25.11%)
    25.020954210         12,855,634      LLC-store-misses          #  642.290 K/sec                    (33.42%)
    25.020954210         16,898,018      LLC-stores                #  844.254 K/sec                    (24.94%)
    25.020954210        128,026,794      LLC-stores                #    6.396 M/sec                    (33.26%)
    25.020954210          20,015.32 msec task-clock                #    4.003 CPUs utilized          
    25.020954210      9,877,691,417      cycles:u                  #    0.494 GHz                      (41.57%)
    25.020954210     43,901,970,862      cycles:k                  #    2.193 GHz                      (41.56%)
    25.020954210      5,966,621,653      instructions:u            #    0.60  insn per cycle           (49.88%)
    25.020954210     33,743,540,019      instructions:k            #    0.77  insn per cycle           (49.88%)
    30.024943978         10,627,589      LLC-load-misses           #   20.61% of all LL-cache accesses  (49.88%)
    30.024943978         36,478,369      LLC-load-misses           #   13.77% of all LL-cache accesses  (49.88%)
    30.024943978         51,566,383      LLC-loads                 #    2.576 M/sec                    (49.88%)
    30.024943978        264,870,217      LLC-loads                 #   13.233 M/sec                    (41.57%)
    30.024943978            728,719      LLC-store-misses          #   36.408 K/sec                    (25.02%)
    30.024943978         12,871,815      LLC-store-misses          #  643.099 K/sec                    (33.41%)
    30.024943978         16,873,584      LLC-stores                #  843.035 K/sec                    (25.18%)
    30.024943978        127,938,983      LLC-stores                #    6.392 M/sec                    (33.49%)
    30.024943978          20,015.29 msec task-clock                #    4.003 CPUs utilized          
    30.024943978      9,873,604,158      cycles:u                  #    0.493 GHz                      (41.81%)
    30.024943978     43,899,771,073      cycles:k                  #    2.193 GHz                      (41.73%)
    30.024943978      5,963,744,640      instructions:u            #    0.60  insn per cycle           (50.04%)
    30.024943978     33,735,475,653      instructions:k            #    0.77  insn per cycle           (49.96%)
    35.028973920          8,240,583      LLC-load-misses           #   20.64% of all LL-cache accesses  (50.12%)
    35.028973920         28,516,672      LLC-load-misses           #   13.88% of all LL-cache accesses  (50.04%)
    35.028973920         39,920,739      LLC-loads                 #    1.994 M/sec                    (49.96%)
    35.028973920        205,456,886      LLC-loads                 #   10.265 M/sec                    (41.57%)
    35.028973920            561,120      LLC-store-misses          #   28.034 K/sec                    (24.94%)
    35.028973920         10,033,680      LLC-store-misses          #  501.283 K/sec                    (33.26%)
    35.028973920         12,990,684      LLC-stores                #  649.016 K/sec                    (24.94%)
    35.028973920         98,774,448      LLC-stores                #    4.935 M/sec                    (33.33%)
    35.028973920          20,015.98 msec task-clock                #    4.003 CPUs utilized          
    35.028973920      7,613,750,905      cycles:u                  #    0.380 GHz                      (41.72%)
    35.028973920     33,995,488,373      cycles:k                  #    1.698 GHz                      (41.80%)
    35.028973920      4,609,404,599      instructions:u            #    0.61  insn per cycle           (50.12%)
    35.028973920     26,128,583,020      instructions:k            #    0.77  insn per cycle           (50.12%)
    35.994613510              4,116      LLC-load-misses           #   63.94% of all LL-cache accesses  (50.28%)
    35.994613510            123,076      LLC-load-misses           #   28.14% of all LL-cache accesses  (50.29%)
    35.994613510              6,437      LLC-loads                 #    1.667 K/sec                    (50.29%)
    35.994613510            437,338      LLC-loads                 #  113.236 K/sec                    (41.62%)
    35.994613510                  0      LLC-store-misses          #    0.000 /sec                     (24.86%)
    35.994613510            151,144      LLC-store-misses          #   39.134 K/sec                    (33.14%)
    35.994613510                 36      LLC-stores                #    9.321 /sec                     (24.86%)
    35.994613510            196,557      LLC-stores                #   50.893 K/sec                    (33.14%)
    35.994613510           3,862.18 msec task-clock                #    0.772 CPUs utilized          
    35.994613510             29,598      cycles:u                  #    0.000 GHz                      (41.43%)
    35.994613510         95,433,792      cycles:k                  #    0.025 GHz                      (41.42%)
    35.994613510            350,423      instructions:u            #   11.84  insn per cycle           (50.09%)
    35.994613510          9,488,531      instructions:k            #    0.10  insn per cycle           (50.28%)
