# started on Sun Apr  2 00:43:37 2023

#           time             counts unit events
     5.004154800         10,100,492      LLC-load-misses           #   20.36% of all LL-cache accesses  (49.88%)
     5.004154800         31,510,690      LLC-load-misses           #   12.92% of all LL-cache accesses  (49.96%)
     5.004154800         49,614,007      LLC-loads                 #  619.565 K/sec                    (50.04%)
     5.004154800        243,824,130      LLC-loads                 #    3.045 M/sec                    (41.81%)
     5.004154800            639,918      LLC-store-misses          #    7.991 K/sec                    (25.11%)
     5.004154800         11,174,220      LLC-store-misses          #  139.540 K/sec                    (33.42%)
     5.004154800         14,688,846      LLC-stores                #  183.430 K/sec                    (24.94%)
     5.004154800        120,151,838      LLC-stores                #    1.500 M/sec                    (33.26%)
     5.004154800          80,078.71 msec task-clock                #   16.016 CPUs utilized          
     5.004154800      8,838,861,468      cycles:u                  #    0.110 GHz                      (41.57%)
     5.004154800     40,769,220,333      cycles:k                  #    0.509 GHz                      (41.55%)
     5.004154800      5,599,365,381      instructions:u            #    0.63  insn per cycle           (49.87%)
     5.004154800     34,463,076,706      instructions:k            #    0.85  insn per cycle           (49.87%)
    10.008160087         46,298,951      LLC-load-misses           #   20.46% of all LL-cache accesses  (49.89%)
    10.008160087        137,173,011      LLC-load-misses           #   12.76% of all LL-cache accesses  (49.88%)
    10.008160087        226,305,048      LLC-loads                 #    2.827 M/sec                    (49.88%)
    10.008160087      1,074,678,543      LLC-loads                 #   13.423 M/sec                    (41.57%)
    10.008160087          2,974,086      LLC-store-misses          #   37.147 K/sec                    (25.01%)
    10.008160087         34,122,149      LLC-store-misses          #  426.195 K/sec                    (33.41%)
    10.008160087         69,389,766      LLC-stores                #  866.696 K/sec                    (25.17%)
    10.008160087        539,186,425      LLC-stores                #    6.735 M/sec                    (33.49%)
    10.008160087          80,062.38 msec task-clock                #   16.012 CPUs utilized          
    10.008160087     40,966,321,618      cycles:u                  #    0.512 GHz                      (41.81%)
    10.008160087    174,133,042,775      cycles:k                  #    2.175 GHz                      (41.73%)
    10.008160087     25,570,349,846      instructions:u            #    0.62  insn per cycle           (50.05%)
    10.008160087    141,631,339,240      instructions:k            #    0.81  insn per cycle           (49.97%)
    15.012154327         46,317,117      LLC-load-misses           #   20.46% of all LL-cache accesses  (50.12%)
    15.012154327        136,749,353      LLC-load-misses           #   12.72% of all LL-cache accesses  (50.05%)
    15.012154327        226,377,354      LLC-loads                 #    2.828 M/sec                    (49.97%)
    15.012154327      1,075,122,197      LLC-loads                 #   13.429 M/sec                    (41.57%)
    15.012154327          2,974,480      LLC-store-misses          #   37.153 K/sec                    (24.94%)
    15.012154327         34,123,713      LLC-store-misses          #  426.225 K/sec                    (33.26%)
    15.012154327         69,510,739      LLC-stores                #  868.229 K/sec                    (24.94%)
    15.012154327        539,841,546      LLC-stores                #    6.743 M/sec                    (33.32%)
    15.012154327          80,060.42 msec task-clock                #   16.012 CPUs utilized          
    15.012154327     40,984,450,638      cycles:u                  #    0.512 GHz                      (41.72%)
    15.012154327    174,112,639,566      cycles:k                  #    2.175 GHz                      (41.79%)
    15.012154327     25,591,243,452      instructions:u            #    0.62  insn per cycle           (50.12%)
    15.012154327    141,778,941,531      instructions:k            #    0.81  insn per cycle           (50.12%)
    20.016152911         46,326,606      LLC-load-misses           #   20.46% of all LL-cache accesses  (50.11%)
    20.016152911        136,420,263      LLC-load-misses           #   12.68% of all LL-cache accesses  (50.12%)
    20.016152911        226,424,141      LLC-loads                 #    2.828 M/sec                    (50.12%)
    20.016152911      1,075,657,557      LLC-loads                 #   13.435 M/sec                    (41.74%)
    20.016152911          2,971,153      LLC-store-misses          #   37.111 K/sec                    (24.94%)
    20.016152911         34,131,468      LLC-store-misses          #  426.317 K/sec                    (33.26%)
    20.016152911         69,581,934      LLC-stores                #  869.109 K/sec                    (24.94%)
    20.016152911        539,791,701      LLC-stores                #    6.742 M/sec                    (33.25%)
    20.016152911          80,061.23 msec task-clock                #   16.012 CPUs utilized          
    20.016152911     40,981,622,189      cycles:u                  #    0.512 GHz                      (41.57%)
    20.016152911    174,119,290,491      cycles:k                  #    2.175 GHz                      (41.56%)
    20.016152911     25,595,135,431      instructions:u            #    0.62  insn per cycle           (49.95%)
    20.016152911    141,783,903,256      instructions:k            #    0.81  insn per cycle           (50.03%)
    25.020156291         46,315,946      LLC-load-misses           #   20.47% of all LL-cache accesses  (49.88%)
    25.020156291        136,869,033      LLC-load-misses           #   12.73% of all LL-cache accesses  (49.95%)
    25.020156291        226,317,515      LLC-loads                 #    2.827 M/sec                    (50.03%)
    25.020156291      1,075,121,940      LLC-loads                 #   13.429 M/sec                    (41.80%)
    25.020156291          2,974,777      LLC-store-misses          #   37.156 K/sec                    (25.11%)
    25.020156291         34,077,315      LLC-store-misses          #  425.641 K/sec                    (33.42%)
    25.020156291         69,455,793      LLC-stores                #  867.533 K/sec                    (24.95%)
    25.020156291        539,506,748      LLC-stores                #    6.739 M/sec                    (33.26%)
    25.020156291          80,061.23 msec task-clock                #   16.012 CPUs utilized          
    25.020156291     40,981,398,937      cycles:u                  #    0.512 GHz                      (41.57%)
    25.020156291    174,065,737,003      cycles:k                  #    2.174 GHz                      (41.56%)
    25.020156291     25,575,750,387      instructions:u            #    0.62  insn per cycle           (49.88%)
    25.020156291    141,714,814,954      instructions:k            #    0.81  insn per cycle           (49.88%)
    30.024154839         46,313,365      LLC-load-misses           #   20.47% of all LL-cache accesses  (49.88%)
    30.024154839        137,357,267      LLC-load-misses           #   12.78% of all LL-cache accesses  (49.88%)
    30.024154839        226,262,651      LLC-loads                 #    2.826 M/sec                    (49.88%)
    30.024154839      1,074,817,985      LLC-loads                 #   13.425 M/sec                    (41.57%)
    30.024154839          2,970,187      LLC-store-misses          #   37.099 K/sec                    (25.02%)
    30.024154839         34,165,133      LLC-store-misses          #  426.736 K/sec                    (33.41%)
    30.024154839         69,463,722      LLC-stores                #  867.629 K/sec                    (25.17%)
    30.024154839        539,085,635      LLC-stores                #    6.733 M/sec                    (33.49%)
    30.024154839          80,061.53 msec task-clock                #   16.012 CPUs utilized          
    30.024154839     40,978,305,977      cycles:u                  #    0.512 GHz                      (41.81%)
    30.024154839    174,120,410,268      cycles:k                  #    2.175 GHz                      (41.73%)
    30.024154839     25,579,745,579      instructions:u            #    0.62  insn per cycle           (50.04%)
    30.024154839    141,683,201,037      instructions:k            #    0.81  insn per cycle           (49.96%)
    35.028147554         36,290,044      LLC-load-misses           #   20.46% of all LL-cache accesses  (50.12%)
    35.028147554        107,758,878      LLC-load-misses           #   12.79% of all LL-cache accesses  (50.05%)
    35.028147554        177,344,116      LLC-loads                 #    2.215 M/sec                    (49.97%)
    35.028147554        842,289,585      LLC-loads                 #   10.520 M/sec                    (41.57%)
    35.028147554          2,319,609      LLC-store-misses          #   28.972 K/sec                    (24.94%)
    35.028147554         27,357,680      LLC-store-misses          #  341.700 K/sec                    (33.26%)
    35.028147554         54,232,674      LLC-stores                #  677.371 K/sec                    (24.94%)
    35.028147554        422,258,296      LLC-stores                #    5.274 M/sec                    (33.32%)
    35.028147554          80,063.50 msec task-clock                #   16.013 CPUs utilized          
    35.028147554     32,151,339,591      cycles:u                  #    0.402 GHz                      (41.72%)
    35.028147554    136,421,000,815      cycles:k                  #    1.704 GHz                      (41.80%)
    35.028147554     20,345,256,126      instructions:u            #    0.63  insn per cycle           (50.12%)
    35.028147554    111,227,455,943      instructions:k            #    0.82  insn per cycle           (50.12%)
    36.139933099             63,847      LLC-load-misses           #   82.52% of all LL-cache accesses  (50.35%)
    36.139933099            544,240      LLC-load-misses           #   25.73% of all LL-cache accesses  (50.35%)
    36.139933099             77,372      LLC-loads                 #    4.350 K/sec                    (50.36%)
    36.139933099          2,114,890      LLC-loads                 #  118.894 K/sec                    (41.77%)
    36.139933099                374      LLC-store-misses          #   21.025 /sec                     (24.83%)
    36.139933099            739,440      LLC-store-misses          #   41.569 K/sec                    (33.10%)
    36.139933099             39,138      LLC-stores                #    2.200 K/sec                    (24.82%)
    36.139933099          1,103,544      LLC-stores                #   62.038 K/sec                    (33.10%)
    36.139933099          17,788.06 msec task-clock                #    3.558 CPUs utilized          
    36.139933099        199,945,278      cycles:u                  #    0.011 GHz                      (41.37%)
    36.139933099        477,367,498      cycles:k                  #    0.027 GHz                      (41.37%)
    36.139933099        386,041,007      instructions:u            #    1.93  insn per cycle           (49.95%)
    36.139933099         53,112,769      instructions:k            #    0.11  insn per cycle           (50.32%)
