# started on Sun Apr  2 00:24:26 2023

#           time             counts unit events
     5.002788044          2,497,772      LLC-load-misses           #   20.30% of all LL-cache accesses  (49.94%)
     5.002788044          9,277,638      LLC-load-misses           #   14.45% of all LL-cache accesses  (50.02%)
     5.002788044         12,303,595      LLC-loads                 #  614.821 K/sec                    (50.11%)
     5.002788044         64,196,419      LLC-loads                 #    3.208 M/sec                    (41.80%)
     5.002788044            169,735      LLC-store-misses          #    8.482 K/sec                    (25.03%)
     5.002788044          3,631,230      LLC-store-misses          #  181.455 K/sec                    (33.35%)
     5.002788044          4,158,879      LLC-stores                #  207.823 K/sec                    (24.94%)
     5.002788044         30,339,137      LLC-stores                #    1.516 M/sec                    (33.26%)
     5.002788044          20,011.68 msec task-clock                #    4.002 CPUs utilized          
     5.002788044      2,087,059,621      cycles:u                  #    0.104 GHz                      (41.57%)
     5.002788044     10,932,521,491      cycles:k                  #    0.546 GHz                      (41.57%)
     5.002788044      1,393,271,432      instructions:u            #    0.67  insn per cycle           (49.88%)
     5.002788044      8,832,780,501      instructions:k            #    0.81  insn per cycle           (49.89%)
    10.006824218         11,127,685      LLC-load-misses           #   20.45% of all LL-cache accesses  (49.88%)
    10.006824218         38,128,938      LLC-load-misses           #   13.75% of all LL-cache accesses  (49.88%)
    10.006824218         54,425,019      LLC-loads                 #    2.719 M/sec                    (49.88%)
    10.006824218        277,309,868      LLC-loads                 #   13.855 M/sec                    (41.65%)
    10.006824218            755,716      LLC-store-misses          #   37.757 K/sec                    (25.10%)
    10.006824218         13,280,464      LLC-store-misses          #  663.510 K/sec                    (33.49%)
    10.006824218         18,875,495      LLC-stores                #  943.046 K/sec                    (25.10%)
    10.006824218        133,347,151      LLC-stores                #    6.662 M/sec                    (33.42%)
    10.006824218          20,015.46 msec task-clock                #    4.003 CPUs utilized          
    10.006824218      9,370,821,299      cycles:u                  #    0.468 GHz                      (41.73%)
    10.006824218     44,407,069,959      cycles:k                  #    2.219 GHz                      (41.65%)
    10.006824218      6,240,885,280      instructions:u            #    0.67  insn per cycle           (49.96%)
    10.006824218     35,118,860,974      instructions:k            #    0.79  insn per cycle           (49.88%)
    15.010818192         11,096,068      LLC-load-misses           #   20.44% of all LL-cache accesses  (50.04%)
    15.010818192         38,050,459      LLC-load-misses           #   13.77% of all LL-cache accesses  (49.96%)
    15.010818192         54,299,029      LLC-loads                 #    2.713 M/sec                    (49.88%)
    15.010818192        276,425,657      LLC-loads                 #   13.811 M/sec                    (41.57%)
    15.010818192            748,996      LLC-store-misses          #   37.421 K/sec                    (24.94%)
    15.010818192         13,217,586      LLC-store-misses          #  660.375 K/sec                    (33.26%)
    15.010818192         18,767,640      LLC-stores                #  937.667 K/sec                    (25.02%)
    15.010818192        133,305,291      LLC-stores                #    6.660 M/sec                    (33.41%)
    15.010818192          20,015.26 msec task-clock                #    4.003 CPUs utilized          
    15.010818192      9,364,261,802      cycles:u                  #    0.468 GHz                      (41.80%)
    15.010818192     44,413,020,584      cycles:k                  #    2.219 GHz                      (41.80%)
    15.010818192      6,225,824,651      instructions:u            #    0.66  insn per cycle           (50.12%)
    15.010818192     35,157,860,309      instructions:k            #    0.79  insn per cycle           (50.12%)
    20.014820386         11,112,316      LLC-load-misses           #   20.44% of all LL-cache accesses  (50.12%)
    20.014820386         38,017,151      LLC-load-misses           #   13.74% of all LL-cache accesses  (50.12%)
    20.014820386         54,369,644      LLC-loads                 #    2.716 M/sec                    (50.12%)
    20.014820386        276,715,876      LLC-loads                 #   13.825 M/sec                    (41.65%)
    20.014820386            752,097      LLC-store-misses          #   37.576 K/sec                    (24.94%)
    20.014820386         13,227,716      LLC-store-misses          #  660.877 K/sec                    (33.26%)
    20.014820386         18,845,666      LLC-stores                #  941.559 K/sec                    (24.94%)
    20.014820386        133,207,901      LLC-stores                #    6.655 M/sec                    (33.25%)
    20.014820386          20,015.39 msec task-clock                #    4.003 CPUs utilized          
    20.014820386      9,363,355,944      cycles:u                  #    0.468 GHz                      (41.57%)
    20.014820386     44,413,404,255      cycles:k                  #    2.219 GHz                      (41.64%)
    20.014820386      6,227,137,393      instructions:u            #    0.67  insn per cycle           (50.03%)
    20.014820386     35,189,464,550      instructions:k            #    0.79  insn per cycle           (50.11%)
    25.018815543         11,097,755      LLC-load-misses           #   20.43% of all LL-cache accesses  (49.95%)
    25.018815543         38,074,682      LLC-load-misses           #   13.75% of all LL-cache accesses  (50.03%)
    25.018815543         54,331,146      LLC-loads                 #    2.714 M/sec                    (50.12%)
    25.018815543        276,838,438      LLC-loads                 #   13.831 M/sec                    (41.81%)
    25.018815543            754,690      LLC-store-misses          #   37.706 K/sec                    (25.03%)
    25.018815543         13,221,724      LLC-store-misses          #  660.580 K/sec                    (33.34%)
    25.018815543         18,850,084      LLC-stores                #  941.783 K/sec                    (24.94%)
    25.018815543        133,201,498      LLC-stores                #    6.655 M/sec                    (33.25%)
    25.018815543          20,015.32 msec task-clock                #    4.003 CPUs utilized          
    25.018815543      9,361,475,345      cycles:u                  #    0.468 GHz                      (41.57%)
    25.018815543     44,417,698,685      cycles:k                  #    2.219 GHz                      (41.56%)
    25.018815543      6,223,575,274      instructions:u            #    0.66  insn per cycle           (49.88%)
    25.018815543     35,194,010,441      instructions:k            #    0.79  insn per cycle           (49.88%)
    30.022815214         11,102,988      LLC-load-misses           #   20.43% of all LL-cache accesses  (49.88%)
    30.022815214         38,005,623      LLC-load-misses           #   13.72% of all LL-cache accesses  (49.88%)
    30.022815214         54,346,311      LLC-loads                 #    2.715 M/sec                    (49.88%)
    30.022815214        276,943,656      LLC-loads                 #   13.837 M/sec                    (41.65%)
    30.022815214            754,007      LLC-store-misses          #   37.671 K/sec                    (25.10%)
    30.022815214         13,233,226      LLC-store-misses          #  661.152 K/sec                    (33.49%)
    30.022815214         18,921,870      LLC-stores                #  945.366 K/sec                    (25.10%)
    30.022815214        133,299,338      LLC-stores                #    6.660 M/sec                    (33.42%)
    30.022815214          20,015.40 msec task-clock                #    4.003 CPUs utilized          
    30.022815214      9,367,253,381      cycles:u                  #    0.468 GHz                      (41.73%)
    30.022815214     44,411,296,775      cycles:k                  #    2.219 GHz                      (41.65%)
    30.022815214      6,227,361,806      instructions:u            #    0.66  insn per cycle           (49.96%)
    30.022815214     35,203,321,612      instructions:k            #    0.79  insn per cycle           (49.88%)
    35.026789454          8,610,915      LLC-load-misses           #   20.36% of all LL-cache accesses  (50.04%)
    35.026789454         29,634,770      LLC-load-misses           #   13.74% of all LL-cache accesses  (49.96%)
    35.026789454         42,299,725      LLC-loads                 #    2.113 M/sec                    (49.88%)
    35.026789454        215,697,520      LLC-loads                 #   10.777 M/sec                    (41.57%)
    35.026789454            582,361      LLC-store-misses          #   29.096 K/sec                    (24.94%)
    35.026789454         10,513,443      LLC-store-misses          #  525.269 K/sec                    (33.26%)
    35.026789454         14,568,929      LLC-stores                #  727.888 K/sec                    (25.02%)
    35.026789454        103,304,230      LLC-stores                #    5.161 M/sec                    (33.41%)
    35.026789454          20,015.34 msec task-clock                #    4.003 CPUs utilized          
    35.026789454      7,242,937,308      cycles:u                  #    0.362 GHz                      (41.80%)
    35.026789454     34,640,340,689      cycles:k                  #    1.731 GHz                      (41.80%)
    35.026789454      4,847,320,974      instructions:u            #    0.67  insn per cycle           (50.12%)
    35.026789454     27,407,772,122      instructions:k            #    0.79  insn per cycle           (50.12%)
    36.117028890              2,345      LLC-load-misses           #   62.85% of all LL-cache accesses  (49.87%)
    36.117028890            140,806      LLC-load-misses           #   27.63% of all LL-cache accesses  (50.25%)
    36.117028890              3,731      LLC-loads                 #  855.547 /sec                     (50.62%)
    36.117028890            509,654      LLC-loads                 #  116.868 K/sec                    (42.20%)
    36.117028890                  0      LLC-store-misses          #    0.000 /sec                     (25.32%)
    36.117028890            173,093      LLC-store-misses          #   39.692 K/sec                    (33.61%)
    36.117028890                350      LLC-stores                #   80.258 /sec                     (24.81%)
    36.117028890            230,306      LLC-stores                #   52.811 K/sec                    (32.88%)
    36.117028890           4,360.95 msec task-clock                #    0.872 CPUs utilized          
    36.117028890            189,817      cycles:u                  #    0.000 GHz                      (40.95%)
    36.117028890        113,080,644      cycles:k                  #    0.026 GHz                      (40.92%)
    36.117028890            387,000      instructions:u            #    2.04  insn per cycle           (49.36%)
    36.117028890         11,049,907      instructions:k            #    0.10  insn per cycle           (49.51%)
