# started on Sun Apr  2 00:51:54 2023

#           time             counts unit events
     5.004442812          2,506,000      LLC-load-misses           #   20.67% of all LL-cache accesses  (49.88%)
     5.004442812          9,383,140      LLC-load-misses           #   14.94% of all LL-cache accesses  (49.96%)
     5.004442812         12,123,123      LLC-loads                 #  605.604 K/sec                    (50.04%)
     5.004442812         62,805,893      LLC-loads                 #    3.137 M/sec                    (41.82%)
     5.004442812            173,863      LLC-store-misses          #    8.685 K/sec                    (25.10%)
     5.004442812          3,823,959      LLC-store-misses          #  191.024 K/sec                    (33.42%)
     5.004442812          3,887,404      LLC-stores                #  194.193 K/sec                    (24.94%)
     5.004442812         30,247,429      LLC-stores                #    1.511 M/sec                    (33.25%)
     5.004442812          20,018.24 msec task-clock                #    4.004 CPUs utilized          
     5.004442812      2,129,379,167      cycles:u                  #    0.106 GHz                      (41.56%)
     5.004442812     10,474,244,873      cycles:k                  #    0.523 GHz                      (41.56%)
     5.004442812      1,372,069,907      instructions:u            #    0.64  insn per cycle           (49.87%)
     5.004442812      8,443,362,485      instructions:k            #    0.81  insn per cycle           (49.86%)
    10.008462738         11,093,172      LLC-load-misses           #   20.37% of all LL-cache accesses  (49.88%)
    10.008462738         39,067,529      LLC-load-misses           #   14.30% of all LL-cache accesses  (49.88%)
    10.008462738         54,452,778      LLC-loads                 #    2.721 M/sec                    (49.88%)
    10.008462738        273,224,835      LLC-loads                 #   13.651 M/sec                    (41.57%)
    10.008462738            763,894      LLC-store-misses          #   38.165 K/sec                    (25.02%)
    10.008462738         13,516,630      LLC-store-misses          #  675.312 K/sec                    (33.41%)
    10.008462738         17,739,971      LLC-stores                #  886.317 K/sec                    (25.18%)
    10.008462738        132,104,440      LLC-stores                #    6.600 M/sec                    (33.49%)
    10.008462738          20,015.38 msec task-clock                #    4.003 CPUs utilized          
    10.008462738      9,614,509,642      cycles:u                  #    0.480 GHz                      (41.81%)
    10.008462738     44,165,000,127      cycles:k                  #    2.207 GHz                      (41.73%)
    10.008462738      6,202,492,630      instructions:u            #    0.65  insn per cycle           (50.04%)
    10.008462738     34,949,107,998      instructions:k            #    0.79  insn per cycle           (49.96%)
    15.012443354         11,063,844      LLC-load-misses           #   20.38% of all LL-cache accesses  (50.12%)
    15.012443354         39,010,551      LLC-load-misses           #   14.33% of all LL-cache accesses  (50.04%)
    15.012443354         54,290,061      LLC-loads                 #    2.712 M/sec                    (49.96%)
    15.012443354        272,246,980      LLC-loads                 #   13.602 M/sec                    (41.57%)
    15.012443354            764,044      LLC-store-misses          #   38.173 K/sec                    (24.94%)
    15.012443354         13,483,478      LLC-store-misses          #  673.658 K/sec                    (33.26%)
    15.012443354         17,716,045      LLC-stores                #  885.124 K/sec                    (24.94%)
    15.012443354        132,185,099      LLC-stores                #    6.604 M/sec                    (33.33%)
    15.012443354          20,015.33 msec task-clock                #    4.003 CPUs utilized          
    15.012443354      9,615,973,774      cycles:u                  #    0.480 GHz                      (41.72%)
    15.012443354     44,156,185,261      cycles:k                  #    2.206 GHz                      (41.80%)
    15.012443354      6,189,777,674      instructions:u            #    0.64  insn per cycle           (50.12%)
    15.012443354     34,964,515,189      instructions:k            #    0.79  insn per cycle           (50.12%)
    20.016465528         11,068,981      LLC-load-misses           #   20.39% of all LL-cache accesses  (50.11%)
    20.016465528         39,027,246      LLC-load-misses           #   14.31% of all LL-cache accesses  (50.12%)
    20.016465528         54,274,750      LLC-loads                 #    2.712 M/sec                    (50.12%)
    20.016465528        272,733,856      LLC-loads                 #   13.626 M/sec                    (41.73%)
    20.016465528            764,488      LLC-store-misses          #   38.195 K/sec                    (24.94%)
    20.016465528         13,475,834      LLC-store-misses          #  673.275 K/sec                    (33.26%)
    20.016465528         17,701,863      LLC-stores                #  884.414 K/sec                    (24.94%)
    20.016465528        132,156,848      LLC-stores                #    6.603 M/sec                    (33.25%)
    20.016465528          20,015.35 msec task-clock                #    4.003 CPUs utilized          
    20.016465528      9,611,467,660      cycles:u                  #    0.480 GHz                      (41.57%)
    20.016465528     44,167,850,724      cycles:k                  #    2.207 GHz                      (41.56%)
    20.016465528      6,189,237,496      instructions:u            #    0.64  insn per cycle           (49.95%)
    20.016465528     34,997,965,998      instructions:k            #    0.79  insn per cycle           (50.03%)
    25.020466670         11,072,339      LLC-load-misses           #   20.40% of all LL-cache accesses  (49.88%)
    25.020466670         38,975,927      LLC-load-misses           #   14.29% of all LL-cache accesses  (49.95%)
    25.020466670         54,274,468      LLC-loads                 #    2.712 M/sec                    (50.04%)
    25.020466670        272,813,368      LLC-loads                 #   13.630 M/sec                    (41.80%)
    25.020466670            763,183      LLC-store-misses          #   38.130 K/sec                    (25.11%)
    25.020466670         13,510,727      LLC-store-misses          #  675.014 K/sec                    (33.42%)
    25.020466670         17,817,305      LLC-stores                #  890.177 K/sec                    (24.94%)
    25.020466670        132,346,414      LLC-stores                #    6.612 M/sec                    (33.26%)
    25.020466670          20,015.47 msec task-clock                #    4.003 CPUs utilized          
    25.020466670      9,611,049,522      cycles:u                  #    0.480 GHz                      (41.57%)
    25.020466670     44,154,365,001      cycles:k                  #    2.206 GHz                      (41.56%)
    25.020466670      6,193,855,624      instructions:u            #    0.64  insn per cycle           (49.88%)
    25.020466670     35,019,357,962      instructions:k            #    0.79  insn per cycle           (49.88%)
    30.024444623         11,079,738      LLC-load-misses           #   20.43% of all LL-cache accesses  (49.88%)
    30.024444623         39,093,581      LLC-load-misses           #   14.34% of all LL-cache accesses  (49.88%)
    30.024444623         54,223,134      LLC-loads                 #    2.709 M/sec                    (49.88%)
    30.024444623        272,706,748      LLC-loads                 #   13.625 M/sec                    (41.57%)
    30.024444623            768,336      LLC-store-misses          #   38.388 K/sec                    (25.02%)
    30.024444623         13,499,920      LLC-store-misses          #  674.485 K/sec                    (33.41%)
    30.024444623         17,832,479      LLC-stores                #  890.948 K/sec                    (25.18%)
    30.024444623        132,349,695      LLC-stores                #    6.612 M/sec                    (33.49%)
    30.024444623          20,015.17 msec task-clock                #    4.003 CPUs utilized          
    30.024444623      9,613,280,882      cycles:u                  #    0.480 GHz                      (41.81%)
    30.024444623     44,166,910,735      cycles:k                  #    2.207 GHz                      (41.73%)
    30.024444623      6,193,514,789      instructions:u            #    0.64  insn per cycle           (50.04%)
    30.024444623     35,023,423,121      instructions:k            #    0.79  insn per cycle           (49.96%)
    35.028485526          8,585,815      LLC-load-misses           #   20.36% of all LL-cache accesses  (50.12%)
    35.028485526         30,502,450      LLC-load-misses           #   14.35% of all LL-cache accesses  (50.04%)
    35.028485526         42,170,818      LLC-loads                 #    2.107 M/sec                    (49.97%)
    35.028485526        212,626,420      LLC-loads                 #   10.623 M/sec                    (41.57%)
    35.028485526            599,524      LLC-store-misses          #   29.952 K/sec                    (24.94%)
    35.028485526         10,717,808      LLC-store-misses          #  535.464 K/sec                    (33.26%)
    35.028485526         13,634,586      LLC-stores                #  681.186 K/sec                    (24.94%)
    35.028485526        102,465,495      LLC-stores                #    5.119 M/sec                    (33.33%)
    35.028485526          20,015.94 msec task-clock                #    4.003 CPUs utilized          
    35.028485526      7,408,580,183      cycles:u                  #    0.370 GHz                      (41.72%)
    35.028485526     34,581,225,723      cycles:k                  #    1.728 GHz                      (41.80%)
    35.028485526      4,780,076,915      instructions:u            #    0.65  insn per cycle           (50.12%)
    35.028485526     27,597,324,826      instructions:k            #    0.80  insn per cycle           (50.12%)
    36.120988651              2,085      LLC-load-misses           #   68.97% of all LL-cache accesses  (49.47%)
    36.120988651            143,503      LLC-load-misses           #   27.91% of all LL-cache accesses  (49.78%)
    36.120988651              3,023      LLC-loads                 #  691.833 /sec                     (50.14%)
    36.120988651            514,110      LLC-loads                 #  117.657 K/sec                    (42.11%)
    36.120988651                 23      LLC-store-misses          #    5.264 /sec                     (25.27%)
    36.120988651            176,125      LLC-store-misses          #   40.307 K/sec                    (33.69%)
    36.120988651                 51      LLC-stores                #   11.672 /sec                     (25.26%)
    36.120988651            233,470      LLC-stores                #   53.431 K/sec                    (33.38%)
    36.120988651           4,369.55 msec task-clock                #    0.874 CPUs utilized          
    36.120988651            299,029      cycles:u                  #    0.000 GHz                      (41.43%)
    36.120988651        113,224,991      cycles:k                  #    0.026 GHz                      (41.07%)
    36.120988651            388,568      instructions:u            #    1.30  insn per cycle           (49.46%)
    36.120988651         11,362,367      instructions:k            #    0.10  insn per cycle           (49.47%)
