# started on Sun Apr  2 01:52:07 2023

#           time             counts unit events
     5.002159212          2,492,989      LLC-load-misses           #   20.28% of all LL-cache accesses  (49.93%)
     5.002159212          9,425,454      LLC-load-misses           #   14.93% of all LL-cache accesses  (50.02%)
     5.002159212         12,291,029      LLC-loads                 #  614.275 K/sec                    (50.10%)
     5.002159212         63,133,928      LLC-loads                 #    3.155 M/sec                    (41.79%)
     5.002159212            187,189      LLC-store-misses          #    9.355 K/sec                    (25.04%)
     5.002159212          3,621,668      LLC-store-misses          #  181.002 K/sec                    (33.35%)
     5.002159212          4,096,956      LLC-stores                #  204.755 K/sec                    (24.95%)
     5.002159212         29,904,363      LLC-stores                #    1.495 M/sec                    (33.26%)
     5.002159212          20,009.02 msec task-clock                #    4.002 CPUs utilized          
     5.002159212      2,167,716,028      cycles:u                  #    0.108 GHz                      (41.58%)
     5.002159212     10,905,945,474      cycles:k                  #    0.545 GHz                      (41.58%)
     5.002159212      1,370,513,203      instructions:u            #    0.63  insn per cycle           (49.89%)
     5.002159212      8,636,054,745      instructions:k            #    0.79  insn per cycle           (49.89%)
    10.006151170         10,747,710      LLC-load-misses           #   20.20% of all LL-cache accesses  (49.88%)
    10.006151170         37,540,815      LLC-load-misses           #   14.01% of all LL-cache accesses  (49.88%)
    10.006151170         53,204,863      LLC-loads                 #    2.658 M/sec                    (49.88%)
    10.006151170        267,874,904      LLC-loads                 #   13.383 M/sec                    (41.65%)
    10.006151170            718,683      LLC-store-misses          #   35.907 K/sec                    (25.10%)
    10.006151170         12,974,383      LLC-store-misses          #  648.222 K/sec                    (33.49%)
    10.006151170         18,448,875      LLC-stores                #  921.736 K/sec                    (25.10%)
    10.006151170        130,583,611      LLC-stores                #    6.524 M/sec                    (33.42%)
    10.006151170          20,015.35 msec task-clock                #    4.003 CPUs utilized          
    10.006151170      9,653,675,382      cycles:u                  #    0.482 GHz                      (41.73%)
    10.006151170     44,118,116,757      cycles:k                  #    2.204 GHz                      (41.65%)
    10.006151170      6,022,619,745      instructions:u            #    0.62  insn per cycle           (49.96%)
    10.006151170     33,944,000,511      instructions:k            #    0.77  insn per cycle           (49.88%)
    15.010162329         10,715,235      LLC-load-misses           #   20.20% of all LL-cache accesses  (50.04%)
    15.010162329         37,402,700      LLC-load-misses           #   14.01% of all LL-cache accesses  (49.96%)
    15.010162329         53,045,107      LLC-loads                 #    2.650 M/sec                    (49.88%)
    15.010162329        266,960,091      LLC-loads                 #   13.338 M/sec                    (41.57%)
    15.010162329            715,166      LLC-store-misses          #   35.731 K/sec                    (24.94%)
    15.010162329         12,908,449      LLC-store-misses          #  644.925 K/sec                    (33.26%)
    15.010162329         18,473,678      LLC-stores                #  922.972 K/sec                    (25.02%)
    15.010162329        130,668,102      LLC-stores                #    6.528 M/sec                    (33.41%)
    15.010162329          20,015.42 msec task-clock                #    4.003 CPUs utilized          
    15.010162329      9,653,456,995      cycles:u                  #    0.482 GHz                      (41.80%)
    15.010162329     44,125,904,524      cycles:k                  #    2.205 GHz                      (41.80%)
    15.010162329      6,006,193,087      instructions:u            #    0.62  insn per cycle           (50.12%)
    15.010162329     33,982,860,319      instructions:k            #    0.77  insn per cycle           (50.12%)
    20.014144908         10,717,794      LLC-load-misses           #   20.21% of all LL-cache accesses  (50.12%)
    20.014144908         37,445,276      LLC-load-misses           #   14.02% of all LL-cache accesses  (50.12%)
    20.014144908         53,024,664      LLC-loads                 #    2.649 M/sec                    (50.12%)
    20.014144908        267,156,074      LLC-loads                 #   13.348 M/sec                    (41.65%)
    20.014144908            713,669      LLC-store-misses          #   35.656 K/sec                    (24.94%)
    20.014144908         12,905,254      LLC-store-misses          #  644.770 K/sec                    (33.26%)
    20.014144908         18,431,268      LLC-stores                #  920.860 K/sec                    (24.94%)
    20.014144908        130,699,462      LLC-stores                #    6.530 M/sec                    (33.25%)
    20.014144908          20,015.29 msec task-clock                #    4.003 CPUs utilized          
    20.014144908      9,649,473,061      cycles:u                  #    0.482 GHz                      (41.57%)
    20.014144908     44,124,872,682      cycles:k                  #    2.205 GHz                      (41.64%)
    20.014144908      6,008,934,381      instructions:u            #    0.62  insn per cycle           (50.03%)
    20.014144908     33,997,331,178      instructions:k            #    0.77  insn per cycle           (50.11%)
    25.018161138         10,711,520      LLC-load-misses           #   20.19% of all LL-cache accesses  (49.95%)
    25.018161138         37,405,155      LLC-load-misses           #   14.00% of all LL-cache accesses  (50.04%)
    25.018161138         53,049,697      LLC-loads                 #    2.650 M/sec                    (50.12%)
    25.018161138        267,233,722      LLC-loads                 #   13.351 M/sec                    (41.81%)
    25.018161138            715,038      LLC-store-misses          #   35.724 K/sec                    (25.03%)
    25.018161138         12,931,407      LLC-store-misses          #  646.073 K/sec                    (33.34%)
    25.018161138         18,360,223      LLC-stores                #  917.305 K/sec                    (24.94%)
    25.018161138        130,606,352      LLC-stores                #    6.525 M/sec                    (33.25%)
    25.018161138          20,015.40 msec task-clock                #    4.003 CPUs utilized          
    25.018161138      9,647,080,887      cycles:u                  #    0.482 GHz                      (41.57%)
    25.018161138     44,133,739,266      cycles:k                  #    2.205 GHz                      (41.56%)
    25.018161138      6,006,071,011      instructions:u            #    0.62  insn per cycle           (49.88%)
    25.018161138     33,999,676,638      instructions:k            #    0.77  insn per cycle           (49.88%)
    30.022168170         10,716,703      LLC-load-misses           #   20.20% of all LL-cache accesses  (49.88%)
    30.022168170         37,338,531      LLC-load-misses           #   13.95% of all LL-cache accesses  (49.88%)
    30.022168170         53,060,709      LLC-loads                 #    2.651 M/sec                    (49.88%)
    30.022168170        267,579,422      LLC-loads                 #   13.369 M/sec                    (41.65%)
    30.022168170            717,058      LLC-store-misses          #   35.825 K/sec                    (25.10%)
    30.022168170         12,909,720      LLC-store-misses          #  644.987 K/sec                    (33.49%)
    30.022168170         18,393,138      LLC-stores                #  918.946 K/sec                    (25.10%)
    30.022168170        130,599,610      LLC-stores                #    6.525 M/sec                    (33.42%)
    30.022168170          20,015.48 msec task-clock                #    4.003 CPUs utilized          
    30.022168170      9,641,497,428      cycles:u                  #    0.482 GHz                      (41.73%)
    30.022168170     44,125,042,863      cycles:k                  #    2.205 GHz                      (41.65%)
    30.022168170      6,009,466,329      instructions:u            #    0.62  insn per cycle           (49.96%)
    30.022168170     34,029,308,965      instructions:k            #    0.77  insn per cycle           (49.88%)
    35.026186014          8,246,238      LLC-load-misses           #   20.14% of all LL-cache accesses  (50.04%)
    35.026186014         28,910,862      LLC-load-misses           #   14.02% of all LL-cache accesses  (49.96%)
    35.026186014         40,953,761      LLC-loads                 #    2.046 M/sec                    (49.88%)
    35.026186014        206,156,679      LLC-loads                 #   10.300 M/sec                    (41.57%)
    35.026186014            549,320      LLC-store-misses          #   27.444 K/sec                    (24.94%)
    35.026186014         10,144,459      LLC-store-misses          #  506.822 K/sec                    (33.26%)
    35.026186014         14,298,798      LLC-stores                #  714.375 K/sec                    (25.01%)
    35.026186014        100,952,758      LLC-stores                #    5.044 M/sec                    (33.41%)
    35.026186014          20,015.81 msec task-clock                #    4.003 CPUs utilized          
    35.026186014      7,465,054,015      cycles:u                  #    0.373 GHz                      (41.80%)
    35.026186014     34,302,990,793      cycles:k                  #    1.714 GHz                      (41.80%)
    35.026186014      4,651,397,830      instructions:u            #    0.62  insn per cycle           (50.12%)
    35.026186014     26,689,882,333      instructions:k            #    0.78  insn per cycle           (50.12%)
    36.034598555              2,807      LLC-load-misses           #    5.45% of all LL-cache accesses  (50.01%)
    36.034598555            139,163      LLC-load-misses           #   28.20% of all LL-cache accesses  (50.02%)
    36.034598555             51,541      LLC-loads                 #   12.779 K/sec                    (50.02%)
    36.034598555            493,430      LLC-loads                 #  122.337 K/sec                    (41.65%)
    36.034598555                  0      LLC-store-misses          #    0.000 /sec                     (24.99%)
    36.034598555            160,823      LLC-store-misses          #   39.873 K/sec                    (33.33%)
    36.034598555              1,004      LLC-stores                #  248.923 /sec                     (24.99%)
    36.034598555            208,707      LLC-stores                #   51.745 K/sec                    (33.32%)
    36.034598555           4,033.38 msec task-clock                #    0.807 CPUs utilized          
    36.034598555         23,570,794      cycles:u                  #    0.006 GHz                      (41.65%)
    36.034598555        114,481,123      cycles:k                  #    0.028 GHz                      (41.68%)
    36.034598555        121,329,538      instructions:u            #    5.15  insn per cycle           (50.01%)
    36.034598555         18,016,506      instructions:k            #    0.16  insn per cycle           (50.01%)
