#type       avg     std     min     5th    10th    50th    90th    95th    99th
read     5048.0   181.1  4605.2  4846.6  4871.3  5069.0  5266.7  5291.4  5311.2
update      0.0     0.0     0.0     0.0     0.0     0.0     0.0     0.0     0.0
op_q        1.0     0.0     1.0     1.0     1.0     1.1     1.1     1.1     1.1
rx      1458917.2 57444.8 1402212.2 1349540.0 1362123.1 1462788.1 1586343.9 1602030.9 1614580.4

Total QPS = 221708.9 (6651268 / 30.0s)

Misses = 0 (0.0%)
Skipped TXs = 0 (0.0%)

RX 1635381903 bytes :   52.0 MB/s
TX  280919586 bytes :    8.9 MB/s
