#type       avg     std     min     5th    10th    50th    90th    95th    99th
read     5125.8    91.9  4605.2  4854.3  4878.6  5073.0  5267.3  5291.6  5311.1
update      0.0     0.0     0.0     0.0     0.0     0.0     0.0     0.0     0.0
op_q        1.0     0.0     1.0     1.0     1.0     1.1     1.1     1.1     1.1
rx      1437290.1 40466.9 1402212.2 1345378.7 1353800.4 1421174.6 1546413.5 1582065.7 1610587.4

Total QPS = 218436.1 (6553082 / 30.0s)

Misses = 0 (0.0%)
Skipped TXs = 0 (0.0%)

RX 1610829522 bytes :   51.2 MB/s
TX  276751993 bytes :    8.8 MB/s
