#type       avg     std     min     5th    10th    50th    90th    95th    99th
read     2658.1    84.2  2363.2  2495.0  2511.5  2643.7  2890.7  2945.6  2989.6
update      0.0     0.0     0.0     0.0     0.0     0.0     0.0     0.0     0.0
op_q        1.0     0.0     1.0     1.0     1.0     1.1     1.1     1.1     1.1
rx      2782221.2 97996.8 2484104.5 2607486.3 2624570.6 2761244.7 3004557.7 3078516.1 3137682.7

Total QPS = 421747.1 (12652415 / 30.0s)

Misses = 0 (0.0%)
Skipped TXs = 0 (0.0%)

RX 3116535602 bytes :   99.1 MB/s
TX  534276850 bytes :   17.0 MB/s
