#type       avg     std     min     5th    10th    50th    90th    95th    99th
read     1295.6    45.1   911.1  1179.2  1202.3  1314.7  1383.2  1391.7  1398.6
update      0.0     0.0     0.0     0.0     0.0     0.0     0.0     0.0     0.0
op_q        1.0     0.0     1.0     1.0     1.0     1.1     1.1     1.1     1.1
rx      5700154.0 136393.9 5324898.6 5212480.7 5347869.8 5799600.7 6074544.8 6108912.8 6136407.2

Total QPS = 863753.2 (25912599 / 30.0s)

Misses = 0 (0.0%)
Skipped TXs = 0 (0.0%)

RX 6382476269 bytes :  202.9 MB/s
TX 1094143168 bytes :   34.8 MB/s
