sent    1894166 | retrans          0 | timeout          0 | loss rate 0.0000%
sent    1895027 | retrans          0 | timeout          0 | loss rate 0.0000%
sent    1894728 | retrans          0 | timeout          0 | loss rate 0.0000%
sent    1897037 | retrans          0 | timeout          0 | loss rate 0.0000%
sent    1898441 | retrans          0 | timeout          0 | loss rate 0.0000%
sent    1896419 | retrans          0 | timeout          0 | loss rate 0.0000%
sent    1896942 | retrans          0 | timeout          0 | loss rate 0.0000%
