sent    3776901 | retrans          0 | timeout          0 | loss rate 0.0000%
sent    3785375 | retrans          0 | timeout          0 | loss rate 0.0000%
sent    3785715 | retrans          0 | timeout          0 | loss rate 0.0000%
sent    3776311 | retrans          0 | timeout          0 | loss rate 0.0000%
sent    3781480 | retrans          0 | timeout          0 | loss rate 0.0000%
sent    3784284 | retrans          0 | timeout          0 | loss rate 0.0000%
sent    3775270 | retrans          0 | timeout          0 | loss rate 0.0000%
