sent    3732905 | retrans          0 | timeout          0 | loss rate 0.0000%
sent    3730429 | retrans          0 | timeout          0 | loss rate 0.0000%
sent    3736634 | retrans          0 | timeout          0 | loss rate 0.0000%
sent    3732111 | retrans          0 | timeout          0 | loss rate 0.0000%
sent    3741010 | retrans          0 | timeout          0 | loss rate 0.0000%
sent    3738870 | retrans          0 | timeout          0 | loss rate 0.0000%
sent    3725121 | retrans          0 | timeout          0 | loss rate 0.0000%
