sent    7702785 | retrans          0 | timeout          0 | loss rate 0.0000%
sent    7759361 | retrans          0 | timeout          0 | loss rate 0.0000%
sent    7781633 | retrans          0 | timeout          0 | loss rate 0.0000%
sent    7764590 | retrans          0 | timeout          0 | loss rate 0.0000%
sent    7791693 | retrans          0 | timeout          0 | loss rate 0.0000%
sent    7778086 | retrans          0 | timeout          0 | loss rate 0.0000%
sent    7681078 | retrans          0 | timeout          0 | loss rate 0.0000%
