sent     958669 | retrans          0 | timeout          0 | loss rate 0.0000%
sent     958333 | retrans          0 | timeout          0 | loss rate 0.0000%
sent     958214 | retrans          0 | timeout          0 | loss rate 0.0000%
sent     958261 | retrans          0 | timeout          0 | loss rate 0.0000%
sent     958127 | retrans          0 | timeout          0 | loss rate 0.0000%
sent     958220 | retrans          0 | timeout          0 | loss rate 0.0000%
sent     958341 | retrans          0 | timeout          0 | loss rate 0.0000%
