sent    7892252 | retrans          0 | timeout          0 | loss rate 0.0000%
sent    7894625 | retrans          0 | timeout          0 | loss rate 0.0000%
sent    7879396 | retrans          0 | timeout          0 | loss rate 0.0000%
sent    7906546 | retrans          0 | timeout          0 | loss rate 0.0000%
sent    7873553 | retrans          0 | timeout          0 | loss rate 0.0000%
sent    7910313 | retrans          0 | timeout          0 | loss rate 0.0000%
sent    7834287 | retrans          0 | timeout          0 | loss rate 0.0000%
