sent    1842836 | retrans          0 | timeout          0 | loss rate 0.0000%
sent    1845374 | retrans          0 | timeout          0 | loss rate 0.0000%
sent    1844722 | retrans          0 | timeout          0 | loss rate 0.0000%
sent    1843389 | retrans          0 | timeout          0 | loss rate 0.0000%
sent    1844952 | retrans          0 | timeout          0 | loss rate 0.0000%
sent    1843689 | retrans          0 | timeout          0 | loss rate 0.0000%
sent    1847079 | retrans          0 | timeout          0 | loss rate 0.0000%
