sent    1919008 | retrans          0 | timeout          0 | loss rate 0.0000%
sent    1919512 | retrans          0 | timeout          0 | loss rate 0.0000%
sent    1918614 | retrans          0 | timeout          0 | loss rate 0.0000%
sent    1920545 | retrans          0 | timeout          0 | loss rate 0.0000%
sent    1919614 | retrans          0 | timeout          0 | loss rate 0.0000%
sent    1919018 | retrans          0 | timeout          0 | loss rate 0.0000%
sent    1918038 | retrans          0 | timeout          0 | loss rate 0.0000%
