sent    1912531 | retrans          0 | timeout          0 | loss rate 0.0000%
sent    1913563 | retrans          0 | timeout          0 | loss rate 0.0000%
sent    1912982 | retrans          0 | timeout          0 | loss rate 0.0000%
sent    1914667 | retrans          0 | timeout          0 | loss rate 0.0000%
sent    1913671 | retrans          0 | timeout          0 | loss rate 0.0000%
sent    1914638 | retrans          0 | timeout          0 | loss rate 0.0000%
sent    1913248 | retrans          0 | timeout          0 | loss rate 0.0000%
