sent     943830 | retrans          0 | timeout          0 | loss rate 0.0000%
sent     943358 | retrans          0 | timeout          0 | loss rate 0.0000%
sent     943318 | retrans          0 | timeout          0 | loss rate 0.0000%
sent     943180 | retrans          0 | timeout          0 | loss rate 0.0000%
sent     943548 | retrans          0 | timeout          0 | loss rate 0.0000%
sent     943792 | retrans          0 | timeout          0 | loss rate 0.0000%
sent     943241 | retrans          0 | timeout          0 | loss rate 0.0000%
