sent    1865203 | retrans          0 | timeout          0 | loss rate 0.0000%
sent    1865246 | retrans          0 | timeout          0 | loss rate 0.0000%
sent    1868223 | retrans          0 | timeout          0 | loss rate 0.0000%
sent    1862006 | retrans          0 | timeout          0 | loss rate 0.0000%
sent    1866369 | retrans          0 | timeout          0 | loss rate 0.0000%
sent    1864125 | retrans          0 | timeout          0 | loss rate 0.0000%
sent    1865997 | retrans          0 | timeout          0 | loss rate 0.0000%
