sent     962055 | retrans          0 | timeout          0 | loss rate 0.0000%
sent     962074 | retrans          0 | timeout          0 | loss rate 0.0000%
sent     962214 | retrans          0 | timeout          0 | loss rate 0.0000%
sent     961946 | retrans          0 | timeout          0 | loss rate 0.0000%
sent     961966 | retrans          0 | timeout          0 | loss rate 0.0000%
sent     962009 | retrans          0 | timeout          0 | loss rate 0.0000%
sent     961866 | retrans          0 | timeout          0 | loss rate 0.0000%
