sent    3758337 | retrans          0 | timeout          0 | loss rate 0.0000%
sent    3757099 | retrans          0 | timeout          0 | loss rate 0.0000%
sent    3755805 | retrans          0 | timeout          0 | loss rate 0.0000%
sent    3755731 | retrans          0 | timeout          0 | loss rate 0.0000%
sent    3753899 | retrans          0 | timeout          0 | loss rate 0.0000%
sent    3762444 | retrans          0 | timeout          0 | loss rate 0.0000%
sent    3754802 | retrans          0 | timeout          0 | loss rate 0.0000%
