sent    2898308 | retrans          0 | timeout          0 | loss rate 0.0000%
sent    2896465 | retrans          0 | timeout          0 | loss rate 0.0000%
sent    2898644 | retrans          0 | timeout          0 | loss rate 0.0000%
sent    2900323 | retrans          0 | timeout          0 | loss rate 0.0000%
sent    2897892 | retrans          0 | timeout          0 | loss rate 0.0000%
sent    2898548 | retrans          0 | timeout          0 | loss rate 0.0000%
sent    2899133 | retrans          0 | timeout          0 | loss rate 0.0000%
