#type       avg     std     min     5th    10th    50th    90th    95th    99th
read     1315.7    55.3   239.9  1185.0  1214.1  1323.2  1391.6  1415.3  1520.0
update      0.0     0.0     0.0     0.0     0.0     0.0     0.0     0.0     0.0
op_q        1.0     0.0     1.0     1.0     1.0     1.1     1.1     1.1     1.1
rx      5602451.9 192935.8 5324898.6 5129840.6 5182589.6 5604986.7 6035622.0 6089451.4 6132514.9

Total QPS = 851011.7 (25530366 / 30.0s)

Misses = 0 (0.0%)
Skipped TXs = 0 (0.0%)

RX 6276675812 bytes :  199.5 MB/s
TX 1077992178 bytes :   34.3 MB/s
