#type       avg     std     min     5th    10th    50th    90th    95th    99th
read     1298.6    49.7   149.0  1176.6  1197.2  1311.5  1383.8  1392.9  1459.8
update      0.0     0.0     0.0     0.0     0.0     0.0     0.0     0.0     0.0
op_q        1.0     0.0     1.0     1.0     1.0     1.1     1.1     1.1     1.1
rx      5665488.7 158312.3 5324898.6 5149621.4 5222151.3 5713680.7 6057360.8 6100320.8 6134688.8

Total QPS = 862694.1 (25880826 / 30.0s)

Misses = 0 (0.0%)
Skipped TXs = 0 (0.0%)

RX 6351510589 bytes :  201.9 MB/s
TX 1092727619 bytes :   34.7 MB/s
