#type       avg     std     min     5th    10th    50th    90th    95th    99th
read     1291.1    41.8   149.0  1175.8  1195.6  1309.4  1381.9  1390.9  1398.2
update      0.0     0.0     0.0     0.0     0.0     0.0     0.0     0.0     0.0
op_q        1.0     0.0     1.0     1.0     1.0     1.1     1.1     1.1     1.1
rx      5732763.8 148324.5 5324898.6 5280175.2 5483258.9 5831189.0 6094003.1 6126854.9 6511877.6

Total QPS = 867697.8 (26030955 / 30.0s)

Misses = 0 (0.0%)
Skipped TXs = 0 (0.0%)

RX 6422725565 bytes :  204.2 MB/s
TX 1099006658 bytes :   34.9 MB/s
