#type       avg     std     min     5th    10th    50th    90th    95th    99th
read       46.0    57.7    26.8    33.3    34.9    42.9    58.4    64.4    79.7
update      0.0     0.0     0.0     0.0     0.0     0.0     0.0     0.0     0.0
op_q        1.0     0.0     1.0     1.0     1.0     1.1     1.1     1.1     1.1
rx      2111621.7 51008.9 2052978.9 1969966.2 1982493.8 2082714.7 2270069.5 2319285.1 2358657.6

Total QPS = 319997.9 (9599939 / 30.0s)

Misses = 0 (0.0%)
Skipped TXs = 0 (0.0%)

RX 2364519371 bytes :   75.2 MB/s
TX  405318585 bytes :   12.9 MB/s
