#type       avg     std     min     5th    10th    50th    90th    95th    99th
read       53.3    18.8    26.8    35.1    37.4    49.5    73.1    82.7   111.4
update      0.0     0.0     0.0     0.0     0.0     0.0     0.0     0.0     0.0
op_q        1.0     0.0     1.0     1.0     1.0     1.1     1.1     1.1     1.1
rx      3161993.4 56170.3 3005766.4 2899602.1 2933318.4 3193593.6 3412896.2 3440309.0 3462239.3

Total QPS = 479902.5 (14397077 / 30.0s)

Misses = 0 (0.0%)
Skipped TXs = 0 (0.0%)

RX 3542500632 bytes :  112.6 MB/s
TX  607842705 bytes :   19.3 MB/s
