#type       avg     std     min     5th    10th    50th    90th    95th    99th
read       51.9    16.3    26.8    34.8    36.8    48.7    71.2    79.4   100.8
update      0.0     0.0     0.0     0.0     0.0     0.0     0.0     0.0     0.0
op_q        1.0     0.0     1.0     1.0     1.0     1.1     1.1     1.1     1.1
rx      3148220.4 63434.1 3005766.4 2895279.5 2924673.2 3160163.4 3406210.2 3436966.0 3461570.7

Total QPS = 479736.1 (14392085 / 30.0s)

Misses = 0 (0.0%)
Skipped TXs = 0 (0.0%)

RX 3529063047 bytes :  112.2 MB/s
TX  607656195 bytes :   19.3 MB/s
