#type       avg     std     min     5th    10th    50th    90th    95th    99th
read       56.2    19.2    26.8    35.6    38.0    52.4    79.0    89.7   115.1
update      0.0     0.0     0.0     0.0     0.0     0.0     0.0     0.0     0.0
op_q        1.0     0.0     1.0     1.0     1.0     1.1     1.1     1.1     1.1
rx      3435998.3 69030.1 3306343.1 3176724.2 3200974.0 3394972.4 3715416.3 3764955.2 3804586.3

Total QPS = 519905.2 (15597159 / 30.0s)

Misses = 0 (0.0%)
Skipped TXs = 0 (0.0%)

RX 3842384705 bytes :  122.1 MB/s
TX  658560316 bytes :   20.9 MB/s
