#type       avg     std     min     5th    10th    50th    90th    95th    99th
read       59.0    21.3    26.8    36.0    38.5    54.7    84.7    96.6   123.9
update      0.0     0.0     0.0     0.0     0.0     0.0     0.0     0.0     0.0
op_q        1.0     0.0     1.0     1.0     1.0     1.1     1.1     1.1     1.1
rx      3695783.8 70605.4 3636977.4 3485736.0 3503750.1 3647863.2 3791976.4 3809990.5 4094223.6

Total QPS = 559952.6 (16798584 / 30.0s)

Misses = 0 (0.0%)
Skipped TXs = 0 (0.0%)

RX 4137130216 bytes :  131.5 MB/s
TX  709368570 bytes :   22.6 MB/s
