#type       avg     std     min     5th    10th    50th    90th    95th    99th
read       58.3    21.0    26.8    35.8    38.3    54.0    83.7    95.9   123.7
update      0.0     0.0     0.0     0.0     0.0     0.0     0.0     0.0     0.0
op_q        1.0     0.0     1.0     1.0     1.0     1.1     1.1     1.1     1.1
rx      3682360.8 73282.7 3636977.4 3485853.7 3503985.6 3649040.6 3794095.7 3812227.6 4108755.0

Total QPS = 560093.7 (16802812 / 30.0s)

Misses = 0 (0.0%)
Skipped TXs = 0 (0.0%)

RX 4128853432 bytes :  131.3 MB/s
TX  709429122 bytes :   22.6 MB/s
