#type       avg     std     min     5th    10th    50th    90th    95th    99th
read       70.3    31.2    26.8    38.1    41.4    63.5   106.4   123.5   163.4
update      0.0     0.0     0.0     0.0     0.0     0.0     0.0     0.0     0.0
op_q        1.0     0.0     1.0     1.0     1.0     1.1     1.1     1.1     1.1
rx      4226104.7 74828.8 4000675.1 3875525.9 3936557.8 4310378.3 4554505.9 4585021.8 4609434.6

Total QPS = 639779.2 (19193378 / 30.0s)

Misses = 0 (0.0%)
Skipped TXs = 0 (0.0%)

RX 4731360076 bytes :  150.4 MB/s
TX  810376442 bytes :   25.8 MB/s
