#type       avg     std     min     5th    10th    50th    90th    95th    99th
read       82.3    38.7    26.8    42.3    46.9    74.4   126.5   147.9   199.8
update      0.0     0.0     0.0     0.0     0.0     0.0     0.0     0.0     0.0
op_q        1.0     0.0     1.0     1.0     1.0     1.1     1.1     1.1     1.1
rx      4479008.5 68688.9 4400742.6 4217324.0 4238704.6 4409749.5 4580794.3 4602174.9 4830929.5

Total QPS = 680059.4 (20401787 / 30.0s)

Misses = 0 (0.0%)
Skipped TXs = 0 (0.0%)

RX 5015841524 bytes :  159.4 MB/s
TX  861316705 bytes :   27.4 MB/s
