#type       avg     std     min     5th    10th    50th    90th    95th    99th
read       96.1    45.7    26.8    46.0    52.1    86.5   151.0   175.7   238.1
update      0.0     0.0     0.0     0.0     0.0     0.0     0.0     0.0     0.0
op_q        1.0     0.0     1.0     1.0     1.0     1.1     1.1     1.1     1.1
rx      4735973.9 72121.5 4400742.6 4615537.8 4639830.1 4834168.5 5028507.0 5052799.3 5072233.1

Total QPS = 719842.7 (21595281 / 30.0s)

Misses = 0 (0.0%)
Skipped TXs = 0 (0.0%)

RX 5310535378 bytes :  168.8 MB/s
TX  911791589 bytes :   29.0 MB/s
