#type       avg     std     min     5th    10th    50th    90th    95th    99th
read      137.4   108.3    29.5    51.9    59.7   112.9   229.0   286.7   516.0
update      0.0     0.0     0.0     0.0     0.0     0.0     0.0     0.0     0.0
op_q        1.0     0.0     1.0     1.0     1.0     1.1     1.1     1.1     1.1
rx      5015869.8 74946.7 4840816.9 4644161.3 4672784.8 4901772.7 5322757.3 5453779.0 5558596.4

Total QPS = 760083.5 (22802508 / 30.0s)

Misses = 0 (0.0%)
Skipped TXs = 0 (0.0%)

RX 5622698157 bytes :  178.7 MB/s
TX  962929395 bytes :   30.6 MB/s
