#type       avg     std     min     5th    10th    50th    90th    95th    99th
read       40.5     9.5    26.8    32.0    33.4    39.2    48.1    51.9    64.2
update      0.0     0.0     0.0     0.0     0.0     0.0     0.0     0.0     0.0
op_q        1.0     0.0     1.0     1.0     1.0     1.1     1.1     1.1     1.1
rx      528175.3 29270.9 369246.3 474218.4 481715.9 531142.5 567000.2 595350.2 618030.3

Total QPS = 80028.3 (2400850 / 30.0s)

Misses = 0 (0.0%)
Skipped TXs = 0 (0.0%)

RX  591169161 bytes :   18.8 MB/s
TX  101395236 bytes :    3.2 MB/s
