#type       avg     std     min     5th    10th    50th    90th    95th    99th
read      169.9   117.1    32.4    57.4    68.0   137.9   308.4   396.9   611.5
update      0.0     0.0     0.0     0.0     0.0     0.0     0.0     0.0     0.0
op_q        1.0     0.0     1.0     1.0     1.0     1.1     1.1     1.1     1.1
rx      5256751.0 82864.2 4840816.9 5099443.5 5124988.7 5329349.6 5533710.5 5559255.6 5579691.7

Total QPS = 799890.2 (23996708 / 30.0s)

Misses = 0 (0.0%)
Skipped TXs = 0 (0.0%)

RX 5897645539 bytes :  187.5 MB/s
TX 1013280457 bytes :   32.2 MB/s
