#type       avg     std     min     5th    10th    50th    90th    95th    99th
read     1028.6   413.8    32.4   165.4   266.9  1243.0  1373.9  1388.3  1433.5
update      0.0     0.0     0.0     0.0     0.0     0.0     0.0     0.0     0.0
op_q        1.0     0.0     1.0     1.0     1.0     1.1     1.1     1.1     1.1
rx      5668093.0 139408.0 5324898.6 5181237.0 5285382.5 5774037.8 6069432.2 6106356.5 6135895.9

Total QPS = 865891.8 (25976755 / 30.0s)

Misses = 0 (0.0%)
Skipped TXs = 0 (0.0%)

RX 6355809489 bytes :  202.0 MB/s
TX 1096791563 bytes :   34.9 MB/s
