#type       avg     std     min     5th    10th    50th    90th    95th    99th
read     1303.2    55.0   149.0  1175.9  1196.3  1311.9  1386.5  1395.8  1503.5
update      0.0     0.0     0.0     0.0     0.0     0.0     0.0     0.0     0.0
op_q        1.0     0.0     1.0     1.0     1.0     1.1     1.1     1.1     1.1
rx      5676093.5 184762.9 5324898.6 5148349.0 5219606.4 5710732.5 6061151.4 6104953.7 6139995.6

Total QPS = 858846.7 (25765401 / 30.0s)

Misses = 0 (0.0%)
Skipped TXs = 0 (0.0%)

RX 6357520085 bytes :  202.1 MB/s
TX 1087963770 bytes :   34.6 MB/s
