#type       avg     std     min     5th    10th    50th    90th    95th    99th
read     1313.2    56.2   163.9  1181.4  1207.0  1320.3  1391.2  1413.9  1519.6
update      0.0     0.0     0.0     0.0     0.0     0.0     0.0     0.0     0.0
op_q        1.0     0.0     1.0     1.0     1.0     1.1     1.1     1.1     1.1
rx      5607581.2 186094.8 5324898.6 5135115.5 5193139.4 5646854.1 6043995.4 6093638.1 6133352.3

Total QPS = 852228.9 (25566869 / 30.0s)

Misses = 0 (0.0%)
Skipped TXs = 0 (0.0%)

RX 6271432622 bytes :  199.4 MB/s
TX 1079564106 bytes :   34.3 MB/s
