  num          irqs       pkts  cpus name
  104 RX     610687    3230008     4 mlx4-33@0000:07:00.0
  105 RX     605810    3143604     5 mlx4-34@0000:07:00.0
  106 RX     594592    3255677     6 mlx4-35@0000:07:00.0
  107 RX     599118    3176361     7 mlx4-36@0000:07:00.0
  108 RX     425431    3120897     8 mlx4-37@0000:07:00.0
  109 RX     420597    3250418     9 mlx4-38@0000:07:00.0
  110 RX     409336    3272413    10 mlx4-39@0000:07:00.0
  111 RX     424672    3123619    11 mlx4-40@0000:07:00.0
total       4090243   25572997
