  num          irqs       pkts  cpus name
  104 RX     564533    2076082     4 mlx4-33@0000:07:00.0
  105 RX     546216    2001982     5 mlx4-34@0000:07:00.0
  106 RX     564146    2035087     6 mlx4-35@0000:07:00.0
  107 RX     538440    2085751     7 mlx4-36@0000:07:00.0
  108 RX     547844    2083770     8 mlx4-37@0000:07:00.0
  109 RX     516205    2063900     9 mlx4-38@0000:07:00.0
  110 RX     504163    2073979    10 mlx4-39@0000:07:00.0
  111 RX     547405    2082276    11 mlx4-40@0000:07:00.0
total       4328952   16502827
