  num          irqs       pkts  cpus name
  104 RX     610780    3169288     4 mlx4-33@0000:07:00.0
  105 RX     611294    3150287     5 mlx4-34@0000:07:00.0
  106 RX     611358    2975556     6 mlx4-35@0000:07:00.0
  107 RX     614055    3020116     7 mlx4-36@0000:07:00.0
  108 RX     407163    3061112     8 mlx4-37@0000:07:00.0
  109 RX     405142    3040924     9 mlx4-38@0000:07:00.0
  110 RX     409409    3086021    10 mlx4-39@0000:07:00.0
  111 RX     408213    3000674    11 mlx4-40@0000:07:00.0
total       4077414   24503978
