  num          irqs       pkts  cpus name
  104 RX     609924    3220297     4 mlx4-33@0000:07:00.0
  105 RX     608674    3373757     5 mlx4-34@0000:07:00.0
  106 RX     606390    3293611     6 mlx4-35@0000:07:00.0
  107 RX     609191    3263950     7 mlx4-36@0000:07:00.0
  108 RX     425482    3390836     8 mlx4-37@0000:07:00.0
  109 RX     427677    3374488     9 mlx4-38@0000:07:00.0
  110 RX     431581    3249629    10 mlx4-39@0000:07:00.0
  111 RX     417008    3222063    11 mlx4-40@0000:07:00.0
total       4135927   26388631
