  num          irqs       pkts  cpus name
  104 RX     625901    2814653     4 mlx4-33@0000:07:00.0
  105 RX     628458    2793922     5 mlx4-34@0000:07:00.0
  106 RX     614758    2805615     6 mlx4-35@0000:07:00.0
  107 RX     588211    2672043     7 mlx4-36@0000:07:00.0
  108 RX     442517    2819421     8 mlx4-37@0000:07:00.0
  109 RX     462338    2768537     9 mlx4-38@0000:07:00.0
  110 RX     420508    2780097    10 mlx4-39@0000:07:00.0
  111 RX     442665    2672397    11 mlx4-40@0000:07:00.0
total       4225356   22126685
