  num          irqs       pkts  cpus name
  104 RX     161229     582898     4 mlx4-33@0000:07:00.0
  105 RX     143251     577935     5 mlx4-34@0000:07:00.0
  106 RX     125695     612174     6 mlx4-35@0000:07:00.0
  107 RX     140587     588333     7 mlx4-36@0000:07:00.0
  108 RX     348751     591092     8 mlx4-37@0000:07:00.0
  109 RX     343677     604386     9 mlx4-38@0000:07:00.0
  110 RX     327604     592658    10 mlx4-39@0000:07:00.0
  111 RX     343282     589044    11 mlx4-40@0000:07:00.0
total       1934076    4738520
