  num          irqs       pkts  cpus name
  104 RX     560797    2214828     4 mlx4-33@0000:07:00.0
  105 RX     559410    2134728     5 mlx4-34@0000:07:00.0
  106 RX     566777    2243083     6 mlx4-35@0000:07:00.0
  107 RX     617553    2152689     7 mlx4-36@0000:07:00.0
  108 RX     509577    2255639     8 mlx4-37@0000:07:00.0
  109 RX     508111    2199338     9 mlx4-38@0000:07:00.0
  110 RX     525795    2193470    10 mlx4-39@0000:07:00.0
  111 RX     502004    2214768    11 mlx4-40@0000:07:00.0
total       4350024   17608543
