  num          irqs       pkts  cpus name
  104 RX     606195    3137008     4 mlx4-33@0000:07:00.0
  105 RX     606810    3261071     5 mlx4-34@0000:07:00.0
  106 RX     600223    3144363     6 mlx4-35@0000:07:00.0
  107 RX     601479    3158560     7 mlx4-36@0000:07:00.0
  108 RX     418331    3237689     8 mlx4-37@0000:07:00.0
  109 RX     421350    3129425     9 mlx4-38@0000:07:00.0
  110 RX     421977    3254598    10 mlx4-39@0000:07:00.0
  111 RX     421626    3279689    11 mlx4-40@0000:07:00.0
total       4097991   25602403
