  num          irqs       pkts  cpus name
  104 RX     433720    1447241     4 mlx4-33@0000:07:00.0
  105 RX     410058    1503248     5 mlx4-34@0000:07:00.0
  106 RX     441921    1528779     6 mlx4-35@0000:07:00.0
  107 RX     456798    1478850     7 mlx4-36@0000:07:00.0
  108 RX     621110    1492197     8 mlx4-37@0000:07:00.0
  109 RX     617844    1535723     9 mlx4-38@0000:07:00.0
  110 RX     618795    1520846    10 mlx4-39@0000:07:00.0
  111 RX     618801    1412317    11 mlx4-40@0000:07:00.0
total       4219047   11919201
