  num          irqs       pkts  cpus name
  104 RX     608251    2848472     4 mlx4-33@0000:07:00.0
  105 RX     620327    2991879     5 mlx4-34@0000:07:00.0
  106 RX     584652    2889837     6 mlx4-35@0000:07:00.0
  107 RX     610429    2867213     7 mlx4-36@0000:07:00.0
  108 RX     418398    2909171     8 mlx4-37@0000:07:00.0
  109 RX     417424    3034644     9 mlx4-38@0000:07:00.0
  110 RX     423383    2867781    10 mlx4-39@0000:07:00.0
  111 RX     417047    2867622    11 mlx4-40@0000:07:00.0
total       4099911   23276619
