  num          irqs       pkts  cpus name
  104 RX     589352    2600496     4 mlx4-33@0000:07:00.0
  105 RX     555468    2650657     5 mlx4-34@0000:07:00.0
  106 RX     605180    2626833     6 mlx4-35@0000:07:00.0
  107 RX     616209    2591415     7 mlx4-36@0000:07:00.0
  108 RX     448431    2625555     8 mlx4-37@0000:07:00.0
  109 RX     465259    2641168     9 mlx4-38@0000:07:00.0
  110 RX     438293    2625659    10 mlx4-39@0000:07:00.0
  111 RX     430315    2586752    11 mlx4-40@0000:07:00.0
total       4148507   20948535
