  num          irqs       pkts  cpus name
  104 RX     608975    3050225     4 mlx4-33@0000:07:00.0
  105 RX     583786    3123750     5 mlx4-34@0000:07:00.0
  106 RX     609686    3165338     6 mlx4-35@0000:07:00.0
  107 RX     609309    3126094     7 mlx4-36@0000:07:00.0
  108 RX     411000    3146892     8 mlx4-37@0000:07:00.0
  109 RX     423148    3244787     9 mlx4-38@0000:07:00.0
  110 RX     408553    3202906    10 mlx4-39@0000:07:00.0
  111 RX     421804    3172843    11 mlx4-40@0000:07:00.0
total       4076261   25232835
