  num          irqs       pkts  cpus name
  104 RX     591550    2331893     4 mlx4-33@0000:07:00.0
  105 RX     527203    2387168     5 mlx4-34@0000:07:00.0
  106 RX     599764    2284417     6 mlx4-35@0000:07:00.0
  107 RX     589002    2347263     7 mlx4-36@0000:07:00.0
  108 RX     483075    2332359     8 mlx4-37@0000:07:00.0
  109 RX     475118    2320306     9 mlx4-38@0000:07:00.0
  110 RX     484788    2351079    10 mlx4-39@0000:07:00.0
  111 RX     497414    2318125    11 mlx4-40@0000:07:00.0
total       4247914   18672610
