  num          irqs       pkts  cpus name
  104 RX     605412    3260097     4 mlx4-33@0000:07:00.0
  105 RX     607278    3385696     5 mlx4-34@0000:07:00.0
  106 RX     589228    3351128     6 mlx4-35@0000:07:00.0
  107 RX     587653    3282742     7 mlx4-36@0000:07:00.0
  108 RX     430983    3302819     8 mlx4-37@0000:07:00.0
  109 RX     428807    3283277     9 mlx4-38@0000:07:00.0
  110 RX     434126    3302079    10 mlx4-39@0000:07:00.0
  111 RX     431692    3383634    11 mlx4-40@0000:07:00.0
total       4115179   26551472
