  num          irqs       pkts  cpus name
  104 RX     604314    3384226     4 mlx4-33@0000:07:00.0
  105 RX     608326    3243920     5 mlx4-34@0000:07:00.0
  106 RX     605987    3255137     6 mlx4-35@0000:07:00.0
  107 RX     605846    3372474     7 mlx4-36@0000:07:00.0
  108 RX     431970    3250582     8 mlx4-37@0000:07:00.0
  109 RX     427821    3370452     9 mlx4-38@0000:07:00.0
  110 RX     431228    3240590    10 mlx4-39@0000:07:00.0
  111 RX     426578    3367472    11 mlx4-40@0000:07:00.0
total       4142070   26484853
