  num          irqs       pkts  cpus name
  104 RX     595406    3380795     4 mlx4-33@0000:07:00.0
  105 RX     605674    3251022     5 mlx4-34@0000:07:00.0
  106 RX     604947    3406038     6 mlx4-35@0000:07:00.0
  107 RX     602073    3262588     7 mlx4-36@0000:07:00.0
  108 RX     428928    3365276     8 mlx4-37@0000:07:00.0
  109 RX     431112    3265117     9 mlx4-38@0000:07:00.0
  110 RX     432293    3379538    10 mlx4-39@0000:07:00.0
  111 RX     430554    3272265    11 mlx4-40@0000:07:00.0
total       4130987   26582639
