  num          irqs       pkts  cpus name
  104 RX     613134    2914666     4 mlx4-33@0000:07:00.0
  105 RX     611094    2992311     5 mlx4-34@0000:07:00.0
  106 RX     615133    2931780     6 mlx4-35@0000:07:00.0
  107 RX     569480    2829730     7 mlx4-36@0000:07:00.0
  108 RX     419069    2867291     8 mlx4-37@0000:07:00.0
  109 RX     418702    2870932     9 mlx4-38@0000:07:00.0
  110 RX     424629    2947239    10 mlx4-39@0000:07:00.0
  111 RX     421441    2928289    11 mlx4-40@0000:07:00.0
total       4092682   23282238
