  num          irqs       pkts  cpus name
  104 RX     503861    1889669     4 mlx4-33@0000:07:00.0
  105 RX     509504    1976123     5 mlx4-34@0000:07:00.0
  106 RX     520118    1913354     6 mlx4-35@0000:07:00.0
  107 RX     555164    1883056     7 mlx4-36@0000:07:00.0
  108 RX     530325    1892955     8 mlx4-37@0000:07:00.0
  109 RX     536732    1948196     9 mlx4-38@0000:07:00.0
  110 RX     557883    1994673    10 mlx4-39@0000:07:00.0
  111 RX     559716    1935993    11 mlx4-40@0000:07:00.0
total       4273303   15434019
