  num          irqs       pkts  cpus name
  104 RX     591797    3163799     4 mlx4-33@0000:07:00.0
  105 RX     602140    3265234     5 mlx4-34@0000:07:00.0
  106 RX     606481    3139476     6 mlx4-35@0000:07:00.0
  107 RX     598683    3129748     7 mlx4-36@0000:07:00.0
  108 RX     423367    3243392     8 mlx4-37@0000:07:00.0
  109 RX     421715    3132572     9 mlx4-38@0000:07:00.0
  110 RX     420667    3278536    10 mlx4-39@0000:07:00.0
  111 RX     420043    3280468    11 mlx4-40@0000:07:00.0
total       4084893   25633225
