  num          irqs       pkts  cpus name
  104 RX     619176    2607378     4 mlx4-33@0000:07:00.0
  105 RX     617417    2648612     5 mlx4-34@0000:07:00.0
  106 RX     553254    2727254     6 mlx4-35@0000:07:00.0
  107 RX     592536    2574649     7 mlx4-36@0000:07:00.0
  108 RX     440831    2533710     8 mlx4-37@0000:07:00.0
  109 RX     450739    2648523     9 mlx4-38@0000:07:00.0
  110 RX     442304    2733953    10 mlx4-39@0000:07:00.0
  111 RX     462399    2521639    11 mlx4-40@0000:07:00.0
total       4178656   20995718
