  num          irqs       pkts  cpus name
  104 RX     561170    2080849     4 mlx4-33@0000:07:00.0
  105 RX     560353    2021239     5 mlx4-34@0000:07:00.0
  106 RX     542928    2010913     6 mlx4-35@0000:07:00.0
  107 RX     545268    2044401     7 mlx4-36@0000:07:00.0
  108 RX     519588    2101929     8 mlx4-37@0000:07:00.0
  109 RX     519300    2050319     9 mlx4-38@0000:07:00.0
  110 RX     536735    2054563    10 mlx4-39@0000:07:00.0
  111 RX     532117    2134049    11 mlx4-40@0000:07:00.0
total       4317459   16498262
