  num          irqs       pkts  cpus name
  104 RX     623579    2816807     4 mlx4-33@0000:07:00.0
  105 RX     550622    2839945     5 mlx4-34@0000:07:00.0
  106 RX     597571    2759021     6 mlx4-35@0000:07:00.0
  107 RX     619222    2758727     7 mlx4-36@0000:07:00.0
  108 RX     451088    2744314     8 mlx4-37@0000:07:00.0
  109 RX     427145    2713624     9 mlx4-38@0000:07:00.0
  110 RX     440177    2767519    10 mlx4-39@0000:07:00.0
  111 RX     420429    2709734    11 mlx4-40@0000:07:00.0
total       4129833   22109691
