  num          irqs       pkts  cpus name
  104 RX     614541    2477959     4 mlx4-33@0000:07:00.0
  105 RX     587402    2462381     5 mlx4-34@0000:07:00.0
  106 RX     584166    2529510     6 mlx4-35@0000:07:00.0
  107 RX     625089    2455721     7 mlx4-36@0000:07:00.0
  108 RX     456509    2421428     8 mlx4-37@0000:07:00.0
  109 RX     494396    2547112     9 mlx4-38@0000:07:00.0
  110 RX     476029    2528993    10 mlx4-39@0000:07:00.0
  111 RX     467991    2449709    11 mlx4-40@0000:07:00.0
total       4306123   19872813
