  num          irqs       pkts  cpus name
  104 RX     456981    1996147     4 mlx4-33@0000:07:00.0
  105 RX     543711    1865201     5 mlx4-34@0000:07:00.0
  106 RX     586526    1953195     6 mlx4-35@0000:07:00.0
  107 RX     537793    1898387     7 mlx4-36@0000:07:00.0
  108 RX     528129    1873979     8 mlx4-37@0000:07:00.0
  109 RX     539964    1929519     9 mlx4-38@0000:07:00.0
  110 RX     571459    1940743    10 mlx4-39@0000:07:00.0
  111 RX     564874    1943417    11 mlx4-40@0000:07:00.0
total       4329437   15400588
