  num          irqs       pkts  cpus name
  104 RX     590852    3303772     4 mlx4-33@0000:07:00.0
  105 RX     608584    3249397     5 mlx4-34@0000:07:00.0
  106 RX     576087    3330964     6 mlx4-35@0000:07:00.0
  107 RX     608273    3261966     7 mlx4-36@0000:07:00.0
  108 RX     425943    3280613     8 mlx4-37@0000:07:00.0
  109 RX     426816    3248145     9 mlx4-38@0000:07:00.0
  110 RX     428297    3283828    10 mlx4-39@0000:07:00.0
  111 RX     421353    3298285    11 mlx4-40@0000:07:00.0
total       4086205   26256970
