  num          irqs       pkts  cpus name
  104 RX     584284    3125306     4 mlx4-33@0000:07:00.0
  105 RX     587847    3287831     5 mlx4-34@0000:07:00.0
  106 RX     607680    3141083     6 mlx4-35@0000:07:00.0
  107 RX     593494    3163453     7 mlx4-36@0000:07:00.0
  108 RX     423662    3245962     8 mlx4-37@0000:07:00.0
  109 RX     423442    3165886     9 mlx4-38@0000:07:00.0
  110 RX     422426    3281112    10 mlx4-39@0000:07:00.0
  111 RX     422152    3266963    11 mlx4-40@0000:07:00.0
total       4064987   25677596
