  num          irqs       pkts  cpus name
  104 RX     580301    2405638     4 mlx4-33@0000:07:00.0
  105 RX     634502    2524149     5 mlx4-34@0000:07:00.0
  106 RX     544813    2517902     6 mlx4-35@0000:07:00.0
  107 RX     549269    2374340     7 mlx4-36@0000:07:00.0
  108 RX     471061    2516880     8 mlx4-37@0000:07:00.0
  109 RX     468936    2602957     9 mlx4-38@0000:07:00.0
  110 RX     459620    2444748    10 mlx4-39@0000:07:00.0
  111 RX     455488    2423233    11 mlx4-40@0000:07:00.0
total       4163990   19809847
