  num          irqs       pkts  cpus name
  104 RX     616188    2789837     4 mlx4-33@0000:07:00.0
  105 RX     622722    2749468     5 mlx4-34@0000:07:00.0
  106 RX     614396    2803529     6 mlx4-35@0000:07:00.0
  107 RX     624607    2806581     7 mlx4-36@0000:07:00.0
  108 RX     437372    2669883     8 mlx4-37@0000:07:00.0
  109 RX     431933    2789280     9 mlx4-38@0000:07:00.0
  110 RX     448860    2784697    10 mlx4-39@0000:07:00.0
  111 RX     440679    2744843    11 mlx4-40@0000:07:00.0
total       4236757   22138118
