  num          irqs       pkts  cpus name
  104 RX     545570    2082614     4 mlx4-33@0000:07:00.0
  105 RX     570940    2038624     5 mlx4-34@0000:07:00.0
  106 RX     574096    2044377     6 mlx4-35@0000:07:00.0
  107 RX     545718    2017126     7 mlx4-36@0000:07:00.0
  108 RX     544284    2080297     8 mlx4-37@0000:07:00.0
  109 RX     526484    2093970     9 mlx4-38@0000:07:00.0
  110 RX     542290    2068530    10 mlx4-39@0000:07:00.0
  111 RX     519388    2054987    11 mlx4-40@0000:07:00.0
total       4368770   16480525
