  num          irqs       pkts  cpus name
  104 RX     611556    2662029     4 mlx4-33@0000:07:00.0
  105 RX     597982    2591916     5 mlx4-34@0000:07:00.0
  106 RX     633585    2669722     6 mlx4-35@0000:07:00.0
  107 RX     572618    2611921     7 mlx4-36@0000:07:00.0
  108 RX     448863    2659760     8 mlx4-37@0000:07:00.0
  109 RX     445737    2604989     9 mlx4-38@0000:07:00.0
  110 RX     449901    2577935    10 mlx4-39@0000:07:00.0
  111 RX     462614    2626725    11 mlx4-40@0000:07:00.0
total       4222856   21004997
