  num          irqs       pkts  cpus name
  104 RX     601711    3364690     4 mlx4-33@0000:07:00.0
  105 RX     604489    3244261     5 mlx4-34@0000:07:00.0
  106 RX     592195    3224628     6 mlx4-35@0000:07:00.0
  107 RX     609932    3408860     7 mlx4-36@0000:07:00.0
  108 RX     431060    3390570     8 mlx4-37@0000:07:00.0
  109 RX     433241    3380902     9 mlx4-38@0000:07:00.0
  110 RX     422011    3263788    10 mlx4-39@0000:07:00.0
  111 RX     431742    3234520    11 mlx4-40@0000:07:00.0
total       4126381   26512219
