  num          irqs       pkts  cpus name
  104 RX     590805    3279773     4 mlx4-33@0000:07:00.0
  105 RX     612429    3405179     5 mlx4-34@0000:07:00.0
  106 RX     603901    3245342     6 mlx4-35@0000:07:00.0
  107 RX     606783    3244792     7 mlx4-36@0000:07:00.0
  108 RX     433583    3411925     8 mlx4-37@0000:07:00.0
  109 RX     429885    3264544     9 mlx4-38@0000:07:00.0
  110 RX     433443    3419039    10 mlx4-39@0000:07:00.0
  111 RX     429883    3388655    11 mlx4-40@0000:07:00.0
total       4140712   26659249
