  num          irqs       pkts  cpus name
  104 RX     604401    3310323     4 mlx4-33@0000:07:00.0
  105 RX     597457    3313831     5 mlx4-34@0000:07:00.0
  106 RX     582244    3313283     6 mlx4-35@0000:07:00.0
  107 RX     603476    3310239     7 mlx4-36@0000:07:00.0
  108 RX     428284    3219104     8 mlx4-37@0000:07:00.0
  109 RX     427488    3186916     9 mlx4-38@0000:07:00.0
  110 RX     426828    3178061    10 mlx4-39@0000:07:00.0
  111 RX     428289    3209878    11 mlx4-40@0000:07:00.0
total       4098467   26041635
