  num          irqs       pkts  cpus name
  104 RX     588963    2869671     4 mlx4-33@0000:07:00.0
  105 RX     596324    2929557     5 mlx4-34@0000:07:00.0
  106 RX     623791    2846949     6 mlx4-35@0000:07:00.0
  107 RX     603461    2951667     7 mlx4-36@0000:07:00.0
  108 RX     421845    2933210     8 mlx4-37@0000:07:00.0
  109 RX     418150    2910410     9 mlx4-38@0000:07:00.0
  110 RX     419880    2971714    10 mlx4-39@0000:07:00.0
  111 RX     414805    2866213    11 mlx4-40@0000:07:00.0
total       4087219   23279391
