  num          irqs       pkts  cpus name
  104 RX     603612    3243691     4 mlx4-33@0000:07:00.0
  105 RX     602796    3399343     5 mlx4-34@0000:07:00.0
  106 RX     605459    3287070     6 mlx4-35@0000:07:00.0
  107 RX     606677    3252460     7 mlx4-36@0000:07:00.0
  108 RX     431375    3397617     8 mlx4-37@0000:07:00.0
  109 RX     432063    3344037     9 mlx4-38@0000:07:00.0
  110 RX     430181    3265200    10 mlx4-39@0000:07:00.0
  111 RX     433504    3370901    11 mlx4-40@0000:07:00.0
total       4145667   26560319
