sent    2661952 | retrans          0 | timeout          0 | loss rate 0.0000%
sent    2666541 | retrans          0 | timeout          0 | loss rate 0.0000%
sent    2669924 | retrans          0 | timeout          0 | loss rate 0.0000%
sent    2666262 | retrans          0 | timeout          0 | loss rate 0.0000%
sent    2666931 | retrans          0 | timeout          0 | loss rate 0.0000%
sent    2664387 | retrans          0 | timeout          0 | loss rate 0.0000%
sent    2664347 | retrans          0 | timeout          0 | loss rate 0.0000%
