sent    3497555 | retrans          0 | timeout          0 | loss rate 0.0000%
sent    3495422 | retrans          0 | timeout          0 | loss rate 0.0000%
sent    3499247 | retrans          0 | timeout          0 | loss rate 0.0000%
sent    3495619 | retrans          0 | timeout          0 | loss rate 0.0000%
sent    3495061 | retrans          0 | timeout          0 | loss rate 0.0000%
sent    3496652 | retrans          0 | timeout          0 | loss rate 0.0000%
sent    3497052 | retrans          0 | timeout          0 | loss rate 0.0000%
