sent    2353480 | retrans          0 | timeout          0 | loss rate 0.0000%
sent    2355575 | retrans          0 | timeout          0 | loss rate 0.0000%
sent    2356200 | retrans          0 | timeout          0 | loss rate 0.0000%
sent    2340758 | retrans          0 | timeout          0 | loss rate 0.0000%
sent    2359290 | retrans          0 | timeout          0 | loss rate 0.0000%
sent    2354360 | retrans          0 | timeout          0 | loss rate 0.0000%
sent    2349719 | retrans          0 | timeout          0 | loss rate 0.0000%
