sent    3652514 | retrans          0 | timeout          0 | loss rate 0.0000%
sent    3656953 | retrans          0 | timeout          0 | loss rate 0.0000%
sent    3656467 | retrans          0 | timeout          0 | loss rate 0.0000%
sent    3655650 | retrans          0 | timeout          0 | loss rate 0.0000%
sent    3659859 | retrans          0 | timeout          0 | loss rate 0.0000%
sent    3659784 | retrans          0 | timeout          0 | loss rate 0.0000%
sent    3652133 | retrans          0 | timeout          0 | loss rate 0.0000%
