sent    1707170 | retrans          0 | timeout          0 | loss rate 0.0000%
sent    1703544 | retrans          0 | timeout          0 | loss rate 0.0000%
sent    1710182 | retrans          0 | timeout          0 | loss rate 0.0000%
sent    1713184 | retrans          0 | timeout          0 | loss rate 0.0000%
sent    1692951 | retrans          0 | timeout          0 | loss rate 0.0000%
sent    1697986 | retrans          0 | timeout          0 | loss rate 0.0000%
sent    1693400 | retrans          0 | timeout          0 | loss rate 0.0000%
