sent    3764596 | retrans          0 | timeout          0 | loss rate 0.0000%
sent    3763403 | retrans          0 | timeout          0 | loss rate 0.0000%
sent    3767797 | retrans          0 | timeout          0 | loss rate 0.0000%
sent    3767660 | retrans          0 | timeout          0 | loss rate 0.0000%
sent    3767583 | retrans          0 | timeout          0 | loss rate 0.0000%
sent    3768435 | retrans          0 | timeout          0 | loss rate 0.0000%
sent    3764539 | retrans          0 | timeout          0 | loss rate 0.0000%
