sent    3594345 | retrans          0 | timeout          0 | loss rate 0.0000%
sent    3601865 | retrans          0 | timeout          0 | loss rate 0.0000%
sent    3588412 | retrans          0 | timeout          0 | loss rate 0.0000%
sent    3586831 | retrans          0 | timeout          0 | loss rate 0.0000%
sent    3573879 | retrans          0 | timeout          0 | loss rate 0.0000%
sent    3594989 | retrans          0 | timeout          0 | loss rate 0.0000%
sent    3578694 | retrans          0 | timeout          0 | loss rate 0.0000%
