sent    2352652 | retrans          0 | timeout          0 | loss rate 0.0000%
sent    2361212 | retrans          0 | timeout          0 | loss rate 0.0000%
sent    2359671 | retrans          0 | timeout          0 | loss rate 0.0000%
sent    2358628 | retrans          0 | timeout          0 | loss rate 0.0000%
sent    2359428 | retrans          0 | timeout          0 | loss rate 0.0000%
sent    2363879 | retrans          0 | timeout          0 | loss rate 0.0000%
sent    2358811 | retrans          0 | timeout          0 | loss rate 0.0000%
