sent    3813288 | retrans          0 | timeout          0 | loss rate 0.0000%
sent    3808958 | retrans          0 | timeout          0 | loss rate 0.0000%
sent    3809358 | retrans          0 | timeout          0 | loss rate 0.0000%
sent    3808713 | retrans          0 | timeout          0 | loss rate 0.0000%
sent    3806663 | retrans          0 | timeout          0 | loss rate 0.0000%
sent    3811339 | retrans          0 | timeout          0 | loss rate 0.0000%
sent    3801364 | retrans          0 | timeout          0 | loss rate 0.0000%
