sent    2356641 | retrans          0 | timeout          0 | loss rate 0.0000%
sent    2354299 | retrans          0 | timeout          0 | loss rate 0.0000%
sent    2365724 | retrans          0 | timeout          0 | loss rate 0.0000%
sent    2358872 | retrans          0 | timeout          0 | loss rate 0.0000%
sent    2356312 | retrans          0 | timeout          0 | loss rate 0.0000%
sent    2344699 | retrans          0 | timeout          0 | loss rate 0.0000%
sent    2352319 | retrans          0 | timeout          0 | loss rate 0.0000%
