sent    3794360 | retrans          0 | timeout          0 | loss rate 0.0000%
sent    3794179 | retrans          0 | timeout          0 | loss rate 0.0000%
sent    3794891 | retrans          0 | timeout          0 | loss rate 0.0000%
sent    3797238 | retrans          0 | timeout          0 | loss rate 0.0000%
sent    3797033 | retrans          0 | timeout          0 | loss rate 0.0000%
sent    3795007 | retrans          0 | timeout          0 | loss rate 0.0000%
sent    3793003 | retrans          0 | timeout          0 | loss rate 0.0000%
