sent    3754142 | retrans          0 | timeout          0 | loss rate 0.0000%
sent    3751933 | retrans          0 | timeout          0 | loss rate 0.0000%
sent    3750804 | retrans          0 | timeout          0 | loss rate 0.0000%
sent    3752124 | retrans          0 | timeout          0 | loss rate 0.0000%
sent    3749786 | retrans          0 | timeout          0 | loss rate 0.0000%
sent    3755658 | retrans          0 | timeout          0 | loss rate 0.0000%
sent    3745307 | retrans          0 | timeout          0 | loss rate 0.0000%
