sent    2358700 | retrans          0 | timeout          0 | loss rate 0.0000%
sent    2349672 | retrans          0 | timeout          0 | loss rate 0.0000%
sent    2358232 | retrans          0 | timeout          0 | loss rate 0.0000%
sent    2353926 | retrans          0 | timeout          0 | loss rate 0.0000%
sent    2356686 | retrans          0 | timeout          0 | loss rate 0.0000%
sent    2352233 | retrans          0 | timeout          0 | loss rate 0.0000%
sent    2351505 | retrans          0 | timeout          0 | loss rate 0.0000%
