sent    3159002 | retrans          0 | timeout          0 | loss rate 0.0000%
sent    3162950 | retrans          0 | timeout          0 | loss rate 0.0000%
sent    3167068 | retrans          0 | timeout          0 | loss rate 0.0000%
sent    3162585 | retrans          0 | timeout          0 | loss rate 0.0000%
sent    3167258 | retrans          0 | timeout          0 | loss rate 0.0000%
sent    3163234 | retrans          0 | timeout          0 | loss rate 0.0000%
sent    3160377 | retrans          0 | timeout          0 | loss rate 0.0000%
