sent    3714269 | retrans          0 | timeout          0 | loss rate 0.0000%
sent    3720702 | retrans          0 | timeout          0 | loss rate 0.0000%
sent    3717130 | retrans          0 | timeout          0 | loss rate 0.0000%
sent    3716308 | retrans          0 | timeout          0 | loss rate 0.0000%
sent    3721209 | retrans          0 | timeout          0 | loss rate 0.0000%
sent    3713127 | retrans          0 | timeout          0 | loss rate 0.0000%
sent    3713109 | retrans          0 | timeout          0 | loss rate 0.0000%
