sent     675326 | retrans          0 | timeout          0 | loss rate 0.0000%
sent     675417 | retrans          0 | timeout          0 | loss rate 0.0000%
sent     679996 | retrans          0 | timeout          0 | loss rate 0.0000%
sent     676593 | retrans          0 | timeout          0 | loss rate 0.0000%
sent     676306 | retrans          0 | timeout          0 | loss rate 0.0000%
sent     676582 | retrans          0 | timeout          0 | loss rate 0.0000%
sent     678040 | retrans          0 | timeout          0 | loss rate 0.0000%
