sent    1708337 | retrans          0 | timeout          0 | loss rate 0.0000%
sent    1692276 | retrans          0 | timeout          0 | loss rate 0.0000%
sent    1720465 | retrans          0 | timeout          0 | loss rate 0.0000%
sent    1679986 | retrans          0 | timeout          0 | loss rate 0.0000%
sent    1707392 | retrans          0 | timeout          0 | loss rate 0.0000%
sent    1683915 | retrans          0 | timeout          0 | loss rate 0.0000%
sent    1727260 | retrans          0 | timeout          0 | loss rate 0.0000%
