sent    3001901 | retrans          0 | timeout          0 | loss rate 0.0000%
sent    3002741 | retrans          0 | timeout          0 | loss rate 0.0000%
sent    3001688 | retrans          0 | timeout          0 | loss rate 0.0000%
sent    3002299 | retrans          0 | timeout          0 | loss rate 0.0000%
sent    3003635 | retrans          0 | timeout          0 | loss rate 0.0000%
sent    3001127 | retrans          0 | timeout          0 | loss rate 0.0000%
sent    2996772 | retrans          0 | timeout          0 | loss rate 0.0000%
