sent    2989332 | retrans          0 | timeout          0 | loss rate 0.0000%
sent    2995374 | retrans          0 | timeout          0 | loss rate 0.0000%
sent    2992613 | retrans          0 | timeout          0 | loss rate 0.0000%
sent    2991937 | retrans          0 | timeout          0 | loss rate 0.0000%
sent    2992810 | retrans          0 | timeout          0 | loss rate 0.0000%
sent    2990462 | retrans          0 | timeout          0 | loss rate 0.0000%
sent    2996434 | retrans          0 | timeout          0 | loss rate 0.0000%
