sent    3745404 | retrans          0 | timeout          0 | loss rate 0.0000%
sent    3759573 | retrans          0 | timeout          0 | loss rate 0.0000%
sent    3759090 | retrans          0 | timeout          0 | loss rate 0.0000%
sent    3759682 | retrans          0 | timeout          0 | loss rate 0.0000%
sent    3759530 | retrans          0 | timeout          0 | loss rate 0.0000%
sent    3759750 | retrans          0 | timeout          0 | loss rate 0.0000%
sent    3753863 | retrans          0 | timeout          0 | loss rate 0.0000%
