sent    3792709 | retrans          0 | timeout          0 | loss rate 0.0000%
sent    3793322 | retrans          0 | timeout          0 | loss rate 0.0000%
sent    3797893 | retrans          0 | timeout          0 | loss rate 0.0000%
sent    3793008 | retrans          0 | timeout          0 | loss rate 0.0000%
sent    3797321 | retrans          0 | timeout          0 | loss rate 0.0000%
sent    3795061 | retrans          0 | timeout          0 | loss rate 0.0000%
sent    3791431 | retrans          0 | timeout          0 | loss rate 0.0000%
