sent    3801325 | retrans          0 | timeout          0 | loss rate 0.0000%
sent    3805324 | retrans          0 | timeout          0 | loss rate 0.0000%
sent    3800009 | retrans          0 | timeout          0 | loss rate 0.0000%
sent    3805131 | retrans          0 | timeout          0 | loss rate 0.0000%
sent    3802901 | retrans          0 | timeout          0 | loss rate 0.0000%
sent    3795193 | retrans          0 | timeout          0 | loss rate 0.0000%
sent    3802909 | retrans          0 | timeout          0 | loss rate 0.0000%
