sent    3498912 | retrans          0 | timeout          0 | loss rate 0.0000%
sent    3497958 | retrans          0 | timeout          0 | loss rate 0.0000%
sent    3504497 | retrans          0 | timeout          0 | loss rate 0.0000%
sent    3499087 | retrans          0 | timeout          0 | loss rate 0.0000%
sent    3498452 | retrans          0 | timeout          0 | loss rate 0.0000%
sent    3498628 | retrans          0 | timeout          0 | loss rate 0.0000%
sent    3498995 | retrans          0 | timeout          0 | loss rate 0.0000%
