sent    3713373 | retrans          0 | timeout          0 | loss rate 0.0000%
sent    3721308 | retrans          0 | timeout          0 | loss rate 0.0000%
sent    3715268 | retrans          0 | timeout          0 | loss rate 0.0000%
sent    3714922 | retrans          0 | timeout          0 | loss rate 0.0000%
sent    3720169 | retrans          0 | timeout          0 | loss rate 0.0000%
sent    3719323 | retrans          0 | timeout          0 | loss rate 0.0000%
sent    3712887 | retrans          0 | timeout          0 | loss rate 0.0000%
