sent     678809 | retrans          0 | timeout          0 | loss rate 0.0000%
sent     676281 | retrans          0 | timeout          0 | loss rate 0.0000%
sent     680616 | retrans          0 | timeout          0 | loss rate 0.0000%
sent     678329 | retrans          0 | timeout          0 | loss rate 0.0000%
sent     676540 | retrans          0 | timeout          0 | loss rate 0.0000%
sent     678940 | retrans          0 | timeout          0 | loss rate 0.0000%
sent     678596 | retrans          0 | timeout          0 | loss rate 0.0000%
