sent    3767906 | retrans          0 | timeout          0 | loss rate 0.0000%
sent    3772794 | retrans          0 | timeout          0 | loss rate 0.0000%
sent    3772504 | retrans          0 | timeout          0 | loss rate 0.0000%
sent    3775322 | retrans          0 | timeout          0 | loss rate 0.0000%
sent    3768866 | retrans          0 | timeout          0 | loss rate 0.0000%
sent    3770129 | retrans          0 | timeout          0 | loss rate 0.0000%
sent    3769902 | retrans          0 | timeout          0 | loss rate 0.0000%
