sent    2833431 | retrans          0 | timeout          0 | loss rate 0.0000%
sent    2831726 | retrans          0 | timeout          0 | loss rate 0.0000%
sent    2833596 | retrans          0 | timeout          0 | loss rate 0.0000%
sent    2828398 | retrans          0 | timeout          0 | loss rate 0.0000%
sent    2835045 | retrans          0 | timeout          0 | loss rate 0.0000%
sent    2829717 | retrans          0 | timeout          0 | loss rate 0.0000%
sent    2827827 | retrans          0 | timeout          0 | loss rate 0.0000%
