sent    3785751 | retrans          0 | timeout          0 | loss rate 0.0000%
sent    3783529 | retrans          0 | timeout          0 | loss rate 0.0000%
sent    3785720 | retrans          0 | timeout          0 | loss rate 0.0000%
sent    3788965 | retrans          0 | timeout          0 | loss rate 0.0000%
sent    3787358 | retrans          0 | timeout          0 | loss rate 0.0000%
sent    3788903 | retrans          0 | timeout          0 | loss rate 0.0000%
sent    3784595 | retrans          0 | timeout          0 | loss rate 0.0000%
