sent    3321416 | retrans          0 | timeout          0 | loss rate 0.0000%
sent    3322329 | retrans          0 | timeout          0 | loss rate 0.0000%
sent    3323813 | retrans          0 | timeout          0 | loss rate 0.0000%
sent    3324440 | retrans          0 | timeout          0 | loss rate 0.0000%
sent    3327234 | retrans          0 | timeout          0 | loss rate 0.0000%
sent    3327172 | retrans          0 | timeout          0 | loss rate 0.0000%
sent    3324846 | retrans          0 | timeout          0 | loss rate 0.0000%
