sent    2998622 | retrans          0 | timeout          0 | loss rate 0.0000%
sent    2999095 | retrans          0 | timeout          0 | loss rate 0.0000%
sent    2999769 | retrans          0 | timeout          0 | loss rate 0.0000%
sent    3004039 | retrans          0 | timeout          0 | loss rate 0.0000%
sent    2997003 | retrans          0 | timeout          0 | loss rate 0.0000%
sent    3002893 | retrans          0 | timeout          0 | loss rate 0.0000%
sent    3000981 | retrans          0 | timeout          0 | loss rate 0.0000%
