#type       avg     std     min     5th    10th    50th    90th    95th    99th
read    13744.6 216441.0  2599.5  4429.8  4486.1  4909.8  5247.8  5290.1 209586.0
update      0.0     0.0     0.0     0.0     0.0     0.0     0.0     0.0     0.0
op_q        1.0     0.0     1.0     1.0     1.0     1.1     1.1     1.1     1.1
rx      341375.8 287129.7     1.0     1.0     1.0 379445.2 728949.7 796603.8 931422.7

Total QPS = 109455.1 (3283652 / 30.0s)

Misses = 0 (0.0%)
Skipped TXs = 0 (0.0%)

RX  806429895 bytes :   25.6 MB/s
TX  138746043 bytes :    4.4 MB/s
