#type       avg     std     min     5th    10th    50th    90th    95th    99th
read    12015.1   719.3   198.3 11419.0 11478.3 11952.6 12426.9 12486.2 14479.7
update      0.0     0.0     0.0     0.0     0.0     0.0     0.0     0.0     0.0
op_q        1.0     0.0     1.0     1.0     1.0     1.1     1.1     1.1     1.1
rx      607007.3 22481.7 491466.8 568593.3 572369.3 602577.9 658126.7 672433.8 683879.5

Total QPS = 743833.3 (22314999 / 30.0s)

Misses = 0 (0.0%)
Skipped TXs = 0 (0.0%)

RX 5423914268 bytes :  172.4 MB/s
TX  942573013 bytes :   30.0 MB/s
