#type       avg     std     min     5th    10th    50th    90th    95th    99th
read      733.9  2847.1   198.3   493.5   507.5   633.7   719.7   764.9  1013.4
update      0.0     0.0     0.0     0.0     0.0     0.0     0.0     0.0     0.0
op_q        1.0     0.0     1.0     1.0     1.0     1.1     1.1     1.1     1.1
rx      10077679.7 990078.5 8575802.4 8994377.4 9074327.4 9713927.6 11666786.8 11840918.0 12210946.7

Total QPS = 1516615.0 (45498539 / 30.0s)

Misses = 0 (0.0%)
Skipped TXs = 0 (0.0%)

RX 11237521293 bytes :  357.2 MB/s
TX 1921180122 bytes :   61.1 MB/s
