#type       avg     std     min     5th    10th    50th    90th    95th    99th
read    12969.6 61829.9    39.2   241.6   343.9   856.9  2034.1 47247.8 361359.2
update      0.0     0.0     0.0     0.0     0.0     0.0     0.0     0.0     0.0
op_q        1.0     0.0     1.0     1.0     1.0     1.1     1.1     1.1     1.1
rx      568892.3 81936.6 335678.5 434927.8 464243.7 565979.5 681062.5 720373.8 773934.6

Total QPS = 1369426.3 (41082795 / 30.0s)

Misses = 0 (0.0%)
Skipped TXs = 0 (0.0%)

RX 10147764373 bytes :  322.6 MB/s
TX 1735526996 bytes :   55.2 MB/s
