#type       avg     std     min     5th    10th    50th    90th    95th    99th
read    13362.6   450.1   101.8 12586.1 12650.6 13166.6 13682.6 13747.1 14616.4
update      0.0     0.0     0.0     0.0     0.0     0.0     0.0     0.0     0.0
op_q        1.0     0.0     1.0     1.0     1.0     1.1     1.1     1.1     1.1
rx      548366.0 22437.4 406170.9 510174.8 518471.0 546048.1 595008.7 609582.2 621241.0

Total QPS = 669164.5 (20074936 / 30.0s)

Misses = 0 (0.0%)
Skipped TXs = 0 (0.0%)

RX 4906754908 bytes :  156.0 MB/s
TX  848033233 bytes :   27.0 MB/s
