# started on Thu Mar 23 21:38:24 2023

#           time             counts unit events
     5.000704835            633,601      LLC-load-misses           #    0.18% of all LL-cache hits     (49.97%)
     5.000704835            165,794      LLC-load-misses           #    6.80% of all LL-cache hits     (50.05%)
     5.000704835        347,143,610      LLC-loads                 #    8.678 M/sec                    (50.09%)
     5.000704835          2,438,402      LLC-loads                 #    0.061 M/sec                    (41.77%)
     5.000704835            366,087      LLC-store-misses          #    0.009 M/sec                    (24.99%)
     5.000704835             58,927      LLC-store-misses          #    0.001 M/sec                    (33.31%)
     5.000704835         79,261,203      LLC-stores                #    1.981 M/sec                    (24.96%)
     5.000704835            374,168      LLC-stores                #    0.009 M/sec                    (33.28%)
     5.000704835          40,002.25 msec task-clock                #    8.000 CPUs utilized          
     5.000704835    107,172,323,684      cycles:u                  #    2.679 GHz                      (41.60%)
     5.000704835        275,716,624      cycles:k                  #    0.007 GHz                      (41.60%)
     5.000704835     81,455,590,006      instructions:u            #    0.76  insn per cycle           (49.92%)
     5.000704835         67,805,394      instructions:k            #    0.25  insn per cycle           (49.92%)
    10.001188885            609,176      LLC-load-misses           #    0.17% of all LL-cache hits     (49.92%)
    10.001188885             71,074      LLC-load-misses           #    3.08% of all LL-cache hits     (49.92%)
    10.001188885        361,651,684      LLC-loads                 #    9.041 M/sec                    (49.96%)
    10.001188885          2,182,126      LLC-loads                 #    0.055 M/sec                    (41.72%)
    10.001188885            241,883      LLC-store-misses          #    0.006 M/sec                    (25.13%)
    10.001188885             59,017      LLC-store-misses          #    0.001 M/sec                    (33.45%)
    10.001188885         83,000,227      LLC-stores                #    2.075 M/sec                    (25.00%)
    10.001188885            358,786      LLC-stores                #    0.009 M/sec                    (33.32%)
    10.001188885          40,002.16 msec task-clock                #    8.000 CPUs utilized          
    10.001188885    107,165,396,889      cycles:u                  #    2.679 GHz                      (41.64%)
    10.001188885        284,745,673      cycles:k                  #    0.007 GHz                      (41.60%)
    10.001188885     78,750,345,809      instructions:u            #    0.73  insn per cycle           (49.92%)
    10.001188885         53,218,656      instructions:k            #    0.19  insn per cycle           (49.92%)
    15.001641895            597,949      LLC-load-misses           #    0.17% of all LL-cache hits     (49.92%)
    15.001641895             66,824      LLC-load-misses           #    2.96% of all LL-cache hits     (49.92%)
    15.001641895        361,628,368      LLC-loads                 #    9.040 M/sec                    (49.92%)
    15.001641895          2,159,183      LLC-loads                 #    0.054 M/sec                    (41.60%)
    15.001641895            238,457      LLC-store-misses          #    0.006 M/sec                    (24.99%)
    15.001641895             58,210      LLC-store-misses          #    0.001 M/sec                    (33.39%)
    15.001641895         81,133,204      LLC-stores                #    2.028 M/sec                    (25.13%)
    15.001641895            354,911      LLC-stores                #    0.009 M/sec                    (33.45%)
    15.001641895          40,001.88 msec task-clock                #    8.000 CPUs utilized          
    15.001641895    107,193,429,602      cycles:u                  #    2.680 GHz                      (41.77%)
    15.001641895        262,697,909      cycles:k                  #    0.007 GHz                      (41.73%)
    15.001641895     78,721,737,699      instructions:u            #    0.73  insn per cycle           (50.05%)
    15.001641895         51,526,225      instructions:k            #    0.19  insn per cycle           (49.97%)
    20.002149777            585,595      LLC-load-misses           #    0.16% of all LL-cache hits     (50.06%)
    20.002149777             65,659      LLC-load-misses           #    2.93% of all LL-cache hits     (49.98%)
    20.002149777        361,324,101      LLC-loads                 #    9.033 M/sec                    (49.91%)
    20.002149777          2,170,162      LLC-loads                 #    0.054 M/sec                    (41.60%)
    20.002149777            244,145      LLC-store-misses          #    0.006 M/sec                    (24.96%)
    20.002149777             57,394      LLC-store-misses          #    0.001 M/sec                    (33.28%)
    20.002149777         82,965,372      LLC-stores                #    2.074 M/sec                    (24.98%)
    20.002149777            351,202      LLC-stores                #    0.009 M/sec                    (33.38%)
    20.002149777          40,002.44 msec task-clock                #    8.000 CPUs utilized          
    20.002149777    107,188,053,940      cycles:u                  #    2.680 GHz                      (41.77%)
    20.002149777        268,420,045      cycles:k                  #    0.007 GHz                      (41.77%)
    20.002149777     78,810,514,820      instructions:u            #    0.74  insn per cycle           (50.09%)
    20.002149777         52,564,735      instructions:k            #    0.19  insn per cycle           (50.08%)
    25.002666034            611,799      LLC-load-misses           #    0.17% of all LL-cache hits     (50.08%)
    25.002666034             68,247      LLC-load-misses           #    3.08% of all LL-cache hits     (50.09%)
    25.002666034        361,289,054      LLC-loads                 #    9.032 M/sec                    (50.07%)
    25.002666034          2,128,082      LLC-loads                 #    0.053 M/sec                    (41.60%)
    25.002666034            251,323      LLC-store-misses          #    0.006 M/sec                    (24.96%)
    25.002666034             57,571      LLC-store-misses          #    0.001 M/sec                    (33.28%)
    25.002666034         81,728,516      LLC-stores                #    2.043 M/sec                    (24.96%)
    25.002666034            348,396      LLC-stores                #    0.009 M/sec                    (33.28%)
    25.002666034          40,002.53 msec task-clock                #    8.001 CPUs utilized          
    25.002666034    107,193,900,938      cycles:u                  #    2.680 GHz                      (41.61%)
    25.002666034        261,135,635      cycles:k                  #    0.007 GHz                      (41.69%)
    25.002666034     78,920,425,815      instructions:u            #    0.74  insn per cycle           (50.08%)
    25.002666034         51,175,489      instructions:k            #    0.19  insn per cycle           (50.09%)
    30.003131828            601,264      LLC-load-misses           #    0.17% of all LL-cache hits     (50.08%)
    30.003131828             62,430      LLC-load-misses           #    2.84% of all LL-cache hits     (50.08%)
    30.003131828        362,582,793      LLC-loads                 #    9.064 M/sec                    (50.08%)
    30.003131828          2,112,733      LLC-loads                 #    0.053 M/sec                    (41.76%)
    30.003131828            247,264      LLC-store-misses          #    0.006 M/sec                    (24.96%)
    30.003131828             57,555      LLC-store-misses          #    0.001 M/sec                    (33.28%)
    30.003131828         82,328,587      LLC-stores                #    2.058 M/sec                    (24.96%)
    30.003131828            344,103      LLC-stores                #    0.009 M/sec                    (33.28%)
    30.003131828          40,001.99 msec task-clock                #    8.000 CPUs utilized          
    30.003131828    107,163,825,071      cycles:u                  #    2.679 GHz                      (41.60%)
    30.003131828        290,928,837      cycles:k                  #    0.007 GHz                      (41.60%)
    30.003131828     78,900,107,821      instructions:u            #    0.74  insn per cycle           (49.92%)
    30.003131828         51,678,216      instructions:k            #    0.19  insn per cycle           (50.00%)
    35.003691518            602,614      LLC-load-misses           #    0.17% of all LL-cache hits     (49.91%)
    35.003691518             66,076      LLC-load-misses           #    3.01% of all LL-cache hits     (49.99%)
    35.003691518        361,460,183      LLC-loads                 #    9.036 M/sec                    (50.07%)
    35.003691518          2,186,153      LLC-loads                 #    0.055 M/sec                    (41.77%)
    35.003691518            249,752      LLC-store-misses          #    0.006 M/sec                    (25.05%)
    35.003691518             58,208      LLC-store-misses          #    0.001 M/sec                    (33.37%)
    35.003691518         82,184,764      LLC-stores                #    2.055 M/sec                    (24.96%)
    35.003691518            351,069      LLC-stores                #    0.009 M/sec                    (33.28%)
    35.003691518          40,002.74 msec task-clock                #    8.001 CPUs utilized          
    35.003691518    107,203,083,404      cycles:u                  #    2.680 GHz                      (41.60%)
    35.003691518        254,423,901      cycles:k                  #    0.006 GHz                      (41.60%)
    35.003691518     78,883,953,868      instructions:u            #    0.74  insn per cycle           (49.91%)
    35.003691518         51,223,059      instructions:k            #    0.19  insn per cycle           (49.91%)
    40.004127938            619,354      LLC-load-misses           #    0.17% of all LL-cache hits     (49.92%)
    40.004127938            190,325      LLC-load-misses           #    8.58% of all LL-cache hits     (49.92%)
    40.004127938        361,964,348      LLC-loads                 #    9.049 M/sec                    (49.92%)
    40.004127938          2,366,420      LLC-loads                 #    0.059 M/sec                    (41.66%)
    40.004127938            253,293      LLC-store-misses          #    0.006 M/sec                    (25.10%)
    40.004127938             58,267      LLC-store-misses          #    0.001 M/sec                    (33.45%)
    40.004127938         82,246,741      LLC-stores                #    2.056 M/sec                    (25.06%)
    40.004127938            382,279      LLC-stores                #    0.010 M/sec                    (33.38%)
    40.004127938          40,001.71 msec task-clock                #    8.000 CPUs utilized          
    40.004127938    107,138,955,824      cycles:u                  #    2.678 GHz                      (41.70%)
    40.004127938        317,714,312      cycles:k                  #    0.008 GHz                      (41.62%)
    40.004127938     78,678,083,740      instructions:u            #    0.73  insn per cycle           (49.94%)
    40.004127938         72,249,880      instructions:k            #    0.26  insn per cycle           (49.92%)
    45.004591620            593,388      LLC-load-misses           #    0.16% of all LL-cache hits     (49.95%)
    45.004591620             66,405      LLC-load-misses           #    3.00% of all LL-cache hits     (49.91%)
    45.004591620        360,313,296      LLC-loads                 #    9.007 M/sec                    (49.92%)
    45.004591620          2,191,900      LLC-loads                 #    0.055 M/sec                    (41.60%)
    45.004591620            241,623      LLC-store-misses          #    0.006 M/sec                    (24.96%)
    45.004591620             57,488      LLC-store-misses          #    0.001 M/sec                    (33.33%)
    45.004591620         81,705,486      LLC-stores                #    2.043 M/sec                    (25.09%)
    45.004591620            360,264      LLC-stores                #    0.009 M/sec                    (33.45%)
    45.004591620          40,001.84 msec task-clock                #    8.000 CPUs utilized          
    45.004591620    107,186,489,813      cycles:u                  #    2.680 GHz                      (41.77%)
    45.004591620        264,745,663      cycles:k                  #    0.007 GHz                      (41.77%)
    45.004591620     78,661,790,873      instructions:u            #    0.73  insn per cycle           (50.08%)
    45.004591620         52,092,581      instructions:k            #    0.19  insn per cycle           (50.03%)
    50.005207079            607,976      LLC-load-misses           #    0.17% of all LL-cache hits     (50.09%)
    50.005207079             67,946      LLC-load-misses           #    3.07% of all LL-cache hits     (50.04%)
    50.005207079        359,928,476      LLC-loads                 #    8.998 M/sec                    (49.96%)
    50.005207079          2,178,782      LLC-loads                 #    0.054 M/sec                    (41.59%)
    50.005207079            258,965      LLC-store-misses          #    0.006 M/sec                    (24.96%)
    50.005207079             60,875      LLC-store-misses          #    0.002 M/sec                    (33.28%)
    50.005207079         82,919,129      LLC-stores                #    2.073 M/sec                    (24.96%)
    50.005207079            362,721      LLC-stores                #    0.009 M/sec                    (33.32%)
    50.005207079          40,003.16 msec task-clock                #    8.001 CPUs utilized          
    50.005207079    107,179,662,656      cycles:u                  #    2.679 GHz                      (41.72%)
    50.005207079        284,132,643      cycles:k                  #    0.007 GHz                      (41.77%)
    50.005207079     78,740,011,513      instructions:u            #    0.73  insn per cycle           (50.09%)
    50.005207079         53,593,413      instructions:k            #    0.19  insn per cycle           (50.09%)
    55.005728708            639,083      LLC-load-misses           #    0.18% of all LL-cache hits     (50.09%)
    55.005728708             69,137      LLC-load-misses           #    3.13% of all LL-cache hits     (50.09%)
    55.005728708        360,975,188      LLC-loads                 #    9.024 M/sec                    (50.09%)
    55.005728708          2,160,662      LLC-loads                 #    0.054 M/sec                    (41.65%)
    55.005728708            278,758      LLC-store-misses          #    0.007 M/sec                    (24.96%)
    55.005728708             58,227      LLC-store-misses          #    0.001 M/sec                    (33.28%)
    55.005728708         82,340,624      LLC-stores                #    2.058 M/sec                    (24.96%)
    55.005728708            352,163      LLC-stores                #    0.009 M/sec                    (33.28%)
    55.005728708          40,002.39 msec task-clock                #    8.000 CPUs utilized          
    55.005728708    107,190,585,201      cycles:u                  #    2.680 GHz                      (41.60%)
    55.005728708        266,422,751      cycles:k                  #    0.007 GHz                      (41.63%)
    55.005728708     78,915,322,653      instructions:u            #    0.74  insn per cycle           (50.03%)
    55.005728708         51,581,540      instructions:k            #    0.19  insn per cycle           (50.08%)
    60.006213848            638,867      LLC-load-misses           #    0.18% of all LL-cache hits     (50.02%)
    60.006213848             67,655      LLC-load-misses           #    3.07% of all LL-cache hits     (50.08%)
    60.006213848        361,231,604      LLC-loads                 #    9.030 M/sec                    (50.08%)
    60.006213848          2,131,626      LLC-loads                 #    0.053 M/sec                    (41.77%)
    60.006213848            282,219      LLC-store-misses          #    0.007 M/sec                    (24.96%)
    60.006213848             58,133      LLC-store-misses          #    0.001 M/sec                    (33.28%)
    60.006213848         81,633,683      LLC-stores                #    2.041 M/sec                    (24.96%)
    60.006213848            345,291      LLC-stores                #    0.009 M/sec                    (33.28%)
    60.006213848          40,001.96 msec task-clock                #    8.000 CPUs utilized          
    60.006213848    107,166,705,393      cycles:u                  #    2.679 GHz                      (41.60%)
    60.006213848        277,049,272      cycles:k                  #    0.007 GHz                      (41.60%)
    60.006213848     78,891,455,741      instructions:u            #    0.74  insn per cycle           (49.91%)
    60.006213848         52,017,383      instructions:k            #    0.19  insn per cycle           (49.94%)
    60.160284360             19,820      LLC-load-misses           #    0.01% of all LL-cache hits     (46.73%)
    60.160284360              1,957      LLC-load-misses           #    0.10% of all LL-cache hits     (47.20%)
    60.160284360         10,420,331      LLC-loads                 #    0.281 M/sec                    (49.78%)
    60.160284360             66,390      LLC-loads                 #    0.002 M/sec                    (44.58%)
    60.160284360             11,169      LLC-store-misses          #    0.302 K/sec                    (29.46%)
    60.160284360              2,044      LLC-store-misses          #    0.055 K/sec                    (37.26%)
    60.160284360          2,345,417      LLC-stores                #    0.063 M/sec                    (24.29%)
    60.160284360             11,524      LLC-stores                #    0.311 K/sec                    (32.09%)
    60.160284360           1,232.38 msec task-clock                #    0.246 CPUs utilized          
    60.160284360      3,301,793,351      cycles:u                  #    0.089 GHz                      (39.90%)
    60.160284360          7,814,900      cycles:k                  #    0.000 GHz                      (38.95%)
    60.160284360      2,431,693,905      instructions:u            #    0.02  insn per cycle           (46.74%)
    60.160284360          1,561,601      instructions:k            #    0.01  insn per cycle           (46.74%)
