#type       avg     std     min     5th    10th    50th    90th    95th    99th
read    63309.4  3396.1   684.5 58208.7 59057.2 64773.8 68680.6 69169.0 69559.6
update      0.0     0.0     0.0     0.0     0.0     0.0     0.0     0.0     0.0
op_q        1.0     0.0     1.0     1.0     1.0     1.1     1.1     1.1     1.1
rx      116088.9 10144.5 97234.1 100434.8 103269.8 115463.7 131265.9 135152.4 148339.3

Total QPS = 88047.3 (2641420 / 30.0s)

Misses = 0 (0.0%)
Skipped TXs = 0 (0.0%)

RX  646823912 bytes :   20.6 MB/s
TX  111818493 bytes :    3.6 MB/s
