#type       avg     std     min     5th    10th    50th    90th    95th    99th
read    63609.2  5353.1  8974.3 58298.7 59177.8 64891.1 68711.4 69189.0 69571.0
update      0.0     0.0     0.0     0.0     0.0     0.0     0.0     0.0     0.0
op_q        1.0     0.0     1.0     1.0     1.0     1.1     1.1     1.1     1.1
rx      115750.4 10461.6 97234.1 99576.4 103053.4 115444.3 130780.8 134520.1 153041.6

Total QPS = 87929.0 (2637870 / 30.0s)

Misses = 0 (0.0%)
Skipped TXs = 0 (0.0%)

RX  647982985 bytes :   20.6 MB/s
TX  111622481 bytes :    3.5 MB/s
