#type       avg     std     min     5th    10th    50th    90th    95th    99th
read     4687.5    47.6  4605.2  4413.0  4435.2  4612.0  4788.9  4811.1  4828.7
update      0.0     0.0     0.0     0.0     0.0     0.0     0.0     0.0     0.0
op_q        1.0     0.0     1.0     1.0     1.0     1.1     1.1     1.1     1.1
rx      1568158.7 31991.4 1542433.4 1478194.4 1485736.2 1546070.7 1606405.1 1613946.9 1714780.9

Total QPS = 119452.9 (3583586 / 30.0s)

Misses = 0 (0.0%)
Skipped TXs = 0 (0.0%)

RX  880622098 bytes :   28.0 MB/s
TX  151331933 bytes :    4.8 MB/s
