#type       avg     std     min     5th    10th    50th    90th    95th    99th
read     9430.7   132.7  8974.3  8633.2  8709.7  9321.8 10142.2 10249.2 10334.9
update      0.0     0.0     0.0     0.0     0.0     0.0     0.0     0.0     0.0
op_q        1.0     0.0     1.0     1.0     1.0     1.1     1.1     1.1     1.1
rx      784970.4 24609.7 719556.6 718355.9 750641.6 789130.0 824129.5 828504.4 886594.9

Total QPS = 118751.2 (3562536 / 30.0s)

Misses = 0 (0.0%)
Skipped TXs = 0 (0.0%)

RX  877377386 bytes :   27.9 MB/s
TX  150464223 bytes :    4.8 MB/s
