#type       avg     std     min     5th    10th    50th    90th    95th    99th
read    19797.3   298.4 10858.9 18434.6 18527.7 19272.5 20017.4 20110.5 20925.7
update      0.0     0.0     0.0     0.0     0.0     0.0     0.0     0.0     0.0
op_q        1.0     0.0     1.0     1.0     1.0     1.1     1.1     1.1     1.1
rx      374675.6 18223.0 335678.5 335118.3 350179.8 372888.8 409951.7 418803.5 425885.0

Total QPS = 113132.7 (3393980 / 30.0s)

Misses = 0 (0.0%)
Skipped TXs = 0 (0.0%)

RX  836568857 bytes :   26.6 MB/s
TX  143421913 bytes :    4.6 MB/s
