#type       avg     std     min     5th    10th    50th    90th    95th    99th
read    32926.9   737.7  8974.3 32638.2 32802.3 34115.7 35429.0 35593.2 35724.5
update      0.0     0.0     0.0     0.0     0.0     0.0     0.0     0.0     0.0
op_q        1.0     0.0     1.0     1.0     1.0     1.1     1.1     1.1     1.1
rx      223990.0 14724.3 189481.7 200329.1 203070.2 223725.2 244880.1 256657.9 276601.7

Total QPS = 101987.2 (3059616 / 30.0s)

Misses = 0 (0.0%)
Skipped TXs = 0 (0.0%)

RX  751987805 bytes :   23.9 MB/s
TX  129348128 bytes :    4.1 MB/s
