#type       avg     std     min     5th    10th    50th    90th    95th    99th
read    32760.0   478.9 28165.3 30668.6 31800.8 33879.9 35380.7 35568.3 35718.3
update      0.0     0.0     0.0     0.0     0.0     0.0     0.0     0.0     0.0
op_q        1.0     0.0     1.0     1.0     1.0     1.1     1.1     1.1     1.1
rx      224725.2 13439.8 189481.7 200977.7 203816.7 224557.0 245761.8 255543.4 263368.6

Total QPS = 102546.9 (3076407 / 30.0s)

Misses = 0 (0.0%)
Skipped TXs = 0 (0.0%)

RX  754755836 bytes :   24.0 MB/s
TX  130025260 bytes :    4.1 MB/s
