#type       avg     std     min     5th    10th    50th    90th    95th    99th
read    33146.3   553.0 15898.6 32655.2 32818.6 34125.4 35432.2 35595.5 35726.2
update      0.0     0.0     0.0     0.0     0.0     0.0     0.0     0.0     0.0
op_q        1.0     0.0     1.0     1.0     1.0     1.1     1.1     1.1     1.1
rx      221377.4 14685.8 189481.7 199229.4 201626.2 220799.1 239964.4 252178.3 264016.5

Total QPS = 101346.6 (3040397 / 30.0s)

Misses = 0 (0.0%)
Skipped TXs = 0 (0.0%)

RX  745334112 bytes :   23.7 MB/s
TX  128534432 bytes :    4.1 MB/s
