#type       avg     std     min     5th    10th    50th    90th    95th    99th
read    46357.7  4763.6 19237.2 43454.1 43671.6 45411.5 47151.3 47368.8 47542.8
update      0.0     0.0     0.0     0.0     0.0     0.0     0.0     0.0     0.0
op_q        1.0     0.0     1.0     1.0     1.0     1.1     1.1     1.1     1.1
rx      159004.5 12221.0 129418.6 138353.1 141455.6 157960.9 177237.9 180462.2 197062.5

Total QPS = 96764.4 (2902933 / 30.0s)

Misses = 0 (0.0%)
Skipped TXs = 0 (0.0%)

RX  714391936 bytes :   22.7 MB/s
TX  122714591 bytes :    3.9 MB/s
