#type       avg     std     min     5th    10th    50th    90th    95th    99th
read    46244.7  2364.4 11944.8 43448.6 43666.8 45412.1 47157.5 47375.7 47550.2
update      0.0     0.0     0.0     0.0     0.0     0.0     0.0     0.0     0.0
op_q        1.0     0.0     1.0     1.0     1.0     1.1     1.1     1.1     1.1
rx      158749.9 11199.2 129418.6 138876.3 142466.0 158267.4 176412.8 179504.4 194313.9

Total QPS = 96787.1 (2903613 / 30.0s)

Misses = 0 (0.0%)
Skipped TXs = 0 (0.0%)

RX  713568602 bytes :   22.7 MB/s
TX  122772196 bytes :    3.9 MB/s
