#type       avg     std     min     5th    10th    50th    90th    95th    99th
read    46473.1  4610.7 21161.0 43455.9 43673.9 45417.4 47160.9 47378.9 47553.2
update      0.0     0.0     0.0     0.0     0.0     0.0     0.0     0.0     0.0
op_q        1.0     0.0     1.0     1.0     1.0     1.1     1.1     1.1     1.1
rx      159267.4 12078.2 129418.6 138388.8 141654.6 158347.3 177341.0 180378.9 196367.6

Total QPS = 96506.9 (2895206 / 30.0s)

Misses = 0 (0.0%)
Skipped TXs = 0 (0.0%)

RX  714074836 bytes :   22.7 MB/s
TX  122412941 bytes :    3.9 MB/s
