#type       avg     std     min     5th    10th    50th    90th    95th    99th
read    46548.4  4833.1 14453.2 43455.3 43673.5 45418.9 47164.3 47382.5 47557.1
update      0.0     0.0     0.0     0.0     0.0     0.0     0.0     0.0     0.0
op_q        1.0     0.0     1.0     1.0     1.0     1.1     1.1     1.1     1.1
rx      158566.8 12499.3 129418.6 138427.6 142017.3 157647.5 176133.0 179757.6 204029.6

Total QPS = 96365.0 (2890949 / 30.0s)

Misses = 0 (0.0%)
Skipped TXs = 0 (0.0%)

RX  711963803 bytes :   22.6 MB/s
TX  122247260 bytes :    3.9 MB/s
