# started on Sun Apr  2 11:03:53 2023

#           time             counts unit events
     5.004907013            587,958      LLC-load-misses           #   16.87% of all LL-cache accesses  (49.88%)
     5.004907013          1,495,531      LLC-load-misses           #    8.65% of all LL-cache accesses  (49.96%)
     5.004907013          3,484,892      LLC-loads                 #  696.307 K/sec                    (50.04%)
     5.004907013         17,286,380      LLC-loads                 #    3.454 M/sec                    (41.82%)
     5.004907013             10,096      LLC-store-misses          #    2.017 K/sec                    (25.11%)
     5.004907013            414,761      LLC-store-misses          #   82.872 K/sec                    (33.42%)
     5.004907013            939,433      LLC-stores                #  187.705 K/sec                    (24.94%)
     5.004907013          8,581,753      LLC-stores                #    1.715 M/sec                    (33.25%)
     5.004907013           5,004.82 msec task-clock                #    1.001 CPUs utilized          
     5.004907013        616,464,674      cycles:u                  #    0.123 GHz                      (41.57%)
     5.004907013      3,012,969,654      cycles:k                  #    0.602 GHz                      (41.55%)
     5.004907013        430,987,315      instructions:u            #    0.70  insn per cycle           (49.86%)
     5.004907013      2,721,425,634      instructions:k            #    0.90  insn per cycle           (49.86%)
    10.008922344          2,496,321      LLC-load-misses           #   17.75% of all LL-cache accesses  (49.88%)
    10.008922344          4,305,857      LLC-load-misses           #    6.49% of all LL-cache accesses  (49.88%)
    10.008922344         14,063,836      LLC-loads                 #    2.811 M/sec                    (49.88%)
    10.008922344         66,371,496      LLC-loads                 #   13.264 M/sec                    (41.57%)
    10.008922344                343      LLC-store-misses          #   68.547 /sec                     (25.02%)
    10.008922344             73,936      LLC-store-misses          #   14.776 K/sec                    (33.41%)
    10.008922344          4,078,145      LLC-stores                #  815.000 K/sec                    (25.18%)
    10.008922344         33,060,963      LLC-stores                #    6.607 M/sec                    (33.49%)
    10.008922344           5,003.86 msec task-clock                #    1.001 CPUs utilized          
    10.008922344      2,491,415,535      cycles:u                  #    0.498 GHz                      (41.81%)
    10.008922344     10,954,297,434      cycles:k                  #    2.189 GHz                      (41.73%)
    10.008922344      1,710,075,204      instructions:u            #    0.69  insn per cycle           (50.04%)
    10.008922344      9,584,929,366      instructions:k            #    0.87  insn per cycle           (49.96%)
    15.012922549          2,489,972      LLC-load-misses           #   17.75% of all LL-cache accesses  (50.12%)
    15.012922549          4,279,855      LLC-load-misses           #    6.47% of all LL-cache accesses  (50.04%)
    15.012922549         14,024,955      LLC-loads                 #    2.803 M/sec                    (49.96%)
    15.012922549         66,137,420      LLC-loads                 #   13.217 M/sec                    (41.57%)
    15.012922549                176      LLC-store-misses          #   35.173 /sec                     (24.94%)
    15.012922549             28,006      LLC-store-misses          #    5.597 K/sec                    (33.26%)
    15.012922549          3,971,093      LLC-stores                #  793.609 K/sec                    (24.94%)
    15.012922549         33,106,922      LLC-stores                #    6.616 M/sec                    (33.33%)
    15.012922549           5,003.84 msec task-clock                #    1.001 CPUs utilized          
    15.012922549      2,488,132,714      cycles:u                  #    0.497 GHz                      (41.72%)
    15.012922549     10,953,113,688      cycles:k                  #    2.189 GHz                      (41.80%)
    15.012922549      1,702,971,304      instructions:u            #    0.68  insn per cycle           (50.12%)
    15.012922549      9,585,542,771      instructions:k            #    0.88  insn per cycle           (50.12%)
    20.016921372          2,478,491      LLC-load-misses           #   17.72% of all LL-cache accesses  (50.12%)
    20.016921372          4,275,600      LLC-load-misses           #    6.49% of all LL-cache accesses  (50.12%)
    20.016921372         13,986,705      LLC-loads                 #    2.795 M/sec                    (50.12%)
    20.016921372         65,919,939      LLC-loads                 #   13.174 M/sec                    (41.73%)
    20.016921372                 96      LLC-store-misses          #   19.185 /sec                     (24.94%)
    20.016921372             30,971      LLC-store-misses          #    6.189 K/sec                    (33.26%)
    20.016921372          3,963,403      LLC-stores                #  792.072 K/sec                    (24.94%)
    20.016921372         33,057,572      LLC-stores                #    6.606 M/sec                    (33.25%)
    20.016921372           5,003.84 msec task-clock                #    1.001 CPUs utilized          
    20.016921372      2,487,433,216      cycles:u                  #    0.497 GHz                      (41.57%)
    20.016921372     10,958,409,086      cycles:k                  #    2.190 GHz                      (41.56%)
    20.016921372      1,699,970,450      instructions:u            #    0.68  insn per cycle           (49.95%)
    20.016921372      9,584,023,040      instructions:k            #    0.87  insn per cycle           (50.03%)
    25.020927801          2,481,114      LLC-load-misses           #   17.72% of all LL-cache accesses  (49.88%)
    25.020927801          4,290,668      LLC-load-misses           #    6.50% of all LL-cache accesses  (49.96%)
    25.020927801         14,000,140      LLC-loads                 #    2.798 M/sec                    (50.04%)
    25.020927801         65,982,923      LLC-loads                 #   13.186 M/sec                    (41.81%)
    25.020927801                119      LLC-store-misses          #   23.782 /sec                     (25.10%)
    25.020927801             30,525      LLC-store-misses          #    6.100 K/sec                    (33.41%)
    25.020927801          3,966,997      LLC-stores                #  792.789 K/sec                    (24.94%)
    25.020927801         33,086,678      LLC-stores                #    6.612 M/sec                    (33.26%)
    25.020927801           5,003.85 msec task-clock                #    1.001 CPUs utilized          
    25.020927801      2,484,400,501      cycles:u                  #    0.496 GHz                      (41.57%)
    25.020927801     10,960,667,737      cycles:k                  #    2.190 GHz                      (41.56%)
    25.020927801      1,702,404,167      instructions:u            #    0.69  insn per cycle           (49.88%)
    25.020927801      9,596,390,934      instructions:k            #    0.88  insn per cycle           (49.88%)
    30.024922541          2,483,296      LLC-load-misses           #   17.69% of all LL-cache accesses  (49.88%)
    30.024922541          4,283,876      LLC-load-misses           #    6.48% of all LL-cache accesses  (49.88%)
    30.024922541         14,039,379      LLC-loads                 #    2.806 M/sec                    (49.88%)
    30.024922541         66,145,266      LLC-loads                 #   13.219 M/sec                    (41.57%)
    30.024922541              3,621      LLC-store-misses          #  723.645 /sec                     (25.02%)
    30.024922541             26,704      LLC-store-misses          #    5.337 K/sec                    (33.41%)
    30.024922541          3,980,317      LLC-stores                #  795.453 K/sec                    (25.18%)
    30.024922541         33,092,569      LLC-stores                #    6.613 M/sec                    (33.49%)
    30.024922541           5,003.83 msec task-clock                #    1.001 CPUs utilized          
    30.024922541      2,489,925,578      cycles:u                  #    0.498 GHz                      (41.81%)
    30.024922541     10,956,037,471      cycles:k                  #    2.190 GHz                      (41.73%)
    30.024922541      1,703,069,770      instructions:u            #    0.68  insn per cycle           (50.04%)
    30.024922541      9,603,028,162      instructions:k            #    0.88  insn per cycle           (49.96%)
    35.028936744          1,954,193      LLC-load-misses           #   17.21% of all LL-cache accesses  (50.12%)
    35.028936744          3,392,458      LLC-load-misses           #    6.51% of all LL-cache accesses  (50.04%)
    35.028936744         11,352,490      LLC-loads                 #    2.269 M/sec                    (49.96%)
    35.028936744         52,074,730      LLC-loads                 #   10.407 M/sec                    (41.57%)
    35.028936744             91,985      LLC-store-misses          #   18.383 K/sec                    (24.94%)
    35.028936744            113,056      LLC-store-misses          #   22.594 K/sec                    (33.26%)
    35.028936744          3,274,857      LLC-stores                #  654.470 K/sec                    (24.94%)
    35.028936744         26,011,395      LLC-stores                #    5.198 M/sec                    (33.33%)
    35.028936744           5,003.83 msec task-clock                #    1.001 CPUs utilized          
    35.028936744      2,000,629,779      cycles:u                  #    0.400 GHz                      (41.72%)
    35.028936744      8,628,152,594      cycles:k                  #    1.724 GHz                      (41.80%)
    35.028936744      1,361,320,600      instructions:u            #    0.68  insn per cycle           (50.12%)
    35.028936744      7,526,220,866      instructions:k            #    0.87  insn per cycle           (50.12%)
    36.038466134                581      LLC-load-misses           #    1.19% of all LL-cache accesses  (50.07%)
    36.038466134             41,270      LLC-load-misses           #   14.34% of all LL-cache accesses  (50.07%)
    36.038466134             48,905      LLC-loads                 #   48.446 K/sec                    (50.08%)
    36.038466134            287,734      LLC-loads                 #  285.031 K/sec                    (41.61%)
    36.038466134                  4      LLC-store-misses          #    3.962 /sec                     (24.97%)
    36.038466134             43,123      LLC-store-misses          #   42.718 K/sec                    (33.29%)
    36.038466134              2,644      LLC-stores                #    2.619 K/sec                    (24.96%)
    36.038466134            120,124      LLC-stores                #  118.996 K/sec                    (33.27%)
    36.038466134           1,009.48 msec task-clock                #    0.202 CPUs utilized          
    36.038466134         16,304,727      cycles:u                  #    0.016 GHz                      (41.60%)
    36.038466134         46,848,764      cycles:k                  #    0.046 GHz                      (41.60%)
    36.038466134          9,487,416      instructions:u            #    0.58  insn per cycle           (50.07%)
    36.038466134         15,854,093      instructions:k            #    0.34  insn per cycle           (50.07%)
