# started on Sun Apr  2 11:37:54 2023

#           time             counts unit events
     5.002757121          1,064,345      LLC-load-misses           #   37.44% of all LL-cache accesses  (49.94%)
     5.002757121          3,900,143      LLC-load-misses           #   29.92% of all LL-cache accesses  (50.02%)
     5.002757121          2,842,984      LLC-loads                 #  568.292 K/sec                    (50.11%)
     5.002757121         13,034,397      LLC-loads                 #    2.605 M/sec                    (41.80%)
     5.002757121            156,441      LLC-store-misses          #   31.271 K/sec                    (25.03%)
     5.002757121          2,178,012      LLC-store-misses          #  435.369 K/sec                    (33.35%)
     5.002757121            914,193      LLC-stores                #  182.741 K/sec                    (24.95%)
     5.002757121          6,801,529      LLC-stores                #    1.360 M/sec                    (33.26%)
     5.002757121           5,002.68 msec task-clock                #    1.001 CPUs utilized          
     5.002757121        549,141,652      cycles:u                  #    0.110 GHz                      (41.58%)
     5.002757121      2,810,213,186      cycles:k                  #    0.562 GHz                      (41.57%)
     5.002757121        320,166,114      instructions:u            #    0.58  insn per cycle           (49.89%)
     5.002757121      2,185,889,574      instructions:k            #    0.78  insn per cycle           (49.89%)
    10.006762809          5,018,306      LLC-load-misses           #   37.85% of all LL-cache accesses  (49.88%)
    10.006762809         17,551,529      LLC-load-misses           #   30.30% of all LL-cache accesses  (49.88%)
    10.006762809         13,257,730      LLC-loads                 #    2.650 M/sec                    (49.88%)
    10.006762809         57,925,658      LLC-loads                 #   11.576 M/sec                    (41.65%)
    10.006762809            605,475      LLC-store-misses          #  121.002 K/sec                    (25.10%)
    10.006762809          8,304,106      LLC-store-misses          #    1.660 M/sec                    (33.49%)
    10.006762809          4,173,931      LLC-stores                #  834.147 K/sec                    (25.10%)
    10.006762809         27,959,803      LLC-stores                #    5.588 M/sec                    (33.41%)
    10.006762809           5,003.83 msec task-clock                #    1.001 CPUs utilized          
    10.006762809      2,515,831,672      cycles:u                  #    0.503 GHz                      (41.73%)
    10.006762809     10,925,321,437      cycles:k                  #    2.183 GHz                      (41.65%)
    10.006762809      1,473,970,118      instructions:u            #    0.59  insn per cycle           (49.96%)
    10.006762809      8,206,944,315      instructions:k            #    0.75  insn per cycle           (49.88%)
    15.010758804          4,975,593      LLC-load-misses           #   38.10% of all LL-cache accesses  (50.04%)
    15.010758804         17,548,171      LLC-load-misses           #   30.02% of all LL-cache accesses  (49.96%)
    15.010758804         13,059,615      LLC-loads                 #    2.610 M/sec                    (49.88%)
    15.010758804         58,449,510      LLC-loads                 #   11.681 M/sec                    (41.57%)
    15.010758804            485,028      LLC-store-misses          #   96.931 K/sec                    (24.94%)
    15.010758804          8,218,591      LLC-store-misses          #    1.642 M/sec                    (33.26%)
    15.010758804          4,025,053      LLC-stores                #  804.392 K/sec                    (25.02%)
    15.010758804         28,036,678      LLC-stores                #    5.603 M/sec                    (33.41%)
    15.010758804           5,003.85 msec task-clock                #    1.001 CPUs utilized          
    15.010758804      2,482,817,615      cycles:u                  #    0.496 GHz                      (41.80%)
    15.010758804     10,961,065,778      cycles:k                  #    2.191 GHz                      (41.80%)
    15.010758804      1,467,992,323      instructions:u            #    0.59  insn per cycle           (50.12%)
    15.010758804      8,247,051,956      instructions:k            #    0.75  insn per cycle           (50.12%)
    20.014759542          4,969,277      LLC-load-misses           #   38.45% of all LL-cache accesses  (50.12%)
    20.014759542         17,684,589      LLC-load-misses           #   30.16% of all LL-cache accesses  (50.12%)
    20.014759542         12,925,661      LLC-loads                 #    2.583 M/sec                    (50.12%)
    20.014759542         58,641,770      LLC-loads                 #   11.719 M/sec                    (41.65%)
    20.014759542            419,570      LLC-store-misses          #   83.850 K/sec                    (24.94%)
    20.014759542          8,251,816      LLC-store-misses          #    1.649 M/sec                    (33.26%)
    20.014759542          3,917,890      LLC-stores                #  782.977 K/sec                    (24.94%)
    20.014759542         28,101,850      LLC-stores                #    5.616 M/sec                    (33.25%)
    20.014759542           5,003.83 msec task-clock                #    1.001 CPUs utilized          
    20.014759542      2,468,624,205      cycles:u                  #    0.493 GHz                      (41.57%)
    20.014759542     10,973,029,299      cycles:k                  #    2.193 GHz                      (41.64%)
    20.014759542      1,466,747,260      instructions:u            #    0.59  insn per cycle           (50.03%)
    20.014759542      8,265,068,891      instructions:k            #    0.75  insn per cycle           (50.11%)
    25.018757418          4,965,663      LLC-load-misses           #   38.58% of all LL-cache accesses  (49.96%)
    25.018757418         17,687,834      LLC-load-misses           #   30.12% of all LL-cache accesses  (50.04%)
    25.018757418         12,870,473      LLC-loads                 #    2.572 M/sec                    (50.12%)
    25.018757418         58,727,306      LLC-loads                 #   11.736 M/sec                    (41.81%)
    25.018757418            391,760      LLC-store-misses          #   78.292 K/sec                    (25.02%)
    25.018757418          8,188,448      LLC-store-misses          #    1.636 M/sec                    (33.34%)
    25.018757418          3,880,593      LLC-stores                #  775.522 K/sec                    (24.94%)
    25.018757418         28,115,075      LLC-stores                #    5.619 M/sec                    (33.25%)
    25.018757418           5,003.85 msec task-clock                #    1.001 CPUs utilized          
    25.018757418      2,465,917,917      cycles:u                  #    0.493 GHz                      (41.57%)
    25.018757418     10,977,762,347      cycles:k                  #    2.194 GHz                      (41.56%)
    25.018757418      1,467,662,385      instructions:u            #    0.60  insn per cycle           (49.88%)
    25.018757418      8,282,320,047      instructions:k            #    0.75  insn per cycle           (49.88%)
    30.022763326          4,959,596      LLC-load-misses           #   38.70% of all LL-cache accesses  (49.88%)
    30.022763326         17,636,532      LLC-load-misses           #   30.06% of all LL-cache accesses  (49.88%)
    30.022763326         12,814,887      LLC-loads                 #    2.561 M/sec                    (49.88%)
    30.022763326         58,664,597      LLC-loads                 #   11.724 M/sec                    (41.65%)
    30.022763326            372,853      LLC-store-misses          #   74.513 K/sec                    (25.10%)
    30.022763326          8,186,725      LLC-store-misses          #    1.636 M/sec                    (33.49%)
    30.022763326          3,845,166      LLC-stores                #  768.443 K/sec                    (25.10%)
    30.022763326         28,163,843      LLC-stores                #    5.628 M/sec                    (33.41%)
    30.022763326           5,003.84 msec task-clock                #    1.001 CPUs utilized          
    30.022763326      2,461,111,210      cycles:u                  #    0.492 GHz                      (41.73%)
    30.022763326     10,983,103,544      cycles:k                  #    2.195 GHz                      (41.65%)
    30.022763326      1,468,575,648      instructions:u            #    0.60  insn per cycle           (49.96%)
    30.022763326      8,286,556,336      instructions:k            #    0.75  insn per cycle           (49.88%)
    35.026782388          3,936,817      LLC-load-misses           #   38.86% of all LL-cache accesses  (50.04%)
    35.026782388         14,239,165      LLC-load-misses           #   30.19% of all LL-cache accesses  (49.96%)
    35.026782388         10,130,187      LLC-loads                 #    2.024 M/sec                    (49.88%)
    35.026782388         47,162,462      LLC-loads                 #    9.425 M/sec                    (41.57%)
    35.026782388            283,175      LLC-store-misses          #   56.592 K/sec                    (24.94%)
    35.026782388          6,653,363      LLC-store-misses          #    1.330 M/sec                    (33.26%)
    35.026782388          3,018,517      LLC-stores                #  603.240 K/sec                    (25.02%)
    35.026782388         22,667,667      LLC-stores                #    4.530 M/sec                    (33.41%)
    35.026782388           5,003.84 msec task-clock                #    1.001 CPUs utilized          
    35.026782388      1,943,441,028      cycles:u                  #    0.388 GHz                      (41.80%)
    35.026782388      8,853,145,484      cycles:k                  #    1.769 GHz                      (41.80%)
    35.026782388      1,161,485,241      instructions:u            #    0.60  insn per cycle           (50.11%)
    35.026782388      6,709,675,474      instructions:k            #    0.76  insn per cycle           (50.12%)
    36.094047287                520      LLC-load-misses           #   41.07% of all LL-cache accesses  (50.52%)
    36.094047287             38,435      LLC-load-misses           #   27.63% of all LL-cache accesses  (50.52%)
    36.094047287              1,266      LLC-loads                 #    1.186 K/sec                    (50.53%)
    36.094047287            139,115      LLC-loads                 #  130.353 K/sec                    (41.55%)
    36.094047287                  0      LLC-store-misses          #    0.000 /sec                     (24.74%)
    36.094047287             44,002      LLC-store-misses          #   41.231 K/sec                    (32.99%)
    36.094047287                  0      LLC-stores                #    0.000 /sec                     (24.73%)
    36.094047287             56,457      LLC-stores                #   52.901 K/sec                    (32.98%)
    36.094047287           1,067.22 msec task-clock                #    0.213 CPUs utilized          
    36.094047287                  0      cycles:u                  #    0.000 GHz                      (41.23%)
    36.094047287         27,908,987      cycles:k                  #    0.026 GHz                      (41.59%)
    36.094047287            338,457      instructions:u                                                (50.20%)
    36.094047287          3,407,021      instructions:k            #    0.12  insn per cycle           (50.52%)
