# started on Sun Apr  2 10:23:22 2023

#           time             counts unit events
     5.004918496          1,260,165      LLC-load-misses           #   46.58% of all LL-cache accesses  (49.88%)
     5.004918496          5,234,551      LLC-load-misses           #   36.06% of all LL-cache accesses  (49.97%)
     5.004918496          2,705,190      LLC-loads                 #  540.515 K/sec                    (50.05%)
     5.004918496         14,517,032      LLC-loads                 #    2.901 M/sec                    (41.82%)
     5.004918496            153,623      LLC-store-misses          #   30.695 K/sec                    (25.10%)
     5.004918496          2,852,664      LLC-store-misses          #  569.981 K/sec                    (33.41%)
     5.004918496            675,861      LLC-stores                #  135.041 K/sec                    (24.94%)
     5.004918496          7,530,018      LLC-stores                #    1.505 M/sec                    (33.25%)
     5.004918496           5,004.84 msec task-clock                #    1.001 CPUs utilized          
     5.004918496        548,858,603      cycles:u                  #    0.110 GHz                      (41.56%)
     5.004918496      3,120,918,894      cycles:k                  #    0.624 GHz                      (41.55%)
     5.004918496        317,176,647      instructions:u            #    0.58  insn per cycle           (49.86%)
     5.004918496      2,637,642,577      instructions:k            #    0.85  insn per cycle           (49.86%)
    10.008919341          5,832,165      LLC-load-misses           #   49.12% of all LL-cache accesses  (49.88%)
    10.008919341         21,760,385      LLC-load-misses           #   38.08% of all LL-cache accesses  (49.88%)
    10.008919341         11,874,385      LLC-loads                 #    2.373 M/sec                    (49.88%)
    10.008919341         57,146,558      LLC-loads                 #   11.421 M/sec                    (41.57%)
    10.008919341            665,500      LLC-store-misses          #  132.998 K/sec                    (25.02%)
    10.008919341         10,969,846      LLC-store-misses          #    2.192 M/sec                    (33.41%)
    10.008919341          2,965,608      LLC-stores                #  592.666 K/sec                    (25.18%)
    10.008919341         27,691,550      LLC-stores                #    5.534 M/sec                    (33.49%)
    10.008919341           5,003.84 msec task-clock                #    1.001 CPUs utilized          
    10.008919341      2,423,954,345      cycles:u                  #    0.484 GHz                      (41.81%)
    10.008919341     11,020,398,952      cycles:k                  #    2.202 GHz                      (41.73%)
    10.008919341      1,378,241,830      instructions:u            #    0.57  insn per cycle           (50.04%)
    10.008919341      7,934,442,059      instructions:k            #    0.72  insn per cycle           (49.96%)
    15.012916610          5,824,590      LLC-load-misses           #   49.11% of all LL-cache accesses  (50.12%)
    15.012916610         21,700,460      LLC-load-misses           #   37.91% of all LL-cache accesses  (50.04%)
    15.012916610         11,859,666      LLC-loads                 #    2.370 M/sec                    (49.96%)
    15.012916610         57,237,521      LLC-loads                 #   11.439 M/sec                    (41.57%)
    15.012916610            664,573      LLC-store-misses          #  132.813 K/sec                    (24.94%)
    15.012916610         10,956,074      LLC-store-misses          #    2.190 M/sec                    (33.26%)
    15.012916610          2,966,441      LLC-stores                #  592.833 K/sec                    (24.94%)
    15.012916610         27,709,051      LLC-stores                #    5.538 M/sec                    (33.33%)
    15.012916610           5,003.84 msec task-clock                #    1.001 CPUs utilized          
    15.012916610      2,421,124,505      cycles:u                  #    0.484 GHz                      (41.73%)
    15.012916610     11,021,361,417      cycles:k                  #    2.203 GHz                      (41.80%)
    15.012916610      1,376,499,333      instructions:u            #    0.57  insn per cycle           (50.12%)
    15.012916610      7,940,037,841      instructions:k            #    0.72  insn per cycle           (50.12%)
    20.016920082          5,812,330      LLC-load-misses           #   49.04% of all LL-cache accesses  (50.12%)
    20.016920082         21,629,512      LLC-load-misses           #   37.77% of all LL-cache accesses  (50.12%)
    20.016920082         11,851,443      LLC-loads                 #    2.368 M/sec                    (50.12%)
    20.016920082         57,262,358      LLC-loads                 #   11.444 M/sec                    (41.73%)
    20.016920082            665,361      LLC-store-misses          #  132.970 K/sec                    (24.94%)
    20.016920082         10,927,126      LLC-store-misses          #    2.184 M/sec                    (33.26%)
    20.016920082          2,960,163      LLC-stores                #  591.578 K/sec                    (24.94%)
    20.016920082         27,633,436      LLC-stores                #    5.522 M/sec                    (33.25%)
    20.016920082           5,003.85 msec task-clock                #    1.001 CPUs utilized          
    20.016920082      2,418,212,731      cycles:u                  #    0.483 GHz                      (41.57%)
    20.016920082     11,026,131,798      cycles:k                  #    2.204 GHz                      (41.56%)
    20.016920082      1,374,171,599      instructions:u            #    0.57  insn per cycle           (49.95%)
    20.016920082      7,931,281,700      instructions:k            #    0.72  insn per cycle           (50.03%)
    25.020924402          5,815,773      LLC-load-misses           #   49.24% of all LL-cache accesses  (49.88%)
    25.020924402         21,643,166      LLC-load-misses           #   37.83% of all LL-cache accesses  (49.96%)
    25.020924402         11,809,918      LLC-loads                 #    2.360 M/sec                    (50.04%)
    25.020924402         57,204,141      LLC-loads                 #   11.432 M/sec                    (41.81%)
    25.020924402            663,358      LLC-store-misses          #  132.570 K/sec                    (25.10%)
    25.020924402         10,921,105      LLC-store-misses          #    2.183 M/sec                    (33.42%)
    25.020924402          2,963,238      LLC-stores                #  592.192 K/sec                    (24.94%)
    25.020924402         27,642,960      LLC-stores                #    5.524 M/sec                    (33.26%)
    25.020924402           5,003.84 msec task-clock                #    1.001 CPUs utilized          
    25.020924402      2,425,288,666      cycles:u                  #    0.485 GHz                      (41.57%)
    25.020924402     11,017,642,053      cycles:k                  #    2.202 GHz                      (41.56%)
    25.020924402      1,373,165,339      instructions:u            #    0.57  insn per cycle           (49.88%)
    25.020924402      7,922,915,092      instructions:k            #    0.72  insn per cycle           (49.88%)
    30.024922787          5,807,476      LLC-load-misses           #   49.12% of all LL-cache accesses  (49.88%)
    30.024922787         21,630,342      LLC-load-misses           #   37.83% of all LL-cache accesses  (49.88%)
    30.024922787         11,822,188      LLC-loads                 #    2.363 M/sec                    (49.88%)
    30.024922787         57,183,758      LLC-loads                 #   11.428 M/sec                    (41.57%)
    30.024922787            665,339      LLC-store-misses          #  132.966 K/sec                    (25.02%)
    30.024922787         10,905,205      LLC-store-misses          #    2.179 M/sec                    (33.41%)
    30.024922787          2,968,648      LLC-stores                #  593.273 K/sec                    (25.18%)
    30.024922787         27,656,122      LLC-stores                #    5.527 M/sec                    (33.49%)
    30.024922787           5,003.85 msec task-clock                #    1.001 CPUs utilized          
    30.024922787      2,421,899,727      cycles:u                  #    0.484 GHz                      (41.81%)
    30.024922787     11,023,076,494      cycles:k                  #    2.203 GHz                      (41.73%)
    30.024922787      1,372,896,534      instructions:u            #    0.57  insn per cycle           (50.04%)
    30.024922787      7,921,990,362      instructions:k            #    0.72  insn per cycle           (49.96%)
    35.028947144          4,627,533      LLC-load-misses           #   48.03% of all LL-cache accesses  (50.12%)
    35.028947144         17,560,046      LLC-load-misses           #   38.06% of all LL-cache accesses  (50.04%)
    35.028947144          9,635,219      LLC-loads                 #    1.926 M/sec                    (49.96%)
    35.028947144         46,142,964      LLC-loads                 #    9.222 M/sec                    (41.57%)
    35.028947144            592,766      LLC-store-misses          #  118.462 K/sec                    (24.94%)
    35.028947144          8,762,443      LLC-store-misses          #    1.751 M/sec                    (33.26%)
    35.028947144          2,448,842      LLC-stores                #  489.392 K/sec                    (24.94%)
    35.028947144         22,227,466      LLC-stores                #    4.442 M/sec                    (33.33%)
    35.028947144           5,003.84 msec task-clock                #    1.001 CPUs utilized          
    35.028947144      1,939,861,896      cycles:u                  #    0.388 GHz                      (41.72%)
    35.028947144      8,973,552,873      cycles:k                  #    1.793 GHz                      (41.80%)
    35.028947144      1,092,241,818      instructions:u            #    0.56  insn per cycle           (50.12%)
    35.028947144      6,512,518,890      instructions:k            #    0.73  insn per cycle           (50.12%)
    36.090158952                537      LLC-load-misses           #   40.90% of all LL-cache accesses  (50.23%)
    36.090158952             37,459      LLC-load-misses           #   27.41% of all LL-cache accesses  (50.24%)
    36.090158952              1,313      LLC-loads                 #    1.237 K/sec                    (50.25%)
    36.090158952            136,665      LLC-loads                 #  128.788 K/sec                    (41.59%)
    36.090158952                 36      LLC-store-misses          #   33.925 /sec                     (24.89%)
    36.090158952             43,398      LLC-store-misses          #   40.897 K/sec                    (33.18%)
    36.090158952                  0      LLC-stores                #    0.000 /sec                     (24.88%)
    36.090158952             56,200      LLC-stores                #   52.961 K/sec                    (33.17%)
    36.090158952           1,061.16 msec task-clock                #    0.212 CPUs utilized          
    36.090158952                  0      cycles:u                  #    0.000 GHz                      (41.46%)
    36.090158952         27,559,268      cycles:k                  #    0.026 GHz                      (41.45%)
    36.090158952            336,221      instructions:u                                                (50.12%)
    36.090158952          3,202,391      instructions:k            #    0.12  insn per cycle           (50.23%)
