# started on Sun Apr  2 11:37:08 2023

#           time             counts unit events
     5.004493841            734,859      LLC-load-misses           #   22.82% of all LL-cache accesses  (49.89%)
     5.004493841          2,032,487      LLC-load-misses           #   13.73% of all LL-cache accesses  (49.97%)
     5.004493841          3,220,490      LLC-loads                 #  643.526 K/sec                    (50.06%)
     5.004493841         14,804,048      LLC-loads                 #    2.958 M/sec                    (41.82%)
     5.004493841             33,345      LLC-store-misses          #    6.663 K/sec                    (25.09%)
     5.004493841            621,966      LLC-store-misses          #  124.283 K/sec                    (33.40%)
     5.004493841            891,549      LLC-stores                #  178.151 K/sec                    (24.94%)
     5.004493841          7,318,751      LLC-stores                #    1.462 M/sec                    (33.25%)
     5.004493841           5,004.44 msec task-clock                #    1.001 CPUs utilized          
     5.004493841        561,474,814      cycles:u                  #    0.112 GHz                      (41.56%)
     5.004493841      2,786,217,251      cycles:k                  #    0.557 GHz                      (41.56%)
     5.004493841        378,814,877      instructions:u            #    0.67  insn per cycle           (49.87%)
     5.004493841      2,360,869,630      instructions:k            #    0.85  insn per cycle           (49.87%)
    10.009264217          3,320,369      LLC-load-misses           #   23.90% of all LL-cache accesses  (49.87%)
    10.009264217          8,213,310      LLC-load-misses           #   13.04% of all LL-cache accesses  (49.87%)
    10.009264217         13,890,311      LLC-loads                 #    2.776 M/sec                    (49.87%)
    10.009264217         63,005,963      LLC-loads                 #   12.590 M/sec                    (41.58%)
    10.009264217            126,333      LLC-store-misses          #   25.243 K/sec                    (25.03%)
    10.009264217          2,003,007      LLC-store-misses          #  400.235 K/sec                    (33.42%)
    10.009264217          4,088,957      LLC-stores                #  817.043 K/sec                    (25.18%)
    10.009264217         30,972,234      LLC-stores                #    6.189 M/sec                    (33.49%)
    10.009264217           5,004.58 msec task-clock                #    1.001 CPUs utilized          
    10.009264217      2,474,777,510      cycles:u                  #    0.495 GHz                      (41.80%)
    10.009264217     10,970,985,238      cycles:k                  #    2.192 GHz                      (41.72%)
    10.009264217      1,626,238,095      instructions:u            #    0.66  insn per cycle           (50.03%)
    10.009264217      9,179,167,280      instructions:k            #    0.84  insn per cycle           (49.95%)
    15.013249756          3,317,102      LLC-load-misses           #   23.97% of all LL-cache accesses  (50.12%)
    15.013249756          8,209,686      LLC-load-misses           #   12.99% of all LL-cache accesses  (50.04%)
    15.013249756         13,840,699      LLC-loads                 #    2.766 M/sec                    (49.96%)
    15.013249756         63,190,445      LLC-loads                 #   12.628 M/sec                    (41.57%)
    15.013249756            103,693      LLC-store-misses          #   20.723 K/sec                    (24.94%)
    15.013249756          1,896,929      LLC-store-misses          #  379.095 K/sec                    (33.26%)
    15.013249756          4,065,619      LLC-stores                #  812.500 K/sec                    (24.94%)
    15.013249756         30,950,767      LLC-stores                #    6.185 M/sec                    (33.33%)
    15.013249756           5,003.84 msec task-clock                #    1.001 CPUs utilized          
    15.013249756      2,472,974,350      cycles:u                  #    0.494 GHz                      (41.72%)
    15.013249756     10,968,762,451      cycles:k                  #    2.192 GHz                      (41.80%)
    15.013249756      1,626,940,593      instructions:u            #    0.66  insn per cycle           (50.12%)
    15.013249756      9,159,927,011      instructions:k            #    0.84  insn per cycle           (50.12%)
    20.017245497          3,325,679      LLC-load-misses           #   23.96% of all LL-cache accesses  (50.12%)
    20.017245497          8,275,460      LLC-load-misses           #   13.12% of all LL-cache accesses  (50.12%)
    20.017245497         13,879,203      LLC-loads                 #    2.774 M/sec                    (50.12%)
    20.017245497         63,092,819      LLC-loads                 #   12.609 M/sec                    (41.73%)
    20.017245497            125,145      LLC-store-misses          #   25.010 K/sec                    (24.94%)
    20.017245497          1,968,817      LLC-store-misses          #  393.462 K/sec                    (33.26%)
    20.017245497          4,073,426      LLC-stores                #  814.062 K/sec                    (24.94%)
    20.017245497         30,649,840      LLC-stores                #    6.125 M/sec                    (33.25%)
    20.017245497           5,003.83 msec task-clock                #    1.001 CPUs utilized          
    20.017245497      2,476,026,799      cycles:u                  #    0.495 GHz                      (41.57%)
    20.017245497     10,967,580,481      cycles:k                  #    2.192 GHz                      (41.56%)
    20.017245497      1,624,984,396      instructions:u            #    0.66  insn per cycle           (49.95%)
    20.017245497      9,131,546,394      instructions:k            #    0.83  insn per cycle           (50.03%)
    25.021265047          3,393,430      LLC-load-misses           #   23.34% of all LL-cache accesses  (49.88%)
    25.021265047          8,342,595      LLC-load-misses           #   13.25% of all LL-cache accesses  (49.96%)
    25.021265047         14,538,430      LLC-loads                 #    2.905 M/sec                    (50.04%)
    25.021265047         62,939,753      LLC-loads                 #   12.578 M/sec                    (41.81%)
    25.021265047            388,526      LLC-store-misses          #   77.645 K/sec                    (25.11%)
    25.021265047          2,027,567      LLC-store-misses          #  405.200 K/sec                    (33.42%)
    25.021265047          4,465,376      LLC-stores                #  892.386 K/sec                    (24.94%)
    25.021265047         30,486,951      LLC-stores                #    6.093 M/sec                    (33.26%)
    25.021265047           5,003.86 msec task-clock                #    1.001 CPUs utilized          
    25.021265047      2,556,879,704      cycles:u                  #    0.511 GHz                      (41.57%)
    25.021265047     10,885,017,622      cycles:k                  #    2.175 GHz                      (41.56%)
    25.021265047      1,639,404,761      instructions:u            #    0.64  insn per cycle           (49.88%)
    25.021265047      9,047,177,855      instructions:k            #    0.83  insn per cycle           (49.88%)
    30.025252377          3,413,363      LLC-load-misses           #   23.26% of all LL-cache accesses  (49.88%)
    30.025252377          8,297,303      LLC-load-misses           #   13.23% of all LL-cache accesses  (49.88%)
    30.025252377         14,676,527      LLC-loads                 #    2.933 M/sec                    (49.88%)
    30.025252377         62,705,307      LLC-loads                 #   12.531 M/sec                    (41.57%)
    30.025252377            472,701      LLC-store-misses          #   94.468 K/sec                    (25.02%)
    30.025252377          2,057,713      LLC-store-misses          #  411.228 K/sec                    (33.41%)
    30.025252377          4,547,765      LLC-stores                #  908.857 K/sec                    (25.18%)
    30.025252377         30,359,550      LLC-stores                #    6.067 M/sec                    (33.49%)
    30.025252377           5,003.83 msec task-clock                #    1.001 CPUs utilized          
    30.025252377      2,583,553,182      cycles:u                  #    0.516 GHz                      (41.81%)
    30.025252377     10,860,032,165      cycles:k                  #    2.170 GHz                      (41.73%)
    30.025252377      1,643,741,371      instructions:u            #    0.64  insn per cycle           (50.04%)
    30.025252377      9,020,674,131      instructions:k            #    0.83  insn per cycle           (49.96%)
    35.029261648          2,682,549      LLC-load-misses           #   23.11% of all LL-cache accesses  (50.12%)
    35.029261648          6,598,355      LLC-load-misses           #   13.20% of all LL-cache accesses  (50.04%)
    35.029261648         11,608,340      LLC-loads                 #    2.320 M/sec                    (49.96%)
    35.029261648         49,987,636      LLC-loads                 #    9.990 M/sec                    (41.57%)
    35.029261648            339,836      LLC-store-misses          #   67.915 K/sec                    (24.94%)
    35.029261648          1,772,745      LLC-store-misses          #  354.278 K/sec                    (33.26%)
    35.029261648          3,546,952      LLC-stores                #  708.848 K/sec                    (24.94%)
    35.029261648         24,365,793      LLC-stores                #    4.869 M/sec                    (33.33%)
    35.029261648           5,003.82 msec task-clock                #    1.001 CPUs utilized          
    35.029261648      2,033,055,191      cycles:u                  #    0.406 GHz                      (41.72%)
    35.029261648      8,663,699,507      cycles:k                  #    1.731 GHz                      (41.80%)
    35.029261648      1,303,425,991      instructions:u            #    0.64  insn per cycle           (50.12%)
    35.029261648      7,259,292,619      instructions:k            #    0.84  insn per cycle           (50.12%)
    36.094905127                759      LLC-load-misses           #    0.81% of all LL-cache accesses  (50.45%)
    36.094905127             42,957      LLC-load-misses           #   18.17% of all LL-cache accesses  (50.45%)
    36.094905127             94,258      LLC-loads                 #   88.456 K/sec                    (50.45%)
    36.094905127            236,464      LLC-loads                 #  221.908 K/sec                    (41.83%)
    36.094905127                  0      LLC-store-misses          #    0.000 /sec                     (24.78%)
    36.094905127             44,906      LLC-store-misses          #   42.142 K/sec                    (33.04%)
    36.094905127              7,628      LLC-stores                #    7.158 K/sec                    (24.78%)
    36.094905127            119,041      LLC-stores                #  111.713 K/sec                    (33.03%)
    36.094905127           1,065.60 msec task-clock                #    0.213 CPUs utilized          
    36.094905127         12,634,920      cycles:u                  #    0.012 GHz                      (41.29%)
    36.094905127         42,016,166      cycles:k                  #    0.039 GHz                      (41.29%)
    36.094905127         20,376,012      instructions:u            #    1.61  insn per cycle           (49.91%)
    36.094905127         24,938,225      instructions:k            #    0.59  insn per cycle           (50.29%)
