# started on Sun Apr  2 11:21:15 2023

#           time             counts unit events
     5.005029669          1,211,563      LLC-load-misses           #   44.87% of all LL-cache accesses  (49.90%)
     5.005029669          4,913,874      LLC-load-misses           #   38.84% of all LL-cache accesses  (49.98%)
     5.005029669          2,700,263      LLC-loads                 #  539.515 K/sec                    (50.06%)
     5.005029669         12,650,623      LLC-loads                 #    2.528 M/sec                    (41.82%)
     5.005029669            307,292      LLC-store-misses          #   61.397 K/sec                    (25.09%)
     5.005029669          2,924,592      LLC-store-misses          #  584.336 K/sec                    (33.40%)
     5.005029669            871,111      LLC-stores                #  174.049 K/sec                    (24.93%)
     5.005029669          6,386,010      LLC-stores                #    1.276 M/sec                    (33.25%)
     5.005029669           5,004.98 msec task-clock                #    1.001 CPUs utilized          
     5.005029669        578,392,295      cycles:u                  #    0.116 GHz                      (41.56%)
     5.005029669      2,913,261,035      cycles:k                  #    0.582 GHz                      (41.55%)
     5.005029669        302,124,022      instructions:u            #    0.52  insn per cycle           (49.86%)
     5.005029669      2,317,219,049      instructions:k            #    0.80  insn per cycle           (49.86%)
    10.009781342          5,829,630      LLC-load-misses           #   47.67% of all LL-cache accesses  (49.87%)
    10.009781342         22,715,874      LLC-load-misses           #   42.47% of all LL-cache accesses  (49.87%)
    10.009781342         12,228,195      LLC-loads                 #    2.443 M/sec                    (49.87%)
    10.009781342         53,489,139      LLC-loads                 #   10.688 M/sec                    (41.58%)
    10.009781342          1,262,124      LLC-store-misses          #  252.194 K/sec                    (25.03%)
    10.009781342         11,192,126      LLC-store-misses          #    2.236 M/sec                    (33.42%)
    10.009781342          4,453,916      LLC-stores                #  889.969 K/sec                    (25.18%)
    10.009781342         25,545,589      LLC-stores                #    5.104 M/sec                    (33.49%)
    10.009781342           5,004.57 msec task-clock                #    1.001 CPUs utilized          
    10.009781342      2,658,360,342      cycles:u                  #    0.531 GHz                      (41.80%)
    10.009781342     10,785,809,628      cycles:k                  #    2.155 GHz                      (41.72%)
    10.009781342      1,327,822,999      instructions:u            #    0.50  insn per cycle           (50.03%)
    10.009781342      7,268,916,911      instructions:k            #    0.67  insn per cycle           (49.95%)
    15.013775232          5,764,953      LLC-load-misses           #   48.53% of all LL-cache accesses  (50.12%)
    15.013775232         22,658,415      LLC-load-misses           #   42.22% of all LL-cache accesses  (50.04%)
    15.013775232         11,879,092      LLC-loads                 #    2.374 M/sec                    (49.96%)
    15.013775232         53,664,020      LLC-loads                 #   10.725 M/sec                    (41.57%)
    15.013775232          1,044,853      LLC-store-misses          #  208.811 K/sec                    (24.94%)
    15.013775232         11,193,468      LLC-store-misses          #    2.237 M/sec                    (33.26%)
    15.013775232          3,542,685      LLC-stores                #  707.995 K/sec                    (24.94%)
    15.013775232         25,558,515      LLC-stores                #    5.108 M/sec                    (33.33%)
    15.013775232           5,003.82 msec task-clock                #    1.001 CPUs utilized          
    15.013775232      2,607,703,587      cycles:u                  #    0.521 GHz                      (41.72%)
    15.013775232     10,838,366,796      cycles:k                  #    2.166 GHz                      (41.80%)
    15.013775232      1,306,502,466      instructions:u            #    0.50  insn per cycle           (50.12%)
    15.013775232      7,295,711,062      instructions:k            #    0.67  insn per cycle           (50.12%)
    20.017780735          5,714,573      LLC-load-misses           #   49.06% of all LL-cache accesses  (50.12%)
    20.017780735         22,641,147      LLC-load-misses           #   42.15% of all LL-cache accesses  (50.12%)
    20.017780735         11,648,743      LLC-loads                 #    2.328 M/sec                    (50.12%)
    20.017780735         53,718,353      LLC-loads                 #   10.735 M/sec                    (41.73%)
    20.017780735            905,397      LLC-store-misses          #  180.940 K/sec                    (24.94%)
    20.017780735         11,185,882      LLC-store-misses          #    2.235 M/sec                    (33.26%)
    20.017780735          3,300,086      LLC-stores                #  659.508 K/sec                    (24.94%)
    20.017780735         25,592,649      LLC-stores                #    5.115 M/sec                    (33.25%)
    20.017780735           5,003.86 msec task-clock                #    1.001 CPUs utilized          
    20.017780735      2,563,007,279      cycles:u                  #    0.512 GHz                      (41.57%)
    20.017780735     10,882,935,574      cycles:k                  #    2.175 GHz                      (41.56%)
    20.017780735      1,291,461,304      instructions:u            #    0.50  insn per cycle           (49.95%)
    20.017780735      7,309,863,372      instructions:k            #    0.67  insn per cycle           (50.03%)
    25.021778935          5,698,660      LLC-load-misses           #   49.48% of all LL-cache accesses  (49.88%)
    25.021778935         22,681,702      LLC-load-misses           #   42.12% of all LL-cache accesses  (49.96%)
    25.021778935         11,516,543      LLC-loads                 #    2.302 M/sec                    (50.04%)
    25.021778935         53,847,526      LLC-loads                 #   10.761 M/sec                    (41.81%)
    25.021778935            814,658      LLC-store-misses          #  162.807 K/sec                    (25.10%)
    25.021778935         11,192,453      LLC-store-misses          #    2.237 M/sec                    (33.42%)
    25.021778935          3,228,839      LLC-stores                #  645.273 K/sec                    (24.94%)
    25.021778935         25,646,911      LLC-stores                #    5.125 M/sec                    (33.26%)
    25.021778935           5,003.84 msec task-clock                #    1.001 CPUs utilized          
    25.021778935      2,541,751,157      cycles:u                  #    0.508 GHz                      (41.57%)
    25.021778935     10,903,450,608      cycles:k                  #    2.179 GHz                      (41.56%)
    25.021778935      1,285,864,140      instructions:u            #    0.51  insn per cycle           (49.88%)
    25.021778935      7,337,064,445      instructions:k            #    0.67  insn per cycle           (49.88%)
    30.025779100          5,682,412      LLC-load-misses           #   49.95% of all LL-cache accesses  (49.88%)
    30.025779100         22,672,638      LLC-load-misses           #   42.08% of all LL-cache accesses  (49.88%)
    30.025779100         11,376,854      LLC-loads                 #    2.274 M/sec                    (49.88%)
    30.025779100         53,881,066      LLC-loads                 #   10.768 M/sec                    (41.57%)
    30.025779100            757,163      LLC-store-misses          #  151.316 K/sec                    (25.02%)
    30.025779100         11,222,147      LLC-store-misses          #    2.243 M/sec                    (33.41%)
    30.025779100          3,087,167      LLC-stores                #  616.960 K/sec                    (25.18%)
    30.025779100         25,700,717      LLC-stores                #    5.136 M/sec                    (33.49%)
    30.025779100           5,003.84 msec task-clock                #    1.001 CPUs utilized          
    30.025779100      2,522,128,249      cycles:u                  #    0.504 GHz                      (41.80%)
    30.025779100     10,923,825,950      cycles:k                  #    2.183 GHz                      (41.73%)
    30.025779100      1,281,431,046      instructions:u            #    0.51  insn per cycle           (50.04%)
    30.025779100      7,349,614,606      instructions:k            #    0.67  insn per cycle           (49.96%)
    35.029805217          4,538,474      LLC-load-misses           #   50.08% of all LL-cache accesses  (50.12%)
    35.029805217         18,450,206      LLC-load-misses           #   41.90% of all LL-cache accesses  (50.04%)
    35.029805217          9,062,901      LLC-loads                 #    1.811 M/sec                    (49.96%)
    35.029805217         44,032,835      LLC-loads                 #    8.800 M/sec                    (41.57%)
    35.029805217            574,078      LLC-store-misses          #  114.727 K/sec                    (24.94%)
    35.029805217          9,129,685      LLC-store-misses          #    1.825 M/sec                    (33.26%)
    35.029805217          2,399,213      LLC-stores                #  479.474 K/sec                    (24.94%)
    35.029805217         20,864,230      LLC-stores                #    4.170 M/sec                    (33.33%)
    35.029805217           5,003.85 msec task-clock                #    1.001 CPUs utilized          
    35.029805217      1,998,016,093      cycles:u                  #    0.399 GHz                      (41.72%)
    35.029805217      9,053,672,621      cycles:k                  #    1.809 GHz                      (41.80%)
    35.029805217      1,017,890,489      instructions:u            #    0.51  insn per cycle           (50.12%)
    35.029805217      6,408,827,311      instructions:k            #    0.71  insn per cycle           (50.11%)
    36.038051532              3,963      LLC-load-misses           #   48.81% of all LL-cache accesses  (50.00%)
    36.038051532             36,074      LLC-load-misses           #   26.96% of all LL-cache accesses  (50.01%)
    36.038051532              8,120      LLC-loads                 #    8.054 K/sec                    (50.01%)
    36.038051532            133,793      LLC-loads                 #  132.705 K/sec                    (41.66%)
    36.038051532                  0      LLC-store-misses          #    0.000 /sec                     (25.00%)
    36.038051532             41,239      LLC-store-misses          #   40.904 K/sec                    (33.33%)
    36.038051532                  0      LLC-stores                #    0.000 /sec                     (24.99%)
    36.038051532             53,215      LLC-stores                #   52.782 K/sec                    (33.32%)
    36.038051532           1,008.20 msec task-clock                #    0.202 CPUs utilized          
    36.038051532                  0      cycles:u                  #    0.000 GHz                      (41.65%)
    36.038051532         26,822,796      cycles:k                  #    0.027 GHz                      (41.65%)
    36.038051532          1,893,088      instructions:u                                                (50.00%)
    36.038051532          2,999,491      instructions:k            #    0.11  insn per cycle           (50.00%)
