# started on Fri Mar 31 08:52:04 2023

#           time             counts unit events
     5.004876793          1,091,507      LLC-load-misses           #   37.37% of all LL-cache accesses  (49.87%)
     5.004876793          3,968,810      LLC-load-misses           #   29.53% of all LL-cache accesses  (49.95%)
     5.004876793          2,920,678      LLC-loads                 #  583.578 K/sec                    (50.03%)
     5.004876793         13,440,258      LLC-loads                 #    2.685 M/sec                    (41.80%)
     5.004876793            158,910      LLC-store-misses          #   31.752 K/sec                    (25.12%)
     5.004876793          2,107,200      LLC-store-misses          #  421.038 K/sec                    (33.43%)
     5.004876793          1,072,348      LLC-stores                #  214.265 K/sec                    (24.95%)
     5.004876793          6,847,837      LLC-stores                #    1.368 M/sec                    (33.26%)
     5.004876793           5,004.78 msec task-clock                #    1.001 CPUs utilized          
     5.004876793        562,318,844      cycles:u                  #    0.112 GHz                      (41.57%)
     5.004876793      2,870,339,226      cycles:k                  #    0.574 GHz                      (41.55%)
     5.004876793        316,784,688      instructions:u            #    0.56  insn per cycle           (49.87%)
     5.004876793      2,381,803,900      instructions:k            #    0.83  insn per cycle           (49.86%)
    10.008887629          5,045,486      LLC-load-misses           #   38.31% of all LL-cache accesses  (49.89%)
    10.008887629         17,430,622      LLC-load-misses           #   30.25% of all LL-cache accesses  (49.88%)
    10.008887629         13,168,770      LLC-loads                 #    2.632 M/sec                    (49.88%)
    10.008887629         57,624,394      LLC-loads                 #   11.516 M/sec                    (41.57%)
    10.008887629            615,528      LLC-store-misses          #  123.011 K/sec                    (25.01%)
    10.008887629          7,946,777      LLC-store-misses          #    1.588 M/sec                    (33.40%)
    10.008887629          4,945,908      LLC-stores                #  988.420 K/sec                    (25.16%)
    10.008887629         27,552,340      LLC-stores                #    5.506 M/sec                    (33.49%)
    10.008887629           5,003.85 msec task-clock                #    1.001 CPUs utilized          
    10.008887629      2,578,650,676      cycles:u                  #    0.515 GHz                      (41.81%)
    10.008887629     10,865,307,761      cycles:k                  #    2.171 GHz                      (41.74%)
    10.008887629      1,462,716,808      instructions:u            #    0.57  insn per cycle           (50.05%)
    10.008887629      8,119,965,683      instructions:k            #    0.75  insn per cycle           (49.97%)
    15.012883043          5,008,135      LLC-load-misses           #   38.62% of all LL-cache accesses  (50.12%)
    15.012883043         17,439,391      LLC-load-misses           #   30.06% of all LL-cache accesses  (50.06%)
    15.012883043         12,966,843      LLC-loads                 #    2.591 M/sec                    (49.98%)
    15.012883043         58,018,050      LLC-loads                 #   11.595 M/sec                    (41.57%)
    15.012883043            495,143      LLC-store-misses          #   98.954 K/sec                    (24.94%)
    15.012883043          7,845,649      LLC-store-misses          #    1.568 M/sec                    (33.26%)
    15.012883043          4,772,815      LLC-stores                #  953.844 K/sec                    (24.94%)
    15.012883043         27,523,339      LLC-stores                #    5.501 M/sec                    (33.32%)
    15.012883043           5,003.77 msec task-clock                #    1.001 CPUs utilized          
    15.012883043      2,547,230,004      cycles:u                  #    0.509 GHz                      (41.71%)
    15.012883043     10,894,543,255      cycles:k                  #    2.177 GHz                      (41.79%)
    15.012883043      1,454,940,538      instructions:u            #    0.57  insn per cycle           (50.12%)
    15.012883043      8,139,362,225      instructions:k            #    0.75  insn per cycle           (50.12%)
    20.016878450          5,003,501      LLC-load-misses           #   38.96% of all LL-cache accesses  (50.10%)
    20.016878450         17,576,248      LLC-load-misses           #   30.13% of all LL-cache accesses  (50.12%)
    20.016878450         12,841,790      LLC-loads                 #    2.566 M/sec                    (50.12%)
    20.016878450         58,341,959      LLC-loads                 #   11.660 M/sec                    (41.75%)
    20.016878450            428,057      LLC-store-misses          #   85.546 K/sec                    (24.94%)
    20.016878450          7,894,072      LLC-store-misses          #    1.578 M/sec                    (33.26%)
    20.016878450          4,684,792      LLC-stores                #  936.247 K/sec                    (24.94%)
    20.016878450         27,595,735      LLC-stores                #    5.515 M/sec                    (33.25%)
    20.016878450           5,003.80 msec task-clock                #    1.001 CPUs utilized          
    20.016878450      2,535,536,614      cycles:u                  #    0.507 GHz                      (41.57%)
    20.016878450     10,909,006,371      cycles:k                  #    2.180 GHz                      (41.56%)
    20.016878450      1,455,600,406      instructions:u            #    0.57  insn per cycle           (49.94%)
    20.016878450      8,168,616,716      instructions:k            #    0.75  insn per cycle           (50.02%)
    25.020878541          4,986,801      LLC-load-misses           #   39.02% of all LL-cache accesses  (49.88%)
    25.020878541         17,503,698      LLC-load-misses           #   29.98% of all LL-cache accesses  (49.94%)
    25.020878541         12,781,464      LLC-loads                 #    2.554 M/sec                    (50.02%)
    25.020878541         58,379,275      LLC-loads                 #   11.667 M/sec                    (41.79%)
    25.020878541            399,321      LLC-store-misses          #   79.803 K/sec                    (25.12%)
    25.020878541          7,837,342      LLC-store-misses          #    1.566 M/sec                    (33.43%)
    25.020878541          4,635,748      LLC-stores                #  926.443 K/sec                    (24.96%)
    25.020878541         27,620,090      LLC-stores                #    5.520 M/sec                    (33.27%)
    25.020878541           5,003.81 msec task-clock                #    1.001 CPUs utilized          
    25.020878541      2,520,185,303      cycles:u                  #    0.504 GHz                      (41.58%)
    25.020878541     10,922,987,496      cycles:k                  #    2.183 GHz                      (41.56%)
    25.020878541      1,454,608,137      instructions:u            #    0.58  insn per cycle           (49.88%)
    25.020878541      8,176,488,522      instructions:k            #    0.75  insn per cycle           (49.88%)
    30.024879138          4,977,507      LLC-load-misses           #   39.12% of all LL-cache accesses  (49.89%)
    30.024879138         17,499,469      LLC-load-misses           #   29.99% of all LL-cache accesses  (49.88%)
    30.024879138         12,723,476      LLC-loads                 #    2.543 M/sec                    (49.88%)
    30.024879138         58,342,118      LLC-loads                 #   11.660 M/sec                    (41.57%)
    30.024879138            379,052      LLC-store-misses          #   75.752 K/sec                    (25.01%)
    30.024879138          7,833,719      LLC-store-misses          #    1.566 M/sec                    (33.40%)
    30.024879138          4,598,878      LLC-stores                #  919.072 K/sec                    (25.16%)
    30.024879138         27,623,374      LLC-stores                #    5.520 M/sec                    (33.49%)
    30.024879138           5,003.83 msec task-clock                #    1.001 CPUs utilized          
    30.024879138      2,516,045,918      cycles:u                  #    0.503 GHz                      (41.81%)
    30.024879138     10,928,288,104      cycles:k                  #    2.184 GHz                      (41.74%)
    30.024879138      1,453,357,277      instructions:u            #    0.58  insn per cycle           (50.05%)
    30.024879138      8,183,646,861      instructions:k            #    0.75  insn per cycle           (49.97%)
    35.028848260          3,934,848      LLC-load-misses           #   39.01% of all LL-cache accesses  (50.11%)
    35.028848260         14,063,576      LLC-load-misses           #   29.90% of all LL-cache accesses  (50.05%)
    35.028848260         10,087,812      LLC-loads                 #    2.016 M/sec                    (49.98%)
    35.028848260         47,037,625      LLC-loads                 #    9.401 M/sec                    (41.57%)
    35.028848260            288,011      LLC-store-misses          #   57.559 K/sec                    (24.94%)
    35.028848260          6,314,020      LLC-store-misses          #    1.262 M/sec                    (33.26%)
    35.028848260          3,605,351      LLC-stores                #  720.533 K/sec                    (24.94%)
    35.028848260         22,077,271      LLC-stores                #    4.412 M/sec                    (33.32%)
    35.028848260           5,003.73 msec task-clock                #    1.001 CPUs utilized          
    35.028848260      1,987,488,234      cycles:u                  #    0.397 GHz                      (41.71%)
    35.028848260      8,740,327,812      cycles:k                  #    1.747 GHz                      (41.79%)
    35.028848260      1,152,251,795      instructions:u            #    0.58  insn per cycle           (50.12%)
    35.028848260      6,550,769,501      instructions:k            #    0.75  insn per cycle           (50.11%)
    36.121574340                646      LLC-load-misses           #    7.33% of all LL-cache accesses  (49.48%)
    36.121574340             39,304      LLC-load-misses           #   26.15% of all LL-cache accesses  (49.72%)
    36.121574340              8,811      LLC-loads                 #    8.064 K/sec                    (50.08%)
    36.121574340            150,329      LLC-loads                 #  137.580 K/sec                    (42.10%)
    36.121574340                  0      LLC-store-misses          #    0.000 /sec                     (25.27%)
    36.121574340             44,903      LLC-store-misses          #   41.095 K/sec                    (33.68%)
    36.121574340              1,156      LLC-stores                #    1.058 K/sec                    (25.26%)
    36.121574340             61,713      LLC-stores                #   56.479 K/sec                    (33.44%)
    36.121574340           1,092.67 msec task-clock                #    0.219 CPUs utilized          
    36.121574340            846,260      cycles:u                  #    0.001 GHz                      (41.49%)
    36.121574340         33,641,488      cycles:k                  #    0.031 GHz                      (41.12%)
    36.121574340          1,353,123      instructions:u            #    1.60  insn per cycle           (49.47%)
    36.121574340          4,135,469      instructions:k            #    0.12  insn per cycle           (49.47%)
