# started on Sun Apr  2 10:47:09 2023

#           time             counts unit events
     5.004985790          1,032,524      LLC-load-misses           #   37.71% of all LL-cache accesses  (49.88%)
     5.004985790          3,703,461      LLC-load-misses           #   29.28% of all LL-cache accesses  (49.97%)
     5.004985790          2,738,269      LLC-loads                 #  547.117 K/sec                    (50.05%)
     5.004985790         12,648,270      LLC-loads                 #    2.527 M/sec                    (41.82%)
     5.004985790            152,008      LLC-store-misses          #   30.372 K/sec                    (25.10%)
     5.004985790          2,232,713      LLC-store-misses          #  446.105 K/sec                    (33.41%)
     5.004985790            748,775      LLC-stores                #  149.608 K/sec                    (24.94%)
     5.004985790          6,354,814      LLC-stores                #    1.270 M/sec                    (33.25%)
     5.004985790           5,004.90 msec task-clock                #    1.001 CPUs utilized          
     5.004985790        544,859,330      cycles:u                  #    0.109 GHz                      (41.56%)
     5.004985790      2,665,470,320      cycles:k                  #    0.533 GHz                      (41.55%)
     5.004985790        309,732,784      instructions:u            #    0.57  insn per cycle           (49.86%)
     5.004985790      2,282,518,101      instructions:k            #    0.86  insn per cycle           (49.86%)
    10.008988808          5,061,608      LLC-load-misses           #   38.47% of all LL-cache accesses  (49.88%)
    10.008988808         16,994,398      LLC-load-misses           #   29.59% of all LL-cache accesses  (49.88%)
    10.008988808         13,158,879      LLC-loads                 #    2.630 M/sec                    (49.88%)
    10.008988808         57,425,352      LLC-loads                 #   11.476 M/sec                    (41.57%)
    10.008988808            614,371      LLC-store-misses          #  122.780 K/sec                    (25.02%)
    10.008988808          8,081,536      LLC-store-misses          #    1.615 M/sec                    (33.41%)
    10.008988808          3,426,615      LLC-stores                #  684.795 K/sec                    (25.18%)
    10.008988808         27,572,374      LLC-stores                #    5.510 M/sec                    (33.49%)
    10.008988808           5,003.85 msec task-clock                #    1.001 CPUs utilized          
    10.008988808      2,575,891,712      cycles:u                  #    0.515 GHz                      (41.81%)
    10.008988808     10,865,552,650      cycles:k                  #    2.171 GHz                      (41.73%)
    10.008988808      1,471,051,067      instructions:u            #    0.57  insn per cycle           (50.04%)
    10.008988808      8,209,177,312      instructions:k            #    0.76  insn per cycle           (49.96%)
    15.012990848          5,012,653      LLC-load-misses           #   38.76% of all LL-cache accesses  (50.12%)
    15.012990848         16,991,765      LLC-load-misses           #   29.32% of all LL-cache accesses  (50.04%)
    15.012990848         12,930,949      LLC-loads                 #    2.584 M/sec                    (49.96%)
    15.012990848         57,945,367      LLC-loads                 #   11.580 M/sec                    (41.57%)
    15.012990848            494,589      LLC-store-misses          #   98.842 K/sec                    (24.94%)
    15.012990848          7,953,288      LLC-store-misses          #    1.589 M/sec                    (33.26%)
    15.012990848          3,268,737      LLC-stores                #  653.246 K/sec                    (24.94%)
    15.012990848         27,685,215      LLC-stores                #    5.533 M/sec                    (33.33%)
    15.012990848           5,003.84 msec task-clock                #    1.001 CPUs utilized          
    15.012990848      2,537,455,142      cycles:u                  #    0.507 GHz                      (41.72%)
    15.012990848     10,907,465,463      cycles:k                  #    2.180 GHz                      (41.80%)
    15.012990848      1,465,806,812      instructions:u            #    0.58  insn per cycle           (50.12%)
    15.012990848      8,238,744,262      instructions:k            #    0.76  insn per cycle           (50.12%)
    20.016983097          4,995,430      LLC-load-misses           #   38.93% of all LL-cache accesses  (50.12%)
    20.016983097         17,074,541      LLC-load-misses           #   29.35% of all LL-cache accesses  (50.12%)
    20.016983097         12,832,763      LLC-loads                 #    2.565 M/sec                    (50.12%)
    20.016983097         58,181,154      LLC-loads                 #   11.627 M/sec                    (41.73%)
    20.016983097            428,406      LLC-store-misses          #   85.615 K/sec                    (24.94%)
    20.016983097          7,926,038      LLC-store-misses          #    1.584 M/sec                    (33.26%)
    20.016983097          3,182,807      LLC-stores                #  636.073 K/sec                    (24.94%)
    20.016983097         27,791,745      LLC-stores                #    5.554 M/sec                    (33.25%)
    20.016983097           5,003.84 msec task-clock                #    1.001 CPUs utilized          
    20.016983097      2,527,398,548      cycles:u                  #    0.505 GHz                      (41.57%)
    20.016983097     10,915,744,809      cycles:k                  #    2.181 GHz                      (41.56%)
    20.016983097      1,466,601,515      instructions:u            #    0.58  insn per cycle           (49.95%)
    20.016983097      8,266,558,040      instructions:k            #    0.76  insn per cycle           (50.03%)
    25.020990076          4,994,759      LLC-load-misses           #   39.09% of all LL-cache accesses  (49.88%)
    25.020990076         17,106,150      LLC-load-misses           #   29.41% of all LL-cache accesses  (49.96%)
    25.020990076         12,777,289      LLC-loads                 #    2.553 M/sec                    (50.04%)
    25.020990076         58,173,051      LLC-loads                 #   11.626 M/sec                    (41.81%)
    25.020990076            401,330      LLC-store-misses          #   80.204 K/sec                    (25.10%)
    25.020990076          7,942,678      LLC-store-misses          #    1.587 M/sec                    (33.42%)
    25.020990076          3,138,720      LLC-stores                #  627.259 K/sec                    (24.94%)
    25.020990076         27,858,505      LLC-stores                #    5.567 M/sec                    (33.26%)
    25.020990076           5,003.87 msec task-clock                #    1.001 CPUs utilized          
    25.020990076      2,526,345,516      cycles:u                  #    0.505 GHz                      (41.57%)
    25.020990076     10,918,743,952      cycles:k                  #    2.182 GHz                      (41.56%)
    25.020990076      1,469,437,103      instructions:u            #    0.58  insn per cycle           (49.88%)
    25.020990076      8,277,244,713      instructions:k            #    0.76  insn per cycle           (49.88%)
    30.024988684          4,992,522      LLC-load-misses           #   39.34% of all LL-cache accesses  (49.88%)
    30.024988684         17,128,533      LLC-load-misses           #   29.56% of all LL-cache accesses  (49.88%)
    30.024988684         12,690,601      LLC-loads                 #    2.536 M/sec                    (49.88%)
    30.024988684         57,938,914      LLC-loads                 #   11.579 M/sec                    (41.57%)
    30.024988684            388,079      LLC-store-misses          #   77.557 K/sec                    (25.02%)
    30.024988684          7,902,792      LLC-store-misses          #    1.579 M/sec                    (33.41%)
    30.024988684          3,097,934      LLC-stores                #  619.113 K/sec                    (25.18%)
    30.024988684         27,760,958      LLC-stores                #    5.548 M/sec                    (33.49%)
    30.024988684           5,003.82 msec task-clock                #    1.001 CPUs utilized          
    30.024988684      2,516,959,202      cycles:u                  #    0.503 GHz                      (41.81%)
    30.024988684     10,928,645,364      cycles:k                  #    2.184 GHz                      (41.73%)
    30.024988684      1,465,749,256      instructions:u            #    0.58  insn per cycle           (50.04%)
    30.024988684      8,269,178,347      instructions:k            #    0.76  insn per cycle           (49.96%)
    35.029012995          3,981,070      LLC-load-misses           #   39.26% of all LL-cache accesses  (50.12%)
    35.029012995         13,873,044      LLC-load-misses           #   29.49% of all LL-cache accesses  (50.04%)
    35.029012995         10,139,923      LLC-loads                 #    2.026 M/sec                    (49.96%)
    35.029012995         47,042,874      LLC-loads                 #    9.401 M/sec                    (41.57%)
    35.029012995            294,765      LLC-store-misses          #   58.908 K/sec                    (24.94%)
    35.029012995          6,488,701      LLC-store-misses          #    1.297 M/sec                    (33.26%)
    35.029012995          2,438,635      LLC-stores                #  487.352 K/sec                    (24.94%)
    35.029012995         22,516,255      LLC-stores                #    4.500 M/sec                    (33.33%)
    35.029012995           5,003.84 msec task-clock                #    1.001 CPUs utilized          
    35.029012995      2,005,991,802      cycles:u                  #    0.401 GHz                      (41.72%)
    35.029012995      8,848,636,482      cycles:k                  #    1.768 GHz                      (41.80%)
    35.029012995      1,168,110,950      instructions:u            #    0.58  insn per cycle           (50.12%)
    35.029012995      6,719,111,976      instructions:k            #    0.76  insn per cycle           (50.12%)
    36.153311678                522      LLC-load-misses           #   55.59% of all LL-cache accesses  (50.15%)
    36.153311678             39,733      LLC-load-misses           #   26.66% of all LL-cache accesses  (50.51%)
    36.153311678                939      LLC-loads                 #  835.212 /sec                     (50.87%)
    36.153311678            149,015      LLC-loads                 #  132.544 K/sec                    (42.37%)
    36.153311678                  0      LLC-store-misses          #    0.000 /sec                     (24.95%)
    36.153311678             46,145      LLC-store-misses          #   41.045 K/sec                    (33.13%)
    36.153311678                  0      LLC-stores                #    0.000 /sec                     (24.55%)
    36.153311678             59,408      LLC-stores                #   52.842 K/sec                    (32.73%)
    36.153311678           1,124.27 msec task-clock                #    0.225 CPUs utilized          
    36.153311678                  0      cycles:u                  #    0.000 GHz                      (40.91%)
    36.153311678         29,071,181      cycles:k                  #    0.026 GHz                      (40.91%)
    36.153311678            339,138      instructions:u                                                (49.44%)
    36.153311678          3,112,065      instructions:k            #    0.11  insn per cycle           (49.79%)
