# started on Sun Apr  2 11:18:53 2023

#           time             counts unit events
     5.002013499          1,035,425      LLC-load-misses           #   37.05% of all LL-cache accesses  (49.94%)
     5.002013499          3,777,371      LLC-load-misses           #   29.82% of all LL-cache accesses  (50.02%)
     5.002013499          2,794,666      LLC-loads                 #  558.713 K/sec                    (50.10%)
     5.002013499         12,666,628      LLC-loads                 #    2.532 M/sec                    (41.79%)
     5.002013499            161,101      LLC-store-misses          #   32.208 K/sec                    (25.04%)
     5.002013499          2,114,107      LLC-store-misses          #  422.655 K/sec                    (33.35%)
     5.002013499            712,477      LLC-stores                #  142.439 K/sec                    (24.95%)
     5.002013499          6,558,928      LLC-stores                #    1.311 M/sec                    (33.26%)
     5.002013499           5,001.97 msec task-clock                #    1.000 CPUs utilized          
     5.002013499        550,700,344      cycles:u                  #    0.110 GHz                      (41.58%)
     5.002013499      2,774,141,693      cycles:k                  #    0.555 GHz                      (41.58%)
     5.002013499        305,246,020      instructions:u            #    0.55  insn per cycle           (49.89%)
     5.002013499      2,387,560,417      instructions:k            #    0.86  insn per cycle           (49.89%)
    10.006014593          4,976,564      LLC-load-misses           #   37.42% of all LL-cache accesses  (49.88%)
    10.006014593         17,222,644      LLC-load-misses           #   29.65% of all LL-cache accesses  (49.88%)
    10.006014593         13,297,831      LLC-loads                 #    2.658 M/sec                    (49.88%)
    10.006014593         58,087,676      LLC-loads                 #   11.609 M/sec                    (41.65%)
    10.006014593            610,269      LLC-store-misses          #  121.961 K/sec                    (25.10%)
    10.006014593          8,012,711      LLC-store-misses          #    1.601 M/sec                    (33.49%)
    10.006014593          3,222,401      LLC-stores                #  643.990 K/sec                    (25.10%)
    10.006014593         28,011,527      LLC-stores                #    5.598 M/sec                    (33.42%)
    10.006014593           5,003.80 msec task-clock                #    1.001 CPUs utilized          
    10.006014593      2,581,280,000      cycles:u                  #    0.516 GHz                      (41.73%)
    10.006014593     10,862,714,196      cycles:k                  #    2.171 GHz                      (41.65%)
    10.006014593      1,453,561,611      instructions:u            #    0.56  insn per cycle           (49.96%)
    10.006014593      8,107,922,988      instructions:k            #    0.75  insn per cycle           (49.88%)
    15.010010904          4,930,588      LLC-load-misses           #   37.70% of all LL-cache accesses  (50.04%)
    15.010010904         17,255,047      LLC-load-misses           #   29.41% of all LL-cache accesses  (49.96%)
    15.010010904         13,078,790      LLC-loads                 #    2.614 M/sec                    (49.88%)
    15.010010904         58,669,350      LLC-loads                 #   11.725 M/sec                    (41.57%)
    15.010010904            489,843      LLC-store-misses          #   97.893 K/sec                    (24.94%)
    15.010010904          7,930,942      LLC-store-misses          #    1.585 M/sec                    (33.26%)
    15.010010904          3,067,929      LLC-stores                #  613.115 K/sec                    (25.02%)
    15.010010904         28,079,569      LLC-stores                #    5.612 M/sec                    (33.41%)
    15.010010904           5,003.84 msec task-clock                #    1.001 CPUs utilized          
    15.010010904      2,547,818,736      cycles:u                  #    0.509 GHz                      (41.80%)
    15.010010904     10,897,167,018      cycles:k                  #    2.178 GHz                      (41.80%)
    15.010010904      1,448,463,887      instructions:u            #    0.57  insn per cycle           (50.12%)
    15.010010904      8,141,564,024      instructions:k            #    0.75  insn per cycle           (50.12%)
    20.014012707          4,929,852      LLC-load-misses           #   38.11% of all LL-cache accesses  (50.12%)
    20.014012707         17,297,840      LLC-load-misses           #   29.39% of all LL-cache accesses  (50.12%)
    20.014012707         12,934,287      LLC-loads                 #    2.585 M/sec                    (50.12%)
    20.014012707         58,861,403      LLC-loads                 #   11.763 M/sec                    (41.65%)
    20.014012707            421,741      LLC-store-misses          #   84.283 K/sec                    (24.94%)
    20.014012707          7,850,439      LLC-store-misses          #    1.569 M/sec                    (33.26%)
    20.014012707          2,968,212      LLC-stores                #  593.184 K/sec                    (24.94%)
    20.014012707         28,115,808      LLC-stores                #    5.619 M/sec                    (33.25%)
    20.014012707           5,003.87 msec task-clock                #    1.001 CPUs utilized          
    20.014012707      2,532,363,771      cycles:u                  #    0.506 GHz                      (41.57%)
    20.014012707     10,912,684,004      cycles:k                  #    2.181 GHz                      (41.64%)
    20.014012707      1,447,584,305      instructions:u            #    0.57  insn per cycle           (50.03%)
    20.014012707      8,162,262,351      instructions:k            #    0.75  insn per cycle           (50.11%)
    25.018009731          4,900,787      LLC-load-misses           #   38.06% of all LL-cache accesses  (49.96%)
    25.018009731         17,225,727      LLC-load-misses           #   29.27% of all LL-cache accesses  (50.04%)
    25.018009731         12,877,454      LLC-loads                 #    2.574 M/sec                    (50.12%)
    25.018009731         58,853,146      LLC-loads                 #   11.762 M/sec                    (41.81%)
    25.018009731            398,348      LLC-store-misses          #   79.609 K/sec                    (25.03%)
    25.018009731          7,772,115      LLC-store-misses          #    1.553 M/sec                    (33.34%)
    25.018009731          2,919,042      LLC-stores                #  583.362 K/sec                    (24.94%)
    25.018009731         28,111,916      LLC-stores                #    5.618 M/sec                    (33.25%)
    25.018009731           5,003.83 msec task-clock                #    1.001 CPUs utilized          
    25.018009731      2,527,376,173      cycles:u                  #    0.505 GHz                      (41.57%)
    25.018009731     10,917,223,412      cycles:k                  #    2.182 GHz                      (41.56%)
    25.018009731      1,445,507,801      instructions:u            #    0.57  insn per cycle           (49.88%)
    25.018009731      8,163,901,245      instructions:k            #    0.75  insn per cycle           (49.88%)
    30.022017494          4,915,759      LLC-load-misses           #   38.29% of all LL-cache accesses  (49.88%)
    30.022017494         17,285,739      LLC-load-misses           #   29.30% of all LL-cache accesses  (49.88%)
    30.022017494         12,838,516      LLC-loads                 #    2.566 M/sec                    (49.88%)
    30.022017494         58,996,146      LLC-loads                 #   11.790 M/sec                    (41.65%)
    30.022017494            380,142      LLC-store-misses          #   75.970 K/sec                    (25.10%)
    30.022017494          7,846,984      LLC-store-misses          #    1.568 M/sec                    (33.49%)
    30.022017494          2,913,073      LLC-stores                #  582.168 K/sec                    (25.10%)
    30.022017494         28,190,733      LLC-stores                #    5.634 M/sec                    (33.42%)
    30.022017494           5,003.84 msec task-clock                #    1.001 CPUs utilized          
    30.022017494      2,521,052,876      cycles:u                  #    0.504 GHz                      (41.73%)
    30.022017494     10,923,603,073      cycles:k                  #    2.183 GHz                      (41.65%)
    30.022017494      1,447,495,560      instructions:u            #    0.57  insn per cycle           (49.96%)
    30.022017494      8,182,309,976      instructions:k            #    0.75  insn per cycle           (49.88%)
    35.026022380          3,902,534      LLC-load-misses           #   37.96% of all LL-cache accesses  (50.04%)
    35.026022380         14,014,845      LLC-load-misses           #   29.26% of all LL-cache accesses  (49.96%)
    35.026022380         10,280,061      LLC-loads                 #    2.054 M/sec                    (49.88%)
    35.026022380         47,889,799      LLC-loads                 #    9.571 M/sec                    (41.57%)
    35.026022380            289,055      LLC-store-misses          #   57.767 K/sec                    (24.94%)
    35.026022380          6,365,207      LLC-store-misses          #    1.272 M/sec                    (33.26%)
    35.026022380          2,301,018      LLC-stores                #  459.853 K/sec                    (25.02%)
    35.026022380         22,745,102      LLC-stores                #    4.546 M/sec                    (33.41%)
    35.026022380           5,003.82 msec task-clock                #    1.001 CPUs utilized          
    35.026022380      2,002,567,018      cycles:u                  #    0.400 GHz                      (41.80%)
    35.026022380      8,869,621,897      cycles:k                  #    1.773 GHz                      (41.80%)
    35.026022380      1,154,620,685      instructions:u            #    0.58  insn per cycle           (50.11%)
    35.026022380      6,674,642,526      instructions:k            #    0.75  insn per cycle           (50.12%)
    36.074700324                499      LLC-load-misses           #   54.06% of all LL-cache accesses  (49.64%)
    36.074700324             37,784      LLC-load-misses           #   28.12% of all LL-cache accesses  (49.96%)
    36.074700324                923      LLC-loads                 #  880.183 /sec                     (50.35%)
    36.074700324            134,383      LLC-loads                 #  128.149 K/sec                    (41.97%)
    36.074700324                  0      LLC-store-misses          #    0.000 /sec                     (25.18%)
    36.074700324             42,719      LLC-store-misses          #   40.737 K/sec                    (33.57%)
    36.074700324                  0      LLC-stores                #    0.000 /sec                     (25.17%)
    36.074700324             55,932      LLC-stores                #   53.337 K/sec                    (33.25%)
    36.074700324           1,048.65 msec task-clock                #    0.210 CPUs utilized          
    36.074700324             44,026      cycles:u                  #    0.000 GHz                      (41.26%)
    36.074700324         28,061,218      cycles:k                  #    0.027 GHz                      (41.25%)
    36.074700324            353,288      instructions:u            #    8.02  insn per cycle           (49.64%)
    36.074700324          3,036,476      instructions:k            #    0.11  insn per cycle           (49.64%)
