# started on Sun Apr  2 10:46:22 2023

#           time             counts unit events
     5.002128713            688,919      LLC-load-misses           #   22.37% of all LL-cache accesses  (49.93%)
     5.002128713          1,850,177      LLC-load-misses           #   12.78% of all LL-cache accesses  (50.01%)
     5.002128713          3,079,263      LLC-loads                 #  615.598 K/sec                    (50.10%)
     5.002128713         14,473,711      LLC-loads                 #    2.894 M/sec                    (41.79%)
     5.002128713             51,448      LLC-store-misses          #   10.285 K/sec                    (25.03%)
     5.002128713            672,473      LLC-store-misses          #  134.439 K/sec                    (33.35%)
     5.002128713            728,218      LLC-stores                #  145.583 K/sec                    (24.95%)
     5.002128713          7,062,771      LLC-stores                #    1.412 M/sec                    (33.27%)
     5.002128713           5,002.07 msec task-clock                #    1.000 CPUs utilized          
     5.002128713        523,396,266      cycles:u                  #    0.105 GHz                      (41.58%)
     5.002128713      2,678,734,381      cycles:k                  #    0.536 GHz                      (41.58%)
     5.002128713        339,950,495      instructions:u            #    0.65  insn per cycle           (49.89%)
     5.002128713      2,364,676,894      instructions:k            #    0.88  insn per cycle           (49.89%)
    10.006144202          3,252,254      LLC-load-misses           #   23.46% of all LL-cache accesses  (49.88%)
    10.006144202          7,715,081      LLC-load-misses           #   12.09% of all LL-cache accesses  (49.88%)
    10.006144202         13,864,868      LLC-loads                 #    2.771 M/sec                    (49.88%)
    10.006144202         63,815,448      LLC-loads                 #   12.753 M/sec                    (41.65%)
    10.006144202            132,718      LLC-store-misses          #   26.523 K/sec                    (25.10%)
    10.006144202          1,525,342      LLC-store-misses          #  304.834 K/sec                    (33.49%)
    10.006144202          3,539,366      LLC-stores                #  707.330 K/sec                    (25.10%)
    10.006144202         31,205,901      LLC-stores                #    6.236 M/sec                    (33.42%)
    10.006144202           5,003.84 msec task-clock                #    1.001 CPUs utilized          
    10.006144202      2,518,852,006      cycles:u                  #    0.503 GHz                      (41.73%)
    10.006144202     10,925,267,433      cycles:k                  #    2.183 GHz                      (41.65%)
    10.006144202      1,614,521,522      instructions:u            #    0.64  insn per cycle           (49.96%)
    10.006144202      9,114,928,444      instructions:k            #    0.83  insn per cycle           (49.88%)
    15.010144997          3,233,549      LLC-load-misses           #   23.48% of all LL-cache accesses  (50.04%)
    15.010144997          7,625,521      LLC-load-misses           #   11.94% of all LL-cache accesses  (49.96%)
    15.010144997         13,769,151      LLC-loads                 #    2.752 M/sec                    (49.88%)
    15.010144997         63,870,167      LLC-loads                 #   12.764 M/sec                    (41.57%)
    15.010144997            107,520      LLC-store-misses          #   21.487 K/sec                    (24.94%)
    15.010144997          1,440,300      LLC-store-misses          #  287.839 K/sec                    (33.26%)
    15.010144997          3,511,169      LLC-stores                #  701.695 K/sec                    (25.02%)
    15.010144997         31,153,173      LLC-stores                #    6.226 M/sec                    (33.41%)
    15.010144997           5,003.84 msec task-clock                #    1.001 CPUs utilized          
    15.010144997      2,507,695,933      cycles:u                  #    0.501 GHz                      (41.80%)
    15.010144997     10,934,487,552      cycles:k                  #    2.185 GHz                      (41.80%)
    15.010144997      1,611,555,462      instructions:u            #    0.64  insn per cycle           (50.12%)
    15.010144997      9,090,615,893      instructions:k            #    0.83  insn per cycle           (50.12%)
    20.014131268          3,229,481      LLC-load-misses           #   23.45% of all LL-cache accesses  (50.12%)
    20.014131268          7,621,714      LLC-load-misses           #   11.98% of all LL-cache accesses  (50.12%)
    20.014131268         13,770,603      LLC-loads                 #    2.752 M/sec                    (50.12%)
    20.014131268         63,641,258      LLC-loads                 #   12.719 M/sec                    (41.65%)
    20.014131268            124,436      LLC-store-misses          #   24.868 K/sec                    (24.94%)
    20.014131268          1,446,284      LLC-store-misses          #  289.035 K/sec                    (33.26%)
    20.014131268          3,539,807      LLC-stores                #  707.420 K/sec                    (24.94%)
    20.014131268         31,051,703      LLC-stores                #    6.206 M/sec                    (33.25%)
    20.014131268           5,003.83 msec task-clock                #    1.001 CPUs utilized          
    20.014131268      2,508,142,315      cycles:u                  #    0.501 GHz                      (41.57%)
    20.014131268     10,935,943,804      cycles:k                  #    2.186 GHz                      (41.64%)
    20.014131268      1,608,325,635      instructions:u            #    0.64  insn per cycle           (50.04%)
    20.014131268      9,046,701,573      instructions:k            #    0.83  insn per cycle           (50.11%)
    25.018129946          3,306,776      LLC-load-misses           #   22.78% of all LL-cache accesses  (49.96%)
    25.018129946          7,657,906      LLC-load-misses           #   12.04% of all LL-cache accesses  (50.04%)
    25.018129946         14,515,701      LLC-loads                 #    2.901 M/sec                    (50.12%)
    25.018129946         63,629,443      LLC-loads                 #   12.716 M/sec                    (41.81%)
    25.018129946            382,496      LLC-store-misses          #   76.440 K/sec                    (25.03%)
    25.018129946          1,468,638      LLC-store-misses          #  293.501 K/sec                    (33.34%)
    25.018129946          3,944,331      LLC-stores                #  788.258 K/sec                    (24.94%)
    25.018129946         31,093,034      LLC-stores                #    6.214 M/sec                    (33.25%)
    25.018129946           5,003.86 msec task-clock                #    1.001 CPUs utilized          
    25.018129946      2,605,994,019      cycles:u                  #    0.521 GHz                      (41.57%)
    25.018129946     10,838,761,599      cycles:k                  #    2.166 GHz                      (41.56%)
    25.018129946      1,634,848,607      instructions:u            #    0.63  insn per cycle           (49.88%)
    25.018129946      9,017,549,735      instructions:k            #    0.83  insn per cycle           (49.88%)
    30.022130199          3,323,431      LLC-load-misses           #   22.82% of all LL-cache accesses  (49.88%)
    30.022130199          7,694,000      LLC-load-misses           #   12.17% of all LL-cache accesses  (49.88%)
    30.022130199         14,566,546      LLC-loads                 #    2.911 M/sec                    (49.88%)
    30.022130199         63,220,672      LLC-loads                 #   12.634 M/sec                    (41.65%)
    30.022130199            465,855      LLC-store-misses          #   93.100 K/sec                    (25.10%)
    30.022130199          1,503,138      LLC-store-misses          #  300.398 K/sec                    (33.49%)
    30.022130199          4,025,982      LLC-stores                #  804.580 K/sec                    (25.10%)
    30.022130199         30,772,625      LLC-stores                #    6.150 M/sec                    (33.41%)
    30.022130199           5,003.83 msec task-clock                #    1.001 CPUs utilized          
    30.022130199      2,615,478,744      cycles:u                  #    0.523 GHz                      (41.73%)
    30.022130199     10,828,455,278      cycles:k                  #    2.164 GHz                      (41.65%)
    30.022130199      1,629,584,484      instructions:u            #    0.62  insn per cycle           (49.96%)
    30.022130199      8,955,062,298      instructions:k            #    0.83  insn per cycle           (49.88%)
    35.026162134          2,644,562      LLC-load-misses           #   22.71% of all LL-cache accesses  (50.04%)
    35.026162134          6,293,756      LLC-load-misses           #   12.35% of all LL-cache accesses  (49.96%)
    35.026162134         11,644,717      LLC-loads                 #    2.327 M/sec                    (49.88%)
    35.026162134         50,967,016      LLC-loads                 #   10.186 M/sec                    (41.57%)
    35.026162134            339,532      LLC-store-misses          #   67.854 K/sec                    (24.94%)
    35.026162134          1,378,369      LLC-store-misses          #  275.462 K/sec                    (33.26%)
    35.026162134          3,155,330      LLC-stores                #  630.580 K/sec                    (25.02%)
    35.026162134         24,920,004      LLC-stores                #    4.980 M/sec                    (33.41%)
    35.026162134           5,003.85 msec task-clock                #    1.001 CPUs utilized          
    35.026162134      2,074,831,814      cycles:u                  #    0.415 GHz                      (41.80%)
    35.026162134      8,749,716,792      cycles:k                  #    1.749 GHz                      (41.80%)
    35.026162134      1,299,619,763      instructions:u            #    0.63  insn per cycle           (50.12%)
    35.026162134      7,313,001,764      instructions:k            #    0.84  insn per cycle           (50.12%)
    36.165689884                499      LLC-load-misses           #   52.36% of all LL-cache accesses  (49.83%)
    36.165689884             39,775      LLC-load-misses           #   27.15% of all LL-cache accesses  (50.19%)
    36.165689884                953      LLC-loads                 #  836.349 /sec                     (50.54%)
    36.165689884            146,512      LLC-loads                 #  128.578 K/sec                    (42.14%)
    36.165689884                  0      LLC-store-misses          #    0.000 /sec                     (25.28%)
    36.165689884             46,465      LLC-store-misses          #   40.777 K/sec                    (33.67%)
    36.165689884                 96      LLC-stores                #   84.249 /sec                     (24.88%)
    36.165689884             60,831      LLC-stores                #   53.385 K/sec                    (32.95%)
    36.165689884           1,139.48 msec task-clock                #    0.228 CPUs utilized          
    36.165689884             45,460      cycles:u                  #    0.000 GHz                      (41.03%)
    36.165689884         29,810,802      cycles:k                  #    0.026 GHz                      (41.02%)
    36.165689884            353,613      instructions:u            #    7.78  insn per cycle           (49.44%)
    36.165689884          3,209,354      instructions:k            #    0.11  insn per cycle           (49.48%)
