# started on Sun Apr  2 10:55:52 2023

#           time             counts unit events
     5.002980873          1,303,013      LLC-load-misses           #   45.98% of all LL-cache accesses  (49.94%)
     5.002980873          5,229,858      LLC-load-misses           #   39.96% of all LL-cache accesses  (50.03%)
     5.002980873          2,834,024      LLC-loads                 #  566.477 K/sec                    (50.11%)
     5.002980873         13,088,102      LLC-loads                 #    2.616 M/sec                    (41.80%)
     5.002980873            333,820      LLC-store-misses          #   66.725 K/sec                    (25.03%)
     5.002980873          3,002,341      LLC-store-misses          #  600.121 K/sec                    (33.34%)
     5.002980873            954,716      LLC-stores                #  190.833 K/sec                    (24.94%)
     5.002980873          7,114,737      LLC-stores                #    1.422 M/sec                    (33.26%)
     5.002980873           5,002.90 msec task-clock                #    1.001 CPUs utilized          
     5.002980873        588,707,203      cycles:u                  #    0.118 GHz                      (41.57%)
     5.002980873      2,957,680,997      cycles:k                  #    0.591 GHz                      (41.57%)
     5.002980873        323,368,343      instructions:u            #    0.55  insn per cycle           (49.88%)
     5.002980873      2,412,573,990      instructions:k            #    0.82  insn per cycle           (49.89%)
    10.006987489          6,141,374      LLC-load-misses           #   48.29% of all LL-cache accesses  (49.88%)
    10.006987489         23,570,205      LLC-load-misses           #   42.03% of all LL-cache accesses  (49.88%)
    10.006987489         12,717,949      LLC-loads                 #    2.542 M/sec                    (49.88%)
    10.006987489         56,074,670      LLC-loads                 #   11.206 M/sec                    (41.65%)
    10.006987489          1,318,746      LLC-store-misses          #  263.547 K/sec                    (25.10%)
    10.006987489         11,742,566      LLC-store-misses          #    2.347 M/sec                    (33.49%)
    10.006987489          4,154,893      LLC-stores                #  830.340 K/sec                    (25.10%)
    10.006987489         26,868,428      LLC-stores                #    5.370 M/sec                    (33.41%)
    10.006987489           5,003.84 msec task-clock                #    1.001 CPUs utilized          
    10.006987489      2,576,889,350      cycles:u                  #    0.515 GHz                      (41.73%)
    10.006987489     10,868,896,379      cycles:k                  #    2.172 GHz                      (41.65%)
    10.006987489      1,398,483,452      instructions:u            #    0.54  insn per cycle           (49.96%)
    10.006987489      7,657,153,880      instructions:k            #    0.70  insn per cycle           (49.88%)
    15.010987159          6,089,255      LLC-load-misses           #   48.95% of all LL-cache accesses  (50.04%)
    15.010987159         23,612,650      LLC-load-misses           #   41.85% of all LL-cache accesses  (49.96%)
    15.010987159         12,439,267      LLC-loads                 #    2.486 M/sec                    (49.88%)
    15.010987159         56,416,358      LLC-loads                 #   11.274 M/sec                    (41.57%)
    15.010987159          1,084,151      LLC-store-misses          #  216.661 K/sec                    (24.94%)
    15.010987159         11,785,643      LLC-store-misses          #    2.355 M/sec                    (33.26%)
    15.010987159          3,868,442      LLC-stores                #  773.086 K/sec                    (25.02%)
    15.010987159         26,993,000      LLC-stores                #    5.394 M/sec                    (33.41%)
    15.010987159           5,003.89 msec task-clock                #    1.001 CPUs utilized          
    15.010987159      2,509,414,690      cycles:u                  #    0.501 GHz                      (41.80%)
    15.010987159     10,934,613,039      cycles:k                  #    2.185 GHz                      (41.80%)
    15.010987159      1,376,728,158      instructions:u            #    0.55  insn per cycle           (50.12%)
    15.010987159      7,712,621,196      instructions:k            #    0.71  insn per cycle           (50.12%)
    20.014989717          6,060,473      LLC-load-misses           #   49.46% of all LL-cache accesses  (50.12%)
    20.014989717         23,630,714      LLC-load-misses           #   41.78% of all LL-cache accesses  (50.12%)
    20.014989717         12,252,205      LLC-loads                 #    2.449 M/sec                    (50.12%)
    20.014989717         56,561,899      LLC-loads                 #   11.304 M/sec                    (41.65%)
    20.014989717            939,847      LLC-store-misses          #  187.827 K/sec                    (24.94%)
    20.014989717         11,788,027      LLC-store-misses          #    2.356 M/sec                    (33.26%)
    20.014989717          3,665,563      LLC-stores                #  732.557 K/sec                    (24.94%)
    20.014989717         27,043,599      LLC-stores                #    5.405 M/sec                    (33.25%)
    20.014989717           5,003.79 msec task-clock                #    1.001 CPUs utilized          
    20.014989717      2,459,304,968      cycles:u                  #    0.491 GHz                      (41.57%)
    20.014989717     10,983,903,400      cycles:k                  #    2.195 GHz                      (41.64%)
    20.014989717      1,365,572,335      instructions:u            #    0.56  insn per cycle           (50.03%)
    20.014989717      7,747,693,451      instructions:k            #    0.71  insn per cycle           (50.11%)
    25.018982965          6,040,140      LLC-load-misses           #   49.70% of all LL-cache accesses  (49.96%)
    25.018982965         23,655,792      LLC-load-misses           #   41.64% of all LL-cache accesses  (50.04%)
    25.018982965         12,152,790      LLC-loads                 #    2.429 M/sec                    (50.12%)
    25.018982965         56,804,363      LLC-loads                 #   11.352 M/sec                    (41.81%)
    25.018982965            847,243      LLC-store-misses          #  169.319 K/sec                    (25.02%)
    25.018982965         11,832,131      LLC-store-misses          #    2.365 M/sec                    (33.34%)
    25.018982965          3,558,547      LLC-stores                #  711.164 K/sec                    (24.94%)
    25.018982965         27,180,381      LLC-stores                #    5.432 M/sec                    (33.25%)
    25.018982965           5,003.83 msec task-clock                #    1.001 CPUs utilized          
    25.018982965      2,435,546,162      cycles:u                  #    0.487 GHz                      (41.57%)
    25.018982965     11,009,330,725      cycles:k                  #    2.200 GHz                      (41.56%)
    25.018982965      1,360,782,611      instructions:u            #    0.56  insn per cycle           (49.88%)
    25.018982965      7,785,042,957      instructions:k            #    0.71  insn per cycle           (49.88%)
    30.022983187          6,025,900      LLC-load-misses           #   50.13% of all LL-cache accesses  (49.88%)
    30.022983187         23,686,336      LLC-load-misses           #   41.66% of all LL-cache accesses  (49.88%)
    30.022983187         12,019,386      LLC-loads                 #    2.402 M/sec                    (49.88%)
    30.022983187         56,849,904      LLC-loads                 #   11.361 M/sec                    (41.65%)
    30.022983187            788,613      LLC-store-misses          #  157.601 K/sec                    (25.10%)
    30.022983187         11,835,888      LLC-store-misses          #    2.365 M/sec                    (33.49%)
    30.022983187          3,462,249      LLC-stores                #  691.918 K/sec                    (25.10%)
    30.022983187         27,177,094      LLC-stores                #    5.431 M/sec                    (33.41%)
    30.022983187           5,003.85 msec task-clock                #    1.001 CPUs utilized          
    30.022983187      2,415,908,341      cycles:u                  #    0.483 GHz                      (41.73%)
    30.022983187     11,027,277,432      cycles:k                  #    2.204 GHz                      (41.65%)
    30.022983187      1,356,520,557      instructions:u            #    0.56  insn per cycle           (49.96%)
    30.022983187      7,797,264,013      instructions:k            #    0.71  insn per cycle           (49.88%)
    35.027015364          4,793,409      LLC-load-misses           #   50.43% of all LL-cache accesses  (50.04%)
    35.027015364         19,206,880      LLC-load-misses           #   41.94% of all LL-cache accesses  (49.96%)
    35.027015364          9,505,805      LLC-loads                 #    1.900 M/sec                    (49.88%)
    35.027015364         45,797,108      LLC-loads                 #    9.152 M/sec                    (41.57%)
    35.027015364            597,977      LLC-store-misses          #  119.503 K/sec                    (24.94%)
    35.027015364          9,516,473      LLC-store-misses          #    1.902 M/sec                    (33.26%)
    35.027015364          2,694,478      LLC-stores                #  538.481 K/sec                    (25.02%)
    35.027015364         21,794,020      LLC-stores                #    4.355 M/sec                    (33.41%)
    35.027015364           5,003.85 msec task-clock                #    1.001 CPUs utilized          
    35.027015364      1,909,390,128      cycles:u                  #    0.382 GHz                      (41.80%)
    35.027015364      9,023,369,629      cycles:k                  #    1.803 GHz                      (41.80%)
    35.027015364      1,077,032,427      instructions:u            #    0.56  insn per cycle           (50.12%)
    35.027015364      6,448,687,077      instructions:k            #    0.71  insn per cycle           (50.12%)
    36.090007330                514      LLC-load-misses           #   46.81% of all LL-cache accesses  (50.32%)
    36.090007330             39,203      LLC-load-misses           #   27.18% of all LL-cache accesses  (50.32%)
    36.090007330              1,098      LLC-loads                 #    1.033 K/sec                    (50.34%)
    36.090007330            144,236      LLC-loads                 #  135.695 K/sec                    (41.40%)
    36.090007330                  0      LLC-store-misses          #    0.000 /sec                     (24.84%)
    36.090007330             42,729      LLC-store-misses          #   40.199 K/sec                    (33.12%)
    36.090007330                 12      LLC-stores                #   11.289 /sec                     (24.84%)
    36.090007330             54,984      LLC-stores                #   51.728 K/sec                    (33.11%)
    36.090007330           1,062.94 msec task-clock                #    0.213 CPUs utilized          
    36.090007330             10,017      cycles:u                  #    0.000 GHz                      (41.39%)
    36.090007330         28,291,389      cycles:k                  #    0.027 GHz                      (41.75%)
    36.090007330            345,359      instructions:u            #   34.48  insn per cycle           (50.32%)
    36.090007330          3,465,141      instructions:k            #    0.12  insn per cycle           (50.32%)
