# started on Sun Apr  2 11:22:55 2023

#           time             counts unit events
     5.004889457            600,319      LLC-load-misses           #   16.75% of all LL-cache accesses  (49.88%)
     5.004889457          1,513,301      LLC-load-misses           #    8.56% of all LL-cache accesses  (49.97%)
     5.004889457          3,583,897      LLC-loads                 #  716.091 K/sec                    (50.05%)
     5.004889457         17,687,434      LLC-loads                 #    3.534 M/sec                    (41.82%)
     5.004889457              9,222      LLC-store-misses          #    1.843 K/sec                    (25.10%)
     5.004889457            439,931      LLC-store-misses          #   87.902 K/sec                    (33.41%)
     5.004889457          1,182,384      LLC-stores                #  236.250 K/sec                    (24.94%)
     5.004889457          8,831,210      LLC-stores                #    1.765 M/sec                    (33.25%)
     5.004889457           5,004.81 msec task-clock                #    1.001 CPUs utilized          
     5.004889457        638,368,015      cycles:u                  #    0.128 GHz                      (41.56%)
     5.004889457      3,107,705,661      cycles:k                  #    0.621 GHz                      (41.55%)
     5.004889457        440,457,616      instructions:u            #    0.69  insn per cycle           (49.86%)
     5.004889457      2,848,221,251      instructions:k            #    0.92  insn per cycle           (49.86%)
    10.008889344          2,526,229      LLC-load-misses           #   17.67% of all LL-cache accesses  (49.88%)
    10.008889344          4,347,242      LLC-load-misses           #    6.49% of all LL-cache accesses  (49.88%)
    10.008889344         14,297,094      LLC-loads                 #    2.857 M/sec                    (49.88%)
    10.008889344         67,009,024      LLC-loads                 #   13.392 M/sec                    (41.57%)
    10.008889344                371      LLC-store-misses          #   74.143 /sec                     (25.02%)
    10.008889344             38,489      LLC-store-misses          #    7.692 K/sec                    (33.41%)
    10.008889344          5,021,259      LLC-stores                #    1.003 M/sec                    (25.18%)
    10.008889344         33,503,654      LLC-stores                #    6.696 M/sec                    (33.49%)
    10.008889344           5,003.84 msec task-clock                #    1.001 CPUs utilized          
    10.008889344      2,495,820,778      cycles:u                  #    0.499 GHz                      (41.81%)
    10.008889344     10,948,268,879      cycles:k                  #    2.188 GHz                      (41.73%)
    10.008889344      1,726,615,342      instructions:u            #    0.69  insn per cycle           (50.04%)
    10.008889344      9,651,385,782      instructions:k            #    0.88  insn per cycle           (49.96%)
    15.012867685          2,519,815      LLC-load-misses           #   17.70% of all LL-cache accesses  (50.12%)
    15.012867685          4,317,384      LLC-load-misses           #    6.48% of all LL-cache accesses  (50.04%)
    15.012867685         14,239,753      LLC-loads                 #    2.846 M/sec                    (49.96%)
    15.012867685         66,642,574      LLC-loads                 #   13.318 M/sec                    (41.57%)
    15.012867685                100      LLC-store-misses          #   19.985 /sec                     (24.94%)
    15.012867685             36,979      LLC-store-misses          #    7.390 K/sec                    (33.26%)
    15.012867685          5,024,572      LLC-stores                #    1.004 M/sec                    (24.94%)
    15.012867685         33,482,930      LLC-stores                #    6.691 M/sec                    (33.33%)
    15.012867685           5,003.82 msec task-clock                #    1.001 CPUs utilized          
    15.012867685      2,500,035,336      cycles:u                  #    0.500 GHz                      (41.72%)
    15.012867685     10,944,236,628      cycles:k                  #    2.187 GHz                      (41.80%)
    15.012867685      1,723,550,903      instructions:u            #    0.69  insn per cycle           (50.12%)
    15.012867685      9,659,423,874      instructions:k            #    0.88  insn per cycle           (50.12%)
    20.016866352          2,517,712      LLC-load-misses           #   17.67% of all LL-cache accesses  (50.12%)
    20.016866352          4,315,562      LLC-load-misses           #    6.47% of all LL-cache accesses  (50.12%)
    20.016866352         14,251,630      LLC-loads                 #    2.848 M/sec                    (50.12%)
    20.016866352         66,656,265      LLC-loads                 #   13.321 M/sec                    (41.73%)
    20.016866352                 32      LLC-store-misses          #    6.395 /sec                     (24.94%)
    20.016866352             31,284      LLC-store-misses          #    6.252 K/sec                    (33.26%)
    20.016866352          5,022,299      LLC-stores                #    1.004 M/sec                    (24.94%)
    20.016866352         33,487,842      LLC-stores                #    6.692 M/sec                    (33.25%)
    20.016866352           5,003.84 msec task-clock                #    1.001 CPUs utilized          
    20.016866352      2,497,392,813      cycles:u                  #    0.499 GHz                      (41.57%)
    20.016866352     10,945,171,154      cycles:k                  #    2.187 GHz                      (41.56%)
    20.016866352      1,720,811,651      instructions:u            #    0.69  insn per cycle           (49.95%)
    20.016866352      9,658,865,721      instructions:k            #    0.88  insn per cycle           (50.03%)
    25.020891670          2,517,397      LLC-load-misses           #   17.66% of all LL-cache accesses  (49.88%)
    25.020891670          4,307,163      LLC-load-misses           #    6.46% of all LL-cache accesses  (49.96%)
    25.020891670         14,253,534      LLC-loads                 #    2.848 M/sec                    (50.04%)
    25.020891670         66,636,826      LLC-loads                 #   13.317 M/sec                    (41.81%)
    25.020891670                 75      LLC-store-misses          #   14.988 /sec                     (25.10%)
    25.020891670             29,624      LLC-store-misses          #    5.920 K/sec                    (33.42%)
    25.020891670          5,009,637      LLC-stores                #    1.001 M/sec                    (24.94%)
    25.020891670         33,500,027      LLC-stores                #    6.695 M/sec                    (33.26%)
    25.020891670           5,003.88 msec task-clock                #    1.001 CPUs utilized          
    25.020891670      2,495,100,588      cycles:u                  #    0.499 GHz                      (41.57%)
    25.020891670     10,947,329,592      cycles:k                  #    2.188 GHz                      (41.56%)
    25.020891670      1,720,801,869      instructions:u            #    0.69  insn per cycle           (49.88%)
    25.020891670      9,662,577,611      instructions:k            #    0.88  insn per cycle           (49.88%)
    30.024891381          2,517,599      LLC-load-misses           #   17.65% of all LL-cache accesses  (49.88%)
    30.024891381          4,306,364      LLC-load-misses           #    6.44% of all LL-cache accesses  (49.88%)
    30.024891381         14,260,899      LLC-loads                 #    2.850 M/sec                    (49.88%)
    30.024891381         66,821,794      LLC-loads                 #   13.354 M/sec                    (41.57%)
    30.024891381                307      LLC-store-misses          #   61.353 /sec                     (25.02%)
    30.024891381             29,982      LLC-store-misses          #    5.992 K/sec                    (33.41%)
    30.024891381          4,999,346      LLC-stores                #  999.103 K/sec                    (25.18%)
    30.024891381         33,539,598      LLC-stores                #    6.703 M/sec                    (33.49%)
    30.024891381           5,003.84 msec task-clock                #    1.001 CPUs utilized          
    30.024891381      2,494,985,016      cycles:u                  #    0.499 GHz                      (41.81%)
    30.024891381     10,949,740,815      cycles:k                  #    2.188 GHz                      (41.73%)
    30.024891381      1,722,920,222      instructions:u            #    0.69  insn per cycle           (50.04%)
    30.024891381      9,673,121,305      instructions:k            #    0.88  insn per cycle           (49.96%)
    35.028899420          1,959,457      LLC-load-misses           #   17.18% of all LL-cache accesses  (50.12%)
    35.028899420          3,378,242      LLC-load-misses           #    6.46% of all LL-cache accesses  (50.04%)
    35.028899420         11,402,948      LLC-loads                 #    2.279 M/sec                    (49.96%)
    35.028899420         52,299,948      LLC-loads                 #   10.452 M/sec                    (41.57%)
    35.028899420             71,386      LLC-store-misses          #   14.266 K/sec                    (24.94%)
    35.028899420             99,383      LLC-store-misses          #   19.861 K/sec                    (33.26%)
    35.028899420          3,984,555      LLC-stores                #  796.302 K/sec                    (24.94%)
    35.028899420         26,103,006      LLC-stores                #    5.217 M/sec                    (33.33%)
    35.028899420           5,003.83 msec task-clock                #    1.001 CPUs utilized          
    35.028899420      1,952,131,229      cycles:u                  #    0.390 GHz                      (41.72%)
    35.028899420      8,592,382,955      cycles:k                  #    1.717 GHz                      (41.80%)
    35.028899420      1,342,948,689      instructions:u            #    0.69  insn per cycle           (50.12%)
    35.028899420      7,655,187,621      instructions:k            #    0.89  insn per cycle           (50.11%)
    36.020846374                544      LLC-load-misses           #   57.14% of all LL-cache accesses  (49.58%)
    36.020846374             33,184      LLC-load-misses           #   25.33% of all LL-cache accesses  (49.99%)
    36.020846374                952      LLC-loads                 #  959.772 /sec                     (50.40%)
    36.020846374            130,982      LLC-loads                 #  132.051 K/sec                    (42.35%)
    36.020846374                  0      LLC-store-misses          #    0.000 /sec                     (25.42%)
    36.020846374             40,090      LLC-store-misses          #   40.417 K/sec                    (33.89%)
    36.020846374                100      LLC-stores                #  100.816 /sec                     (25.00%)
    36.020846374             53,293      LLC-stores                #   53.728 K/sec                    (33.06%)
    36.020846374             991.90 msec task-clock                #    0.198 CPUs utilized          
    36.020846374             53,366      cycles:u                  #    0.000 GHz                      (41.13%)
    36.020846374         26,804,443      cycles:k                  #    0.027 GHz                      (40.72%)
    36.020846374            352,193      instructions:u            #    6.60  insn per cycle           (49.18%)
    36.020846374          3,128,066      instructions:k            #    0.12  insn per cycle           (49.18%)
