sent     509335 | retrans          1 | timeout          0 | loss rate 0.0000%
sent     509294 | retrans          0 | timeout          0 | loss rate 0.0000%
sent     509228 | retrans          0 | timeout          0 | loss rate 0.0000%
sent     509400 | retrans          0 | timeout          0 | loss rate 0.0000%
sent     509469 | retrans          0 | timeout          0 | loss rate 0.0000%
sent     509461 | retrans          0 | timeout          0 | loss rate 0.0000%
sent     509073 | retrans          0 | timeout          0 | loss rate 0.0000%
