sent     527590 | retrans          0 | timeout          0 | loss rate 0.0000%
sent     527586 | retrans          0 | timeout          0 | loss rate 0.0000%
sent     527567 | retrans          0 | timeout          0 | loss rate 0.0000%
sent     527665 | retrans          0 | timeout          0 | loss rate 0.0000%
sent     527450 | retrans          0 | timeout          0 | loss rate 0.0000%
sent     527522 | retrans          0 | timeout          0 | loss rate 0.0000%
sent     527202 | retrans          0 | timeout          0 | loss rate 0.0000%
