sent     447375 | retrans          0 | timeout          0 | loss rate 0.0000%
sent     447426 | retrans          0 | timeout          0 | loss rate 0.0000%
sent     447312 | retrans          0 | timeout          0 | loss rate 0.0000%
sent     447418 | retrans          0 | timeout          0 | loss rate 0.0000%
sent     447456 | retrans          0 | timeout          0 | loss rate 0.0000%
sent     447393 | retrans          0 | timeout          0 | loss rate 0.0000%
sent     447157 | retrans          0 | timeout          0 | loss rate 0.0000%
