sent     520277 | retrans          0 | timeout          0 | loss rate 0.0000%
sent     520226 | retrans          0 | timeout          0 | loss rate 0.0000%
sent     520120 | retrans          0 | timeout          0 | loss rate 0.0000%
sent     520384 | retrans          0 | timeout          0 | loss rate 0.0000%
sent     520150 | retrans          0 | timeout          0 | loss rate 0.0000%
sent     520379 | retrans          0 | timeout          0 | loss rate 0.0000%
sent     520168 | retrans          0 | timeout          0 | loss rate 0.0000%
