sent     520741 | retrans          0 | timeout          0 | loss rate 0.0000%
sent     520602 | retrans          0 | timeout          0 | loss rate 0.0000%
sent     520514 | retrans          0 | timeout          0 | loss rate 0.0000%
sent     520240 | retrans          0 | timeout          0 | loss rate 0.0000%
sent     520452 | retrans          0 | timeout          0 | loss rate 0.0000%
sent     520520 | retrans          0 | timeout          0 | loss rate 0.0000%
sent     520546 | retrans          0 | timeout          0 | loss rate 0.0000%
