sent     523614 | retrans          0 | timeout          0 | loss rate 0.0000%
sent     523864 | retrans          0 | timeout          0 | loss rate 0.0000%
sent     523662 | retrans          0 | timeout          0 | loss rate 0.0000%
sent     523568 | retrans          0 | timeout          0 | loss rate 0.0000%
sent     523620 | retrans          0 | timeout          0 | loss rate 0.0000%
sent     523594 | retrans          0 | timeout          0 | loss rate 0.0000%
sent     523647 | retrans          0 | timeout          0 | loss rate 0.0000%
