sent     527835 | retrans          0 | timeout          0 | loss rate 0.0000%
sent     527934 | retrans          0 | timeout          0 | loss rate 0.0000%
sent     527758 | retrans          0 | timeout          0 | loss rate 0.0000%
sent     527898 | retrans          0 | timeout          0 | loss rate 0.0000%
sent     527665 | retrans          0 | timeout          0 | loss rate 0.0000%
sent     527941 | retrans          0 | timeout          0 | loss rate 0.0000%
sent     527772 | retrans          0 | timeout          0 | loss rate 0.0000%
