sent     496634 | retrans          0 | timeout          0 | loss rate 0.0000%
sent     496457 | retrans          0 | timeout          0 | loss rate 0.0000%
sent     496521 | retrans          0 | timeout          0 | loss rate 0.0000%
sent     496644 | retrans          0 | timeout          0 | loss rate 0.0000%
sent     496630 | retrans          0 | timeout          0 | loss rate 0.0000%
sent     496509 | retrans          0 | timeout          0 | loss rate 0.0000%
sent     496577 | retrans          0 | timeout          0 | loss rate 0.0000%
