sent     492133 | retrans          0 | timeout          0 | loss rate 0.0000%
sent     492122 | retrans          0 | timeout          0 | loss rate 0.0000%
sent     492120 | retrans          0 | timeout          0 | loss rate 0.0000%
sent     491862 | retrans          0 | timeout          0 | loss rate 0.0000%
sent     492012 | retrans          0 | timeout          0 | loss rate 0.0000%
sent     491950 | retrans          0 | timeout          0 | loss rate 0.0000%
sent     492077 | retrans          0 | timeout          0 | loss rate 0.0000%
