sent     416722 | retrans        108 | timeout          0 | loss rate 0.0000%
sent     415884 | retrans        301 | timeout          0 | loss rate 0.0000%
sent     415882 | retrans        290 | timeout          0 | loss rate 0.0000%
sent     415854 | retrans        286 | timeout          0 | loss rate 0.0000%
sent     415724 | retrans        284 | timeout          0 | loss rate 0.0000%
sent     415637 | retrans        282 | timeout          0 | loss rate 0.0000%
sent     415553 | retrans        283 | timeout          0 | loss rate 0.0000%
