sent     494456 | retrans          0 | timeout          0 | loss rate 0.0000%
sent     494376 | retrans          0 | timeout          0 | loss rate 0.0000%
sent     494415 | retrans          0 | timeout          0 | loss rate 0.0000%
sent     494308 | retrans          0 | timeout          0 | loss rate 0.0000%
sent     494229 | retrans          0 | timeout          0 | loss rate 0.0000%
sent     494271 | retrans          0 | timeout          0 | loss rate 0.0000%
sent     494333 | retrans          0 | timeout          0 | loss rate 0.0000%
