sent     415166 | retrans         53 | timeout          0 | loss rate 0.0000%
sent     413970 | retrans        208 | timeout          0 | loss rate 0.0000%
sent     413981 | retrans        243 | timeout          0 | loss rate 0.0000%
sent     413747 | retrans        269 | timeout          8 | loss rate 0.0000%
sent     412568 | retrans        486 | timeout          2 | loss rate 0.0000%
sent     413750 | retrans        248 | timeout          0 | loss rate 0.0000%
sent     413738 | retrans        276 | timeout          2 | loss rate 0.0000%
