#type       avg     std     min     5th    10th    50th    90th    95th    99th
read     9893.1 101510.7    35.7  1228.3  1407.1  1786.9  2386.9  2528.8 212902.9
update      0.0     0.0     0.0     0.0     0.0     0.0     0.0     0.0     0.0
op_q        1.0     0.0     1.0     1.0     1.0     1.1     1.1     1.1     1.1
rx      630382.8 89272.7 305162.2 456263.8 498161.4 647281.3 738773.8 750609.0 808425.1

Total QPS = 730463.1 (21913894 / 30.0s)

Misses = 0 (0.0%)
Skipped TXs = 0 (0.0%)

RX 5381294045 bytes :  171.1 MB/s
TX  925646517 bytes :   29.4 MB/s
