#type       avg     std     min     5th    10th    50th    90th    95th    99th
read    97283.7 156549.2   467.6 69483.1 72977.6 80016.6 83942.9 89598.5 418719.2
update      0.0     0.0     0.0     0.0     0.0     0.0     0.0     0.0     0.0
op_q        1.0     0.0     1.0     1.0     1.0     1.1     1.1     1.1     1.1
rx      70817.9 10501.8     1.0 53861.6 58220.8 71046.8 83691.6 88941.2 99149.9

Total QPS = 87534.4 (2626031 / 30.0s)

Misses = 0 (0.0%)
Skipped TXs = 0 (0.0%)

RX  644253318 bytes :   20.5 MB/s
TX  111240460 bytes :    3.5 MB/s
