#type       avg     std     min     5th    10th    50th    90th    95th    99th
read    98326.0 142690.0   425.0 72182.1 76836.5 80422.4 84008.3 91389.7 414705.9
update      0.0     0.0     0.0     0.0     0.0     0.0     0.0     0.0     0.0
op_q        1.0     0.0     1.0     1.0     1.0     1.1     1.1     1.1     1.1
rx      72301.3 10464.0     1.0 55650.5 59751.6 72492.8 85475.0 89969.9 98364.3

Total QPS = 88266.2 (2647987 / 30.0s)

Misses = 0 (0.0%)
Skipped TXs = 0 (0.0%)

RX  649655626 bytes :   20.7 MB/s
TX  112175568 bytes :    3.6 MB/s
