#type       avg     std     min     5th    10th    50th    90th    95th    99th
read       58.5    39.6    29.5    38.3    40.2    53.3    80.4    92.5   120.9
update      0.0     0.0     0.0     0.0     0.0     0.0     0.0     0.0     0.0
op_q        1.0     0.0     1.0     1.0     1.0     1.1     1.1     1.1     1.1
rx      45301.3  7819.5     1.0 33855.2 36221.5 44561.4 55864.3 60134.9 68058.9

Total QPS = 55043.1 (1651293 / 30.0s)

Misses = 0 (0.0%)
Skipped TXs = 0 (0.0%)

RX  406030611 bytes :   12.9 MB/s
TX   69716580 bytes :    2.2 MB/s
