#type       avg     std     min     5th    10th    50th    90th    95th    99th
read     1048.2  2199.2    43.2   868.8   895.8  1008.3  1153.9  1309.6  1610.9
update      0.0     0.0     0.0     0.0     0.0     0.0     0.0     0.0     0.0
op_q        1.0     0.0     1.0     1.0     1.0     1.1     1.1     1.1     1.1
rx      7030665.4 398851.2 5857388.4 6213090.8 6436482.8 7083090.0 7670605.0 7923655.8 8126096.6

Total QPS = 2145037.4 (64352373 / 30.0s)

Misses = 0 (0.0%)
Skipped TXs = 0 (0.0%)

RX 15819337891 bytes :  502.9 MB/s
TX 2717245307 bytes :   86.4 MB/s
