#type       avg     std     min     5th    10th    50th    90th    95th    99th
read      573.1  1350.9    32.4    85.3   107.3   242.3   583.2  3075.6  7426.1
update      0.0     0.0     0.0     0.0     0.0     0.0     0.0     0.0     0.0
op_q        1.0     0.0     1.0     1.0     1.0     1.1     1.1     1.1     1.1
rx      591827.0 27517.6 406170.9 529533.3 544065.9 593542.0 640018.0 663225.4 681791.4

Total QPS = 719804.9 (21594148 / 30.0s)

Misses = 0 (0.0%)
Skipped TXs = 0 (0.0%)

RX 5301188643 bytes :  168.5 MB/s
TX  911800383 bytes :   29.0 MB/s
