#type       avg     std     min     5th    10th    50th    90th    95th    99th
read    12304.8 31602.8   111.9  7944.9  8120.5  8907.9  9459.0 10047.3 225711.8
update      0.0     0.0     0.0     0.0     0.0     0.0     0.0     0.0     0.0
op_q        1.0     0.0     1.0     1.0     1.0     1.1     1.1     1.1     1.1
rx      592525.8 41629.1 446788.0 518621.4 529880.5 593256.7 660668.7 675183.9 699791.7

Total QPS = 736998.3 (22109949 / 30.0s)

Misses = 0 (0.0%)
Skipped TXs = 0 (0.0%)

RX 5426945983 bytes :  172.5 MB/s
TX  933947850 bytes :   29.7 MB/s
