# started on Fri Mar 31 09:03:01 2023

#           time             counts unit events
     5.002331575          4,836,095      LLC-load-misses           #   18.22% of all LL-cache accesses  (49.92%)
     5.002331575          9,972,796      LLC-load-misses           #    8.55% of all LL-cache accesses  (50.01%)
     5.002331575         26,549,745      LLC-loads                 #  663.391 K/sec                    (50.09%)
     5.002331575        116,676,032      LLC-loads                 #    2.915 M/sec                    (41.80%)
     5.002331575              7,659      LLC-store-misses          #  191.373 /sec                     (25.05%)
     5.002331575          1,753,397      LLC-store-misses          #   43.812 K/sec                    (33.36%)
     5.002331575          7,303,988      LLC-stores                #  182.503 K/sec                    (24.94%)
     5.002331575         60,947,930      LLC-stores                #    1.523 M/sec                    (33.26%)
     5.002331575          40,021.27 msec task-clock                #    8.004 CPUs utilized          
     5.002331575      4,441,092,522      cycles:u                  #    0.111 GHz                      (41.57%)
     5.002331575     21,116,557,701      cycles:k                  #    0.528 GHz                      (41.57%)
     5.002331575      3,111,513,095      instructions:u            #    0.70  insn per cycle           (49.88%)
     5.002331575     18,786,972,468      instructions:k            #    0.89  insn per cycle           (49.89%)
    10.006326143         21,281,836      LLC-load-misses           #   17.80% of all LL-cache accesses  (49.87%)
    10.006326143         40,675,296      LLC-load-misses           #    7.90% of all LL-cache accesses  (49.88%)
    10.006326143        119,593,141      LLC-loads                 #    2.988 M/sec                    (49.88%)
    10.006326143        514,793,066      LLC-loads                 #   12.860 M/sec                    (41.63%)
    10.006326143             18,486      LLC-store-misses          #  461.795 /sec                     (25.08%)
    10.006326143          2,084,113      LLC-store-misses          #   52.063 K/sec                    (33.48%)
    10.006326143         33,825,513      LLC-stores                #  844.988 K/sec                    (25.12%)
    10.006326143        272,001,424      LLC-stores                #    6.795 M/sec                    (33.43%)
    10.006326143          40,030.77 msec task-clock                #    8.006 CPUs utilized          
    10.006326143     20,327,015,376      cycles:u                  #    0.508 GHz                      (41.75%)
    10.006326143     87,186,590,089      cycles:k                  #    2.178 GHz                      (41.66%)
    10.006326143     14,145,636,239      instructions:u            #    0.70  insn per cycle           (49.98%)
    10.006326143     77,563,515,641      instructions:k            #    0.89  insn per cycle           (49.90%)
    15.010340854         21,286,311      LLC-load-misses           #   17.80% of all LL-cache accesses  (50.06%)
    15.010340854         39,889,017      LLC-load-misses           #    7.75% of all LL-cache accesses  (49.98%)
    15.010340854        119,604,025      LLC-loads                 #    2.988 M/sec                    (49.90%)
    15.010340854        514,793,301      LLC-loads                 #   12.860 M/sec                    (41.57%)
    15.010340854             16,429      LLC-store-misses          #  410.410 /sec                     (24.94%)
    15.010340854          2,066,811      LLC-store-misses          #   51.631 K/sec                    (33.26%)
    15.010340854         33,897,945      LLC-stores                #  846.799 K/sec                    (25.00%)
    15.010340854        272,034,753      LLC-stores                #    6.796 M/sec                    (33.39%)
    15.010340854          40,030.67 msec task-clock                #    8.006 CPUs utilized          
    15.010340854     20,343,753,205      cycles:u                  #    0.508 GHz                      (41.79%)
    15.010340854     87,188,193,264      cycles:k                  #    2.178 GHz                      (41.80%)
    15.010340854     14,154,040,288      instructions:u            #    0.70  insn per cycle           (50.12%)
    15.010340854     77,628,104,092      instructions:k            #    0.89  insn per cycle           (50.12%)
    20.014330835         21,310,170      LLC-load-misses           #   17.80% of all LL-cache accesses  (50.12%)
    20.014330835         39,438,562      LLC-load-misses           #    7.66% of all LL-cache accesses  (50.12%)
    20.014330835        119,701,414      LLC-loads                 #    2.990 M/sec                    (50.12%)
    20.014330835        515,194,990      LLC-loads                 #   12.870 M/sec                    (41.67%)
    20.014330835             15,671      LLC-store-misses          #  391.474 /sec                     (24.94%)
    20.014330835          2,068,662      LLC-store-misses          #   51.677 K/sec                    (33.26%)
    20.014330835         33,851,952      LLC-stores                #  845.649 K/sec                    (24.94%)
    20.014330835        271,986,806      LLC-stores                #    6.794 M/sec                    (33.25%)
    20.014330835          40,030.75 msec task-clock                #    8.006 CPUs utilized          
    20.014330835     20,334,001,096      cycles:u                  #    0.508 GHz                      (41.57%)
    20.014330835     87,170,923,014      cycles:k                  #    2.178 GHz                      (41.62%)
    20.014330835     14,155,271,093      instructions:u            #    0.70  insn per cycle           (50.02%)
    20.014330835     77,637,661,679      instructions:k            #    0.89  insn per cycle           (50.10%)
    25.018339960         21,274,118      LLC-load-misses           #   17.79% of all LL-cache accesses  (49.94%)
    25.018339960         39,244,639      LLC-load-misses           #    7.62% of all LL-cache accesses  (50.02%)
    25.018339960        119,617,132      LLC-loads                 #    2.988 M/sec                    (50.10%)
    25.018339960        514,998,507      LLC-loads                 #   12.865 M/sec                    (41.81%)
    25.018339960             14,475      LLC-store-misses          #  361.597 /sec                     (25.04%)
    25.018339960          2,063,024      LLC-store-misses          #   51.536 K/sec                    (33.36%)
    25.018339960         33,819,382      LLC-stores                #  844.836 K/sec                    (24.94%)
    25.018339960        272,017,544      LLC-stores                #    6.795 M/sec                    (33.25%)
    25.018339960          40,030.70 msec task-clock                #    8.006 CPUs utilized          
    25.018339960     20,342,835,290      cycles:u                  #    0.508 GHz                      (41.57%)
    25.018339960     87,195,794,615      cycles:k                  #    2.178 GHz                      (41.56%)
    25.018339960     14,156,344,450      instructions:u            #    0.70  insn per cycle           (49.88%)
    25.018339960     77,628,442,535      instructions:k            #    0.89  insn per cycle           (49.88%)
    30.022340173         21,274,780      LLC-load-misses           #   17.78% of all LL-cache accesses  (49.88%)
    30.022340173         39,154,711      LLC-load-misses           #    7.60% of all LL-cache accesses  (49.88%)
    30.022340173        119,668,232      LLC-loads                 #    2.989 M/sec                    (49.88%)
    30.022340173        515,126,935      LLC-loads                 #   12.868 M/sec                    (41.63%)
    30.022340173             15,101      LLC-store-misses          #  377.236 /sec                     (25.08%)
    30.022340173          2,068,450      LLC-store-misses          #   51.672 K/sec                    (33.48%)
    30.022340173         33,894,642      LLC-stores                #  846.718 K/sec                    (25.12%)
    30.022340173        271,983,195      LLC-stores                #    6.794 M/sec                    (33.43%)
    30.022340173          40,030.62 msec task-clock                #    8.006 CPUs utilized          
    30.022340173     20,339,164,970      cycles:u                  #    0.508 GHz                      (41.74%)
    30.022340173     87,177,996,883      cycles:k                  #    2.178 GHz                      (41.66%)
    30.022340173     14,158,349,704      instructions:u            #    0.70  insn per cycle           (49.98%)
    30.022340173     77,650,950,451      instructions:k            #    0.89  insn per cycle           (49.90%)
    35.026340755         16,513,783      LLC-load-misses           #   17.67% of all LL-cache accesses  (50.06%)
    35.026340755         30,704,153      LLC-load-misses           #    7.61% of all LL-cache accesses  (49.98%)
    35.026340755         93,480,240      LLC-loads                 #    2.335 M/sec                    (49.90%)
    35.026340755        403,539,406      LLC-loads                 #   10.080 M/sec                    (41.57%)
    35.026340755             12,477      LLC-store-misses          #  311.676 /sec                     (24.94%)
    35.026340755          2,173,131      LLC-store-misses          #   54.285 K/sec                    (33.26%)
    35.026340755         26,366,613      LLC-stores                #  658.639 K/sec                    (25.00%)
    35.026340755        212,164,287      LLC-stores                #    5.300 M/sec                    (33.39%)
    35.026340755          40,031.99 msec task-clock                #    8.006 CPUs utilized          
    35.026340755     15,824,395,479      cycles:u                  #    0.395 GHz                      (41.79%)
    35.026340755     68,823,159,929      cycles:k                  #    1.719 GHz                      (41.81%)
    35.026340755     11,022,710,569      instructions:u            #    0.70  insn per cycle           (50.12%)
    35.026340755     61,731,581,380      instructions:k            #    0.90  insn per cycle           (50.12%)
    36.120247816             32,988      LLC-load-misses           #   90.85% of all LL-cache accesses  (49.63%)
    36.120247816            256,246      LLC-load-misses           #   26.41% of all LL-cache accesses  (49.99%)
    36.120247816             36,311      LLC-loads                 #    4.150 K/sec                    (50.37%)
    36.120247816            970,197      LLC-loads                 #  110.875 K/sec                    (42.06%)
    36.120247816                  0      LLC-store-misses          #    0.000 /sec                     (25.24%)
    36.120247816            340,310      LLC-store-misses          #   38.891 K/sec                    (33.65%)
    36.120247816                397      LLC-stores                #   45.369 /sec                     (25.13%)
    36.120247816            452,171      LLC-stores                #   51.674 K/sec                    (33.18%)
    36.120247816           8,750.40 msec task-clock                #    1.750 CPUs utilized          
    36.120247816            209,810      cycles:u                  #    0.000 GHz                      (41.22%)
    36.120247816        225,191,836      cycles:k                  #    0.026 GHz                      (41.12%)
    36.120247816            427,253      instructions:u            #    2.04  insn per cycle           (49.53%)
    36.120247816         22,213,274      instructions:k            #    0.10  insn per cycle           (49.53%)
