sent    4256402 | retrans          0 | timeout          0 | loss rate 0.0000%
sent    4264426 | retrans          0 | timeout          0 | loss rate 0.0000%
sent    4262408 | retrans          0 | timeout          0 | loss rate 0.0000%
sent    4257460 | retrans          0 | timeout          0 | loss rate 0.0000%
sent    4262576 | retrans          0 | timeout          0 | loss rate 0.0000%
sent    4266299 | retrans          0 | timeout          0 | loss rate 0.0000%
sent    4255514 | retrans          0 | timeout          0 | loss rate 0.0000%
