#type       avg     std     min     5th    10th    50th    90th    95th    99th
read    81911.9 10536.2  9871.7 76877.9 77306.0 80730.0 84154.1 87795.1 91790.5
update      0.0     0.0     0.0     0.0     0.0     0.0     0.0     0.0     0.0
op_q        1.0     0.0     1.0     1.0     1.0     1.1     1.1     1.1     1.1
rx      90192.0  9563.2 66412.2 76444.9 78260.9 89270.2 102971.4 108637.0 119316.6

Total QPS = 67701.1 (2031033 / 30.0s)

Misses = 0 (0.0%)
Skipped TXs = 0 (0.0%)

RX  500028493 bytes :   15.9 MB/s
TX   85981444 bytes :    2.7 MB/s
