#type       avg     std     min     5th    10th    50th    90th    95th    99th
read    81856.5 11509.7  8974.3 76925.1 77319.4 80474.1 83628.8 84023.1 88228.9
update      0.0     0.0     0.0     0.0     0.0     0.0     0.0     0.0     0.0
op_q        1.0     0.0     1.0     1.0     1.0     1.1     1.1     1.1     1.1
rx      90190.6  9259.3 66412.2 76910.6 78576.2 89474.0 101803.4 108202.5 119944.1

Total QPS = 68202.9 (2046086 / 30.0s)

Misses = 0 (0.0%)
Skipped TXs = 0 (0.0%)

RX  503331065 bytes :   16.0 MB/s
TX   86622078 bytes :    2.8 MB/s
