#type       avg     std     min     5th    10th    50th    90th    95th    99th
read     5915.9    57.4  5572.3  5846.3  5877.0  6122.4  6367.8  6398.4  6423.0
update      0.0     0.0     0.0     0.0     0.0     0.0     0.0     0.0     0.0
op_q        1.0     0.0     1.0     1.0     1.0     1.1     1.1     1.1     1.1
rx      1249325.1 30277.4 1158853.1 1141753.8 1178584.6 1265461.9 1322657.9 1329807.4 1335527.0

Total QPS = 94611.3 (2838340 / 30.0s)

Misses = 0 (0.0%)
Skipped TXs = 0 (0.0%)

RX  697858434 bytes :   22.2 MB/s
TX  119874410 bytes :    3.8 MB/s
