#type       avg     std     min     5th    10th    50th    90th    95th    99th
read     5952.7    57.3  5572.3  5866.0  5895.7  6132.7  6369.8  6399.5  6423.2
update      0.0     0.0     0.0     0.0     0.0     0.0     0.0     0.0     0.0
op_q        1.0     0.0     1.0     1.0     1.0     1.1     1.1     1.1     1.1
rx      1237358.4 32325.5 1158853.1 1125012.6 1145102.1 1253135.1 1320192.5 1328574.7 1335280.5

Total QPS = 94012.8 (2820385 / 30.0s)

Misses = 0 (0.0%)
Skipped TXs = 0 (0.0%)

RX  692394434 bytes :   22.0 MB/s
TX  119119249 bytes :    3.8 MB/s
