#type       avg     std     min     5th    10th    50th    90th    95th    99th
read    12700.3   157.0 11944.8 12572.4 12636.0 13145.5 13654.9 13718.6 13769.5
update      0.0     0.0     0.0     0.0     0.0     0.0     0.0     0.0     0.0
op_q        1.0     0.0     1.0     1.0     1.0     1.1     1.1     1.1     1.1
rx      577542.8 21627.8 540613.5 523384.8 531314.9 582413.8 617644.9 622048.8 666111.9

Total QPS = 88162.7 (2644881 / 30.0s)

Misses = 0 (0.0%)
Skipped TXs = 0 (0.0%)

RX  648958524 bytes :   20.6 MB/s
TX  111732191 bytes :    3.6 MB/s
