#type       avg     std     min     5th    10th    50th    90th    95th    99th
read    27173.9  6042.9 15898.6 24886.5 25397.0 27768.7 29190.2 29367.8 29510.0
update      0.0     0.0     0.0     0.0     0.0     0.0     0.0     0.0     0.0
op_q        1.0     0.0     1.0     1.0     1.0     1.1     1.1     1.1     1.1
rx      270901.3 15744.3 229272.9 242690.0 246252.4 271752.3 295679.1 308261.1 318326.8

Total QPS = 82782.3 (2483470 / 30.0s)

Misses = 0 (0.0%)
Skipped TXs = 0 (0.0%)

RX  612199963 bytes :   19.5 MB/s
TX  104943436 bytes :    3.3 MB/s
