#type       avg     std     min     5th    10th    50th    90th    95th    99th
read    27361.4  5565.6 15898.6 26896.5 27035.8 28150.6 29265.4 29404.8 29516.3
update      0.0     0.0     0.0     0.0     0.0     0.0     0.0     0.0     0.0
op_q        1.0     0.0     1.0     1.0     1.0     1.1     1.1     1.1     1.1
rx      268529.0 16548.6 229272.9 241449.0 244602.6 269087.8 290791.2 306010.5 318852.9

Total QPS = 82104.3 (2463128 / 30.0s)

Misses = 0 (0.0%)
Skipped TXs = 0 (0.0%)

RX  603584011 bytes :   19.2 MB/s
TX  104095961 bytes :    3.3 MB/s
