#type       avg     std     min     5th    10th    50th    90th    95th    99th
read    46639.8  8508.2 17488.4 43455.7 43673.8 45419.1 47164.3 47382.5 47557.0
update      0.0     0.0     0.0     0.0     0.0     0.0     0.0     0.0     0.0
op_q        1.0     0.0     1.0     1.0     1.0     1.1     1.1     1.1     1.1
rx      159672.3 12525.0 129418.6 138592.9 142022.0 158383.3 177510.3 180663.7 199525.0

Total QPS = 72434.8 (2173045 / 30.0s)

Misses = 0 (0.0%)
Skipped TXs = 0 (0.0%)

RX  535903085 bytes :   17.0 MB/s
TX   91892768 bytes :    2.9 MB/s
