#type       avg     std     min     5th    10th    50th    90th    95th    99th
read    46556.8  8057.9 19237.2 43455.6 43673.7 45419.0 47164.2 47382.4 47556.9
update      0.0     0.0     0.0     0.0     0.0     0.0     0.0     0.0     0.0
op_q        1.0     0.0     1.0     1.0     1.0     1.1     1.1     1.1     1.1
rx      157880.4 12068.1 129418.6 137707.6 140491.9 156872.1 176365.9 180049.8 196817.2

Total QPS = 72526.7 (2175800 / 30.0s)

Misses = 0 (0.0%)
Skipped TXs = 0 (0.0%)

RX  536044708 bytes :   17.0 MB/s
TX   92006450 bytes :    2.9 MB/s
