#type       avg     std     min     5th    10th    50th    90th    95th    99th
read    63446.4  8037.4 25604.8 58595.0 59981.9 65607.3 68877.5 69286.3 69613.3
update      0.0     0.0     0.0     0.0     0.0     0.0     0.0     0.0     0.0
op_q        1.0     0.0     1.0     1.0     1.0     1.1     1.1     1.1     1.1
rx      115923.3  9718.9 88394.6 98961.5 102897.8 115459.1 130997.0 134155.9 144422.4

Total QPS = 70344.5 (2110335 / 30.0s)

Misses = 0 (0.0%)
Skipped TXs = 0 (0.0%)

RX  517210542 bytes :   16.4 MB/s
TX   89277696 bytes :    2.8 MB/s
