#type       avg     std     min     5th    10th    50th    90th    95th    99th
read    64191.1 10241.1 21161.0 59863.3 62267.7 66072.4 68982.7 69346.5 69637.6
update      0.0     0.0     0.0     0.0     0.0     0.0     0.0     0.0     0.0
op_q        1.0     0.0     1.0     1.0     1.0     1.1     1.1     1.1     1.1
rx      114579.0  9238.7 88394.6 98131.7 102449.9 114221.4 128331.6 132719.0 140621.8

Total QPS = 70198.6 (2105959 / 30.0s)

Misses = 0 (0.0%)
Skipped TXs = 0 (0.0%)

RX  517185434 bytes :   16.4 MB/s
TX   89112301 bytes :    2.8 MB/s
