# started on Sun Apr  2 09:30:25 2023

#           time             counts unit events
     5.003469592            615,287      LLC-load-misses           #   23.72% of all LL-cache accesses  (49.95%)
     5.003469592          1,716,804      LLC-load-misses           #   12.44% of all LL-cache accesses  (50.03%)
     5.003469592          2,593,991      LLC-loads                 #  518.446 K/sec                    (50.11%)
     5.003469592         13,801,079      LLC-loads                 #    2.758 M/sec                    (41.80%)
     5.003469592             51,883      LLC-store-misses          #   10.370 K/sec                    (25.03%)
     5.003469592          2,937,206      LLC-store-misses          #  587.043 K/sec                    (33.34%)
     5.003469592            881,694      LLC-stores                #  176.219 K/sec                    (24.95%)
     5.003469592          8,261,422      LLC-stores                #    1.651 M/sec                    (33.26%)
     5.003469592           5,003.39 msec task-clock                #    1.001 CPUs utilized          
     5.003469592        466,656,136      cycles:u                  #    0.093 GHz                      (41.57%)
     5.003469592      2,707,517,235      cycles:k                  #    0.541 GHz                      (41.57%)
     5.003469592        266,405,332      instructions:u            #    0.57  insn per cycle           (49.88%)
     5.003469592      1,698,026,248      instructions:k            #    0.63  insn per cycle           (49.88%)
    10.007475238          2,821,384      LLC-load-misses           #   25.42% of all LL-cache accesses  (49.88%)
    10.007475238          7,587,160      LLC-load-misses           #   13.49% of all LL-cache accesses  (49.88%)
    10.007475238         11,100,298      LLC-loads                 #    2.218 M/sec                    (49.88%)
    10.007475238         56,229,299      LLC-loads                 #   11.237 M/sec                    (41.65%)
    10.007475238            210,114      LLC-store-misses          #   41.990 K/sec                    (25.10%)
    10.007475238         11,321,479      LLC-store-misses          #    2.263 M/sec                    (33.49%)
    10.007475238          3,852,607      LLC-stores                #  769.928 K/sec                    (25.10%)
    10.007475238         33,780,159      LLC-stores                #    6.751 M/sec                    (33.42%)
    10.007475238           5,003.85 msec task-clock                #    1.001 CPUs utilized          
    10.007475238      2,050,876,246      cycles:u                  #    0.410 GHz                      (41.73%)
    10.007475238     11,394,192,337      cycles:k                  #    2.277 GHz                      (41.65%)
    10.007475238      1,153,059,386      instructions:u            #    0.56  insn per cycle           (49.96%)
    10.007475238      7,215,521,530      instructions:k            #    0.63  insn per cycle           (49.88%)
    15.011483059          2,819,948      LLC-load-misses           #   25.52% of all LL-cache accesses  (50.04%)
    15.011483059          7,543,791      LLC-load-misses           #   13.45% of all LL-cache accesses  (49.96%)
    15.011483059         11,051,061      LLC-loads                 #    2.209 M/sec                    (49.88%)
    15.011483059         56,072,707      LLC-loads                 #   11.206 M/sec                    (41.57%)
    15.011483059            188,979      LLC-store-misses          #   37.767 K/sec                    (24.94%)
    15.011483059         11,342,831      LLC-store-misses          #    2.267 M/sec                    (33.26%)
    15.011483059          3,805,433      LLC-stores                #  760.504 K/sec                    (25.02%)
    15.011483059         33,751,464      LLC-stores                #    6.745 M/sec                    (33.41%)
    15.011483059           5,003.83 msec task-clock                #    1.001 CPUs utilized          
    15.011483059      2,046,141,969      cycles:u                  #    0.409 GHz                      (41.80%)
    15.011483059     11,396,196,213      cycles:k                  #    2.277 GHz                      (41.80%)
    15.011483059      1,150,982,512      instructions:u            #    0.56  insn per cycle           (50.12%)
    15.011483059      7,221,669,145      instructions:k            #    0.63  insn per cycle           (50.11%)
    20.015471977          2,816,840      LLC-load-misses           #   25.49% of all LL-cache accesses  (50.12%)
    20.015471977          7,548,324      LLC-load-misses           #   13.45% of all LL-cache accesses  (50.12%)
    20.015471977         11,052,185      LLC-loads                 #    2.209 M/sec                    (50.12%)
    20.015471977         56,100,966      LLC-loads                 #   11.212 M/sec                    (41.65%)
    20.015471977            187,315      LLC-store-misses          #   37.434 K/sec                    (24.94%)
    20.015471977         11,299,198      LLC-store-misses          #    2.258 M/sec                    (33.26%)
    20.015471977          3,813,592      LLC-stores                #  762.133 K/sec                    (24.94%)
    20.015471977         33,704,145      LLC-stores                #    6.736 M/sec                    (33.25%)
    20.015471977           5,003.84 msec task-clock                #    1.001 CPUs utilized          
    20.015471977      2,041,193,665      cycles:u                  #    0.408 GHz                      (41.57%)
    20.015471977     11,402,365,903      cycles:k                  #    2.279 GHz                      (41.64%)
    20.015471977      1,149,226,585      instructions:u            #    0.56  insn per cycle           (50.03%)
    20.015471977      7,217,267,696      instructions:k            #    0.63  insn per cycle           (50.11%)
    25.019467125          2,874,974      LLC-load-misses           #   25.04% of all LL-cache accesses  (49.96%)
    25.019467125          7,592,099      LLC-load-misses           #   13.57% of all LL-cache accesses  (50.04%)
    25.019467125         11,483,643      LLC-loads                 #    2.295 M/sec                    (50.12%)
    25.019467125         55,938,709      LLC-loads                 #   11.179 M/sec                    (41.81%)
    25.019467125            345,662      LLC-store-misses          #   69.079 K/sec                    (25.02%)
    25.019467125         11,349,647      LLC-store-misses          #    2.268 M/sec                    (33.34%)
    25.019467125          4,016,764      LLC-stores                #  802.737 K/sec                    (24.94%)
    25.019467125         33,537,359      LLC-stores                #    6.702 M/sec                    (33.25%)
    25.019467125           5,003.84 msec task-clock                #    1.001 CPUs utilized          
    25.019467125      2,094,552,866      cycles:u                  #    0.419 GHz                      (41.57%)
    25.019467125     11,350,859,279      cycles:k                  #    2.268 GHz                      (41.56%)
    25.019467125      1,160,073,845      instructions:u            #    0.55  insn per cycle           (49.88%)
    25.019467125      7,171,506,829      instructions:k            #    0.63  insn per cycle           (49.88%)
    30.023473219          2,913,951      LLC-load-misses           #   24.79% of all LL-cache accesses  (49.88%)
    30.023473219          7,619,953      LLC-load-misses           #   13.69% of all LL-cache accesses  (49.88%)
    30.023473219         11,753,417      LLC-loads                 #    2.349 M/sec                    (49.88%)
    30.023473219         55,670,154      LLC-loads                 #   11.125 M/sec                    (41.65%)
    30.023473219            432,009      LLC-store-misses          #   86.335 K/sec                    (25.10%)
    30.023473219         11,417,586      LLC-store-misses          #    2.282 M/sec                    (33.49%)
    30.023473219          4,126,743      LLC-stores                #  824.713 K/sec                    (25.10%)
    30.023473219         33,388,297      LLC-stores                #    6.673 M/sec                    (33.42%)
    30.023473219           5,003.86 msec task-clock                #    1.001 CPUs utilized          
    30.023473219      2,117,913,821      cycles:u                  #    0.423 GHz                      (41.73%)
    30.023473219     11,324,915,968      cycles:k                  #    2.263 GHz                      (41.65%)
    30.023473219      1,164,679,550      instructions:u            #    0.55  insn per cycle           (49.96%)
    30.023473219      7,140,447,750      instructions:k            #    0.63  insn per cycle           (49.88%)
    35.027502756          2,263,044      LLC-load-misses           #   24.77% of all LL-cache accesses  (50.04%)
    35.027502756          5,964,732      LLC-load-misses           #   13.69% of all LL-cache accesses  (49.96%)
    35.027502756          9,134,771      LLC-loads                 #    1.826 M/sec                    (49.88%)
    35.027502756         43,560,252      LLC-loads                 #    8.705 M/sec                    (41.57%)
    35.027502756            340,717      LLC-store-misses          #   68.091 K/sec                    (24.95%)
    35.027502756          8,836,505      LLC-store-misses          #    1.766 M/sec                    (33.26%)
    35.027502756          3,207,481      LLC-stores                #  641.006 K/sec                    (25.02%)
    35.027502756         25,782,756      LLC-stores                #    5.153 M/sec                    (33.41%)
    35.027502756           5,003.82 msec task-clock                #    1.001 CPUs utilized          
    35.027502756      1,649,824,770      cycles:u                  #    0.330 GHz                      (41.80%)
    35.027502756      8,830,188,987      cycles:k                  #    1.765 GHz                      (41.80%)
    35.027502756        907,841,121      instructions:u            #    0.55  insn per cycle           (50.12%)
    35.027502756      5,570,135,506      instructions:k            #    0.63  insn per cycle           (50.12%)
    36.050327736                556      LLC-load-misses           #    8.52% of all LL-cache accesses  (50.71%)
    36.050327736             35,123      LLC-load-misses           #   23.86% of all LL-cache accesses  (50.71%)
    36.050327736              6,527      LLC-loads                 #    6.382 K/sec                    (50.72%)
    36.050327736            147,232      LLC-loads                 #  143.951 K/sec                    (41.75%)
    36.050327736                  0      LLC-store-misses          #    0.000 /sec                     (24.65%)
    36.050327736             41,024      LLC-store-misses          #   40.110 K/sec                    (32.86%)
    36.050327736                  0      LLC-stores                #    0.000 /sec                     (24.64%)
    36.050327736             53,927      LLC-stores                #   52.725 K/sec                    (32.85%)
    36.050327736           1,022.79 msec task-clock                #    0.205 CPUs utilized          
    36.050327736            818,660      cycles:u                  #    0.001 GHz                      (41.06%)
    36.050327736         27,557,550      cycles:k                  #    0.027 GHz                      (41.44%)
    36.050327736            743,610      instructions:u            #    0.91  insn per cycle           (50.04%)
    36.050327736          3,585,349      instructions:k            #    0.13  insn per cycle           (50.44%)
