# started on Fri Mar 31 08:26:14 2023

#           time             counts unit events
     5.004417947            510,634      LLC-load-misses           #   24.28% of all LL-cache accesses  (49.88%)
     5.004417947          1,647,022      LLC-load-misses           #   13.96% of all LL-cache accesses  (49.96%)
     5.004417947          2,102,931      LLC-loads                 #  420.225 K/sec                    (50.05%)
     5.004417947         11,799,649      LLC-loads                 #    2.358 M/sec                    (41.82%)
     5.004417947             46,735      LLC-store-misses          #    9.339 K/sec                    (25.10%)
     5.004417947          2,434,468      LLC-store-misses          #  486.475 K/sec                    (33.41%)
     5.004417947            950,122      LLC-stores                #  189.861 K/sec                    (24.94%)
     5.004417947          7,042,812      LLC-stores                #    1.407 M/sec                    (33.25%)
     5.004417947           5,004.30 msec task-clock                #    1.001 CPUs utilized          
     5.004417947        365,174,120      cycles:u                  #    0.073 GHz                      (41.56%)
     5.004417947      2,277,151,139      cycles:k                  #    0.455 GHz                      (41.56%)
     5.004417947        218,920,938      instructions:u            #    0.60  insn per cycle           (49.87%)
     5.004417947      1,462,091,312      instructions:k            #    0.64  insn per cycle           (49.87%)
    10.009131144          2,877,012      LLC-load-misses           #   25.35% of all LL-cache accesses  (49.89%)
    10.009131144          8,810,533      LLC-load-misses           #   15.55% of all LL-cache accesses  (49.87%)
    10.009131144         11,349,023      LLC-loads                 #    2.268 M/sec                    (49.87%)
    10.009131144         56,654,788      LLC-loads                 #   11.321 M/sec                    (41.56%)
    10.009131144            238,447      LLC-store-misses          #   47.646 K/sec                    (25.02%)
    10.009131144         12,348,273      LLC-store-misses          #    2.467 M/sec                    (33.41%)
    10.009131144          5,062,443      LLC-stores                #    1.012 M/sec                    (25.17%)
    10.009131144         34,227,335      LLC-stores                #    6.839 M/sec                    (33.50%)
    10.009131144           5,004.50 msec task-clock                #    1.001 CPUs utilized          
    10.009131144      1,975,591,038      cycles:u                  #    0.395 GHz                      (41.81%)
    10.009131144     11,467,533,788      cycles:k                  #    2.291 GHz                      (41.73%)
    10.009131144      1,159,578,613      instructions:u            #    0.59  insn per cycle           (50.05%)
    10.009131144      7,231,387,926      instructions:k            #    0.63  insn per cycle           (49.97%)
    15.013130215          2,863,805      LLC-load-misses           #   25.15% of all LL-cache accesses  (50.12%)
    15.013130215          8,736,791      LLC-load-misses           #   15.37% of all LL-cache accesses  (50.05%)
    15.013130215         11,388,445      LLC-loads                 #    2.276 M/sec                    (49.98%)
    15.013130215         56,825,488      LLC-loads                 #   11.356 M/sec                    (41.57%)
    15.013130215            220,449      LLC-store-misses          #   44.056 K/sec                    (24.94%)
    15.013130215         12,302,536      LLC-store-misses          #    2.459 M/sec                    (33.26%)
    15.013130215          5,084,825      LLC-stores                #    1.016 M/sec                    (24.94%)
    15.013130215         34,184,746      LLC-stores                #    6.832 M/sec                    (33.32%)
    15.013130215           5,003.79 msec task-clock                #    1.001 CPUs utilized          
    15.013130215      1,969,629,659      cycles:u                  #    0.394 GHz                      (41.71%)
    15.013130215     11,473,944,375      cycles:k                  #    2.293 GHz                      (41.79%)
    15.013130215      1,154,568,906      instructions:u            #    0.59  insn per cycle           (50.12%)
    15.013130215      7,230,448,841      instructions:k            #    0.63  insn per cycle           (50.12%)
    20.017129414          2,876,646      LLC-load-misses           #   25.48% of all LL-cache accesses  (50.10%)
    20.017129414          8,782,036      LLC-load-misses           #   15.53% of all LL-cache accesses  (50.12%)
    20.017129414         11,291,478      LLC-loads                 #    2.257 M/sec                    (50.12%)
    20.017129414         56,544,950      LLC-loads                 #   11.300 M/sec                    (41.75%)
    20.017129414            248,031      LLC-store-misses          #   49.569 K/sec                    (24.94%)
    20.017129414         12,298,714      LLC-store-misses          #    2.458 M/sec                    (33.26%)
    20.017129414          5,056,758      LLC-stores                #    1.011 M/sec                    (24.94%)
    20.017129414         34,031,742      LLC-stores                #    6.801 M/sec                    (33.25%)
    20.017129414           5,003.80 msec task-clock                #    1.001 CPUs utilized          
    20.017129414      1,972,760,028      cycles:u                  #    0.394 GHz                      (41.57%)
    20.017129414     11,469,030,888      cycles:k                  #    2.292 GHz                      (41.56%)
    20.017129414      1,162,706,405      instructions:u            #    0.59  insn per cycle           (49.94%)
    20.017129414      7,214,009,621      instructions:k            #    0.63  insn per cycle           (50.02%)
    25.021130644          2,929,034      LLC-load-misses           #   25.07% of all LL-cache accesses  (49.88%)
    25.021130644          8,869,133      LLC-load-misses           #   15.68% of all LL-cache accesses  (49.94%)
    25.021130644         11,683,742      LLC-loads                 #    2.335 M/sec                    (50.02%)
    25.021130644         56,549,513      LLC-loads                 #   11.301 M/sec                    (41.79%)
    25.021130644            414,636      LLC-store-misses          #   82.865 K/sec                    (25.12%)
    25.021130644         12,406,556      LLC-store-misses          #    2.479 M/sec                    (33.43%)
    25.021130644          5,276,083      LLC-stores                #    1.054 M/sec                    (24.96%)
    25.021130644         33,924,365      LLC-stores                #    6.780 M/sec                    (33.27%)
    25.021130644           5,003.78 msec task-clock                #    1.001 CPUs utilized          
    25.021130644      2,029,186,492      cycles:u                  #    0.406 GHz                      (41.58%)
    25.021130644     11,412,608,352      cycles:k                  #    2.281 GHz                      (41.56%)
    25.021130644      1,170,582,411      instructions:u            #    0.58  insn per cycle           (49.88%)
    25.021130644      7,176,538,893      instructions:k            #    0.63  insn per cycle           (49.88%)
    30.025127388          2,952,650      LLC-load-misses           #   25.11% of all LL-cache accesses  (49.89%)
    30.025127388          8,911,620      LLC-load-misses           #   15.83% of all LL-cache accesses  (49.88%)
    30.025127388         11,757,511      LLC-loads                 #    2.350 M/sec                    (49.88%)
    30.025127388         56,288,337      LLC-loads                 #   11.249 M/sec                    (41.57%)
    30.025127388            481,856      LLC-store-misses          #   96.298 K/sec                    (25.01%)
    30.025127388         12,411,176      LLC-store-misses          #    2.480 M/sec                    (33.40%)
    30.025127388          5,337,905      LLC-stores                #    1.067 M/sec                    (25.16%)
    30.025127388         33,695,078      LLC-stores                #    6.734 M/sec                    (33.49%)
    30.025127388           5,003.79 msec task-clock                #    1.001 CPUs utilized          
    30.025127388      2,051,018,663      cycles:u                  #    0.410 GHz                      (41.81%)
    30.025127388     11,395,800,210      cycles:k                  #    2.277 GHz                      (41.74%)
    30.025127388      1,173,288,725      instructions:u            #    0.57  insn per cycle           (50.05%)
    30.025127388      7,147,952,458      instructions:k            #    0.63  insn per cycle           (49.97%)
    35.029152221          2,428,258      LLC-load-misses           #   25.06% of all LL-cache accesses  (50.12%)
    35.029152221          7,407,109      LLC-load-misses           #   15.86% of all LL-cache accesses  (50.05%)
    35.029152221          9,688,864      LLC-loads                 #    1.936 M/sec                    (49.98%)
    35.029152221         46,708,411      LLC-loads                 #    9.335 M/sec                    (41.57%)
    35.029152221            385,686      LLC-store-misses          #   77.079 K/sec                    (24.95%)
    35.029152221         10,201,060      LLC-store-misses          #    2.039 M/sec                    (33.26%)
    35.029152221          4,370,923      LLC-stores                #  873.526 K/sec                    (24.94%)
    35.029152221         27,561,846      LLC-stores                #    5.508 M/sec                    (33.32%)
    35.029152221           5,003.77 msec task-clock                #    1.001 CPUs utilized          
    35.029152221      1,677,326,250      cycles:u                  #    0.335 GHz                      (41.71%)
    35.029152221      9,368,262,250      cycles:k                  #    1.872 GHz                      (41.78%)
    35.029152221        968,217,700      instructions:u            #    0.58  insn per cycle           (50.11%)
    35.029152221      5,904,724,789      instructions:k            #    0.63  insn per cycle           (50.12%)
    36.251263374                509      LLC-load-misses           #   59.46% of all LL-cache accesses  (50.00%)
    36.251263374             39,497      LLC-load-misses           #   24.80% of all LL-cache accesses  (50.34%)
    36.251263374                856      LLC-loads                 #  700.466 /sec                     (50.67%)
    36.251263374            159,281      LLC-loads                 #  130.340 K/sec                    (42.46%)
    36.251263374                  0      LLC-store-misses          #    0.000 /sec                     (25.12%)
    36.251263374             49,838      LLC-store-misses          #   40.782 K/sec                    (33.30%)
    36.251263374                 12      LLC-stores                #    9.820 /sec                     (24.56%)
    36.251263374             65,633      LLC-stores                #   53.708 K/sec                    (32.73%)
    36.251263374           1,222.04 msec task-clock                #    0.244 CPUs utilized          
    36.251263374             10,825      cycles:u                  #    0.000 GHz                      (40.91%)
    36.251263374         31,679,888      cycles:k                  #    0.026 GHz                      (40.91%)
    36.251263374            338,843      instructions:u            #   31.30  insn per cycle           (49.36%)
    36.251263374          3,592,493      instructions:k            #    0.11  insn per cycle           (49.67%)
