# started on Sun Apr  2 08:39:06 2023

#           time             counts unit events
     5.003624916            512,527      LLC-load-misses           #   17.56% of all LL-cache accesses  (49.95%)
     5.003624916            719,407      LLC-load-misses           #    4.73% of all LL-cache accesses  (50.03%)
     5.003624916          2,919,466      LLC-loads                 #  583.478 K/sec                    (50.11%)
     5.003624916         15,199,417      LLC-loads                 #    3.038 M/sec                    (41.81%)
     5.003624916            175,711      LLC-store-misses          #   35.117 K/sec                    (25.03%)
     5.003624916            918,122      LLC-store-misses          #  183.494 K/sec                    (33.34%)
     5.003624916          1,306,630      LLC-stores                #  261.140 K/sec                    (24.94%)
     5.003624916          8,959,239      LLC-stores                #    1.791 M/sec                    (33.25%)
     5.003624916           5,003.56 msec task-clock                #    1.001 CPUs utilized          
     5.003624916        499,820,708      cycles:u                  #    0.100 GHz                      (41.57%)
     5.003624916      2,722,600,135      cycles:k                  #    0.544 GHz                      (41.56%)
     5.003624916        303,431,319      instructions:u            #    0.61  insn per cycle           (49.88%)
     5.003624916      1,821,441,050      instructions:k            #    0.67  insn per cycle           (49.88%)
    10.007653516          2,149,565      LLC-load-misses           #   17.17% of all LL-cache accesses  (49.88%)
    10.007653516          2,363,227      LLC-load-misses           #    3.83% of all LL-cache accesses  (49.88%)
    10.007653516         12,522,903      LLC-loads                 #    2.503 M/sec                    (49.88%)
    10.007653516         61,626,366      LLC-loads                 #   12.316 M/sec                    (41.65%)
    10.007653516            596,232      LLC-store-misses          #  119.154 K/sec                    (25.10%)
    10.007653516          1,955,817      LLC-store-misses          #  390.861 K/sec                    (33.49%)
    10.007653516          5,516,997      LLC-stores                #    1.103 M/sec                    (25.10%)
    10.007653516         37,252,357      LLC-stores                #    7.445 M/sec                    (33.42%)
    10.007653516           5,003.86 msec task-clock                #    1.001 CPUs utilized          
    10.007653516      2,130,827,699      cycles:u                  #    0.426 GHz                      (41.73%)
    10.007653516     11,312,160,464      cycles:k                  #    2.261 GHz                      (41.65%)
    10.007653516      1,295,386,867      instructions:u            #    0.61  insn per cycle           (49.96%)
    10.007653516      7,630,610,669      instructions:k            #    0.67  insn per cycle           (49.88%)
    15.011627006          2,106,368      LLC-load-misses           #   17.16% of all LL-cache accesses  (50.04%)
    15.011627006          2,348,537      LLC-load-misses           #    3.80% of all LL-cache accesses  (49.96%)
    15.011627006         12,273,711      LLC-loads                 #    2.453 M/sec                    (49.88%)
    15.011627006         61,865,352      LLC-loads                 #   12.364 M/sec                    (41.57%)
    15.011627006            387,934      LLC-store-misses          #   77.528 K/sec                    (24.94%)
    15.011627006          1,770,610      LLC-store-misses          #  353.852 K/sec                    (33.26%)
    15.011627006          5,263,439      LLC-stores                #    1.052 M/sec                    (25.02%)
    15.011627006         37,464,005      LLC-stores                #    7.487 M/sec                    (33.41%)
    15.011627006           5,003.81 msec task-clock                #    1.001 CPUs utilized          
    15.011627006      2,088,905,699      cycles:u                  #    0.417 GHz                      (41.80%)
    15.011627006     11,354,603,551      cycles:k                  #    2.269 GHz                      (41.80%)
    15.011627006      1,279,524,915      instructions:u            #    0.61  insn per cycle           (50.12%)
    15.011627006      7,678,959,246      instructions:k            #    0.68  insn per cycle           (50.12%)
    20.015645854          2,080,285      LLC-load-misses           #   17.14% of all LL-cache accesses  (50.12%)
    20.015645854          2,355,236      LLC-load-misses           #    3.80% of all LL-cache accesses  (50.12%)
    20.015645854         12,137,613      LLC-loads                 #    2.426 M/sec                    (50.12%)
    20.015645854         62,003,483      LLC-loads                 #   12.391 M/sec                    (41.65%)
    20.015645854            254,346      LLC-store-misses          #   50.830 K/sec                    (24.94%)
    20.015645854          1,733,055      LLC-store-misses          #  346.343 K/sec                    (33.26%)
    20.015645854          5,103,636      LLC-stores                #    1.020 M/sec                    (24.94%)
    20.015645854         37,768,013      LLC-stores                #    7.548 M/sec                    (33.25%)
    20.015645854           5,003.86 msec task-clock                #    1.001 CPUs utilized          
    20.015645854      2,054,011,261      cycles:u                  #    0.410 GHz                      (41.57%)
    20.015645854     11,392,329,837      cycles:k                  #    2.277 GHz                      (41.64%)
    20.015645854      1,271,561,431      instructions:u            #    0.62  insn per cycle           (50.03%)
    20.015645854      7,711,735,616      instructions:k            #    0.68  insn per cycle           (50.11%)
    25.019637328          2,065,657      LLC-load-misses           #   17.18% of all LL-cache accesses  (49.95%)
    25.019637328          2,355,292      LLC-load-misses           #    3.78% of all LL-cache accesses  (50.04%)
    25.019637328         12,022,308      LLC-loads                 #    2.403 M/sec                    (50.12%)
    25.019637328         62,232,126      LLC-loads                 #   12.437 M/sec                    (41.81%)
    25.019637328            165,025      LLC-store-misses          #   32.980 K/sec                    (25.03%)
    25.019637328          1,715,886      LLC-store-misses          #  342.914 K/sec                    (33.34%)
    25.019637328          4,975,770      LLC-stores                #  994.390 K/sec                    (24.94%)
    25.019637328         37,838,345      LLC-stores                #    7.562 M/sec                    (33.25%)
    25.019637328           5,003.84 msec task-clock                #    1.001 CPUs utilized          
    25.019637328      2,027,998,261      cycles:u                  #    0.405 GHz                      (41.57%)
    25.019637328     11,417,034,863      cycles:k                  #    2.282 GHz                      (41.56%)
    25.019637328      1,262,416,944      instructions:u            #    0.62  insn per cycle           (49.88%)
    25.019637328      7,738,115,954      instructions:k            #    0.68  insn per cycle           (49.88%)
    30.023625233          2,044,097      LLC-load-misses           #   17.17% of all LL-cache accesses  (49.88%)
    30.023625233          2,370,427      LLC-load-misses           #    3.83% of all LL-cache accesses  (49.88%)
    30.023625233         11,901,823      LLC-loads                 #    2.379 M/sec                    (49.88%)
    30.023625233         61,820,868      LLC-loads                 #   12.355 M/sec                    (41.65%)
    30.023625233            106,310      LLC-store-misses          #   21.246 K/sec                    (25.10%)
    30.023625233          1,677,032      LLC-store-misses          #  335.150 K/sec                    (33.49%)
    30.023625233          4,859,277      LLC-stores                #  971.111 K/sec                    (25.10%)
    30.023625233         37,775,666      LLC-stores                #    7.549 M/sec                    (33.42%)
    30.023625233           5,003.83 msec task-clock                #    1.001 CPUs utilized          
    30.023625233      2,006,345,412      cycles:u                  #    0.401 GHz                      (41.73%)
    30.023625233     11,431,521,769      cycles:k                  #    2.285 GHz                      (41.65%)
    30.023625233      1,255,176,391      instructions:u            #    0.63  insn per cycle           (49.96%)
    30.023625233      7,744,717,784      instructions:k            #    0.68  insn per cycle           (49.88%)
    35.027651501          1,567,034      LLC-load-misses           #   17.28% of all LL-cache accesses  (50.04%)
    35.027651501          1,874,928      LLC-load-misses           #    3.93% of all LL-cache accesses  (49.96%)
    35.027651501          9,069,378      LLC-loads                 #    1.812 M/sec                    (49.88%)
    35.027651501         47,758,979      LLC-loads                 #    9.544 M/sec                    (41.57%)
    35.027651501             56,296      LLC-store-misses          #   11.251 K/sec                    (24.94%)
    35.027651501          1,423,292      LLC-store-misses          #  284.441 K/sec                    (33.26%)
    35.027651501          3,766,187      LLC-stores                #  752.662 K/sec                    (25.02%)
    35.027651501         28,923,170      LLC-stores                #    5.780 M/sec                    (33.41%)
    35.027651501           5,003.83 msec task-clock                #    1.001 CPUs utilized          
    35.027651501      1,534,011,322      cycles:u                  #    0.307 GHz                      (41.80%)
    35.027651501      8,800,902,292      cycles:k                  #    1.759 GHz                      (41.80%)
    35.027651501        962,823,453      instructions:u            #    0.63  insn per cycle           (50.12%)
    35.027651501      5,956,633,073      instructions:k            #    0.68  insn per cycle           (50.11%)
    36.080612300                549      LLC-load-misses           #   79.57% of all LL-cache accesses  (49.85%)
    36.080612300             36,445      LLC-load-misses           #   25.42% of all LL-cache accesses  (49.85%)
    36.080612300                690      LLC-loads                 #  655.316 /sec                     (50.14%)
    36.080612300            143,353      LLC-loads                 #  136.147 K/sec                    (41.79%)
    36.080612300                  0      LLC-store-misses          #    0.000 /sec                     (25.08%)
    36.080612300             42,917      LLC-store-misses          #   40.760 K/sec                    (33.44%)
    36.080612300                 31      LLC-stores                #   29.442 /sec                     (25.07%)
    36.080612300             56,027      LLC-stores                #   53.211 K/sec                    (33.42%)
    36.080612300           1,052.93 msec task-clock                #    0.211 CPUs utilized          
    36.080612300             73,268      cycles:u                  #    0.000 GHz                      (41.50%)
    36.080612300         28,209,879      cycles:k                  #    0.027 GHz                      (41.49%)
    36.080612300            350,117      instructions:u            #    4.78  insn per cycle           (49.85%)
    36.080612300          3,249,306      instructions:k            #    0.12  insn per cycle           (49.85%)
