# started on Sun Apr  2 08:20:56 2023

#           time             counts unit events
     5.002415487            598,117      LLC-load-misses           #   24.45% of all LL-cache accesses  (49.94%)
     5.002415487          1,804,212      LLC-load-misses           #   13.80% of all LL-cache accesses  (50.02%)
     5.002415487          2,446,589      LLC-loads                 #  489.088 K/sec                    (50.10%)
     5.002415487         13,075,066      LLC-loads                 #    2.614 M/sec                    (41.80%)
     5.002415487             54,531      LLC-store-misses          #   10.901 K/sec                    (25.04%)
     5.002415487          2,486,148      LLC-store-misses          #  496.996 K/sec                    (33.35%)
     5.002415487          1,015,301      LLC-stores                #  202.965 K/sec                    (24.95%)
     5.002415487          8,034,222      LLC-stores                #    1.606 M/sec                    (33.26%)
     5.002415487           5,002.35 msec task-clock                #    1.000 CPUs utilized          
     5.002415487        437,517,648      cycles:u                  #    0.087 GHz                      (41.57%)
     5.002415487      2,695,820,189      cycles:k                  #    0.539 GHz                      (41.57%)
     5.002415487        252,176,315      instructions:u            #    0.58  insn per cycle           (49.89%)
     5.002415487      1,733,916,530      instructions:k            #    0.64  insn per cycle           (49.89%)
    10.006416221          2,769,521      LLC-load-misses           #   25.67% of all LL-cache accesses  (49.88%)
    10.006416221          7,984,083      LLC-load-misses           #   14.22% of all LL-cache accesses  (49.88%)
    10.006416221         10,787,317      LLC-loads                 #    2.156 M/sec                    (49.88%)
    10.006416221         56,133,378      LLC-loads                 #   11.218 M/sec                    (41.65%)
    10.006416221            208,371      LLC-store-misses          #   41.642 K/sec                    (25.10%)
    10.006416221         11,556,280      LLC-store-misses          #    2.309 M/sec                    (33.49%)
    10.006416221          4,738,822      LLC-stores                #  947.038 K/sec                    (25.10%)
    10.006416221         34,027,557      LLC-stores                #    6.800 M/sec                    (33.42%)
    10.006416221           5,003.83 msec task-clock                #    1.001 CPUs utilized          
    10.006416221      2,014,569,998      cycles:u                  #    0.403 GHz                      (41.73%)
    10.006416221     11,426,565,888      cycles:k                  #    2.284 GHz                      (41.65%)
    10.006416221      1,160,303,515      instructions:u            #    0.58  insn per cycle           (49.96%)
    10.006416221      7,232,934,499      instructions:k            #    0.63  insn per cycle           (49.88%)
    15.010419184          2,751,362      LLC-load-misses           #   25.36% of all LL-cache accesses  (50.04%)
    15.010419184          7,847,238      LLC-load-misses           #   14.03% of all LL-cache accesses  (49.96%)
    15.010419184         10,848,189      LLC-loads                 #    2.168 M/sec                    (49.88%)
    15.010419184         55,939,355      LLC-loads                 #   11.179 M/sec                    (41.57%)
    15.010419184            180,444      LLC-store-misses          #   36.061 K/sec                    (24.94%)
    15.010419184         11,460,625      LLC-store-misses          #    2.290 M/sec                    (33.26%)
    15.010419184          4,703,460      LLC-stores                #  939.970 K/sec                    (25.02%)
    15.010419184         34,048,852      LLC-stores                #    6.805 M/sec                    (33.41%)
    15.010419184           5,003.84 msec task-clock                #    1.001 CPUs utilized          
    15.010419184      2,003,646,888      cycles:u                  #    0.400 GHz                      (41.80%)
    15.010419184     11,438,677,004      cycles:k                  #    2.286 GHz                      (41.80%)
    15.010419184      1,157,005,809      instructions:u            #    0.58  insn per cycle           (50.12%)
    15.010419184      7,226,893,296      instructions:k            #    0.63  insn per cycle           (50.12%)
    20.014416950          2,749,789      LLC-load-misses           #   25.53% of all LL-cache accesses  (50.11%)
    20.014416950          7,909,467      LLC-load-misses           #   14.06% of all LL-cache accesses  (50.12%)
    20.014416950         10,771,842      LLC-loads                 #    2.153 M/sec                    (50.12%)
    20.014416950         56,262,742      LLC-loads                 #   11.244 M/sec                    (41.65%)
    20.014416950            183,144      LLC-store-misses          #   36.601 K/sec                    (24.94%)
    20.014416950         11,523,288      LLC-store-misses          #    2.303 M/sec                    (33.26%)
    20.014416950          4,698,932      LLC-stores                #  939.066 K/sec                    (24.95%)
    20.014416950         34,038,125      LLC-stores                #    6.802 M/sec                    (33.25%)
    20.014416950           5,003.84 msec task-clock                #    1.001 CPUs utilized          
    20.014416950      2,009,924,830      cycles:u                  #    0.402 GHz                      (41.57%)
    20.014416950     11,431,354,395      cycles:k                  #    2.285 GHz                      (41.64%)
    20.014416950      1,154,396,884      instructions:u            #    0.57  insn per cycle           (50.03%)
    20.014416950      7,225,502,521      instructions:k            #    0.63  insn per cycle           (50.11%)
    25.018413100          2,817,722      LLC-load-misses           #   24.80% of all LL-cache accesses  (49.96%)
    25.018413100          7,919,246      LLC-load-misses           #   14.22% of all LL-cache accesses  (50.04%)
    25.018413100         11,361,783      LLC-loads                 #    2.271 M/sec                    (50.12%)
    25.018413100         55,702,206      LLC-loads                 #   11.132 M/sec                    (41.81%)
    25.018413100            343,096      LLC-store-misses          #   68.567 K/sec                    (25.03%)
    25.018413100         11,581,386      LLC-store-misses          #    2.314 M/sec                    (33.34%)
    25.018413100          4,943,178      LLC-stores                #  987.876 K/sec                    (24.94%)
    25.018413100         33,759,942      LLC-stores                #    6.747 M/sec                    (33.25%)
    25.018413100           5,003.84 msec task-clock                #    1.001 CPUs utilized          
    25.018413100      2,062,161,933      cycles:u                  #    0.412 GHz                      (41.57%)
    25.018413100     11,379,838,233      cycles:k                  #    2.274 GHz                      (41.56%)
    25.018413100      1,164,108,961      instructions:u            #    0.56  insn per cycle           (49.88%)
    25.018413100      7,168,885,666      instructions:k            #    0.63  insn per cycle           (49.88%)
    30.022417056          2,845,699      LLC-load-misses           #   24.66% of all LL-cache accesses  (49.88%)
    30.022417056          7,950,944      LLC-load-misses           #   14.29% of all LL-cache accesses  (49.88%)
    30.022417056         11,541,245      LLC-loads                 #    2.306 M/sec                    (49.88%)
    30.022417056         55,636,731      LLC-loads                 #   11.119 M/sec                    (41.65%)
    30.022417056            431,714      LLC-store-misses          #   86.277 K/sec                    (25.10%)
    30.022417056         11,590,286      LLC-store-misses          #    2.316 M/sec                    (33.49%)
    30.022417056          5,008,115      LLC-stores                #    1.001 M/sec                    (25.10%)
    30.022417056         33,523,215      LLC-stores                #    6.700 M/sec                    (33.42%)
    30.022417056           5,003.84 msec task-clock                #    1.001 CPUs utilized          
    30.022417056      2,087,205,867      cycles:u                  #    0.417 GHz                      (41.73%)
    30.022417056     11,355,166,354      cycles:k                  #    2.269 GHz                      (41.65%)
    30.022417056      1,168,133,534      instructions:u            #    0.56  insn per cycle           (49.96%)
    30.022417056      7,134,363,584      instructions:k            #    0.63  insn per cycle           (49.88%)
    35.026446380          2,249,450      LLC-load-misses           #   24.59% of all LL-cache accesses  (50.04%)
    35.026446380          6,379,845      LLC-load-misses           #   14.50% of all LL-cache accesses  (49.96%)
    35.026446380          9,146,602      LLC-loads                 #    1.828 M/sec                    (49.88%)
    35.026446380         43,991,815      LLC-loads                 #    8.792 M/sec                    (41.57%)
    35.026446380            340,996      LLC-store-misses          #   68.147 K/sec                    (24.94%)
    35.026446380          9,136,339      LLC-store-misses          #    1.826 M/sec                    (33.26%)
    35.026446380          3,902,879      LLC-stores                #  779.977 K/sec                    (25.02%)
    35.026446380         26,252,433      LLC-stores                #    5.246 M/sec                    (33.41%)
    35.026446380           5,003.84 msec task-clock                #    1.001 CPUs utilized          
    35.026446380      1,629,323,795      cycles:u                  #    0.326 GHz                      (41.80%)
    35.026446380      8,916,695,697      cycles:k                  #    1.782 GHz                      (41.80%)
    35.026446380        914,721,582      instructions:u            #    0.56  insn per cycle           (50.12%)
    35.026446380      5,615,776,651      instructions:k            #    0.63  insn per cycle           (50.11%)
    36.091159557                569      LLC-load-misses           #   48.72% of all LL-cache accesses  (50.40%)
    36.091159557             35,743      LLC-load-misses           #   27.30% of all LL-cache accesses  (50.40%)
    36.091159557              1,168      LLC-loads                 #    1.097 K/sec                    (50.41%)
    36.091159557            130,949      LLC-loads                 #  122.996 K/sec                    (41.42%)
    36.091159557                  0      LLC-store-misses          #    0.000 /sec                     (24.80%)
    36.091159557             39,528      LLC-store-misses          #   37.127 K/sec                    (33.07%)
    36.091159557                 12      LLC-stores                #   11.271 /sec                     (24.78%)
    36.091159557             51,855      LLC-stores                #   48.706 K/sec                    (33.05%)
    36.091159557           1,064.66 msec task-clock                #    0.213 CPUs utilized          
    36.091159557             11,003      cycles:u                  #    0.000 GHz                      (41.31%)
    36.091159557         26,816,784      cycles:k                  #    0.025 GHz                      (41.69%)
    36.091159557            333,411      instructions:u            #   30.30  insn per cycle           (50.32%)
    36.091159557          3,328,162      instructions:k            #    0.12  insn per cycle           (50.40%)
