# started on Sun Apr  2 09:43:02 2023

#           time             counts unit events
     5.004165947            596,801      LLC-load-misses           #   24.91% of all LL-cache accesses  (49.88%)
     5.004165947          1,626,162      LLC-load-misses           #   12.40% of all LL-cache accesses  (49.96%)
     5.004165947          2,395,541      LLC-loads                 #  478.717 K/sec                    (50.04%)
     5.004165947         13,115,045      LLC-loads                 #    2.621 M/sec                    (41.81%)
     5.004165947             49,750      LLC-store-misses          #    9.942 K/sec                    (25.11%)
     5.004165947          2,476,818      LLC-store-misses          #  494.960 K/sec                    (33.42%)
     5.004165947          1,043,995      LLC-stores                #  208.629 K/sec                    (24.94%)
     5.004165947          8,429,665      LLC-stores                #    1.685 M/sec                    (33.25%)
     5.004165947           5,004.08 msec task-clock                #    1.001 CPUs utilized          
     5.004165947        444,846,212      cycles:u                  #    0.089 GHz                      (41.56%)
     5.004165947      2,727,342,163      cycles:k                  #    0.545 GHz                      (41.56%)
     5.004165947        271,132,986      instructions:u            #    0.61  insn per cycle           (49.87%)
     5.004165947      1,747,923,416      instructions:k            #    0.64  insn per cycle           (49.87%)
    10.008166847          2,847,753      LLC-load-misses           #   25.47% of all LL-cache accesses  (49.88%)
    10.008166847          7,323,576      LLC-load-misses           #   12.74% of all LL-cache accesses  (49.88%)
    10.008166847         11,180,628      LLC-loads                 #    2.234 M/sec                    (49.88%)
    10.008166847         57,475,092      LLC-loads                 #   11.486 M/sec                    (41.57%)
    10.008166847            207,823      LLC-store-misses          #   41.533 K/sec                    (25.02%)
    10.008166847         11,502,464      LLC-store-misses          #    2.299 M/sec                    (33.41%)
    10.008166847          4,836,763      LLC-stores                #  966.608 K/sec                    (25.18%)
    10.008166847         34,405,742      LLC-stores                #    6.876 M/sec                    (33.49%)
    10.008166847           5,003.85 msec task-clock                #    1.001 CPUs utilized          
    10.008166847      2,001,878,982      cycles:u                  #    0.400 GHz                      (41.81%)
    10.008166847     11,438,605,593      cycles:k                  #    2.286 GHz                      (41.73%)
    10.008166847      1,171,413,452      instructions:u            #    0.59  insn per cycle           (50.04%)
    10.008166847      7,356,773,946      instructions:k            #    0.64  insn per cycle           (49.96%)
    15.012167758          2,837,869      LLC-load-misses           #   25.50% of all LL-cache accesses  (50.12%)
    15.012167758          7,300,433      LLC-load-misses           #   12.72% of all LL-cache accesses  (50.04%)
    15.012167758         11,130,186      LLC-loads                 #    2.224 M/sec                    (49.96%)
    15.012167758         57,393,425      LLC-loads                 #   11.470 M/sec                    (41.57%)
    15.012167758            183,519      LLC-store-misses          #   36.676 K/sec                    (24.94%)
    15.012167758         11,477,109      LLC-store-misses          #    2.294 M/sec                    (33.26%)
    15.012167758          4,813,595      LLC-stores                #  961.978 K/sec                    (24.94%)
    15.012167758         34,486,940      LLC-stores                #    6.892 M/sec                    (33.33%)
    15.012167758           5,003.85 msec task-clock                #    1.001 CPUs utilized          
    15.012167758      1,999,234,056      cycles:u                  #    0.400 GHz                      (41.72%)
    15.012167758     11,446,068,026      cycles:k                  #    2.287 GHz                      (41.80%)
    15.012167758      1,172,825,902      instructions:u            #    0.59  insn per cycle           (50.12%)
    15.012167758      7,355,470,414      instructions:k            #    0.64  insn per cycle           (50.12%)
    20.016169530          2,857,852      LLC-load-misses           #   25.59% of all LL-cache accesses  (50.12%)
    20.016169530          7,426,261      LLC-load-misses           #   12.90% of all LL-cache accesses  (50.12%)
    20.016169530         11,168,152      LLC-loads                 #    2.232 M/sec                    (50.12%)
    20.016169530         57,566,048      LLC-loads                 #   11.504 M/sec                    (41.73%)
    20.016169530            192,724      LLC-store-misses          #   38.515 K/sec                    (24.94%)
    20.016169530         11,559,817      LLC-store-misses          #    2.310 M/sec                    (33.26%)
    20.016169530          4,831,623      LLC-stores                #  965.588 K/sec                    (24.94%)
    20.016169530         34,589,343      LLC-stores                #    6.913 M/sec                    (33.25%)
    20.016169530           5,003.82 msec task-clock                #    1.001 CPUs utilized          
    20.016169530      2,002,745,204      cycles:u                  #    0.400 GHz                      (41.57%)
    20.016169530     11,439,627,965      cycles:k                  #    2.286 GHz                      (41.56%)
    20.016169530      1,172,837,123      instructions:u            #    0.59  insn per cycle           (49.95%)
    20.016169530      7,363,286,750      instructions:k            #    0.64  insn per cycle           (50.03%)
    25.020166218          2,919,614      LLC-load-misses           #   25.09% of all LL-cache accesses  (49.88%)
    25.020166218          7,448,023      LLC-load-misses           #   13.04% of all LL-cache accesses  (49.96%)
    25.020166218         11,638,474      LLC-loads                 #    2.326 M/sec                    (50.04%)
    25.020166218         57,111,815      LLC-loads                 #   11.414 M/sec                    (41.81%)
    25.020166218            354,371      LLC-store-misses          #   70.820 K/sec                    (25.10%)
    25.020166218         11,641,007      LLC-store-misses          #    2.326 M/sec                    (33.42%)
    25.020166218          5,041,257      LLC-stores                #    1.007 M/sec                    (24.94%)
    25.020166218         34,080,883      LLC-stores                #    6.811 M/sec                    (33.26%)
    25.020166218           5,003.85 msec task-clock                #    1.001 CPUs utilized          
    25.020166218      2,048,798,870      cycles:u                  #    0.409 GHz                      (41.57%)
    25.020166218     11,394,663,581      cycles:k                  #    2.277 GHz                      (41.56%)
    25.020166218      1,178,703,959      instructions:u            #    0.58  insn per cycle           (49.88%)
    25.020166218      7,293,318,311      instructions:k            #    0.64  insn per cycle           (49.88%)
    30.024166761          2,957,220      LLC-load-misses           #   25.11% of all LL-cache accesses  (49.88%)
    30.024166761          7,477,925      LLC-load-misses           #   13.14% of all LL-cache accesses  (49.88%)
    30.024166761         11,777,525      LLC-loads                 #    2.354 M/sec                    (49.88%)
    30.024166761         56,921,691      LLC-loads                 #   11.376 M/sec                    (41.57%)
    30.024166761            445,448      LLC-store-misses          #   89.021 K/sec                    (25.02%)
    30.024166761         11,665,083      LLC-store-misses          #    2.331 M/sec                    (33.41%)
    30.024166761          5,123,644      LLC-stores                #    1.024 M/sec                    (25.18%)
    30.024166761         33,860,000      LLC-stores                #    6.767 M/sec                    (33.49%)
    30.024166761           5,003.84 msec task-clock                #    1.001 CPUs utilized          
    30.024166761      2,072,183,657      cycles:u                  #    0.414 GHz                      (41.81%)
    30.024166761     11,366,427,368      cycles:k                  #    2.272 GHz                      (41.73%)
    30.024166761      1,186,593,063      instructions:u            #    0.57  insn per cycle           (50.04%)
    30.024166761      7,257,234,222      instructions:k            #    0.64  insn per cycle           (49.96%)
    35.028185836          2,358,174      LLC-load-misses           #   24.96% of all LL-cache accesses  (50.12%)
    35.028185836          6,061,421      LLC-load-misses           #   13.27% of all LL-cache accesses  (50.04%)
    35.028185836          9,448,014      LLC-loads                 #    1.888 M/sec                    (49.96%)
    35.028185836         45,685,077      LLC-loads                 #    9.130 M/sec                    (41.57%)
    35.028185836            355,052      LLC-store-misses          #   70.956 K/sec                    (24.94%)
    35.028185836          9,329,684      LLC-store-misses          #    1.865 M/sec                    (33.26%)
    35.028185836          4,015,269      LLC-stores                #  802.441 K/sec                    (24.94%)
    35.028185836         26,864,722      LLC-stores                #    5.369 M/sec                    (33.33%)
    35.028185836           5,003.82 msec task-clock                #    1.001 CPUs utilized          
    35.028185836      1,636,056,645      cycles:u                  #    0.327 GHz                      (41.72%)
    35.028185836      9,011,548,096      cycles:k                  #    1.801 GHz                      (41.80%)
    35.028185836        940,495,670      instructions:u            #    0.57  insn per cycle           (50.12%)
    35.028185836      5,777,763,623      instructions:k            #    0.64  insn per cycle           (50.11%)
    36.111700783                521      LLC-load-misses           #   53.16% of all LL-cache accesses  (49.83%)
    36.111700783             36,031      LLC-load-misses           #   20.02% of all LL-cache accesses  (50.20%)
    36.111700783                980      LLC-loads                 #  904.504 /sec                     (50.57%)
    36.111700783            180,006      LLC-loads                 #  166.139 K/sec                    (42.45%)
    36.111700783                  3      LLC-store-misses          #    2.769 /sec                     (25.44%)
    36.111700783             44,363      LLC-store-misses          #   40.945 K/sec                    (33.56%)
    36.111700783                 80      LLC-stores                #   73.837 /sec                     (24.70%)
    36.111700783             58,975      LLC-stores                #   54.432 K/sec                    (32.82%)
    36.111700783           1,083.47 msec task-clock                #    0.217 CPUs utilized          
    36.111700783             42,592      cycles:u                  #    0.000 GHz                      (40.94%)
    36.111700783         29,216,801      cycles:k                  #    0.027 GHz                      (40.61%)
    36.111700783            340,604      instructions:u            #    8.00  insn per cycle           (49.09%)
    36.111700783          3,628,384      instructions:k            #    0.12  insn per cycle           (49.46%)
