# started on Sun Apr  2 08:58:02 2023

#           time             counts unit events
     5.001819529            441,653      LLC-load-misses           #   17.49% of all LL-cache accesses  (49.93%)
     5.001819529            702,691      LLC-load-misses           #    5.58% of all LL-cache accesses  (50.02%)
     5.001819529          2,525,401      LLC-loads                 #  504.905 K/sec                    (50.10%)
     5.001819529         12,591,941      LLC-loads                 #    2.518 M/sec                    (41.79%)
     5.001819529            156,405      LLC-store-misses          #   31.270 K/sec                    (25.04%)
     5.001819529            888,660      LLC-store-misses          #  177.670 K/sec                    (33.36%)
     5.001819529          1,137,445      LLC-stores                #  227.410 K/sec                    (24.95%)
     5.001819529          7,209,811      LLC-stores                #    1.441 M/sec                    (33.26%)
     5.001819529           5,001.74 msec task-clock                #    1.000 CPUs utilized          
     5.001819529        421,356,156      cycles:u                  #    0.084 GHz                      (41.58%)
     5.001819529      2,280,723,871      cycles:k                  #    0.456 GHz                      (41.58%)
     5.001819529        251,510,881      instructions:u            #    0.60  insn per cycle           (49.89%)
     5.001819529      1,499,342,271      instructions:k            #    0.66  insn per cycle           (49.89%)
    10.005810480          2,186,565      LLC-load-misses           #   17.12% of all LL-cache accesses  (49.88%)
    10.005810480          2,665,527      LLC-load-misses           #    4.44% of all LL-cache accesses  (49.88%)
    10.005810480         12,774,012      LLC-loads                 #    2.553 M/sec                    (49.88%)
    10.005810480         59,976,588      LLC-loads                 #   11.986 M/sec                    (41.65%)
    10.005810480            602,077      LLC-store-misses          #  120.323 K/sec                    (25.10%)
    10.005810480          2,750,760      LLC-store-misses          #  549.731 K/sec                    (33.49%)
    10.005810480          5,737,347      LLC-stores                #    1.147 M/sec                    (25.10%)
    10.005810480         36,363,223      LLC-stores                #    7.267 M/sec                    (33.42%)
    10.005810480           5,003.83 msec task-clock                #    1.001 CPUs utilized          
    10.005810480      2,138,384,154      cycles:u                  #    0.427 GHz                      (41.73%)
    10.005810480     11,300,372,872      cycles:k                  #    2.258 GHz                      (41.65%)
    10.005810480      1,282,699,480      instructions:u            #    0.60  insn per cycle           (49.96%)
    10.005810480      7,542,722,015      instructions:k            #    0.67  insn per cycle           (49.88%)
    15.009825392          2,148,081      LLC-load-misses           #   17.10% of all LL-cache accesses  (50.04%)
    15.009825392          2,647,161      LLC-load-misses           #    4.39% of all LL-cache accesses  (49.96%)
    15.009825392         12,563,047      LLC-loads                 #    2.511 M/sec                    (49.88%)
    15.009825392         60,290,690      LLC-loads                 #   12.049 M/sec                    (41.57%)
    15.009825392            394,993      LLC-store-misses          #   78.938 K/sec                    (24.94%)
    15.009825392          2,561,548      LLC-store-misses          #  511.916 K/sec                    (33.26%)
    15.009825392          5,445,478      LLC-stores                #    1.088 M/sec                    (25.02%)
    15.009825392         36,685,494      LLC-stores                #    7.331 M/sec                    (33.41%)
    15.009825392           5,003.85 msec task-clock                #    1.001 CPUs utilized          
    15.009825392      2,099,894,743      cycles:u                  #    0.420 GHz                      (41.80%)
    15.009825392     11,344,571,421      cycles:k                  #    2.267 GHz                      (41.80%)
    15.009825392      1,270,680,064      instructions:u            #    0.61  insn per cycle           (50.12%)
    15.009825392      7,583,178,125      instructions:k            #    0.67  insn per cycle           (50.12%)
    20.013816684          2,127,805      LLC-load-misses           #   17.18% of all LL-cache accesses  (50.12%)
    20.013816684          2,680,033      LLC-load-misses           #    4.43% of all LL-cache accesses  (50.12%)
    20.013816684         12,385,718      LLC-loads                 #    2.475 M/sec                    (50.12%)
    20.013816684         60,509,993      LLC-loads                 #   12.093 M/sec                    (41.65%)
    20.013816684            259,277      LLC-store-misses          #   51.816 K/sec                    (24.94%)
    20.013816684          2,585,281      LLC-store-misses          #  516.660 K/sec                    (33.26%)
    20.013816684          5,245,297      LLC-stores                #    1.048 M/sec                    (24.94%)
    20.013816684         36,995,443      LLC-stores                #    7.393 M/sec                    (33.25%)
    20.013816684           5,003.83 msec task-clock                #    1.001 CPUs utilized          
    20.013816684      2,061,223,303      cycles:u                  #    0.412 GHz                      (41.57%)
    20.013816684     11,382,244,332      cycles:k                  #    2.275 GHz                      (41.64%)
    20.013816684      1,261,709,164      instructions:u            #    0.61  insn per cycle           (50.03%)
    20.013816684      7,615,687,981      instructions:k            #    0.67  insn per cycle           (50.11%)
    25.017799351          2,107,660      LLC-load-misses           #   17.17% of all LL-cache accesses  (49.96%)
    25.017799351          2,662,035      LLC-load-misses           #    4.41% of all LL-cache accesses  (50.04%)
    25.017799351         12,272,916      LLC-loads                 #    2.453 M/sec                    (50.12%)
    25.017799351         60,393,922      LLC-loads                 #   12.070 M/sec                    (41.81%)
    25.017799351            168,804      LLC-store-misses          #   33.735 K/sec                    (25.02%)
    25.017799351          2,494,407      LLC-store-misses          #  498.500 K/sec                    (33.34%)
    25.017799351          5,131,970      LLC-stores                #    1.026 M/sec                    (24.94%)
    25.017799351         37,030,110      LLC-stores                #    7.400 M/sec                    (33.25%)
    25.017799351           5,003.83 msec task-clock                #    1.001 CPUs utilized          
    25.017799351      2,036,687,243      cycles:u                  #    0.407 GHz                      (41.57%)
    25.017799351     11,404,179,617      cycles:k                  #    2.279 GHz                      (41.56%)
    25.017799351      1,254,111,745      instructions:u            #    0.62  insn per cycle           (49.88%)
    25.017799351      7,646,187,336      instructions:k            #    0.67  insn per cycle           (49.88%)
    30.021818327          2,087,083      LLC-load-misses           #   17.22% of all LL-cache accesses  (49.88%)
    30.021818327          2,662,383      LLC-load-misses           #    4.42% of all LL-cache accesses  (49.88%)
    30.021818327         12,119,249      LLC-loads                 #    2.422 M/sec                    (49.88%)
    30.021818327         60,245,301      LLC-loads                 #   12.040 M/sec                    (41.65%)
    30.021818327            110,020      LLC-store-misses          #   21.987 K/sec                    (25.10%)
    30.021818327          2,475,711      LLC-store-misses          #  494.761 K/sec                    (33.49%)
    30.021818327          5,016,420      LLC-stores                #    1.003 M/sec                    (25.10%)
    30.021818327         36,969,709      LLC-stores                #    7.388 M/sec                    (33.42%)
    30.021818327           5,003.85 msec task-clock                #    1.001 CPUs utilized          
    30.021818327      2,017,570,993      cycles:u                  #    0.403 GHz                      (41.73%)
    30.021818327     11,424,920,640      cycles:k                  #    2.283 GHz                      (41.65%)
    30.021818327      1,244,422,225      instructions:u            #    0.62  insn per cycle           (49.96%)
    30.021818327      7,661,971,282      instructions:k            #    0.67  insn per cycle           (49.88%)
    35.025833810          1,690,484      LLC-load-misses           #   17.36% of all LL-cache accesses  (50.04%)
    35.025833810          2,196,363      LLC-load-misses           #    4.49% of all LL-cache accesses  (49.96%)
    35.025833810          9,740,107      LLC-loads                 #    1.947 M/sec                    (49.89%)
    35.025833810         48,955,984      LLC-loads                 #    9.784 M/sec                    (41.57%)
    35.025833810             63,304      LLC-store-misses          #   12.651 K/sec                    (24.94%)
    35.025833810          2,066,512      LLC-store-misses          #  412.986 K/sec                    (33.26%)
    35.025833810          4,017,732      LLC-stores                #  802.932 K/sec                    (25.02%)
    35.025833810         29,733,216      LLC-stores                #    5.942 M/sec                    (33.41%)
    35.025833810           5,003.83 msec task-clock                #    1.001 CPUs utilized          
    35.025833810      1,745,651,147      cycles:u                  #    0.349 GHz                      (41.80%)
    35.025833810      9,199,420,355      cycles:k                  #    1.838 GHz                      (41.80%)
    35.025833810      1,354,789,829      instructions:u            #    0.78  insn per cycle           (50.12%)
    35.025833810      6,191,264,623      instructions:k            #    0.67  insn per cycle           (50.12%)
    36.169423088             10,709      LLC-load-misses           #   20.28% of all LL-cache accesses  (49.66%)
    36.169423088             47,183      LLC-load-misses           #   21.71% of all LL-cache accesses  (50.01%)
    36.169423088             52,813      LLC-loads                 #   46.183 K/sec                    (50.36%)
    36.169423088            217,318      LLC-loads                 #  190.038 K/sec                    (41.98%)
    36.169423088              1,667      LLC-store-misses          #    1.458 K/sec                    (25.19%)
    36.169423088             46,613      LLC-store-misses          #   40.762 K/sec                    (33.58%)
    36.169423088             10,203      LLC-stores                #    8.922 K/sec                    (25.16%)
    36.169423088             87,991      LLC-stores                #   76.945 K/sec                    (33.20%)
    36.169423088           1,143.55 msec task-clock                #    0.229 CPUs utilized          
    36.169423088        191,596,178      cycles:u                  #    0.168 GHz                      (41.25%)
    36.169423088         48,382,978      cycles:k                  #    0.042 GHz                      (41.23%)
    36.169423088        448,709,930      instructions:u            #    2.34  insn per cycle           (49.62%)
    36.169423088         14,594,435      instructions:k            #    0.30  insn per cycle           (49.62%)
