# started on Sun Apr  2 09:24:52 2023

#           time             counts unit events
     5.004809713            790,096      LLC-load-misses           #   36.41% of all LL-cache accesses  (49.89%)
     5.004809713          2,682,318      LLC-load-misses           #   22.77% of all LL-cache accesses  (49.97%)
     5.004809713          2,170,126      LLC-loads                 #  433.586 K/sec                    (50.06%)
     5.004809713         11,777,722      LLC-loads                 #    2.353 M/sec                    (41.82%)
     5.004809713            152,280      LLC-store-misses          #   30.425 K/sec                    (25.09%)
     5.004809713          3,459,626      LLC-store-misses          #  691.225 K/sec                    (33.40%)
     5.004809713            865,841      LLC-stores                #  172.993 K/sec                    (24.94%)
     5.004809713          8,580,380      LLC-stores                #    1.714 M/sec                    (33.25%)
     5.004809713           5,005.07 msec task-clock                #    1.001 CPUs utilized          
     5.004809713        419,479,890      cycles:u                  #    0.084 GHz                      (41.56%)
     5.004809713      2,540,942,590      cycles:k                  #    0.508 GHz                      (41.55%)
     5.004809713        227,239,447      instructions:u            #    0.54  insn per cycle           (49.86%)
     5.004809713      1,621,467,208      instructions:k            #    0.64  insn per cycle           (49.86%)
    10.009571736          4,056,245      LLC-load-misses           #   38.41% of all LL-cache accesses  (49.88%)
    10.009571736         13,347,547      LLC-load-misses           #   22.30% of all LL-cache accesses  (49.87%)
    10.009571736         10,560,458      LLC-loads                 #    2.110 M/sec                    (49.88%)
    10.009571736         59,857,765      LLC-loads                 #   11.961 M/sec                    (41.57%)
    10.009571736            710,553      LLC-store-misses          #  141.989 K/sec                    (25.03%)
    10.009571736         16,178,760      LLC-store-misses          #    3.233 M/sec                    (33.42%)
    10.009571736          4,278,448      LLC-stores                #  854.957 K/sec                    (25.18%)
    10.009571736         40,078,863      LLC-stores                #    8.009 M/sec                    (33.49%)
    10.009571736           5,004.28 msec task-clock                #    1.001 CPUs utilized          
    10.009571736      1,992,663,223      cycles:u                  #    0.398 GHz                      (41.80%)
    10.009571736     11,459,605,276      cycles:k                  #    2.290 GHz                      (41.72%)
    10.009571736      1,053,010,266      instructions:u            #    0.53  insn per cycle           (50.03%)
    10.009571736      7,609,624,877      instructions:k            #    0.66  insn per cycle           (49.96%)
    15.013562326          4,078,862      LLC-load-misses           #   38.58% of all LL-cache accesses  (50.12%)
    15.013562326         13,555,111      LLC-load-misses           #   22.36% of all LL-cache accesses  (50.04%)
    15.013562326         10,573,375      LLC-loads                 #    2.113 M/sec                    (49.96%)
    15.013562326         60,620,398      LLC-loads                 #   12.115 M/sec                    (41.57%)
    15.013562326            606,816      LLC-store-misses          #  121.271 K/sec                    (24.94%)
    15.013562326         16,226,123      LLC-store-misses          #    3.243 M/sec                    (33.26%)
    15.013562326          4,190,331      LLC-stores                #  837.428 K/sec                    (24.94%)
    15.013562326         40,330,929      LLC-stores                #    8.060 M/sec                    (33.33%)
    15.013562326           5,003.81 msec task-clock                #    1.001 CPUs utilized          
    15.013562326      1,943,844,874      cycles:u                  #    0.388 GHz                      (41.72%)
    15.013562326     11,496,300,662      cycles:k                  #    2.298 GHz                      (41.80%)
    15.013562326      1,046,453,127      instructions:u            #    0.54  insn per cycle           (50.12%)
    15.013562326      7,633,424,112      instructions:k            #    0.66  insn per cycle           (50.12%)
    20.017562812          3,944,778      LLC-load-misses           #   38.69% of all LL-cache accesses  (50.12%)
    20.017562812         13,196,343      LLC-load-misses           #   21.92% of all LL-cache accesses  (50.12%)
    20.017562812         10,195,548      LLC-loads                 #    2.038 M/sec                    (50.12%)
    20.017562812         60,201,294      LLC-loads                 #   12.031 M/sec                    (41.73%)
    20.017562812            555,077      LLC-store-misses          #  110.930 K/sec                    (24.94%)
    20.017562812         16,190,529      LLC-store-misses          #    3.236 M/sec                    (33.26%)
    20.017562812          4,107,863      LLC-stores                #  820.941 K/sec                    (24.94%)
    20.017562812         40,261,336      LLC-stores                #    8.046 M/sec                    (33.25%)
    20.017562812           5,003.85 msec task-clock                #    1.001 CPUs utilized          
    20.017562812      1,928,824,601      cycles:u                  #    0.385 GHz                      (41.57%)
    20.017562812     11,514,646,102      cycles:k                  #    2.301 GHz                      (41.56%)
    20.017562812      1,039,935,020      instructions:u            #    0.54  insn per cycle           (49.95%)
    20.017562812      7,658,313,926      instructions:k            #    0.67  insn per cycle           (50.03%)
    25.021561407          3,981,496      LLC-load-misses           #   39.30% of all LL-cache accesses  (49.88%)
    25.021561407         13,229,987      LLC-load-misses           #   22.17% of all LL-cache accesses  (49.96%)
    25.021561407         10,131,905      LLC-loads                 #    2.025 M/sec                    (50.04%)
    25.021561407         59,683,524      LLC-loads                 #   11.928 M/sec                    (41.81%)
    25.021561407            524,822      LLC-store-misses          #  104.884 K/sec                    (25.10%)
    25.021561407         16,163,650      LLC-store-misses          #    3.230 M/sec                    (33.42%)
    25.021561407          4,060,603      LLC-stores                #  811.497 K/sec                    (24.94%)
    25.021561407         40,245,259      LLC-stores                #    8.043 M/sec                    (33.26%)
    25.021561407           5,003.84 msec task-clock                #    1.001 CPUs utilized          
    25.021561407      1,920,707,019      cycles:u                  #    0.384 GHz                      (41.57%)
    25.021561407     11,522,475,652      cycles:k                  #    2.303 GHz                      (41.56%)
    25.021561407      1,040,180,107      instructions:u            #    0.54  insn per cycle           (49.88%)
    25.021561407      7,651,480,549      instructions:k            #    0.66  insn per cycle           (49.88%)
    30.025565829          3,985,863      LLC-load-misses           #   39.24% of all LL-cache accesses  (49.88%)
    30.025565829         13,338,330      LLC-load-misses           #   22.19% of all LL-cache accesses  (49.88%)
    30.025565829         10,158,651      LLC-loads                 #    2.030 M/sec                    (49.88%)
    30.025565829         60,111,256      LLC-loads                 #   12.013 M/sec                    (41.57%)
    30.025565829            498,983      LLC-store-misses          #   99.720 K/sec                    (25.02%)
    30.025565829         16,223,068      LLC-store-misses          #    3.242 M/sec                    (33.41%)
    30.025565829          4,040,043      LLC-stores                #  807.387 K/sec                    (25.18%)
    30.025565829         40,318,076      LLC-stores                #    8.057 M/sec                    (33.49%)
    30.025565829           5,003.85 msec task-clock                #    1.001 CPUs utilized          
    30.025565829      1,910,525,265      cycles:u                  #    0.382 GHz                      (41.81%)
    30.025565829     11,534,410,032      cycles:k                  #    2.305 GHz                      (41.73%)
    30.025565829      1,037,072,303      instructions:u            #    0.54  insn per cycle           (50.04%)
    30.025565829      7,662,179,844      instructions:k            #    0.66  insn per cycle           (49.96%)
    35.029559571          3,180,795      LLC-load-misses           #   38.63% of all LL-cache accesses  (50.12%)
    35.029559571         10,855,122      LLC-load-misses           #   21.94% of all LL-cache accesses  (50.04%)
    35.029559571          8,234,865      LLC-loads                 #    1.646 M/sec                    (49.96%)
    35.029559571         49,470,082      LLC-loads                 #    9.886 M/sec                    (41.57%)
    35.029559571            383,007      LLC-store-misses          #   76.543 K/sec                    (24.94%)
    35.029559571         13,032,892      LLC-store-misses          #    2.605 M/sec                    (33.26%)
    35.029559571          3,233,076      LLC-stores                #  646.122 K/sec                    (24.94%)
    35.029559571         32,570,965      LLC-stores                #    6.509 M/sec                    (33.33%)
    35.029559571           5,003.82 msec task-clock                #    1.001 CPUs utilized          
    35.029559571      1,530,391,005      cycles:u                  #    0.306 GHz                      (41.72%)
    35.029559571      9,332,196,929      cycles:k                  #    1.865 GHz                      (41.80%)
    35.029559571        836,156,126      instructions:u            #    0.55  insn per cycle           (50.12%)
    35.029559571      6,217,861,783      instructions:k            #    0.67  insn per cycle           (50.11%)
    36.209842385                497      LLC-load-misses           #   74.74% of all LL-cache accesses  (49.82%)
    36.209842385             40,392      LLC-load-misses           #   26.08% of all LL-cache accesses  (50.15%)
    36.209842385                665      LLC-loads                 #  563.460 /sec                     (50.50%)
    36.209842385            154,865      LLC-loads                 #  131.218 K/sec                    (42.37%)
    36.209842385                  0      LLC-store-misses          #    0.000 /sec                     (25.42%)
    36.209842385             48,253      LLC-store-misses          #   40.885 K/sec                    (33.58%)
    36.209842385                117      LLC-stores                #   99.135 /sec                     (24.77%)
    36.209842385             63,997      LLC-stores                #   54.225 K/sec                    (32.90%)
    36.209842385           1,180.21 msec task-clock                #    0.236 CPUs utilized          
    36.209842385             48,648      cycles:u                  #    0.000 GHz                      (41.03%)
    36.209842385         31,286,244      cycles:k                  #    0.027 GHz                      (40.69%)
    36.209842385            352,131      instructions:u            #    7.24  insn per cycle           (49.16%)
    36.209842385          3,537,739      instructions:k            #    0.11  insn per cycle           (49.47%)
