# started on Sun Apr  2 09:31:11 2023

#           time             counts unit events
     5.004953103            765,512      LLC-load-misses           #   29.24% of all LL-cache accesses  (49.88%)
     5.004953103          3,153,391      LLC-load-misses           #   21.96% of all LL-cache accesses  (49.96%)
     5.004953103          2,617,651      LLC-loads                 #  523.019 K/sec                    (50.05%)
     5.004953103         14,356,782      LLC-loads                 #    2.869 M/sec                    (41.82%)
     5.004953103            153,128      LLC-store-misses          #   30.596 K/sec                    (25.11%)
     5.004953103          3,441,745      LLC-store-misses          #  687.677 K/sec                    (33.42%)
     5.004953103            841,597      LLC-stores                #  168.155 K/sec                    (24.94%)
     5.004953103          8,501,356      LLC-stores                #    1.699 M/sec                    (33.25%)
     5.004953103           5,004.88 msec task-clock                #    1.001 CPUs utilized          
     5.004953103        450,312,661      cycles:u                  #    0.090 GHz                      (41.56%)
     5.004953103      2,647,660,104      cycles:k                  #    0.529 GHz                      (41.55%)
     5.004953103        240,802,009      instructions:u            #    0.53  insn per cycle           (49.86%)
     5.004953103      1,702,047,430      instructions:k            #    0.64  insn per cycle           (49.86%)
    10.008955887          4,212,102      LLC-load-misses           #   39.34% of all LL-cache accesses  (49.88%)
    10.008955887         13,382,626      LLC-load-misses           #   24.18% of all LL-cache accesses  (49.88%)
    10.008955887         10,705,788      LLC-loads                 #    2.140 M/sec                    (49.88%)
    10.008955887         55,355,057      LLC-loads                 #   11.063 M/sec                    (41.57%)
    10.008955887            676,818      LLC-store-misses          #  135.260 K/sec                    (25.02%)
    10.008955887         16,116,025      LLC-store-misses          #    3.221 M/sec                    (33.41%)
    10.008955887          3,746,744      LLC-stores                #  748.774 K/sec                    (25.18%)
    10.008955887         38,404,618      LLC-stores                #    7.675 M/sec                    (33.49%)
    10.008955887           5,003.84 msec task-clock                #    1.001 CPUs utilized          
    10.008955887      2,021,434,317      cycles:u                  #    0.404 GHz                      (41.81%)
    10.008955887     11,396,286,496      cycles:k                  #    2.278 GHz                      (41.73%)
    10.008955887      1,045,362,883      instructions:u            #    0.52  insn per cycle           (50.04%)
    10.008955887      7,357,245,961      instructions:k            #    0.65  insn per cycle           (49.96%)
    15.012952620          3,901,449      LLC-load-misses           #   37.11% of all LL-cache accesses  (50.12%)
    15.012952620         13,118,622      LLC-load-misses           #   22.55% of all LL-cache accesses  (50.04%)
    15.012952620         10,512,391      LLC-loads                 #    2.101 M/sec                    (49.96%)
    15.012952620         58,185,480      LLC-loads                 #   11.628 M/sec                    (41.57%)
    15.012952620            579,098      LLC-store-misses          #  115.731 K/sec                    (24.94%)
    15.012952620         15,996,151      LLC-store-misses          #    3.197 M/sec                    (33.26%)
    15.012952620          3,653,538      LLC-stores                #  730.147 K/sec                    (24.94%)
    15.012952620         38,804,681      LLC-stores                #    7.755 M/sec                    (33.33%)
    15.012952620           5,003.84 msec task-clock                #    1.001 CPUs utilized          
    15.012952620      1,975,901,905      cycles:u                  #    0.395 GHz                      (41.72%)
    15.012952620     11,467,501,336      cycles:k                  #    2.292 GHz                      (41.80%)
    15.012952620      1,020,182,990      instructions:u            #    0.52  insn per cycle           (50.12%)
    15.012952620      7,456,762,426      instructions:k            #    0.65  insn per cycle           (50.12%)
    20.016955053          3,846,958      LLC-load-misses           #   37.47% of all LL-cache accesses  (50.12%)
    20.016955053         13,063,990      LLC-load-misses           #   22.61% of all LL-cache accesses  (50.12%)
    20.016955053         10,266,294      LLC-loads                 #    2.052 M/sec                    (50.12%)
    20.016955053         57,782,591      LLC-loads                 #   11.548 M/sec                    (41.73%)
    20.016955053            528,972      LLC-store-misses          #  105.713 K/sec                    (24.94%)
    20.016955053         15,933,126      LLC-store-misses          #    3.184 M/sec                    (33.26%)
    20.016955053          3,530,722      LLC-stores                #  705.602 K/sec                    (24.94%)
    20.016955053         38,672,282      LLC-stores                #    7.729 M/sec                    (33.25%)
    20.016955053           5,003.84 msec task-clock                #    1.001 CPUs utilized          
    20.016955053      1,956,947,969      cycles:u                  #    0.391 GHz                      (41.57%)
    20.016955053     11,477,442,057      cycles:k                  #    2.294 GHz                      (41.56%)
    20.016955053      1,017,641,127      instructions:u            #    0.52  insn per cycle           (49.95%)
    20.016955053      7,468,929,828      instructions:k            #    0.65  insn per cycle           (50.03%)
    25.020953453          3,754,495      LLC-load-misses           #   37.76% of all LL-cache accesses  (49.88%)
    25.020953453         12,808,587      LLC-load-misses           #   22.36% of all LL-cache accesses  (49.96%)
    25.020953453          9,944,066      LLC-loads                 #    1.987 M/sec                    (50.04%)
    25.020953453         57,277,057      LLC-loads                 #   11.447 M/sec                    (41.81%)
    25.020953453            509,841      LLC-store-misses          #  101.890 K/sec                    (25.10%)
    25.020953453         15,938,700      LLC-store-misses          #    3.185 M/sec                    (33.42%)
    25.020953453          3,491,607      LLC-stores                #  697.786 K/sec                    (24.94%)
    25.020953453         38,682,901      LLC-stores                #    7.731 M/sec                    (33.26%)
    25.020953453           5,003.84 msec task-clock                #    1.001 CPUs utilized          
    25.020953453      1,954,785,786      cycles:u                  #    0.391 GHz                      (41.57%)
    25.020953453     11,491,413,390      cycles:k                  #    2.297 GHz                      (41.56%)
    25.020953453      1,016,216,622      instructions:u            #    0.52  insn per cycle           (49.88%)
    25.020953453      7,481,975,233      instructions:k            #    0.65  insn per cycle           (49.88%)
    30.024956535          3,681,339      LLC-load-misses           #   37.32% of all LL-cache accesses  (49.88%)
    30.024956535         12,726,831      LLC-load-misses           #   21.81% of all LL-cache accesses  (49.88%)
    30.024956535          9,864,019      LLC-loads                 #    1.971 M/sec                    (49.88%)
    30.024956535         58,341,605      LLC-loads                 #   11.659 M/sec                    (41.57%)
    30.024956535            488,183      LLC-store-misses          #   97.561 K/sec                    (25.02%)
    30.024956535         15,897,112      LLC-store-misses          #    3.177 M/sec                    (33.41%)
    30.024956535          3,463,182      LLC-stores                #  692.103 K/sec                    (25.18%)
    30.024956535         38,903,327      LLC-stores                #    7.775 M/sec                    (33.49%)
    30.024956535           5,003.85 msec task-clock                #    1.001 CPUs utilized          
    30.024956535      1,942,854,319      cycles:u                  #    0.388 GHz                      (41.81%)
    30.024956535     11,513,867,580      cycles:k                  #    2.301 GHz                      (41.73%)
    30.024956535      1,008,244,046      instructions:u            #    0.52  insn per cycle           (50.04%)
    30.024956535      7,519,557,110      instructions:k            #    0.65  insn per cycle           (49.96%)
    35.028977569          3,014,934      LLC-load-misses           #   36.91% of all LL-cache accesses  (50.12%)
    35.028977569         10,562,463      LLC-load-misses           #   22.47% of all LL-cache accesses  (50.04%)
    35.028977569          8,168,235      LLC-loads                 #    1.632 M/sec                    (49.96%)
    35.028977569         47,007,357      LLC-loads                 #    9.394 M/sec                    (41.57%)
    35.028977569            362,836      LLC-store-misses          #   72.512 K/sec                    (24.94%)
    35.028977569         12,685,695      LLC-store-misses          #    2.535 M/sec                    (33.26%)
    35.028977569          2,771,622      LLC-stores                #  553.901 K/sec                    (24.94%)
    35.028977569         31,222,902      LLC-stores                #    6.240 M/sec                    (33.33%)
    35.028977569           5,003.82 msec task-clock                #    1.001 CPUs utilized          
    35.028977569      1,635,349,108      cycles:u                  #    0.327 GHz                      (41.72%)
    35.028977569      9,267,148,590      cycles:k                  #    1.852 GHz                      (41.80%)
    35.028977569      1,005,683,085      instructions:u            #    0.61  insn per cycle           (50.12%)
    35.028977569      6,059,714,730      instructions:k            #    0.65  insn per cycle           (50.12%)
    36.129827548                551      LLC-load-misses           #   12.93% of all LL-cache accesses  (49.84%)
    36.129827548             38,231      LLC-load-misses           #   24.59% of all LL-cache accesses  (49.85%)
    36.129827548              4,260      LLC-loads                 #    3.870 K/sec                    (49.86%)
    36.129827548            155,448      LLC-loads                 #  141.214 K/sec                    (41.79%)
    36.129827548                  3      LLC-store-misses          #    2.725 /sec                     (25.08%)
    36.129827548             44,892      LLC-store-misses          #   40.781 K/sec                    (33.43%)
    36.129827548                 47      LLC-stores                #   42.696 /sec                     (25.08%)
    36.129827548             59,580      LLC-stores                #   54.124 K/sec                    (33.43%)
    36.129827548           1,100.80 msec task-clock                #    0.220 CPUs utilized          
    36.129827548             58,958      cycles:u                  #    0.000 GHz                      (41.79%)
    36.129827548         29,632,665      cycles:k                  #    0.027 GHz                      (41.51%)
    36.129827548            347,463      instructions:u            #    5.89  insn per cycle           (49.85%)
    36.129827548          3,352,248      instructions:k            #    0.11  insn per cycle           (49.85%)
