# started on Sun Apr  2 09:51:42 2023

#           time             counts unit events
     5.004321750            916,978      LLC-load-misses           #   38.77% of all LL-cache accesses  (49.87%)
     5.004321750          4,055,366      LLC-load-misses           #   26.99% of all LL-cache accesses  (49.96%)
     5.004321750          2,364,877      LLC-loads                 #  472.573 K/sec                    (50.04%)
     5.004321750         15,024,451      LLC-loads                 #    3.002 M/sec                    (41.81%)
     5.004321750            120,164      LLC-store-misses          #   24.012 K/sec                    (25.11%)
     5.004321750          4,052,855      LLC-store-misses          #  809.882 K/sec                    (33.42%)
     5.004321750            829,184      LLC-stores                #  165.696 K/sec                    (24.94%)
     5.004321750          9,447,795      LLC-stores                #    1.888 M/sec                    (33.25%)
     5.004321750           5,004.25 msec task-clock                #    1.001 CPUs utilized          
     5.004321750        475,685,229      cycles:u                  #    0.095 GHz                      (41.56%)
     5.004321750      2,925,659,509      cycles:k                  #    0.585 GHz                      (41.56%)
     5.004321750        277,806,416      instructions:u            #    0.58  insn per cycle           (49.87%)
     5.004321750      1,884,647,006      instructions:k            #    0.64  insn per cycle           (49.87%)
    10.008320401          4,493,592      LLC-load-misses           #   50.09% of all LL-cache accesses  (49.88%)
    10.008320401         18,810,793      LLC-load-misses           #   32.83% of all LL-cache accesses  (49.88%)
    10.008320401          8,970,781      LLC-loads                 #    1.793 M/sec                    (49.88%)
    10.008320401         57,305,348      LLC-loads                 #   11.452 M/sec                    (41.57%)
    10.008320401            468,992      LLC-store-misses          #   93.726 K/sec                    (25.02%)
    10.008320401         17,202,428      LLC-store-misses          #    3.438 M/sec                    (33.41%)
    10.008320401          3,523,154      LLC-stores                #  704.090 K/sec                    (25.18%)
    10.008320401         38,268,896      LLC-stores                #    7.648 M/sec                    (33.49%)
    10.008320401           5,003.84 msec task-clock                #    1.001 CPUs utilized          
    10.008320401      1,865,999,770      cycles:u                  #    0.373 GHz                      (41.81%)
    10.008320401     11,580,919,273      cycles:k                  #    2.314 GHz                      (41.73%)
    10.008320401        983,094,276      instructions:u            #    0.53  insn per cycle           (50.04%)
    10.008320401      7,346,443,288      instructions:k            #    0.63  insn per cycle           (49.96%)
    15.012320463          4,474,385      LLC-load-misses           #   49.65% of all LL-cache accesses  (50.12%)
    15.012320463         18,771,406      LLC-load-misses           #   32.65% of all LL-cache accesses  (50.04%)
    15.012320463          9,011,777      LLC-loads                 #    1.801 M/sec                    (49.96%)
    15.012320463         57,485,809      LLC-loads                 #   11.488 M/sec                    (41.57%)
    15.012320463            465,985      LLC-store-misses          #   93.126 K/sec                    (24.94%)
    15.012320463         17,144,338      LLC-store-misses          #    3.426 M/sec                    (33.26%)
    15.012320463          3,519,641      LLC-stores                #  703.388 K/sec                    (24.94%)
    15.012320463         38,274,723      LLC-stores                #    7.649 M/sec                    (33.33%)
    15.012320463           5,003.84 msec task-clock                #    1.001 CPUs utilized          
    15.012320463      1,860,699,116      cycles:u                  #    0.372 GHz                      (41.72%)
    15.012320463     11,585,115,178      cycles:k                  #    2.315 GHz                      (41.80%)
    15.012320463        980,880,632      instructions:u            #    0.53  insn per cycle           (50.12%)
    15.012320463      7,349,741,288      instructions:k            #    0.63  insn per cycle           (50.12%)
    20.016315538          4,469,109      LLC-load-misses           #   49.46% of all LL-cache accesses  (50.12%)
    20.016315538         18,689,261      LLC-load-misses           #   32.75% of all LL-cache accesses  (50.12%)
    20.016315538          9,036,653      LLC-loads                 #    1.806 M/sec                    (50.12%)
    20.016315538         57,068,940      LLC-loads                 #   11.405 M/sec                    (41.73%)
    20.016315538            470,414      LLC-store-misses          #   94.011 K/sec                    (24.94%)
    20.016315538         17,142,874      LLC-store-misses          #    3.426 M/sec                    (33.26%)
    20.016315538          3,516,038      LLC-stores                #  702.669 K/sec                    (24.94%)
    20.016315538         38,327,719      LLC-stores                #    7.660 M/sec                    (33.25%)
    20.016315538           5,003.83 msec task-clock                #    1.001 CPUs utilized          
    20.016315538      1,862,421,119      cycles:u                  #    0.372 GHz                      (41.57%)
    20.016315538     11,583,644,141      cycles:k                  #    2.315 GHz                      (41.56%)
    20.016315538        981,453,054      instructions:u            #    0.53  insn per cycle           (49.95%)
    20.016315538      7,346,202,597      instructions:k            #    0.63  insn per cycle           (50.03%)
    25.020322186          4,476,954      LLC-load-misses           #   49.89% of all LL-cache accesses  (49.88%)
    25.020322186         18,636,083      LLC-load-misses           #   32.46% of all LL-cache accesses  (49.96%)
    25.020322186          8,974,089      LLC-loads                 #    1.793 M/sec                    (50.04%)
    25.020322186         57,415,047      LLC-loads                 #   11.474 M/sec                    (41.81%)
    25.020322186            464,905      LLC-store-misses          #   92.910 K/sec                    (25.10%)
    25.020322186         17,121,675      LLC-store-misses          #    3.422 M/sec                    (33.42%)
    25.020322186          3,524,525      LLC-stores                #  704.364 K/sec                    (24.94%)
    25.020322186         38,127,575      LLC-stores                #    7.620 M/sec                    (33.26%)
    25.020322186           5,003.84 msec task-clock                #    1.001 CPUs utilized          
    25.020322186      1,863,730,027      cycles:u                  #    0.372 GHz                      (41.57%)
    25.020322186     11,578,516,067      cycles:k                  #    2.314 GHz                      (41.56%)
    25.020322186        981,368,103      instructions:u            #    0.53  insn per cycle           (49.88%)
    25.020322186      7,342,829,513      instructions:k            #    0.63  insn per cycle           (49.88%)
    30.024323922          4,475,304      LLC-load-misses           #   49.70% of all LL-cache accesses  (49.88%)
    30.024323922         18,652,344      LLC-load-misses           #   32.78% of all LL-cache accesses  (49.88%)
    30.024323922          9,004,725      LLC-loads                 #    1.800 M/sec                    (49.88%)
    30.024323922         56,898,206      LLC-loads                 #   11.371 M/sec                    (41.57%)
    30.024323922            470,758      LLC-store-misses          #   94.079 K/sec                    (25.02%)
    30.024323922         17,141,847      LLC-store-misses          #    3.426 M/sec                    (33.41%)
    30.024323922          3,504,764      LLC-stores                #  700.413 K/sec                    (25.18%)
    30.024323922         38,080,072      LLC-stores                #    7.610 M/sec                    (33.49%)
    30.024323922           5,003.85 msec task-clock                #    1.001 CPUs utilized          
    30.024323922      1,857,137,699      cycles:u                  #    0.371 GHz                      (41.81%)
    30.024323922     11,580,346,697      cycles:k                  #    2.314 GHz                      (41.73%)
    30.024323922        978,482,424      instructions:u            #    0.53  insn per cycle           (50.04%)
    30.024323922      7,338,061,040      instructions:k            #    0.63  insn per cycle           (49.96%)
    35.028343614          3,607,107      LLC-load-misses           #   49.33% of all LL-cache accesses  (50.12%)
    35.028343614         15,037,046      LLC-load-misses           #   32.74% of all LL-cache accesses  (50.04%)
    35.028343614          7,312,277      LLC-loads                 #    1.461 M/sec                    (49.96%)
    35.028343614         45,927,853      LLC-loads                 #    9.179 M/sec                    (41.57%)
    35.028343614            422,221      LLC-store-misses          #   84.380 K/sec                    (24.94%)
    35.028343614         13,507,769      LLC-store-misses          #    2.699 M/sec                    (33.26%)
    35.028343614          2,851,838      LLC-stores                #  569.932 K/sec                    (24.94%)
    35.028343614         30,205,984      LLC-stores                #    6.037 M/sec                    (33.33%)
    35.028343614           5,003.82 msec task-clock                #    1.001 CPUs utilized          
    35.028343614      1,511,870,735      cycles:u                  #    0.302 GHz                      (41.72%)
    35.028343614      9,262,944,826      cycles:k                  #    1.851 GHz                      (41.80%)
    35.028343614        788,794,701      instructions:u            #    0.52  insn per cycle           (50.12%)
    35.028343614      5,859,736,934      instructions:k            #    0.63  insn per cycle           (50.12%)
    36.096611251                696      LLC-load-misses           #    1.87% of all LL-cache accesses  (50.54%)
    36.096611251             39,680      LLC-load-misses           #   27.09% of all LL-cache accesses  (50.57%)
    36.096611251             37,195      LLC-loads                 #   34.820 K/sec                    (50.58%)
    36.096611251            146,494      LLC-loads                 #  137.138 K/sec                    (41.98%)
    36.096611251                  0      LLC-store-misses          #    0.000 /sec                     (24.72%)
    36.096611251             43,078      LLC-store-misses          #   40.327 K/sec                    (32.95%)
    36.096611251                 16      LLC-stores                #   14.978 /sec                     (24.71%)
    36.096611251             57,257      LLC-stores                #   53.600 K/sec                    (32.95%)
    36.096611251           1,068.22 msec task-clock                #    0.214 CPUs utilized          
    36.096611251            968,586      cycles:u                  #    0.001 GHz                      (41.18%)
    36.096611251         39,845,540      cycles:k                  #    0.037 GHz                      (41.18%)
    36.096611251         11,347,640      instructions:u            #   11.72  insn per cycle           (49.78%)
    36.096611251         10,455,583      instructions:k            #    0.26  insn per cycle           (50.16%)
