# started on Sun Apr  2 09:55:40 2023

#           time             counts unit events
     5.003176786            633,923      LLC-load-misses           #   26.18% of all LL-cache accesses  (49.95%)
     5.003176786          1,668,486      LLC-load-misses           #   12.56% of all LL-cache accesses  (50.03%)
     5.003176786          2,421,282      LLC-loads                 #  483.957 K/sec                    (50.11%)
     5.003176786         13,283,512      LLC-loads                 #    2.655 M/sec                    (41.80%)
     5.003176786             57,770      LLC-store-misses          #   11.547 K/sec                    (25.03%)
     5.003176786          2,572,645      LLC-store-misses          #  514.211 K/sec                    (33.34%)
     5.003176786            875,714      LLC-stores                #  175.035 K/sec                    (24.94%)
     5.003176786          8,618,002      LLC-stores                #    1.723 M/sec                    (33.26%)
     5.003176786           5,003.09 msec task-clock                #    1.001 CPUs utilized          
     5.003176786        441,221,733      cycles:u                  #    0.088 GHz                      (41.57%)
     5.003176786      2,660,958,950      cycles:k                  #    0.532 GHz                      (41.57%)
     5.003176786        260,988,046      instructions:u            #    0.59  insn per cycle           (49.88%)
     5.003176786      1,710,957,716      instructions:k            #    0.64  insn per cycle           (49.88%)
    10.007193958          3,022,516      LLC-load-misses           #   27.62% of all LL-cache accesses  (49.88%)
    10.007193958          7,733,417      LLC-load-misses           #   13.69% of all LL-cache accesses  (49.88%)
    10.007193958         10,945,195      LLC-loads                 #    2.187 M/sec                    (49.88%)
    10.007193958         56,477,742      LLC-loads                 #   11.287 M/sec                    (41.65%)
    10.007193958            242,715      LLC-store-misses          #   48.505 K/sec                    (25.10%)
    10.007193958         11,402,243      LLC-store-misses          #    2.279 M/sec                    (33.49%)
    10.007193958          4,075,216      LLC-stores                #  814.413 K/sec                    (25.10%)
    10.007193958         34,193,387      LLC-stores                #    6.833 M/sec                    (33.42%)
    10.007193958           5,003.87 msec task-clock                #    1.001 CPUs utilized          
    10.007193958      2,003,544,556      cycles:u                  #    0.400 GHz                      (41.73%)
    10.007193958     11,438,294,564      cycles:k                  #    2.286 GHz                      (41.65%)
    10.007193958      1,168,616,253      instructions:u            #    0.58  insn per cycle           (49.96%)
    10.007193958      7,324,140,306      instructions:k            #    0.64  insn per cycle           (49.88%)
    15.011179006          3,012,287      LLC-load-misses           #   27.71% of all LL-cache accesses  (50.04%)
    15.011179006          7,745,267      LLC-load-misses           #   13.68% of all LL-cache accesses  (49.96%)
    15.011179006         10,871,037      LLC-loads                 #    2.173 M/sec                    (49.88%)
    15.011179006         56,602,599      LLC-loads                 #   11.312 M/sec                    (41.57%)
    15.011179006            223,356      LLC-store-misses          #   44.637 K/sec                    (24.94%)
    15.011179006         11,328,594      LLC-store-misses          #    2.264 M/sec                    (33.26%)
    15.011179006          4,022,008      LLC-stores                #  803.787 K/sec                    (25.02%)
    15.011179006         34,299,391      LLC-stores                #    6.855 M/sec                    (33.41%)
    15.011179006           5,003.82 msec task-clock                #    1.001 CPUs utilized          
    15.011179006      2,000,556,377      cycles:u                  #    0.400 GHz                      (41.80%)
    15.011179006     11,441,681,298      cycles:k                  #    2.287 GHz                      (41.81%)
    15.011179006      1,168,400,746      instructions:u            #    0.58  insn per cycle           (50.12%)
    15.011179006      7,343,396,572      instructions:k            #    0.64  insn per cycle           (50.12%)
    20.015177568          3,020,034      LLC-load-misses           #   27.73% of all LL-cache accesses  (50.12%)
    20.015177568          7,795,606      LLC-load-misses           #   13.78% of all LL-cache accesses  (50.12%)
    20.015177568         10,891,501      LLC-loads                 #    2.177 M/sec                    (50.12%)
    20.015177568         56,566,894      LLC-loads                 #   11.305 M/sec                    (41.65%)
    20.015177568            228,258      LLC-store-misses          #   45.617 K/sec                    (24.94%)
    20.015177568         11,371,985      LLC-store-misses          #    2.273 M/sec                    (33.26%)
    20.015177568          4,090,890      LLC-stores                #  817.551 K/sec                    (24.94%)
    20.015177568         34,186,375      LLC-stores                #    6.832 M/sec                    (33.25%)
    20.015177568           5,003.84 msec task-clock                #    1.001 CPUs utilized          
    20.015177568      2,001,720,555      cycles:u                  #    0.400 GHz                      (41.57%)
    20.015177568     11,441,991,415      cycles:k                  #    2.287 GHz                      (41.64%)
    20.015177568      1,167,386,365      instructions:u            #    0.58  insn per cycle           (50.03%)
    20.015177568      7,336,429,068      instructions:k            #    0.64  insn per cycle           (50.11%)
    25.019173819          3,079,822      LLC-load-misses           #   27.14% of all LL-cache accesses  (49.96%)
    25.019173819          7,833,890      LLC-load-misses           #   13.93% of all LL-cache accesses  (50.04%)
    25.019173819         11,348,266      LLC-loads                 #    2.268 M/sec                    (50.12%)
    25.019173819         56,256,955      LLC-loads                 #   11.243 M/sec                    (41.81%)
    25.019173819            392,595      LLC-store-misses          #   78.459 K/sec                    (25.02%)
    25.019173819         11,417,191      LLC-store-misses          #    2.282 M/sec                    (33.34%)
    25.019173819          4,334,354      LLC-stores                #  866.204 K/sec                    (24.94%)
    25.019173819         34,007,077      LLC-stores                #    6.796 M/sec                    (33.25%)
    25.019173819           5,003.85 msec task-clock                #    1.001 CPUs utilized          
    25.019173819      2,051,051,353      cycles:u                  #    0.410 GHz                      (41.57%)
    25.019173819     11,388,826,737      cycles:k                  #    2.276 GHz                      (41.56%)
    25.019173819      1,176,811,702      instructions:u            #    0.57  insn per cycle           (49.88%)
    25.019173819      7,280,262,600      instructions:k            #    0.64  insn per cycle           (49.88%)
    30.023181523          3,116,258      LLC-load-misses           #   26.90% of all LL-cache accesses  (49.88%)
    30.023181523          7,893,648      LLC-load-misses           #   13.98% of all LL-cache accesses  (49.88%)
    30.023181523         11,582,888      LLC-loads                 #    2.315 M/sec                    (49.88%)
    30.023181523         56,460,179      LLC-loads                 #   11.283 M/sec                    (41.65%)
    30.023181523            501,641      LLC-store-misses          #  100.251 K/sec                    (25.10%)
    30.023181523         11,440,936      LLC-store-misses          #    2.286 M/sec                    (33.49%)
    30.023181523          4,459,347      LLC-stores                #  891.183 K/sec                    (25.10%)
    30.023181523         33,924,751      LLC-stores                #    6.780 M/sec                    (33.42%)
    30.023181523           5,003.85 msec task-clock                #    1.001 CPUs utilized          
    30.023181523      2,081,756,778      cycles:u                  #    0.416 GHz                      (41.73%)
    30.023181523     11,363,762,869      cycles:k                  #    2.271 GHz                      (41.65%)
    30.023181523      1,178,623,026      instructions:u            #    0.57  insn per cycle           (49.96%)
    30.023181523      7,243,053,613      instructions:k            #    0.64  insn per cycle           (49.88%)
    35.027209335          2,447,906      LLC-load-misses           #   27.03% of all LL-cache accesses  (50.04%)
    35.027209335          6,184,622      LLC-load-misses           #   13.90% of all LL-cache accesses  (49.96%)
    35.027209335          9,055,337      LLC-loads                 #    1.810 M/sec                    (49.88%)
    35.027209335         44,486,329      LLC-loads                 #    8.890 M/sec                    (41.57%)
    35.027209335            390,559      LLC-store-misses          #   78.052 K/sec                    (24.94%)
    35.027209335          8,902,322      LLC-store-misses          #    1.779 M/sec                    (33.26%)
    35.027209335          3,466,981      LLC-stores                #  692.866 K/sec                    (25.02%)
    35.027209335         26,429,248      LLC-stores                #    5.282 M/sec                    (33.41%)
    35.027209335           5,003.83 msec task-clock                #    1.001 CPUs utilized          
    35.027209335      1,631,395,216      cycles:u                  #    0.326 GHz                      (41.80%)
    35.027209335      8,957,312,109      cycles:k                  #    1.790 GHz                      (41.80%)
    35.027209335        926,369,169      instructions:u            #    0.57  insn per cycle           (50.12%)
    35.027209335      5,697,805,172      instructions:k            #    0.64  insn per cycle           (50.12%)
    36.054148046              1,511      LLC-load-misses           #   32.13% of all LL-cache accesses  (50.62%)
    36.054148046             35,351      LLC-load-misses           #   24.53% of all LL-cache accesses  (50.92%)
    36.054148046              4,703      LLC-loads                 #    4.580 K/sec                    (50.92%)
    36.054148046            144,108      LLC-loads                 #  140.332 K/sec                    (41.97%)
    36.054148046                  0      LLC-store-misses          #    0.000 /sec                     (24.55%)
    36.054148046             42,263      LLC-store-misses          #   41.156 K/sec                    (32.72%)
    36.054148046                  0      LLC-stores                #    0.000 /sec                     (24.54%)
    36.054148046             54,079      LLC-stores                #   52.662 K/sec                    (32.72%)
    36.054148046           1,026.91 msec task-clock                #    0.205 CPUs utilized          
    36.054148046                  0      cycles:u                  #    0.000 GHz                      (40.90%)
    36.054148046         26,995,219      cycles:k                  #    0.026 GHz                      (41.28%)
    36.054148046            335,561      instructions:u                                                (49.84%)
    36.054148046          3,258,458      instructions:k            #    0.12  insn per cycle           (50.23%)
