# started on Sun Apr  2 09:28:53 2023

#           time             counts unit events
     5.004689813            484,931      LLC-load-misses           #   17.88% of all LL-cache accesses  (49.88%)
     5.004689813          1,075,278      LLC-load-misses           #    7.28% of all LL-cache accesses  (49.96%)
     5.004689813          2,711,765      LLC-loads                 #  541.852 K/sec                    (50.05%)
     5.004689813         14,770,833      LLC-loads                 #    2.951 M/sec                    (41.82%)
     5.004689813              9,033      LLC-store-misses          #    1.805 K/sec                    (25.11%)
     5.004689813            302,876      LLC-store-misses          #   60.519 K/sec                    (33.41%)
     5.004689813            940,683      LLC-stores                #  187.963 K/sec                    (24.94%)
     5.004689813          5,897,123      LLC-stores                #    1.178 M/sec                    (33.25%)
     5.004689813           5,004.62 msec task-clock                #    1.001 CPUs utilized          
     5.004689813        477,112,550      cycles:u                  #    0.095 GHz                      (41.56%)
     5.004689813      2,733,096,731      cycles:k                  #    0.546 GHz                      (41.55%)
     5.004689813        297,793,962      instructions:u            #    0.62  insn per cycle           (49.87%)
     5.004689813      1,853,494,952      instructions:k            #    0.68  insn per cycle           (49.87%)
    10.008665994          1,918,566      LLC-load-misses           #   16.75% of all LL-cache accesses  (49.88%)
    10.008665994          2,225,135      LLC-load-misses           #    3.67% of all LL-cache accesses  (49.88%)
    10.008665994         11,453,990      LLC-loads                 #    2.289 M/sec                    (49.88%)
    10.008665994         60,710,599      LLC-loads                 #   12.133 M/sec                    (41.57%)
    10.008665994                303      LLC-store-misses          #   60.554 /sec                     (25.02%)
    10.008665994              6,856      LLC-store-misses          #    1.370 K/sec                    (33.41%)
    10.008665994          4,235,001      LLC-stores                #  846.355 K/sec                    (25.18%)
    10.008665994         25,066,637      LLC-stores                #    5.010 M/sec                    (33.49%)
    10.008665994           5,003.81 msec task-clock                #    1.001 CPUs utilized          
    10.008665994      2,112,248,673      cycles:u                  #    0.422 GHz                      (41.81%)
    10.008665994     11,333,182,888      cycles:k                  #    2.265 GHz                      (41.73%)
    10.008665994      1,314,679,800      instructions:u            #    0.62  insn per cycle           (50.04%)
    10.008665994      7,822,939,430      instructions:k            #    0.69  insn per cycle           (49.96%)
    15.012684457          1,913,365      LLC-load-misses           #   16.75% of all LL-cache accesses  (50.12%)
    15.012684457          2,219,693      LLC-load-misses           #    3.64% of all LL-cache accesses  (50.04%)
    15.012684457         11,426,452      LLC-loads                 #    2.284 M/sec                    (49.96%)
    15.012684457         61,053,588      LLC-loads                 #   12.201 M/sec                    (41.57%)
    15.012684457                 40      LLC-store-misses          #    7.994 /sec                     (24.94%)
    15.012684457             14,376      LLC-store-misses          #    2.873 K/sec                    (33.26%)
    15.012684457          4,215,774      LLC-stores                #  842.504 K/sec                    (24.94%)
    15.012684457         25,098,069      LLC-stores                #    5.016 M/sec                    (33.33%)
    15.012684457           5,003.86 msec task-clock                #    1.001 CPUs utilized          
    15.012684457      2,111,202,071      cycles:u                  #    0.422 GHz                      (41.72%)
    15.012684457     11,329,028,003      cycles:k                  #    2.264 GHz                      (41.80%)
    15.012684457      1,315,167,945      instructions:u            #    0.62  insn per cycle           (50.12%)
    15.012684457      7,831,724,402      instructions:k            #    0.69  insn per cycle           (50.12%)
    20.016681782          1,912,664      LLC-load-misses           #   16.75% of all LL-cache accesses  (50.11%)
    20.016681782          2,216,320      LLC-load-misses           #    3.67% of all LL-cache accesses  (50.12%)
    20.016681782         11,416,949      LLC-loads                 #    2.282 M/sec                    (50.12%)
    20.016681782         60,439,109      LLC-loads                 #   12.079 M/sec                    (41.73%)
    20.016681782                 76      LLC-store-misses          #   15.188 /sec                     (24.94%)
    20.016681782              8,530      LLC-store-misses          #    1.705 K/sec                    (33.26%)
    20.016681782          4,258,729      LLC-stores                #  851.094 K/sec                    (24.94%)
    20.016681782         25,153,407      LLC-stores                #    5.027 M/sec                    (33.25%)
    20.016681782           5,003.83 msec task-clock                #    1.001 CPUs utilized          
    20.016681782      2,109,393,923      cycles:u                  #    0.422 GHz                      (41.57%)
    20.016681782     11,336,404,944      cycles:k                  #    2.266 GHz                      (41.56%)
    20.016681782      1,311,351,382      instructions:u            #    0.62  insn per cycle           (49.95%)
    20.016681782      7,835,377,937      instructions:k            #    0.69  insn per cycle           (50.03%)
    25.020666734          1,910,622      LLC-load-misses           #   16.77% of all LL-cache accesses  (49.88%)
    25.020666734          2,208,270      LLC-load-misses           #    3.65% of all LL-cache accesses  (49.96%)
    25.020666734         11,395,473      LLC-loads                 #    2.277 M/sec                    (50.04%)
    25.020666734         60,518,382      LLC-loads                 #   12.094 M/sec                    (41.81%)
    25.020666734                 83      LLC-store-misses          #   16.587 /sec                     (25.11%)
    25.020666734              8,255      LLC-store-misses          #    1.650 K/sec                    (33.42%)
    25.020666734          4,245,163      LLC-stores                #  848.383 K/sec                    (24.94%)
    25.020666734         25,115,022      LLC-stores                #    5.019 M/sec                    (33.26%)
    25.020666734           5,003.83 msec task-clock                #    1.001 CPUs utilized          
    25.020666734      2,104,454,459      cycles:u                  #    0.421 GHz                      (41.57%)
    25.020666734     11,335,854,906      cycles:k                  #    2.265 GHz                      (41.56%)
    25.020666734      1,311,112,424      instructions:u            #    0.62  insn per cycle           (49.88%)
    25.020666734      7,838,128,429      instructions:k            #    0.69  insn per cycle           (49.88%)
    30.024684890          1,905,994      LLC-load-misses           #   16.77% of all LL-cache accesses  (49.88%)
    30.024684890          2,203,960      LLC-load-misses           #    3.65% of all LL-cache accesses  (49.88%)
    30.024684890         11,367,752      LLC-loads                 #    2.272 M/sec                    (49.88%)
    30.024684890         60,390,922      LLC-loads                 #   12.069 M/sec                    (41.57%)
    30.024684890              2,254      LLC-store-misses          #  450.453 /sec                     (25.02%)
    30.024684890              3,944      LLC-store-misses          #  788.192 /sec                     (33.41%)
    30.024684890          4,262,821      LLC-stores                #  851.907 K/sec                    (25.18%)
    30.024684890         25,053,461      LLC-stores                #    5.007 M/sec                    (33.49%)
    30.024684890           5,003.86 msec task-clock                #    1.001 CPUs utilized          
    30.024684890      2,108,135,981      cycles:u                  #    0.421 GHz                      (41.81%)
    30.024684890     11,336,906,945      cycles:k                  #    2.266 GHz                      (41.73%)
    30.024684890      1,310,090,766      instructions:u            #    0.62  insn per cycle           (50.04%)
    30.024684890      7,844,103,134      instructions:k            #    0.69  insn per cycle           (49.96%)
    35.028703560          1,486,119      LLC-load-misses           #   16.17% of all LL-cache accesses  (50.12%)
    35.028703560          1,756,824      LLC-load-misses           #    3.69% of all LL-cache accesses  (50.04%)
    35.028703560          9,188,033      LLC-loads                 #    1.836 M/sec                    (49.96%)
    35.028703560         47,634,862      LLC-loads                 #    9.520 M/sec                    (41.57%)
    35.028703560             73,550      LLC-store-misses          #   14.699 K/sec                    (24.94%)
    35.028703560             77,778      LLC-store-misses          #   15.544 K/sec                    (33.26%)
    35.028703560          3,407,115      LLC-stores                #  680.901 K/sec                    (24.94%)
    35.028703560         19,596,724      LLC-stores                #    3.916 M/sec                    (33.33%)
    35.028703560           5,003.83 msec task-clock                #    1.001 CPUs utilized          
    35.028703560      1,655,415,346      cycles:u                  #    0.331 GHz                      (41.72%)
    35.028703560      8,812,841,738      cycles:k                  #    1.761 GHz                      (41.80%)
    35.028703560      1,020,657,372      instructions:u            #    0.62  insn per cycle           (50.12%)
    35.028703560      6,089,457,780      instructions:k            #    0.69  insn per cycle           (50.12%)
    36.134164102                577      LLC-load-misses           #   51.70% of all LL-cache accesses  (50.07%)
    36.134164102             38,723      LLC-load-misses           #   26.91% of all LL-cache accesses  (50.07%)
    36.134164102              1,116      LLC-loads                 #    1.010 K/sec                    (50.06%)
    36.134164102            143,896      LLC-loads                 #  130.174 K/sec                    (41.62%)
    36.134164102                  8      LLC-store-misses          #    7.237 /sec                     (24.97%)
    36.134164102             44,805      LLC-store-misses          #   40.532 K/sec                    (33.30%)
    36.134164102              1,699      LLC-stores                #    1.537 K/sec                    (24.95%)
    36.134164102             63,442      LLC-stores                #   57.392 K/sec                    (33.28%)
    36.134164102           1,105.41 msec task-clock                #    0.221 CPUs utilized          
    36.134164102            904,409      cycles:u                  #    0.001 GHz                      (41.61%)
    36.134164102         31,965,150      cycles:k                  #    0.029 GHz                      (41.60%)
    36.134164102            882,444      instructions:u            #    0.98  insn per cycle           (50.05%)
    36.134164102          5,298,086      instructions:k            #    0.17  insn per cycle           (50.05%)
