# started on Sun Apr  2 08:24:04 2023

#           time             counts unit events
     5.003651503            892,815      LLC-load-misses           #   40.52% of all LL-cache accesses  (49.95%)
     5.003651503          3,924,947      LLC-load-misses           #   33.00% of all LL-cache accesses  (50.03%)
     5.003651503          2,203,296      LLC-loads                 #  440.344 K/sec                    (50.12%)
     5.003651503         11,892,939      LLC-loads                 #    2.377 M/sec                    (41.81%)
     5.003651503            242,798      LLC-store-misses          #   48.525 K/sec                    (25.03%)
     5.003651503          3,898,976      LLC-store-misses          #  779.237 K/sec                    (33.34%)
     5.003651503          1,037,533      LLC-stores                #  207.358 K/sec                    (24.94%)
     5.003651503          8,950,347      LLC-stores                #    1.789 M/sec                    (33.26%)
     5.003651503           5,003.58 msec task-clock                #    1.001 CPUs utilized          
     5.003651503        410,111,253      cycles:u                  #    0.082 GHz                      (41.57%)
     5.003651503      2,670,231,519      cycles:k                  #    0.534 GHz                      (41.57%)
     5.003651503        215,725,910      instructions:u            #    0.53  insn per cycle           (49.88%)
     5.003651503      1,644,026,214      instructions:k            #    0.62  insn per cycle           (49.88%)
    10.007656421          5,004,463      LLC-load-misses           #   49.30% of all LL-cache accesses  (49.88%)
    10.007656421         23,157,760      LLC-load-misses           #   41.29% of all LL-cache accesses  (49.88%)
    10.007656421         10,151,346      LLC-loads                 #    2.029 M/sec                    (49.88%)
    10.007656421         56,086,972      LLC-loads                 #   11.209 M/sec                    (41.65%)
    10.007656421          1,116,658      LLC-store-misses          #  223.160 K/sec                    (25.10%)
    10.007656421         17,451,594      LLC-store-misses          #    3.488 M/sec                    (33.49%)
    10.007656421          4,819,677      LLC-stores                #  963.196 K/sec                    (25.10%)
    10.007656421         36,615,696      LLC-stores                #    7.318 M/sec                    (33.42%)
    10.007656421           5,003.84 msec task-clock                #    1.001 CPUs utilized          
    10.007656421      2,012,102,482      cycles:u                  #    0.402 GHz                      (41.73%)
    10.007656421     11,430,497,699      cycles:k                  #    2.284 GHz                      (41.65%)
    10.007656421      1,005,465,810      instructions:u            #    0.50  insn per cycle           (49.96%)
    10.007656421      7,123,382,904      instructions:k            #    0.62  insn per cycle           (49.88%)
    15.011653301          4,948,642      LLC-load-misses           #   49.32% of all LL-cache accesses  (50.04%)
    15.011653301         23,256,861      LLC-load-misses           #   41.26% of all LL-cache accesses  (49.96%)
    15.011653301         10,033,923      LLC-loads                 #    2.005 M/sec                    (49.88%)
    15.011653301         56,366,156      LLC-loads                 #   11.265 M/sec                    (41.57%)
    15.011653301            974,248      LLC-store-misses          #  194.700 K/sec                    (24.94%)
    15.011653301         17,471,066      LLC-store-misses          #    3.492 M/sec                    (33.26%)
    15.011653301          4,650,927      LLC-stores                #  929.472 K/sec                    (25.02%)
    15.011653301         36,842,068      LLC-stores                #    7.363 M/sec                    (33.41%)
    15.011653301           5,003.84 msec task-clock                #    1.001 CPUs utilized          
    15.011653301      1,979,332,885      cycles:u                  #    0.396 GHz                      (41.80%)
    15.011653301     11,458,595,264      cycles:k                  #    2.290 GHz                      (41.80%)
    15.011653301        994,280,140      instructions:u            #    0.50  insn per cycle           (50.12%)
    15.011653301      7,164,326,041      instructions:k            #    0.63  insn per cycle           (50.12%)
    20.015649046          4,949,182      LLC-load-misses           #   49.70% of all LL-cache accesses  (50.12%)
    20.015649046         23,341,052      LLC-load-misses           #   41.29% of all LL-cache accesses  (50.12%)
    20.015649046          9,957,312      LLC-loads                 #    1.990 M/sec                    (50.12%)
    20.015649046         56,527,967      LLC-loads                 #   11.297 M/sec                    (41.65%)
    20.015649046            890,433      LLC-store-misses          #  177.950 K/sec                    (24.94%)
    20.015649046         17,477,780      LLC-store-misses          #    3.493 M/sec                    (33.26%)
    20.015649046          4,524,474      LLC-stores                #  904.201 K/sec                    (24.94%)
    20.015649046         36,967,965      LLC-stores                #    7.388 M/sec                    (33.25%)
    20.015649046           5,003.83 msec task-clock                #    1.001 CPUs utilized          
    20.015649046      1,955,143,497      cycles:u                  #    0.391 GHz                      (41.57%)
    20.015649046     11,490,325,429      cycles:k                  #    2.296 GHz                      (41.64%)
    20.015649046        983,910,781      instructions:u            #    0.50  insn per cycle           (50.03%)
    20.015649046      7,180,191,900      instructions:k            #    0.62  insn per cycle           (50.11%)
    25.019654252          4,904,343      LLC-load-misses           #   49.96% of all LL-cache accesses  (49.96%)
    25.019654252         23,311,339      LLC-load-misses           #   41.34% of all LL-cache accesses  (50.04%)
    25.019654252          9,815,664      LLC-loads                 #    1.962 M/sec                    (50.12%)
    25.019654252         56,389,495      LLC-loads                 #   11.269 M/sec                    (41.81%)
    25.019654252            810,634      LLC-store-misses          #  162.002 K/sec                    (25.03%)
    25.019654252         17,532,318      LLC-store-misses          #    3.504 M/sec                    (33.34%)
    25.019654252          4,415,789      LLC-stores                #  882.478 K/sec                    (24.94%)
    25.019654252         37,047,227      LLC-stores                #    7.404 M/sec                    (33.25%)
    25.019654252           5,003.85 msec task-clock                #    1.001 CPUs utilized          
    25.019654252      1,929,634,362      cycles:u                  #    0.386 GHz                      (41.57%)
    25.019654252     11,506,352,093      cycles:k                  #    2.300 GHz                      (41.56%)
    25.019654252        979,544,323      instructions:u            #    0.51  insn per cycle           (49.88%)
    25.019654252      7,198,241,032      instructions:k            #    0.63  insn per cycle           (49.88%)
    30.023652978          4,906,271      LLC-load-misses           #   50.31% of all LL-cache accesses  (49.88%)
    30.023652978         23,259,269      LLC-load-misses           #   41.00% of all LL-cache accesses  (49.88%)
    30.023652978          9,752,760      LLC-loads                 #    1.949 M/sec                    (49.88%)
    30.023652978         56,732,982      LLC-loads                 #   11.338 M/sec                    (41.65%)
    30.023652978            751,028      LLC-store-misses          #  150.091 K/sec                    (25.10%)
    30.023652978         17,539,995      LLC-store-misses          #    3.505 M/sec                    (33.49%)
    30.023652978          4,346,250      LLC-stores                #  868.585 K/sec                    (25.10%)
    30.023652978         37,049,597      LLC-stores                #    7.404 M/sec                    (33.42%)
    30.023652978           5,003.83 msec task-clock                #    1.001 CPUs utilized          
    30.023652978      1,906,180,305      cycles:u                  #    0.381 GHz                      (41.73%)
    30.023652978     11,535,499,181      cycles:k                  #    2.305 GHz                      (41.65%)
    30.023652978        971,114,211      instructions:u            #    0.51  insn per cycle           (49.96%)
    30.023652978      7,202,537,306      instructions:k            #    0.62  insn per cycle           (49.88%)
    35.027671678          4,000,589      LLC-load-misses           #   50.74% of all LL-cache accesses  (50.04%)
    35.027671678         19,151,088      LLC-load-misses           #   41.25% of all LL-cache accesses  (49.96%)
    35.027671678          7,883,898      LLC-loads                 #    1.576 M/sec                    (49.88%)
    35.027671678         46,422,107      LLC-loads                 #    9.277 M/sec                    (41.57%)
    35.027671678            582,555      LLC-store-misses          #  116.422 K/sec                    (24.95%)
    35.027671678         14,132,352      LLC-store-misses          #    2.824 M/sec                    (33.26%)
    35.027671678          3,470,059      LLC-stores                #  693.481 K/sec                    (25.02%)
    35.027671678         29,735,599      LLC-stores                #    5.943 M/sec                    (33.41%)
    35.027671678           5,003.83 msec task-clock                #    1.001 CPUs utilized          
    35.027671678      1,545,574,119      cycles:u                  #    0.309 GHz                      (41.80%)
    35.027671678      9,393,614,638      cycles:k                  #    1.877 GHz                      (41.80%)
    35.027671678        791,018,210      instructions:u            #    0.51  insn per cycle           (50.11%)
    35.027671678      5,898,675,928      instructions:k            #    0.63  insn per cycle           (50.11%)
    36.127252339                612      LLC-load-misses           #   91.48% of all LL-cache accesses  (49.79%)
    36.127252339             38,934      LLC-load-misses           #   26.39% of all LL-cache accesses  (49.83%)
    36.127252339                669      LLC-loads                 #  608.441 /sec                     (50.19%)
    36.127252339            147,511      LLC-loads                 #  134.158 K/sec                    (41.83%)
    36.127252339                  0      LLC-store-misses          #    0.000 /sec                     (25.11%)
    36.127252339             43,854      LLC-store-misses          #   39.884 K/sec                    (33.47%)
    36.127252339                  0      LLC-stores                #    0.000 /sec                     (25.10%)
    36.127252339             58,303      LLC-stores                #   53.025 K/sec                    (33.43%)
    36.127252339           1,099.53 msec task-clock                #    0.220 CPUs utilized          
    36.127252339            131,912      cycles:u                  #    0.000 GHz                      (41.44%)
    36.127252339         29,234,695      cycles:k                  #    0.027 GHz                      (41.43%)
    36.127252339            352,137      instructions:u            #    2.67  insn per cycle           (49.80%)
    36.127252339          3,497,747      instructions:k            #    0.12  insn per cycle           (49.79%)
