sent     417692 | retrans          0 | timeout          0 | loss rate 0.0000%
sent     417513 | retrans          0 | timeout          0 | loss rate 0.0000%
sent     417091 | retrans          0 | timeout          0 | loss rate 0.0000%
sent     417621 | retrans          0 | timeout          0 | loss rate 0.0000%
sent     417211 | retrans          0 | timeout          0 | loss rate 0.0000%
sent     417325 | retrans          0 | timeout          0 | loss rate 0.0000%
sent     417582 | retrans          0 | timeout          0 | loss rate 0.0000%
