sent     306189 | retrans        582 | timeout          0 | loss rate 0.0000%
sent     308937 | retrans        535 | timeout        202 | loss rate 0.0007%
sent     309224 | retrans        571 | timeout        248 | loss rate 0.0008%
sent     308884 | retrans        613 | timeout        287 | loss rate 0.0009%
sent     309185 | retrans        631 | timeout        302 | loss rate 0.0010%
sent     308722 | retrans        676 | timeout        323 | loss rate 0.0010%
sent     308944 | retrans        718 | timeout        374 | loss rate 0.0012%
