sent     313057 | retrans        429 | timeout          0 | loss rate 0.0000%
sent     313917 | retrans        542 | timeout        200 | loss rate 0.0006%
sent     313150 | retrans        673 | timeout        257 | loss rate 0.0008%
sent     313290 | retrans        652 | timeout        284 | loss rate 0.0009%
sent     313490 | retrans        698 | timeout        317 | loss rate 0.0010%
sent     313237 | retrans        732 | timeout        331 | loss rate 0.0011%
sent     313708 | retrans        727 | timeout        375 | loss rate 0.0012%
