sent     304309 | retrans        580 | timeout          0 | loss rate 0.0000%
sent     306393 | retrans        615 | timeout        242 | loss rate 0.0008%
sent     306747 | retrans        588 | timeout        249 | loss rate 0.0008%
sent     307134 | retrans        585 | timeout        270 | loss rate 0.0009%
sent     307014 | retrans        620 | timeout        303 | loss rate 0.0010%
sent     306724 | retrans        652 | timeout        318 | loss rate 0.0010%
sent     306609 | retrans        726 | timeout        376 | loss rate 0.0012%
