sent     301273 | retrans        585 | timeout          0 | loss rate 0.0000%
sent     302192 | retrans        787 | timeout        349 | loss rate 0.0012%
sent     301996 | retrans        787 | timeout        329 | loss rate 0.0011%
sent     283616 | retrans       1069 | timeout        552 | loss rate 0.0019%
sent     300637 | retrans       1240 | timeout        692 | loss rate 0.0023%
sent     301337 | retrans        964 | timeout        411 | loss rate 0.0014%
sent     302095 | retrans        924 | timeout        468 | loss rate 0.0015%
