sent     415627 | retrans          0 | timeout          0 | loss rate 0.0000%
sent     415327 | retrans          0 | timeout          0 | loss rate 0.0000%
sent     415485 | retrans          0 | timeout          0 | loss rate 0.0000%
sent     415395 | retrans          0 | timeout          0 | loss rate 0.0000%
sent     414613 | retrans          0 | timeout          0 | loss rate 0.0000%
sent     415349 | retrans          0 | timeout          0 | loss rate 0.0000%
sent     415299 | retrans          0 | timeout          0 | loss rate 0.0000%
