sent     353653 | retrans        217 | timeout          0 | loss rate 0.0000%
sent     355256 | retrans         91 | timeout          6 | loss rate 0.0000%
sent     355373 | retrans         97 | timeout         23 | loss rate 0.0001%
sent     355563 | retrans        125 | timeout         55 | loss rate 0.0002%
sent     355334 | retrans        160 | timeout         79 | loss rate 0.0002%
sent     355559 | retrans        169 | timeout         96 | loss rate 0.0003%
sent     355469 | retrans        197 | timeout        116 | loss rate 0.0003%
