sent     317923 | retrans        383 | timeout          0 | loss rate 0.0000%
sent     319418 | retrans        363 | timeout        108 | loss rate 0.0003%
sent     319875 | retrans        344 | timeout        134 | loss rate 0.0004%
sent     319118 | retrans        423 | timeout        163 | loss rate 0.0005%
sent     320038 | retrans        382 | timeout        185 | loss rate 0.0006%
sent     319438 | retrans        452 | timeout        201 | loss rate 0.0006%
sent     319659 | retrans        466 | timeout        258 | loss rate 0.0008%
