sent     362208 | retrans        143 | timeout          0 | loss rate 0.0000%
sent     362431 | retrans        103 | timeout         16 | loss rate 0.0000%
sent     362898 | retrans         84 | timeout         12 | loss rate 0.0000%
sent     362533 | retrans        147 | timeout         57 | loss rate 0.0002%
sent     362566 | retrans        166 | timeout         71 | loss rate 0.0002%
sent     362014 | retrans        218 | timeout         94 | loss rate 0.0003%
sent     362373 | retrans        218 | timeout        123 | loss rate 0.0003%
