# started on Mon Mar 27 14:39:13 2023

#           time             counts unit events
     5.000192061          1,453,435      LLC-load-misses           #    6.38% of all LL-cache hits     (49.96%)
     5.000192061             32,782      LLC-load-misses           #    5.38% of all LL-cache hits     (50.04%)
     5.000192061         22,795,341      LLC-loads                 #    4.559 M/sec                    (50.08%)
     5.000192061            609,253      LLC-loads                 #    0.122 M/sec                    (41.76%)
     5.000192061            431,929      LLC-store-misses          #    0.086 M/sec                    (25.01%)
     5.000192061              4,794      LLC-store-misses          #    0.959 K/sec                    (33.33%)
     5.000192061          4,399,879      LLC-stores                #    0.880 M/sec                    (24.96%)
     5.000192061             87,556      LLC-stores                #    0.018 M/sec                    (33.28%)
     5.000192061           5,000.04 msec task-clock                #    1.000 CPUs utilized          
     5.000192061     13,374,112,765      cycles:u                  #    2.675 GHz                      (41.60%)
     5.000192061         64,343,112      cycles:k                  #    0.013 GHz                      (41.60%)
     5.000192061     20,087,071,257      instructions:u            #    1.50  insn per cycle           (49.92%)
     5.000192061         27,180,460      instructions:k            #    0.42  insn per cycle           (49.91%)
    10.000492131          4,796,108      LLC-load-misses           #    9.08% of all LL-cache hits     (49.92%)
    10.000492131              8,726      LLC-load-misses           #    1.99% of all LL-cache hits     (49.92%)
    10.000492131         82,837,037      LLC-loads                 #   16.567 M/sec                    (49.95%)
    10.000492131            266,129      LLC-loads                 #    0.053 M/sec                    (41.71%)
    10.000492131          1,403,280      LLC-store-misses          #    0.281 M/sec                    (25.12%)
    10.000492131              2,314      LLC-store-misses          #    0.463 K/sec                    (33.44%)
    10.000492131         15,816,248      LLC-stores                #    3.163 M/sec                    (25.01%)
    10.000492131             37,596      LLC-stores                #    0.008 M/sec                    (33.33%)
    10.000492131           5,000.12 msec task-clock                #    1.000 CPUs utilized          
    10.000492131     13,408,782,846      cycles:u                  #    2.682 GHz                      (41.65%)
    10.000492131         25,270,464      cycles:k                  #    0.005 GHz                      (41.60%)
    10.000492131     12,209,241,369      instructions:u            #    0.91  insn per cycle           (49.92%)
    10.000492131          7,938,682      instructions:k            #    0.18  insn per cycle           (49.92%)
    15.000791955          4,829,168      LLC-load-misses           #    7.68% of all LL-cache hits     (49.92%)
    15.000791955             11,366      LLC-load-misses           #    3.02% of all LL-cache hits     (49.92%)
    15.000791955         82,964,792      LLC-loads                 #   16.593 M/sec                    (49.92%)
    15.000791955            253,174      LLC-loads                 #    0.051 M/sec                    (41.60%)
    15.000791955          1,423,842      LLC-store-misses          #    0.285 M/sec                    (24.99%)
    15.000791955              4,756      LLC-store-misses          #    0.951 K/sec                    (33.39%)
    15.000791955         15,847,696      LLC-stores                #    3.169 M/sec                    (25.12%)
    15.000791955             31,706      LLC-stores                #    0.006 M/sec                    (33.44%)
    15.000791955           5,000.09 msec task-clock                #    1.000 CPUs utilized          
    15.000791955     13,408,538,007      cycles:u                  #    2.682 GHz                      (41.76%)
    15.000791955         26,268,451      cycles:k                  #    0.005 GHz                      (41.74%)
    15.000791955     12,213,894,400      instructions:u            #    0.91  insn per cycle           (50.06%)
    15.000791955          7,837,807      instructions:k            #    0.20  insn per cycle           (49.98%)
    20.001049369          4,782,686      LLC-load-misses           #    7.06% of all LL-cache hits     (50.06%)
    20.001049369             70,137      LLC-load-misses           #   11.88% of all LL-cache hits     (49.98%)
    20.001049369         82,448,743      LLC-loads                 #   16.490 M/sec                    (49.92%)
    20.001049369          1,233,020      LLC-loads                 #    0.247 M/sec                    (41.60%)
    20.001049369          1,406,820      LLC-store-misses          #    0.281 M/sec                    (24.96%)
    20.001049369              1,754      LLC-store-misses          #    0.351 K/sec                    (33.28%)
    20.001049369         15,717,057      LLC-stores                #    3.143 M/sec                    (24.98%)
    20.001049369            195,059      LLC-stores                #    0.039 M/sec                    (33.38%)
    20.001049369           5,000.00 msec task-clock                #    1.000 CPUs utilized          
    20.001049369     13,280,570,978      cycles:u                  #    2.656 GHz                      (41.76%)
    20.001049369        156,003,803      cycles:k                  #    0.031 GHz                      (41.76%)
    20.001049369     12,024,334,429      instructions:u            #    0.90  insn per cycle           (50.08%)
    20.001049369        101,948,436      instructions:k            #    1.50  insn per cycle           (50.08%)
    25.001475059          4,866,116      LLC-load-misses           #    6.87% of all LL-cache hits     (50.08%)
    25.001475059             10,073      LLC-load-misses           #    1.86% of all LL-cache hits     (50.08%)
    25.001475059         82,946,843      LLC-loads                 #   16.589 M/sec                    (50.07%)
    25.001475059            341,594      LLC-loads                 #    0.068 M/sec                    (41.60%)
    25.001475059          1,438,890      LLC-store-misses          #    0.288 M/sec                    (24.96%)
    25.001475059              2,404      LLC-store-misses          #    0.481 K/sec                    (33.28%)
    25.001475059         15,911,885      LLC-stores                #    3.182 M/sec                    (24.96%)
    25.001475059             43,035      LLC-stores                #    0.009 M/sec                    (33.28%)
    25.001475059           5,000.15 msec task-clock                #    1.000 CPUs utilized          
    25.001475059     13,405,208,197      cycles:u                  #    2.681 GHz                      (41.61%)
    25.001475059         29,828,159      cycles:k                  #    0.006 GHz                      (41.69%)
    25.001475059     12,215,622,858      instructions:u            #    0.91  insn per cycle           (50.08%)
    25.001475059          9,810,895      instructions:k            #    0.16  insn per cycle           (50.08%)
    30.001742189          4,832,626      LLC-load-misses           #    6.64% of all LL-cache hits     (50.08%)
    30.001742189              9,560      LLC-load-misses           #    1.94% of all LL-cache hits     (50.08%)
    30.001742189         82,710,497      LLC-loads                 #   16.542 M/sec                    (50.08%)
    30.001742189            255,099      LLC-loads                 #    0.051 M/sec                    (41.76%)
    30.001742189          1,427,705      LLC-store-misses          #    0.286 M/sec                    (24.96%)
    30.001742189                790      LLC-store-misses          #    0.158 K/sec                    (33.28%)
    30.001742189         15,840,887      LLC-stores                #    3.168 M/sec                    (24.96%)
    30.001742189             34,256      LLC-stores                #    0.007 M/sec                    (33.28%)
    30.001742189           4,999.97 msec task-clock                #    1.000 CPUs utilized          
    30.001742189     13,409,507,878      cycles:u                  #    2.682 GHz                      (41.60%)
    30.001742189         25,391,876      cycles:k                  #    0.005 GHz                      (41.60%)
    30.001742189     12,228,694,841      instructions:u            #    0.91  insn per cycle           (49.93%)
    30.001742189          8,420,345      instructions:k            #    0.15  insn per cycle           (50.01%)
    35.001995514          3,628,130      LLC-load-misses           #    5.11% of all LL-cache hits     (49.92%)
    35.001995514            137,572      LLC-load-misses           #   24.60% of all LL-cache hits     (50.00%)
    35.001995514         60,534,800      LLC-loads                 #   12.107 M/sec                    (50.08%)
    35.001995514            956,982      LLC-loads                 #    0.191 M/sec                    (41.76%)
    35.001995514          1,105,159      LLC-store-misses          #    0.221 M/sec                    (25.04%)
    35.001995514              3,456      LLC-store-misses          #    0.691 K/sec                    (33.36%)
    35.001995514         11,654,830      LLC-stores                #    2.331 M/sec                    (24.96%)
    35.001995514            150,376      LLC-stores                #    0.030 M/sec                    (33.28%)
    35.001995514           4,999.93 msec task-clock                #    1.000 CPUs utilized          
    35.001995514     13,323,785,808      cycles:u                  #    2.665 GHz                      (41.60%)
    35.001995514        130,845,734      cycles:k                  #    0.026 GHz                      (41.60%)
    35.001995514     14,770,265,918      instructions:u            #    1.10  insn per cycle           (49.92%)
    35.001995514         84,754,979      instructions:k            #    1.30  insn per cycle           (49.92%)
    35.879663521              8,183      LLC-load-misses           #    0.01% of all LL-cache hits     (49.22%)
    35.879663521              1,206      LLC-load-misses           #    0.25% of all LL-cache hits     (49.22%)
    35.879663521             72,728      LLC-loads                 #    0.016 M/sec                    (49.22%)
    35.879663521             11,880      LLC-loads                 #    0.003 M/sec                    (41.46%)
    35.879663521              1,242      LLC-store-misses          #    0.277 K/sec                    (25.51%)
    35.879663521              1,015      LLC-store-misses          #    0.226 K/sec                    (34.17%)
    35.879663521              3,716      LLC-stores                #    0.829 K/sec                    (25.72%)
    35.879663521              3,351      LLC-stores                #    0.747 K/sec                    (33.93%)
    35.879663521             877.60 msec task-clock                #    0.176 CPUs utilized          
    35.879663521      2,355,573,190      cycles:u                  #    0.525 GHz                      (42.13%)
    35.879663521          3,429,807      cycles:k                  #    0.001 GHz                      (41.68%)
    35.879663521      4,166,971,957      instructions:u            #    0.35  insn per cycle           (49.88%)
    35.879663521          1,507,079      instructions:k            #    0.03  insn per cycle           (49.42%)
