#type       avg     std     min     5th    10th    50th    90th    95th    99th
read       99.9   142.0    35.7    49.3    52.9    78.7   152.3   187.0   304.8
update      0.0     0.0     0.0     0.0     0.0     0.0     0.0     0.0     0.0
op_q        1.0     0.0     1.0     1.0     1.0     1.1     1.1     1.1     1.1
rx      44902.0  7340.3     1.0 33910.4 36179.3 44413.4 54545.9 58025.6 65854.4

Total QPS = 55121.2 (1653636 / 30.0s)

Misses = 0 (0.0%)
Skipped TXs = 0 (0.0%)

RX  405184834 bytes :   12.9 MB/s
TX   69825738 bytes :    2.2 MB/s
