#type       avg     std     min     5th    10th    50th    90th    95th    99th
read    114925.3 23347.7   263.9 68425.2 94621.8 117408.6 133791.4 152079.2 176219.0
update      0.0     0.0     0.0     0.0     0.0     0.0     0.0     0.0     0.0
op_q        1.0     0.0     1.0     1.0     1.0     1.1     1.1     1.1     1.1
rx      48818.5  7717.4     1.0 37557.2 39939.6 48322.4 59016.7 62220.3 70847.8

Total QPS = 59191.3 (1775739 / 30.0s)

Misses = 0 (0.0%)
Skipped TXs = 0 (0.0%)

RX  437384590 bytes :   13.9 MB/s
TX   75280788 bytes :    2.4 MB/s
