#type       avg     std     min     5th    10th    50th    90th    95th    99th
read    131206.9 18847.7   514.3 102014.3 115795.0 134175.7 147440.6 149115.9 177867.1
update      0.0     0.0     0.0     0.0     0.0     0.0     0.0     0.0     0.0
op_q        1.0     0.0     1.0     1.0     1.0     1.1     1.1     1.1     1.1
rx      50683.4  7342.0     1.0 39887.1 41622.5 50231.7 60531.9 63459.2 72352.8

Total QPS = 61294.3 (1838829 / 30.0s)

Misses = 0 (0.0%)
Skipped TXs = 0 (0.0%)

RX  453528164 bytes :   14.4 MB/s
TX   78013096 bytes :    2.5 MB/s
