#type       avg     std     min     5th    10th    50th    90th    95th    99th
read    109023.7 24785.2   149.0 55479.2 77776.8 113652.6 129671.9 141599.5 172609.5
update      0.0     0.0     0.0     0.0     0.0     0.0     0.0     0.0     0.0
op_q        1.0     0.0     1.0     1.0     1.0     1.1     1.1     1.1     1.1
rx      51705.0  7758.5     1.0 39657.9 42077.5 51298.2 61757.6 65115.7 74413.4

Total QPS = 59455.3 (1783659 / 30.0s)

Misses = 0 (0.0%)
Skipped TXs = 0 (0.0%)

RX  439235617 bytes :   14.0 MB/s
TX   75617449 bytes :    2.4 MB/s
