#type       avg     std     min     5th    10th    50th    90th    95th    99th
read    134651.2 14645.1   425.0 116788.1 124927.4 139975.3 148003.6 149007.2 166005.8
update      0.0     0.0     0.0     0.0     0.0     0.0     0.0     0.0     0.0
op_q        1.0     0.0     1.0     1.0     1.0     1.1     1.1     1.1     1.1
rx      51480.5  6984.9     1.0 40934.1 43431.7 50998.7 60632.4 63321.5 71680.0

Total QPS = 62907.7 (1887231 / 30.0s)

Misses = 0 (0.0%)
Skipped TXs = 0 (0.0%)

RX  463329229 bytes :   14.7 MB/s
TX   80073398 bytes :    2.5 MB/s
