#type       avg     std     min     5th    10th    50th    90th    95th    99th
read    134471.3 14438.8   622.3 117660.9 124947.0 139380.6 147927.5 148995.9 164471.0
update      0.0     0.0     0.0     0.0     0.0     0.0     0.0     0.0     0.0
op_q        1.0     0.0     1.0     1.0     1.0     1.1     1.1     1.1     1.1
rx      51934.3  7152.1     1.0 41485.2 43749.2 51234.0 61149.3 63884.4 75118.8

Total QPS = 62994.0 (1889821 / 30.0s)

Misses = 0 (0.0%)
Skipped TXs = 0 (0.0%)

RX  464830397 bytes :   14.8 MB/s
TX   80162263 bytes :    2.5 MB/s
