#type       avg     std     min     5th    10th    50th    90th    95th    99th
read    135299.2 10587.9   684.5 124075.7 125213.4 134315.2 146525.0 148123.0 153931.2
update      0.0     0.0     0.0     0.0     0.0     0.0     0.0     0.0     0.0
op_q        1.0     0.0     1.0     1.0     1.0     1.1     1.1     1.1     1.1
rx      53529.7  7342.3     1.0 43483.8 44847.4 52750.5 63006.5 67135.2 75027.0

Total QPS = 65022.9 (1950688 / 30.0s)

Misses = 0 (0.0%)
Skipped TXs = 0 (0.0%)

RX  478856432 bytes :   15.2 MB/s
TX   82721111 bytes :    2.6 MB/s
