#type       avg     std     min     5th    10th    50th    90th    95th    99th
read    122752.2  9145.5   911.1 112686.4 113750.7 122265.3 133461.5 134912.4 144726.3
update      0.0     0.0     0.0     0.0     0.0     0.0     0.0     0.0     0.0
op_q        1.0     0.0     1.0     1.0     1.0     1.1     1.1     1.1     1.1
rx      58569.2  7520.8     1.0 48052.8 49753.8 57774.7 68246.6 71511.1 80559.5

Total QPS = 63884.8 (1916545 / 30.0s)

Misses = 0 (0.0%)
Skipped TXs = 0 (0.0%)

RX  468655122 bytes :   14.9 MB/s
TX   81319796 bytes :    2.6 MB/s
