#type       avg     std     min     5th    10th    50th    90th    95th    99th
read    134599.2  9672.0   319.3 123990.5 124814.2 131403.9 144341.0 147479.9 158279.3
update      0.0     0.0     0.0     0.0     0.0     0.0     0.0     0.0     0.0
op_q        1.0     0.0     1.0     1.0     1.0     1.1     1.1     1.1     1.1
rx      53736.7  7048.2     1.0 43754.0 45291.8 53287.0 62832.8 66962.5 74645.5

Total QPS = 63768.9 (1913067 / 30.0s)

Misses = 0 (0.0%)
Skipped TXs = 0 (0.0%)

RX  468226355 bytes :   14.9 MB/s
TX   81136889 bytes :    2.6 MB/s
