# started on Mon Mar 27 10:23:22 2023

#           time             counts unit events
     5.000558871         16,346,349      LLC-load-misses           #    8.22% of all LL-cache hits     (49.98%)
     5.000558871            102,147      LLC-load-misses           #    4.29% of all LL-cache hits     (50.06%)
     5.000558871        198,949,115      LLC-loads                 #    6.631 M/sec                    (50.08%)
     5.000558871          2,382,587      LLC-loads                 #    0.079 M/sec                    (41.77%)
     5.000558871            669,609      LLC-store-misses          #    0.022 M/sec                    (24.98%)
     5.000558871            106,940      LLC-store-misses          #    0.004 M/sec                    (33.30%)
     5.000558871         98,377,544      LLC-stores                #    3.279 M/sec                    (24.96%)
     5.000558871          1,336,868      LLC-stores                #    0.045 M/sec                    (33.28%)
     5.000558871          30,001.19 msec task-clock                #    6.000 CPUs utilized          
     5.000558871     27,621,332,598      cycles:u                  #    0.921 GHz                      (41.60%)
     5.000558871        530,556,289      cycles:k                  #    0.018 GHz                      (41.60%)
     5.000558871     37,247,782,940      instructions:u            #    1.35  insn per cycle           (49.92%)
     5.000558871        326,999,996      instructions:k            #    0.62  insn per cycle           (49.92%)
    10.000878587         81,590,739      LLC-load-misses           #   13.83% of all LL-cache hits     (49.92%)
    10.000878587            121,453      LLC-load-misses           #    5.82% of all LL-cache hits     (49.92%)
    10.000878587        980,640,334      LLC-loads                 #   32.687 M/sec                    (49.97%)
    10.000878587          1,788,092      LLC-loads                 #    0.060 M/sec                    (41.73%)
    10.000878587          3,646,769      LLC-store-misses          #    0.122 M/sec                    (25.12%)
    10.000878587             19,013      LLC-store-misses          #    0.634 K/sec                    (33.44%)
    10.000878587        469,730,642      LLC-stores                #   15.657 M/sec                    (24.99%)
    10.000878587            316,429      LLC-stores                #    0.011 M/sec                    (33.31%)
    10.000878587          30,001.17 msec task-clock                #    6.000 CPUs utilized          
    10.000878587     80,329,854,172      cycles:u                  #    2.678 GHz                      (41.63%)
    10.000878587        233,580,192      cycles:k                  #    0.008 GHz                      (41.60%)
    10.000878587     77,778,839,066      instructions:u            #    1.44  insn per cycle           (49.92%)
    10.000878587         77,325,760      instructions:k            #    0.20  insn per cycle           (49.92%)
    15.001167480         81,232,301      LLC-load-misses           #   11.33% of all LL-cache hits     (49.92%)
    15.001167480            287,010      LLC-load-misses           #   10.94% of all LL-cache hits     (49.92%)
    15.001167480        971,063,723      LLC-loads                 #   32.368 M/sec                    (49.92%)
    15.001167480          3,700,055      LLC-loads                 #    0.123 M/sec                    (41.60%)
    15.001167480          3,521,255      LLC-store-misses          #    0.117 M/sec                    (25.01%)
    15.001167480             23,633      LLC-store-misses          #    0.788 K/sec                    (33.41%)
    15.001167480        467,626,590      LLC-stores                #   15.587 M/sec                    (25.12%)
    15.001167480          1,037,475      LLC-stores                #    0.035 M/sec                    (33.44%)
    15.001167480          30,000.95 msec task-clock                #    6.000 CPUs utilized          
    15.001167480     80,035,236,364      cycles:u                  #    2.668 GHz                      (41.76%)
    15.001167480        536,954,602      cycles:k                  #    0.018 GHz                      (41.72%)
    15.001167480     77,356,669,914      instructions:u            #    1.23  insn per cycle           (50.04%)
    15.001167480        268,510,462      instructions:k            #    0.62  insn per cycle           (49.96%)
    20.001481983         81,748,557      LLC-load-misses           #   10.44% of all LL-cache hits     (50.04%)
    20.001481983            117,490      LLC-load-misses           #    4.85% of all LL-cache hits     (49.96%)
    20.001481983        981,748,289      LLC-loads                 #   32.724 M/sec                    (49.92%)
    20.001481983          1,824,416      LLC-loads                 #    0.061 M/sec                    (41.60%)
    20.001481983          3,707,398      LLC-store-misses          #    0.124 M/sec                    (24.96%)
    20.001481983             22,252      LLC-store-misses          #    0.742 K/sec                    (33.28%)
    20.001481983        468,929,450      LLC-stores                #   15.630 M/sec                    (25.00%)
    20.001481983            308,679      LLC-stores                #    0.010 M/sec                    (33.40%)
    20.001481983          30,001.17 msec task-clock                #    6.000 CPUs utilized          
    20.001481983     80,343,446,153      cycles:u                  #    2.678 GHz                      (41.76%)
    20.001481983        204,268,790      cycles:k                  #    0.007 GHz                      (41.76%)
    20.001481983     77,863,710,539      instructions:u            #    1.16  insn per cycle           (50.08%)
    20.001481983         48,477,832      instructions:k            #    0.13  insn per cycle           (50.08%)
    25.001765257         81,461,803      LLC-load-misses           #    9.92% of all LL-cache hits     (50.08%)
    25.001765257            108,372      LLC-load-misses           #    4.72% of all LL-cache hits     (50.08%)
    25.001765257        975,340,642      LLC-loads                 #   32.510 M/sec                    (50.05%)
    25.001765257          1,784,046      LLC-loads                 #    0.059 M/sec                    (41.60%)
    25.001765257          3,553,284      LLC-store-misses          #    0.118 M/sec                    (24.96%)
    25.001765257             18,105      LLC-store-misses          #    0.603 K/sec                    (33.28%)
    25.001765257        469,758,601      LLC-stores                #   15.658 M/sec                    (24.96%)
    25.001765257            309,996      LLC-stores                #    0.010 M/sec                    (33.28%)
    25.001765257          30,001.04 msec task-clock                #    6.000 CPUs utilized          
    25.001765257     80,347,121,401      cycles:u                  #    2.678 GHz                      (41.63%)
    25.001765257        207,624,626      cycles:k                  #    0.007 GHz                      (41.71%)
    25.001765257     77,722,685,887      instructions:u            #    1.11  insn per cycle           (50.08%)
    25.001765257         63,368,567      instructions:k            #    0.18  insn per cycle           (50.08%)
    30.002034207         81,655,318      LLC-load-misses           #    9.63% of all LL-cache hits     (50.08%)
    30.002034207            197,980      LLC-load-misses           #    8.72% of all LL-cache hits     (50.08%)
    30.002034207        978,689,923      LLC-loads                 #   32.622 M/sec                    (50.08%)
    30.002034207          2,143,198      LLC-loads                 #    0.071 M/sec                    (41.73%)
    30.002034207          3,652,965      LLC-store-misses          #    0.122 M/sec                    (24.96%)
    30.002034207             19,535      LLC-store-misses          #    0.651 K/sec                    (33.28%)
    30.002034207        469,079,373      LLC-stores                #   15.635 M/sec                    (24.96%)
    30.002034207            283,113      LLC-stores                #    0.009 M/sec                    (33.28%)
    30.002034207          30,000.93 msec task-clock                #    6.000 CPUs utilized          
    30.002034207     80,314,514,544      cycles:u                  #    2.677 GHz                      (41.60%)
    30.002034207        238,763,446      cycles:k                  #    0.008 GHz                      (41.60%)
    30.002034207     77,811,015,977      instructions:u            #    1.09  insn per cycle           (49.95%)
    30.002034207         93,083,265      instructions:k            #    0.29  insn per cycle           (50.03%)
    35.002335992         64,350,958      LLC-load-misses           #    7.69% of all LL-cache hits     (49.94%)
    35.002335992            282,920      LLC-load-misses           #   12.02% of all LL-cache hits     (50.02%)
    35.002335992        767,853,102      LLC-loads                 #   25.594 M/sec                    (50.08%)
    35.002335992          2,853,525      LLC-loads                 #    0.095 M/sec                    (41.76%)
    35.002335992          3,029,942      LLC-store-misses          #    0.101 M/sec                    (25.02%)
    35.002335992             86,950      LLC-store-misses          #    0.003 M/sec                    (33.34%)
    35.002335992        368,276,287      LLC-stores                #   12.275 M/sec                    (24.96%)
    35.002335992            639,177      LLC-stores                #    0.021 M/sec                    (33.28%)
    35.002335992          30,001.09 msec task-clock                #    6.000 CPUs utilized          
    35.002335992     66,125,110,602      cycles:u                  #    2.204 GHz                      (41.60%)
    35.002335992        314,473,531      cycles:k                  #    0.010 GHz                      (41.60%)
    35.002335992     66,994,769,940      instructions:u            #    0.95  insn per cycle           (49.92%)
    35.002335992        150,861,069      instructions:k            #    0.47  insn per cycle           (49.92%)
    36.169346742                595      LLC-load-misses           #    0.00% of all LL-cache hits     (49.36%)
    36.169346742              7,532      LLC-load-misses           #    0.36% of all LL-cache hits     (49.36%)
    36.169346742            155,549      LLC-loads                 #    0.006 M/sec                    (49.44%)
    36.169346742            232,773      LLC-loads                 #    0.009 M/sec                    (41.56%)
    36.169346742                 11      LLC-store-misses          #    0.000 K/sec                    (25.44%)
    36.169346742              5,836      LLC-store-misses          #    0.215 K/sec                    (34.01%)
    36.169346742             23,174      LLC-stores                #    0.854 K/sec                    (25.54%)
    36.169346742            116,434      LLC-stores                #    0.004 M/sec                    (33.77%)
    36.169346742           7,001.74 msec task-clock                #    1.400 CPUs utilized          
    36.169346742      3,226,825,721      cycles:u                  #    0.119 GHz                      (42.00%)
    36.169346742         78,191,005      cycles:k                  #    0.003 GHz                      (41.65%)
    36.169346742      6,333,152,489      instructions:u            #    0.10  insn per cycle           (49.88%)
    36.169346742         50,125,207      instructions:k            #    0.17  insn per cycle           (49.54%)
